0.02	434.96
0.12	-0.31723
0.22	-0.0036279
0.32	-0.0019487
0.42	-0.003342
0.52	-0.0022927
0.62	-0.002615
0.72	-0.0024078
0.82	-0.0019598
0.92	-0.0021118
1.02	-0.0028522
1.12	-0.0032543
1.22	-0.0026978
1.32	-0.0016078
1.42	-0.0018549
1.52	-0.0035724
1.62	-0.0031605
1.72	0.0021358
1.82	0.0099288
1.92	0.0060794
2.02	-0.010848
2.12	-0.0012679
2.22	0.033092
2.32	-0.021585
2.42	0.031252
2.52	-0.0070626
2.62	0.0093051
2.72	0.010711
2.82	0.00017502
2.92	-0.0082989
3.02	-0.011903
3.12	0.0039676
3.22	9.0267e-05
3.32	-0.021256
3.42	-0.0075554
3.52	0.0040106
3.62	0.0080621
3.72	-0.00019619
3.82	-0.015754
3.92	-0.02029
4.02	0.00026299
4.12	0.01503
4.22	0.0090743
4.32	-0.0066715
4.42	0.0022086
4.52	-0.00079197
4.62	0.0023042
4.72	0.013379
4.82	0.01265
4.92	0.0069943
5.02	-0.0023564
5.12	-0.0081785
5.22	-0.0047383
5.32	0.0076934
5.42	0.0085304
5.52	-0.0030552
5.62	-0.0040048
5.72	0.015791
5.82	0.0144
5.92	-0.049334
6.02	-0.021831
6.12	0.0073989
6.22	0.013734
6.32	0.0054066
6.42	-0.0023886
6.52	-0.0087589
6.62	-0.0093759
6.72	-0.003444
6.82	0.0050745
6.92	0.0085998
7.02	0.0073536
7.12	0.0036548
7.22	-0.001886
7.32	-0.006455
7.42	-0.0045205
7.52	0.0030097
7.62	0.0084808
7.72	0.010187
7.82	0.008273
7.92	0.0028758
8.02	-0.005063
8.12	-0.012052
8.22	-0.014351
8.32	-0.0061084
8.42	0.016626
8.52	0.036122
8.62	-0.014228
8.72	-0.033967
8.82	-0.0043842
8.92	0.014095
9.02	-0.013081
9.12	0.0038434
9.22	-0.0093039
9.32	-0.007809
9.42	0.030603
9.52	0.0029783
9.62	-0.010719
9.72	-0.015742
9.82	-0.015619
9.92	-0.007274
10.02	0.0061739
10.12	0.012887
10.22	0.011812
10.32	0.016162
10.42	0.015742
10.52	-0.020442
10.62	-0.029024
10.72	-0.0039486
10.82	0.023063
10.92	0.021452
11.02	-0.00038036
11.12	-0.010835
11.22	-0.0068883
11.32	0.015417
11.42	0.023686
11.52	-0.022683
11.62	-0.0023267
11.72	-0.015753
11.82	-0.014606
11.92	0.0013551
12.02	0.00033372
12.12	-0.0092605
12.22	-0.025634
12.32	-0.011432
12.42	0.012403
12.52	0.026132
12.62	0.024295
12.72	0.0077413
12.82	-0.0018467
12.92	0.005636
13.02	0.011912
13.12	-0.013047
13.22	-0.010838
13.32	-0.0085684
13.42	0.006487
13.52	0.035076
13.62	0.024917
13.72	-0.020935
13.82	-0.050238
13.92	-0.0099533
14.02	0.046499
14.12	0.047509
14.22	0.0014745
14.32	-0.024455
14.42	-0.022409
14.52	-0.013404
14.62	-0.014174
14.72	-0.021296
14.82	-0.0054737
14.92	0.025716
15.02	0.039984
15.12	0.016566
15.22	-0.023571
15.32	-0.036915
15.42	-0.013961
15.52	0.013642
15.62	0.015055
15.72	0.00018158
15.82	0.0077487
