%!PS-Adobe-3.0 EPSF-3.0
%%Title: approx.fig
%%Creator: fig2dev Version 3.2 Patchlevel 5e
%%CreationDate: Wed May 25 06:30:59 2016
%%BoundingBox: 0 0 416 260
%Magnification: 1.0000
%%EndComments
%%BeginProlog
/$F2psDict 200 dict def
$F2psDict begin
$F2psDict /mtrx matrix put
/col-1 {0 setgray} bind def
/col0 {0.000 0.000 0.000 srgb} bind def
/col1 {0.000 0.000 1.000 srgb} bind def
/col2 {0.000 1.000 0.000 srgb} bind def
/col3 {0.000 1.000 1.000 srgb} bind def
/col4 {1.000 0.000 0.000 srgb} bind def
/col5 {1.000 0.000 1.000 srgb} bind def
/col6 {1.000 1.000 0.000 srgb} bind def
/col7 {1.000 1.000 1.000 srgb} bind def
/col8 {0.000 0.000 0.560 srgb} bind def
/col9 {0.000 0.000 0.690 srgb} bind def
/col10 {0.000 0.000 0.820 srgb} bind def
/col11 {0.530 0.810 1.000 srgb} bind def
/col12 {0.000 0.560 0.000 srgb} bind def
/col13 {0.000 0.690 0.000 srgb} bind def
/col14 {0.000 0.820 0.000 srgb} bind def
/col15 {0.000 0.560 0.560 srgb} bind def
/col16 {0.000 0.690 0.690 srgb} bind def
/col17 {0.000 0.820 0.820 srgb} bind def
/col18 {0.560 0.000 0.000 srgb} bind def
/col19 {0.690 0.000 0.000 srgb} bind def
/col20 {0.820 0.000 0.000 srgb} bind def
/col21 {0.560 0.000 0.560 srgb} bind def
/col22 {0.690 0.000 0.690 srgb} bind def
/col23 {0.820 0.000 0.820 srgb} bind def
/col24 {0.500 0.190 0.000 srgb} bind def
/col25 {0.630 0.250 0.000 srgb} bind def
/col26 {0.750 0.380 0.000 srgb} bind def
/col27 {1.000 0.500 0.500 srgb} bind def
/col28 {1.000 0.630 0.630 srgb} bind def
/col29 {1.000 0.750 0.750 srgb} bind def
/col30 {1.000 0.880 0.880 srgb} bind def
/col31 {1.000 0.840 0.000 srgb} bind def

end

/cp {closepath} bind def
/ef {eofill} bind def
/gr {grestore} bind def
/gs {gsave} bind def
/sa {save} bind def
/rs {restore} bind def
/l {lineto} bind def
/m {moveto} bind def
/rm {rmoveto} bind def
/n {newpath} bind def
/s {stroke} bind def
/sh {show} bind def
/slc {setlinecap} bind def
/slj {setlinejoin} bind def
/slw {setlinewidth} bind def
/srgb {setrgbcolor} bind def
/rot {rotate} bind def
/sc {scale} bind def
/sd {setdash} bind def
/ff {findfont} bind def
/sf {setfont} bind def
/scf {scalefont} bind def
/sw {stringwidth} bind def
/tr {translate} bind def
/tnt {dup dup currentrgbcolor
  4 -2 roll dup 1 exch sub 3 -1 roll mul add
  4 -2 roll dup 1 exch sub 3 -1 roll mul add
  4 -2 roll dup 1 exch sub 3 -1 roll mul add srgb}
  bind def
/shd {dup dup currentrgbcolor 4 -2 roll mul 4 -2 roll mul
  4 -2 roll mul srgb} bind def
/$F2psBegin {$F2psDict begin /$F2psEnteredState save def} def
/$F2psEnd {$F2psEnteredState restore end} def

/pageheader {
save
newpath 0 260 moveto 0 0 lineto 416 0 lineto 416 260 lineto closepath clip newpath
-237.2 366.6 translate
1 -1 scale
$F2psBegin
10 setmiterlimit
0 slj 0 slc
 0.06299 0.06299 sc
} bind def
/pagefooter {
$F2psEnd
restore
} bind def
%%EndProlog
pageheader
%
% Fig objects follow
%
% 
% here starts figure with depth 50
% Polyline
0 slj
0 slc
7.500 slw
gs  clippath
4530 1900 m 4530 1695 l 4470 1695 l 4470 1900 l 4470 1900 l 4500 1750 l 4530 1900 l cp
eoclip
n 4500 5400 m
 4500 1710 l gs col0 s gr gr

% arrowhead
15.000 slw
n 4530 1900 m 4500 1750 l 4470 1900 l 4500 1870 l 4530 1900 l 
 cp gs 0.00 setgray ef gr  col0 s
% Polyline
7.500 slw
gs  clippath
10070 5430 m 10275 5430 l 10275 5370 l 10070 5370 l 10070 5370 l 10220 5400 l 10070 5430 l cp
eoclip
n 4500 5400 m
 10260 5400 l gs col0 s gr gr

% arrowhead
15.000 slw
n 10070 5430 m 10220 5400 l 10070 5370 l 10100 5400 l 10070 5430 l 
 cp gs 0.00 setgray ef gr  col0 s
% Polyline
7.500 slw
 [60] 0 sd
n 5490 2385 m
 5490 5400 l gs col0 s gr  [] 0 sd
% Polyline
n 4545 5400 m 5490 4095 l
 9855 2880 l gs col0 s gr 
% Polyline
gs  clippath
4652 4065 m 4485 4065 l 4485 4125 l 4652 4125 l 4652 4125 l 4532 4095 l 4652 4065 l cp
eoclip
n 5490 4095 m
 4500 4095 l gs col0 s gr gr

% arrowhead
15.000 slw
n 4652 4065 m 4532 4095 l 4652 4125 l 4652 4065 l  cp gs 0.00 setgray ef gr  col0 s
% Polyline
7.500 slw
gs  clippath
4652 2895 m 4485 2895 l 4485 2955 l 4652 2955 l 4652 2955 l 4532 2925 l 4652 2895 l cp
eoclip
n 9675 2925 m
 4500 2925 l gs col0 s gr gr

% arrowhead
15.000 slw
n 4652 2895 m 4532 2925 l 4652 2955 l 4652 2895 l  cp gs 0.00 setgray ef gr  col0 s
% Polyline
7.500 slw
 [60] 0 sd
n 9630 2925 m
 9630 5400 l gs col0 s gr  [] 0 sd
% Polyline
gs  clippath
5292 2640 m 5460 2640 l 5460 2580 l 5292 2580 l 5292 2580 l 5412 2610 l 5292 2640 l cp
4653 2580 m 4485 2580 l 4485 2640 l 4653 2640 l 4653 2640 l 4533 2610 l 4653 2580 l cp
eoclip
n 4500 2610 m
 5445 2610 l gs col0 s gr gr

% arrowhead
15.000 slw
n 4653 2580 m 4533 2610 l 4653 2640 l  col0 s
% arrowhead
n 5292 2640 m 5412 2610 l 5292 2580 l  col0 s
% Polyline
7.500 slw
gs  clippath
9432 2640 m 9600 2640 l 9600 2580 l 9432 2580 l 9432 2580 l 9552 2610 l 9432 2640 l cp
eoclip
n 5490 2610 m
 9585 2610 l gs col0 s gr gr

% arrowhead
15.000 slw
n 9432 2640 m 9552 2610 l 9432 2580 l  col0 s
% Polyline
2 slj
45.000 slw
n 4545 5355 m 4546 5353 l 4548 5349 l 4552 5341 l 4558 5329 l 4566 5312 l
 4577 5290 l 4590 5262 l 4606 5230 l 4624 5194 l 4644 5155 l
 4665 5112 l 4688 5068 l 4711 5024 l 4734 4978 l 4758 4934 l
 4781 4890 l 4804 4848 l 4827 4808 l 4849 4769 l 4871 4732 l
 4891 4697 l 4912 4664 l 4932 4633 l 4952 4603 l 4972 4575 l
 4991 4548 l 5011 4522 l 5031 4497 l 5051 4472 l 5071 4448 l
 5093 4425 l 5113 4403 l 5134 4382 l 5155 4360 l 5177 4339 l
 5200 4318 l 5223 4296 l 5248 4275 l 5273 4254 l 5299 4232 l
 5326 4211 l 5354 4189 l 5382 4168 l 5412 4147 l 5442 4125 l
 5472 4104 l 5504 4083 l 5535 4062 l 5568 4042 l 5600 4022 l
 5633 4002 l 5666 3982 l 5700 3963 l 5733 3944 l 5766 3926 l
 5800 3908 l 5833 3891 l 5866 3874 l 5899 3857 l 5932 3841 l
 5965 3825 l 5998 3810 l 6031 3794 l 6064 3780 l 6098 3765 l
 6126 3753 l 6155 3740 l 6184 3728 l 6214 3716 l 6244 3704 l
 6275 3691 l 6306 3679 l 6339 3667 l 6372 3654 l 6405 3642 l
 6440 3629 l 6475 3617 l 6511 3604 l 6548 3591 l 6585 3579 l
 6623 3566 l 6662 3553 l 6702 3540 l 6742 3528 l 6782 3515 l
 6823 3503 l 6865 3490 l 6906 3478 l 6948 3466 l 6991 3454 l
 7033 3442 l 7076 3430 l 7118 3418 l 7161 3407 l 7204 3396 l
 7247 3385 l 7289 3374 l 7332 3363 l 7375 3353 l 7418 3342 l
 7461 3332 l 7504 3322 l 7547 3312 l 7591 3302 l 7635 3293 l
 7674 3284 l 7713 3275 l 7753 3267 l 7794 3258 l 7835 3250 l
 7878 3241 l 7921 3232 l 7966 3223 l 8013 3214 l 8061 3205 l
 8110 3195 l 8162 3186 l 8215 3176 l 8271 3165 l 8329 3155 l
 8389 3144 l 8451 3132 l 8515 3121 l 8582 3109 l 8651 3096 l
 8722 3084 l 8795 3071 l 8869 3058 l 8945 3045 l 9021 3031 l
 9098 3018 l 9175 3005 l 9250 2991 l 9324 2979 l 9396 2966 l
 9465 2954 l 9530 2943 l 9591 2933 l 9647 2923 l 9698 2914 l
 9742 2907 l 9781 2900 l 9814 2895 l 9841 2890 l 9861 2887 l
 9877 2884 l 9888 2882 l 9895 2881 l 9898 2880 l
 9900 2880 l gs col0 s gr 
/Times-Italic ff 317.50 scf sf
4365 5715 m
gs 1 -1 sc (r) col0 sh gr
/Times-Roman ff 190.50 scf sf
4455 5805 m
gs 1 -1 sc (w) col0 sh gr
/Times-Italic ff 317.50 scf sf
5400 5715 m
gs 1 -1 sc (r) col0 sh gr
/Times-Roman ff 190.50 scf sf
5490 5805 m
gs 1 -1 sc (skin) col0 sh gr
/Times-Italic ff 317.50 scf sf
9450 5715 m
gs 1 -1 sc (r) col0 sh gr
/Times-Roman ff 190.50 scf sf
9585 5805 m
gs 1 -1 sc (obs) col0 sh gr
/Times-Italic ff 317.50 scf sf
4050 4185 m
gs 1 -1 sc (h) col0 sh gr
/Helvetica ff 190.50 scf sf
4230 4275 m
gs 1 -1 sc (2) col0 sh gr
/Times-Italic ff 317.50 scf sf
4050 5445 m
gs 1 -1 sc (h) col0 sh gr
/Helvetica ff 190.50 scf sf
4230 5490 m
gs 1 -1 sc (1) col0 sh gr
/Times-Italic ff 317.50 scf sf
4095 2970 m
gs 1 -1 sc (h) col0 sh gr
/Helvetica ff 190.50 scf sf
4275 3015 m
gs 1 -1 sc (3) col0 sh gr
/Times-Roman ff 317.50 scf sf
6570 2520 m
gs 1 -1 sc (formation) col0 sh gr
/Times-Italic ff 317.50 scf sf
10215 5670 m
gs 1 -1 sc (r) col0 sh gr
/Times-Italic ff 317.50 scf sf
3780 2025 m
gs 1 -1 sc (h\(r\)) col0 sh gr
/Times-Roman ff 317.50 scf sf
4725 2475 m
gs 1 -1 sc (skin) col0 sh gr
% here ends figure;
pagefooter
showpage
%%Trailer
%EOF
