%!PS-Adobe-2.0 EPSF-2.0
%%Title: cfr4.eps
%%Creator: gnuplot 4.6 patchlevel 4
%%CreationDate: Wed Jun 17 13:23:02 2015
%%DocumentFonts: (atend)
%%BoundingBox: 50 50 410 352
%%EndComments
%%BeginProlog
/gnudict 256 dict def
gnudict begin
%
% The following true/false flags may be edited by hand if desired.
% The unit line width and grayscale image gamma correction may also be changed.
%
/Color true def
/Blacktext false def
/Solid true def
/Dashlength 1 def
/Landscape false def
/Level1 false def
/Rounded false def
/ClipToBoundingBox false def
/SuppressPDFMark false def
/TransparentPatterns false def
/gnulinewidth 5.000 def
/userlinewidth gnulinewidth def
/Gamma 1.0 def
/BackgroundColor {-1.000 -1.000 -1.000} def
%
/vshift -80 def
/dl1 {
  10.0 Dashlength mul mul
  Rounded { currentlinewidth 0.75 mul sub dup 0 le { pop 0.01 } if } if
} def
/dl2 {
  10.0 Dashlength mul mul
  Rounded { currentlinewidth 0.75 mul add } if
} def
/hpt_ 31.5 def
/vpt_ 31.5 def
/hpt hpt_ def
/vpt vpt_ def
/doclip {
  ClipToBoundingBox {
    newpath 50 50 moveto 410 50 lineto 410 352 lineto 50 352 lineto closepath
    clip
  } if
} def
%
% Gnuplot Prolog Version 4.6 (September 2012)
%
%/SuppressPDFMark true def
%
/M {moveto} bind def
/L {lineto} bind def
/R {rmoveto} bind def
/V {rlineto} bind def
/N {newpath moveto} bind def
/Z {closepath} bind def
/C {setrgbcolor} bind def
/f {rlineto fill} bind def
/g {setgray} bind def
/Gshow {show} def   % May be redefined later in the file to support UTF-8
/vpt2 vpt 2 mul def
/hpt2 hpt 2 mul def
/Lshow {currentpoint stroke M 0 vshift R 
	Blacktext {gsave 0 setgray show grestore} {show} ifelse} def
/Rshow {currentpoint stroke M dup stringwidth pop neg vshift R
	Blacktext {gsave 0 setgray show grestore} {show} ifelse} def
/Cshow {currentpoint stroke M dup stringwidth pop -2 div vshift R 
	Blacktext {gsave 0 setgray show grestore} {show} ifelse} def
/UP {dup vpt_ mul /vpt exch def hpt_ mul /hpt exch def
  /hpt2 hpt 2 mul def /vpt2 vpt 2 mul def} def
/DL {Color {setrgbcolor Solid {pop []} if 0 setdash}
 {pop pop pop 0 setgray Solid {pop []} if 0 setdash} ifelse} def
/BL {stroke userlinewidth 2 mul setlinewidth
	Rounded {1 setlinejoin 1 setlinecap} if} def
/AL {stroke userlinewidth 2 div setlinewidth
	Rounded {1 setlinejoin 1 setlinecap} if} def
/UL {dup gnulinewidth mul /userlinewidth exch def
	dup 1 lt {pop 1} if 10 mul /udl exch def} def
/PL {stroke userlinewidth setlinewidth
	Rounded {1 setlinejoin 1 setlinecap} if} def
3.8 setmiterlimit
% Default Line colors
/LCw {1 1 1} def
/LCb {0 0 0} def
/LCa {0 0 0} def
/LC0 {1 0 0} def
/LC1 {0 1 0} def
/LC2 {0 0 1} def
/LC3 {1 0 1} def
/LC4 {0 1 1} def
/LC5 {1 1 0} def
/LC6 {0 0 0} def
/LC7 {1 0.3 0} def
/LC8 {0.5 0.5 0.5} def
% Default Line Types
/LTw {PL [] 1 setgray} def
/LTb {BL [] LCb DL} def
/LTa {AL [1 udl mul 2 udl mul] 0 setdash LCa setrgbcolor} def
/LT0 {PL [] LC0 DL} def
/LT1 {PL [4 dl1 2 dl2] LC1 DL} def
/LT2 {PL [2 dl1 3 dl2] LC2 DL} def
/LT3 {PL [1 dl1 1.5 dl2] LC3 DL} def
/LT4 {PL [6 dl1 2 dl2 1 dl1 2 dl2] LC4 DL} def
/LT5 {PL [3 dl1 3 dl2 1 dl1 3 dl2] LC5 DL} def
/LT6 {PL [2 dl1 2 dl2 2 dl1 6 dl2] LC6 DL} def
/LT7 {PL [1 dl1 2 dl2 6 dl1 2 dl2 1 dl1 2 dl2] LC7 DL} def
/LT8 {PL [2 dl1 2 dl2 2 dl1 2 dl2 2 dl1 2 dl2 2 dl1 4 dl2] LC8 DL} def
/Pnt {stroke [] 0 setdash gsave 1 setlinecap M 0 0 V stroke grestore} def
/Dia {stroke [] 0 setdash 2 copy vpt add M
  hpt neg vpt neg V hpt vpt neg V
  hpt vpt V hpt neg vpt V closepath stroke
  Pnt} def
/Pls {stroke [] 0 setdash vpt sub M 0 vpt2 V
  currentpoint stroke M
  hpt neg vpt neg R hpt2 0 V stroke
 } def
/Box {stroke [] 0 setdash 2 copy exch hpt sub exch vpt add M
  0 vpt2 neg V hpt2 0 V 0 vpt2 V
  hpt2 neg 0 V closepath stroke
  Pnt} def
/Crs {stroke [] 0 setdash exch hpt sub exch vpt add M
  hpt2 vpt2 neg V currentpoint stroke M
  hpt2 neg 0 R hpt2 vpt2 V stroke} def
/TriU {stroke [] 0 setdash 2 copy vpt 1.12 mul add M
  hpt neg vpt -1.62 mul V
  hpt 2 mul 0 V
  hpt neg vpt 1.62 mul V closepath stroke
  Pnt} def
/Star {2 copy Pls Crs} def
/BoxF {stroke [] 0 setdash exch hpt sub exch vpt add M
  0 vpt2 neg V hpt2 0 V 0 vpt2 V
  hpt2 neg 0 V closepath fill} def
/TriUF {stroke [] 0 setdash vpt 1.12 mul add M
  hpt neg vpt -1.62 mul V
  hpt 2 mul 0 V
  hpt neg vpt 1.62 mul V closepath fill} def
/TriD {stroke [] 0 setdash 2 copy vpt 1.12 mul sub M
  hpt neg vpt 1.62 mul V
  hpt 2 mul 0 V
  hpt neg vpt -1.62 mul V closepath stroke
  Pnt} def
/TriDF {stroke [] 0 setdash vpt 1.12 mul sub M
  hpt neg vpt 1.62 mul V
  hpt 2 mul 0 V
  hpt neg vpt -1.62 mul V closepath fill} def
/DiaF {stroke [] 0 setdash vpt add M
  hpt neg vpt neg V hpt vpt neg V
  hpt vpt V hpt neg vpt V closepath fill} def
/Pent {stroke [] 0 setdash 2 copy gsave
  translate 0 hpt M 4 {72 rotate 0 hpt L} repeat
  closepath stroke grestore Pnt} def
/PentF {stroke [] 0 setdash gsave
  translate 0 hpt M 4 {72 rotate 0 hpt L} repeat
  closepath fill grestore} def
/Circle {stroke [] 0 setdash 2 copy
  hpt 0 360 arc stroke Pnt} def
/CircleF {stroke [] 0 setdash hpt 0 360 arc fill} def
/C0 {BL [] 0 setdash 2 copy moveto vpt 90 450 arc} bind def
/C1 {BL [] 0 setdash 2 copy moveto
	2 copy vpt 0 90 arc closepath fill
	vpt 0 360 arc closepath} bind def
/C2 {BL [] 0 setdash 2 copy moveto
	2 copy vpt 90 180 arc closepath fill
	vpt 0 360 arc closepath} bind def
/C3 {BL [] 0 setdash 2 copy moveto
	2 copy vpt 0 180 arc closepath fill
	vpt 0 360 arc closepath} bind def
/C4 {BL [] 0 setdash 2 copy moveto
	2 copy vpt 180 270 arc closepath fill
	vpt 0 360 arc closepath} bind def
/C5 {BL [] 0 setdash 2 copy moveto
	2 copy vpt 0 90 arc
	2 copy moveto
	2 copy vpt 180 270 arc closepath fill
	vpt 0 360 arc} bind def
/C6 {BL [] 0 setdash 2 copy moveto
	2 copy vpt 90 270 arc closepath fill
	vpt 0 360 arc closepath} bind def
/C7 {BL [] 0 setdash 2 copy moveto
	2 copy vpt 0 270 arc closepath fill
	vpt 0 360 arc closepath} bind def
/C8 {BL [] 0 setdash 2 copy moveto
	2 copy vpt 270 360 arc closepath fill
	vpt 0 360 arc closepath} bind def
/C9 {BL [] 0 setdash 2 copy moveto
	2 copy vpt 270 450 arc closepath fill
	vpt 0 360 arc closepath} bind def
/C10 {BL [] 0 setdash 2 copy 2 copy moveto vpt 270 360 arc closepath fill
	2 copy moveto
	2 copy vpt 90 180 arc closepath fill
	vpt 0 360 arc closepath} bind def
/C11 {BL [] 0 setdash 2 copy moveto
	2 copy vpt 0 180 arc closepath fill
	2 copy moveto
	2 copy vpt 270 360 arc closepath fill
	vpt 0 360 arc closepath} bind def
/C12 {BL [] 0 setdash 2 copy moveto
	2 copy vpt 180 360 arc closepath fill
	vpt 0 360 arc closepath} bind def
/C13 {BL [] 0 setdash 2 copy moveto
	2 copy vpt 0 90 arc closepath fill
	2 copy moveto
	2 copy vpt 180 360 arc closepath fill
	vpt 0 360 arc closepath} bind def
/C14 {BL [] 0 setdash 2 copy moveto
	2 copy vpt 90 360 arc closepath fill
	vpt 0 360 arc} bind def
/C15 {BL [] 0 setdash 2 copy vpt 0 360 arc closepath fill
	vpt 0 360 arc closepath} bind def
/Rec {newpath 4 2 roll moveto 1 index 0 rlineto 0 exch rlineto
	neg 0 rlineto closepath} bind def
/Square {dup Rec} bind def
/Bsquare {vpt sub exch vpt sub exch vpt2 Square} bind def
/S0 {BL [] 0 setdash 2 copy moveto 0 vpt rlineto BL Bsquare} bind def
/S1 {BL [] 0 setdash 2 copy vpt Square fill Bsquare} bind def
/S2 {BL [] 0 setdash 2 copy exch vpt sub exch vpt Square fill Bsquare} bind def
/S3 {BL [] 0 setdash 2 copy exch vpt sub exch vpt2 vpt Rec fill Bsquare} bind def
/S4 {BL [] 0 setdash 2 copy exch vpt sub exch vpt sub vpt Square fill Bsquare} bind def
/S5 {BL [] 0 setdash 2 copy 2 copy vpt Square fill
	exch vpt sub exch vpt sub vpt Square fill Bsquare} bind def
/S6 {BL [] 0 setdash 2 copy exch vpt sub exch vpt sub vpt vpt2 Rec fill Bsquare} bind def
/S7 {BL [] 0 setdash 2 copy exch vpt sub exch vpt sub vpt vpt2 Rec fill
	2 copy vpt Square fill Bsquare} bind def
/S8 {BL [] 0 setdash 2 copy vpt sub vpt Square fill Bsquare} bind def
/S9 {BL [] 0 setdash 2 copy vpt sub vpt vpt2 Rec fill Bsquare} bind def
/S10 {BL [] 0 setdash 2 copy vpt sub vpt Square fill 2 copy exch vpt sub exch vpt Square fill
	Bsquare} bind def
/S11 {BL [] 0 setdash 2 copy vpt sub vpt Square fill 2 copy exch vpt sub exch vpt2 vpt Rec fill
	Bsquare} bind def
/S12 {BL [] 0 setdash 2 copy exch vpt sub exch vpt sub vpt2 vpt Rec fill Bsquare} bind def
/S13 {BL [] 0 setdash 2 copy exch vpt sub exch vpt sub vpt2 vpt Rec fill
	2 copy vpt Square fill Bsquare} bind def
/S14 {BL [] 0 setdash 2 copy exch vpt sub exch vpt sub vpt2 vpt Rec fill
	2 copy exch vpt sub exch vpt Square fill Bsquare} bind def
/S15 {BL [] 0 setdash 2 copy Bsquare fill Bsquare} bind def
/D0 {gsave translate 45 rotate 0 0 S0 stroke grestore} bind def
/D1 {gsave translate 45 rotate 0 0 S1 stroke grestore} bind def
/D2 {gsave translate 45 rotate 0 0 S2 stroke grestore} bind def
/D3 {gsave translate 45 rotate 0 0 S3 stroke grestore} bind def
/D4 {gsave translate 45 rotate 0 0 S4 stroke grestore} bind def
/D5 {gsave translate 45 rotate 0 0 S5 stroke grestore} bind def
/D6 {gsave translate 45 rotate 0 0 S6 stroke grestore} bind def
/D7 {gsave translate 45 rotate 0 0 S7 stroke grestore} bind def
/D8 {gsave translate 45 rotate 0 0 S8 stroke grestore} bind def
/D9 {gsave translate 45 rotate 0 0 S9 stroke grestore} bind def
/D10 {gsave translate 45 rotate 0 0 S10 stroke grestore} bind def
/D11 {gsave translate 45 rotate 0 0 S11 stroke grestore} bind def
/D12 {gsave translate 45 rotate 0 0 S12 stroke grestore} bind def
/D13 {gsave translate 45 rotate 0 0 S13 stroke grestore} bind def
/D14 {gsave translate 45 rotate 0 0 S14 stroke grestore} bind def
/D15 {gsave translate 45 rotate 0 0 S15 stroke grestore} bind def
/DiaE {stroke [] 0 setdash vpt add M
  hpt neg vpt neg V hpt vpt neg V
  hpt vpt V hpt neg vpt V closepath stroke} def
/BoxE {stroke [] 0 setdash exch hpt sub exch vpt add M
  0 vpt2 neg V hpt2 0 V 0 vpt2 V
  hpt2 neg 0 V closepath stroke} def
/TriUE {stroke [] 0 setdash vpt 1.12 mul add M
  hpt neg vpt -1.62 mul V
  hpt 2 mul 0 V
  hpt neg vpt 1.62 mul V closepath stroke} def
/TriDE {stroke [] 0 setdash vpt 1.12 mul sub M
  hpt neg vpt 1.62 mul V
  hpt 2 mul 0 V
  hpt neg vpt -1.62 mul V closepath stroke} def
/PentE {stroke [] 0 setdash gsave
  translate 0 hpt M 4 {72 rotate 0 hpt L} repeat
  closepath stroke grestore} def
/CircE {stroke [] 0 setdash 
  hpt 0 360 arc stroke} def
/Opaque {gsave closepath 1 setgray fill grestore 0 setgray closepath} def
/DiaW {stroke [] 0 setdash vpt add M
  hpt neg vpt neg V hpt vpt neg V
  hpt vpt V hpt neg vpt V Opaque stroke} def
/BoxW {stroke [] 0 setdash exch hpt sub exch vpt add M
  0 vpt2 neg V hpt2 0 V 0 vpt2 V
  hpt2 neg 0 V Opaque stroke} def
/TriUW {stroke [] 0 setdash vpt 1.12 mul add M
  hpt neg vpt -1.62 mul V
  hpt 2 mul 0 V
  hpt neg vpt 1.62 mul V Opaque stroke} def
/TriDW {stroke [] 0 setdash vpt 1.12 mul sub M
  hpt neg vpt 1.62 mul V
  hpt 2 mul 0 V
  hpt neg vpt -1.62 mul V Opaque stroke} def
/PentW {stroke [] 0 setdash gsave
  translate 0 hpt M 4 {72 rotate 0 hpt L} repeat
  Opaque stroke grestore} def
/CircW {stroke [] 0 setdash 
  hpt 0 360 arc Opaque stroke} def
/BoxFill {gsave Rec 1 setgray fill grestore} def
/Density {
  /Fillden exch def
  currentrgbcolor
  /ColB exch def /ColG exch def /ColR exch def
  /ColR ColR Fillden mul Fillden sub 1 add def
  /ColG ColG Fillden mul Fillden sub 1 add def
  /ColB ColB Fillden mul Fillden sub 1 add def
  ColR ColG ColB setrgbcolor} def
/BoxColFill {gsave Rec PolyFill} def
/PolyFill {gsave Density fill grestore grestore} def
/h {rlineto rlineto rlineto gsave closepath fill grestore} bind def
%
% PostScript Level 1 Pattern Fill routine for rectangles
% Usage: x y w h s a XX PatternFill
%	x,y = lower left corner of box to be filled
%	w,h = width and height of box
%	  a = angle in degrees between lines and x-axis
%	 XX = 0/1 for no/yes cross-hatch
%
/PatternFill {gsave /PFa [ 9 2 roll ] def
  PFa 0 get PFa 2 get 2 div add PFa 1 get PFa 3 get 2 div add translate
  PFa 2 get -2 div PFa 3 get -2 div PFa 2 get PFa 3 get Rec
  TransparentPatterns {} {gsave 1 setgray fill grestore} ifelse
  clip
  currentlinewidth 0.5 mul setlinewidth
  /PFs PFa 2 get dup mul PFa 3 get dup mul add sqrt def
  0 0 M PFa 5 get rotate PFs -2 div dup translate
  0 1 PFs PFa 4 get div 1 add floor cvi
	{PFa 4 get mul 0 M 0 PFs V} for
  0 PFa 6 get ne {
	0 1 PFs PFa 4 get div 1 add floor cvi
	{PFa 4 get mul 0 2 1 roll M PFs 0 V} for
 } if
  stroke grestore} def
%
/languagelevel where
 {pop languagelevel} {1} ifelse
 2 lt
	{/InterpretLevel1 true def}
	{/InterpretLevel1 Level1 def}
 ifelse
%
% PostScript level 2 pattern fill definitions
%
/Level2PatternFill {
/Tile8x8 {/PaintType 2 /PatternType 1 /TilingType 1 /BBox [0 0 8 8] /XStep 8 /YStep 8}
	bind def
/KeepColor {currentrgbcolor [/Pattern /DeviceRGB] setcolorspace} bind def
<< Tile8x8
 /PaintProc {0.5 setlinewidth pop 0 0 M 8 8 L 0 8 M 8 0 L stroke} 
>> matrix makepattern
/Pat1 exch def
<< Tile8x8
 /PaintProc {0.5 setlinewidth pop 0 0 M 8 8 L 0 8 M 8 0 L stroke
	0 4 M 4 8 L 8 4 L 4 0 L 0 4 L stroke}
>> matrix makepattern
/Pat2 exch def
<< Tile8x8
 /PaintProc {0.5 setlinewidth pop 0 0 M 0 8 L
	8 8 L 8 0 L 0 0 L fill}
>> matrix makepattern
/Pat3 exch def
<< Tile8x8
 /PaintProc {0.5 setlinewidth pop -4 8 M 8 -4 L
	0 12 M 12 0 L stroke}
>> matrix makepattern
/Pat4 exch def
<< Tile8x8
 /PaintProc {0.5 setlinewidth pop -4 0 M 8 12 L
	0 -4 M 12 8 L stroke}
>> matrix makepattern
/Pat5 exch def
<< Tile8x8
 /PaintProc {0.5 setlinewidth pop -2 8 M 4 -4 L
	0 12 M 8 -4 L 4 12 M 10 0 L stroke}
>> matrix makepattern
/Pat6 exch def
<< Tile8x8
 /PaintProc {0.5 setlinewidth pop -2 0 M 4 12 L
	0 -4 M 8 12 L 4 -4 M 10 8 L stroke}
>> matrix makepattern
/Pat7 exch def
<< Tile8x8
 /PaintProc {0.5 setlinewidth pop 8 -2 M -4 4 L
	12 0 M -4 8 L 12 4 M 0 10 L stroke}
>> matrix makepattern
/Pat8 exch def
<< Tile8x8
 /PaintProc {0.5 setlinewidth pop 0 -2 M 12 4 L
	-4 0 M 12 8 L -4 4 M 8 10 L stroke}
>> matrix makepattern
/Pat9 exch def
/Pattern1 {PatternBgnd KeepColor Pat1 setpattern} bind def
/Pattern2 {PatternBgnd KeepColor Pat2 setpattern} bind def
/Pattern3 {PatternBgnd KeepColor Pat3 setpattern} bind def
/Pattern4 {PatternBgnd KeepColor Landscape {Pat5} {Pat4} ifelse setpattern} bind def
/Pattern5 {PatternBgnd KeepColor Landscape {Pat4} {Pat5} ifelse setpattern} bind def
/Pattern6 {PatternBgnd KeepColor Landscape {Pat9} {Pat6} ifelse setpattern} bind def
/Pattern7 {PatternBgnd KeepColor Landscape {Pat8} {Pat7} ifelse setpattern} bind def
} def
%
%
%End of PostScript Level 2 code
%
/PatternBgnd {
  TransparentPatterns {} {gsave 1 setgray fill grestore} ifelse
} def
%
% Substitute for Level 2 pattern fill codes with
% grayscale if Level 2 support is not selected.
%
/Level1PatternFill {
/Pattern1 {0.250 Density} bind def
/Pattern2 {0.500 Density} bind def
/Pattern3 {0.750 Density} bind def
/Pattern4 {0.125 Density} bind def
/Pattern5 {0.375 Density} bind def
/Pattern6 {0.625 Density} bind def
/Pattern7 {0.875 Density} bind def
} def
%
% Now test for support of Level 2 code
%
Level1 {Level1PatternFill} {Level2PatternFill} ifelse
%
/Symbol-Oblique /Symbol findfont [1 0 .167 1 0 0] makefont
dup length dict begin {1 index /FID eq {pop pop} {def} ifelse} forall
currentdict end definefont pop
/MFshow {
   { dup 5 get 3 ge
     { 5 get 3 eq {gsave} {grestore} ifelse }
     {dup dup 0 get findfont exch 1 get scalefont setfont
     [ currentpoint ] exch dup 2 get 0 exch R dup 5 get 2 ne {dup dup 6
     get exch 4 get {Gshow} {stringwidth pop 0 R} ifelse }if dup 5 get 0 eq
     {dup 3 get {2 get neg 0 exch R pop} {pop aload pop M} ifelse} {dup 5
     get 1 eq {dup 2 get exch dup 3 get exch 6 get stringwidth pop -2 div
     dup 0 R} {dup 6 get stringwidth pop -2 div 0 R 6 get
     show 2 index {aload pop M neg 3 -1 roll neg R pop pop} {pop pop pop
     pop aload pop M} ifelse }ifelse }ifelse }
     ifelse }
   forall} def
/Gswidth {dup type /stringtype eq {stringwidth} {pop (n) stringwidth} ifelse} def
/MFwidth {0 exch { dup 5 get 3 ge { 5 get 3 eq { 0 } { pop } ifelse }
 {dup 3 get{dup dup 0 get findfont exch 1 get scalefont setfont
     6 get Gswidth pop add} {pop} ifelse} ifelse} forall} def
/MLshow { currentpoint stroke M
  0 exch R
  Blacktext {gsave 0 setgray MFshow grestore} {MFshow} ifelse } bind def
/MRshow { currentpoint stroke M
  exch dup MFwidth neg 3 -1 roll R
  Blacktext {gsave 0 setgray MFshow grestore} {MFshow} ifelse } bind def
/MCshow { currentpoint stroke M
  exch dup MFwidth -2 div 3 -1 roll R
  Blacktext {gsave 0 setgray MFshow grestore} {MFshow} ifelse } bind def
/XYsave    { [( ) 1 2 true false 3 ()] } bind def
/XYrestore { [( ) 1 2 true false 4 ()] } bind def
Level1 SuppressPDFMark or 
{} {
/SDict 10 dict def
systemdict /pdfmark known not {
  userdict /pdfmark systemdict /cleartomark get put
} if
SDict begin [
  /Title (cfr4.eps)
  /Subject (gnuplot plot)
  /Creator (gnuplot 4.6 patchlevel 4)
  /Author (bmalama)
%  /Producer (gnuplot)
%  /Keywords ()
  /CreationDate (Wed Jun 17 13:23:02 2015)
  /DOCINFO pdfmark
end
} ifelse
end
%%EndProlog
%%Page: 1 1
gnudict begin
gsave
doclip
50 50 translate
0.050 0.050 scale
0 setgray
newpath
(Helvetica) findfont 240 scalefont setfont
BackgroundColor 0 lt 3 1 roll 0 lt exch 0 lt or or not {BackgroundColor C 1.000 0 0 7200.00 6048.00 BoxColFill} if
1.000 UL
LTb
LCb setrgbcolor
1152 768 M
63 0 V
5552 0 R
-63 0 V
stroke
1008 768 M
[ [(Helvetica) 240.0 0.0 true true 0 (10)]
[(Helvetica) 192.0 120.0 true true 0 (-3)]
] -104.0 MRshow
1.000 UL
LTb
LCb setrgbcolor
1152 1269 M
31 0 V
5584 0 R
-31 0 V
1152 1562 M
31 0 V
5584 0 R
-31 0 V
1152 1770 M
31 0 V
5584 0 R
-31 0 V
1152 1931 M
31 0 V
5584 0 R
-31 0 V
1152 2063 M
31 0 V
5584 0 R
-31 0 V
1152 2174 M
31 0 V
5584 0 R
-31 0 V
-5584 96 R
31 0 V
5584 0 R
-31 0 V
-5584 86 R
31 0 V
5584 0 R
-31 0 V
-5584 76 R
63 0 V
5552 0 R
-63 0 V
stroke
1008 2432 M
[ [(Helvetica) 240.0 0.0 true true 0 (10)]
[(Helvetica) 192.0 120.0 true true 0 (-2)]
] -104.0 MRshow
1.000 UL
LTb
LCb setrgbcolor
1152 2932 M
31 0 V
5584 0 R
-31 0 V
1152 3225 M
31 0 V
5584 0 R
-31 0 V
1152 3433 M
31 0 V
5584 0 R
-31 0 V
1152 3595 M
31 0 V
5584 0 R
-31 0 V
1152 3726 M
31 0 V
5584 0 R
-31 0 V
1152 3838 M
31 0 V
5584 0 R
-31 0 V
-5584 96 R
31 0 V
5584 0 R
-31 0 V
-5584 85 R
31 0 V
5584 0 R
-31 0 V
-5584 76 R
63 0 V
5552 0 R
-63 0 V
stroke
1008 4095 M
[ [(Helvetica) 240.0 0.0 true true 0 (10)]
[(Helvetica) 192.0 120.0 true true 0 (-1)]
] -104.0 MRshow
1.000 UL
LTb
LCb setrgbcolor
1152 4596 M
31 0 V
5584 0 R
-31 0 V
1152 4889 M
31 0 V
5584 0 R
-31 0 V
1152 5097 M
31 0 V
5584 0 R
-31 0 V
1152 5258 M
31 0 V
5584 0 R
-31 0 V
1152 5390 M
31 0 V
5584 0 R
-31 0 V
1152 5501 M
31 0 V
5584 0 R
-31 0 V
-5584 97 R
31 0 V
5584 0 R
-31 0 V
-5584 85 R
31 0 V
5584 0 R
-31 0 V
-5584 76 R
63 0 V
5552 0 R
-63 0 V
stroke
1008 5759 M
[ [(Helvetica) 240.0 0.0 true true 0 (10)]
[(Helvetica) 192.0 120.0 true true 0 (0)]
] -104.0 MRshow
1.000 UL
LTb
LCb setrgbcolor
1152 768 M
0 63 V
0 4928 R
0 -63 V
stroke
1152 528 M
[ [(Helvetica) 240.0 0.0 true true 0 (10)]
[(Helvetica) 192.0 120.0 true true 0 (-3)]
] -104.0 MCshow
1.000 UL
LTb
LCb setrgbcolor
1575 768 M
0 31 V
0 4960 R
0 -31 V
1822 768 M
0 31 V
0 4960 R
0 -31 V
1997 768 M
0 31 V
0 4960 R
0 -31 V
2133 768 M
0 31 V
0 4960 R
0 -31 V
2244 768 M
0 31 V
0 4960 R
0 -31 V
2338 768 M
0 31 V
0 4960 R
0 -31 V
2420 768 M
0 31 V
0 4960 R
0 -31 V
2492 768 M
0 31 V
0 4960 R
0 -31 V
2556 768 M
0 63 V
0 4928 R
0 -63 V
stroke
2556 528 M
[ [(Helvetica) 240.0 0.0 true true 0 (10)]
[(Helvetica) 192.0 120.0 true true 0 (-2)]
] -104.0 MCshow
1.000 UL
LTb
LCb setrgbcolor
2978 768 M
0 31 V
0 4960 R
0 -31 V
3226 768 M
0 31 V
0 4960 R
0 -31 V
3401 768 M
0 31 V
0 4960 R
0 -31 V
3537 768 M
0 31 V
0 4960 R
0 -31 V
3648 768 M
0 31 V
0 4960 R
0 -31 V
3742 768 M
0 31 V
0 4960 R
0 -31 V
3823 768 M
0 31 V
0 4960 R
0 -31 V
3895 768 M
0 31 V
0 4960 R
0 -31 V
3960 768 M
0 63 V
0 4928 R
0 -63 V
stroke
3960 528 M
[ [(Helvetica) 240.0 0.0 true true 0 (10)]
[(Helvetica) 192.0 120.0 true true 0 (-1)]
] -104.0 MCshow
1.000 UL
LTb
LCb setrgbcolor
4382 768 M
0 31 V
0 4960 R
0 -31 V
4629 768 M
0 31 V
0 4960 R
0 -31 V
4805 768 M
0 31 V
0 4960 R
0 -31 V
4941 768 M
0 31 V
0 4960 R
0 -31 V
5052 768 M
0 31 V
0 4960 R
0 -31 V
5146 768 M
0 31 V
0 4960 R
0 -31 V
5227 768 M
0 31 V
0 4960 R
0 -31 V
5299 768 M
0 31 V
0 4960 R
0 -31 V
5363 768 M
0 63 V
0 4928 R
0 -63 V
stroke
5363 528 M
[ [(Helvetica) 240.0 0.0 true true 0 (10)]
[(Helvetica) 192.0 120.0 true true 0 (0)]
] -104.0 MCshow
1.000 UL
LTb
LCb setrgbcolor
5786 768 M
0 31 V
0 4960 R
0 -31 V
6033 768 M
0 31 V
0 4960 R
0 -31 V
6208 768 M
0 31 V
0 4960 R
0 -31 V
6344 768 M
0 31 V
0 4960 R
0 -31 V
6456 768 M
0 31 V
0 4960 R
0 -31 V
6550 768 M
0 31 V
0 4960 R
0 -31 V
6631 768 M
0 31 V
0 4960 R
0 -31 V
6703 768 M
0 31 V
0 4960 R
0 -31 V
6767 768 M
0 63 V
0 4928 R
0 -63 V
stroke
6767 528 M
[ [(Helvetica) 240.0 0.0 true true 0 (10)]
[(Helvetica) 192.0 120.0 true true 0 (1)]
] -104.0 MCshow
1.000 UL
LTb
LCb setrgbcolor
1.000 UL
LTb
LCb setrgbcolor
1152 5759 N
0 -4991 V
5615 0 V
0 4991 V
-5615 0 V
Z stroke
LCb setrgbcolor
312 3263 M
currentpoint gsave translate -270 rotate 0 0 moveto
[ [(Helvetica) 240.0 0.0 true true 0 (Normalized response, s)]
[(Helvetica) 192.0 -72.0 true true 0 (D)]
] -56.0 MCshow
grestore
LTb
LCb setrgbcolor
3959 168 M
[ [(Helvetica) 240.0 0.0 true true 0 (time \(minutes\))]
] -80.0 MCshow
LTb
1.000 UP
6206 5509 M
[ [(Helvetica) 240.0 0.0 true true 0 (\(a\))]
] -80.0 MLshow
1.000 UL
LTb
LCb setrgbcolor
% Begin plot #1
4.000 UL
LT4
LC4 setrgbcolor
LCb setrgbcolor
2959 3415 M
[ [(Helvetica) 240.0 0.0 true true 0 (h)]
[(Helvetica) 192.0 -72.0 true true 0 (0)]
[(Helvetica) 240.0 0.0 true true 0 ( = 73.1 cm)]
] -56.0 MRshow
LT4
3103 3415 M
495 0 V
2022 5731 M
423 -32 V
247 -33 V
175 -31 V
136 -33 V
111 -33 V
94 -40 V
82 -33 V
72 -34 V
64 -38 V
58 -37 V
53 -39 V
49 -38 V
45 -40 V
42 -40 V
39 -39 V
37 -41 V
35 -41 V
33 -40 V
31 -44 V
30 -43 V
28 -43 V
28 -43 V
26 -46 V
24 -44 V
24 -44 V
23 -47 V
22 -47 V
22 -44 V
21 -46 V
20 -48 V
19 -46 V
19 -46 V
18 -42 V
18 -45 V
17 -47 V
16 -43 V
17 -45 V
15 -41 V
16 -40 V
15 -40 V
15 -37 V
14 -34 V
14 -38 V
14 -30 V
13 -32 V
13 -30 V
13 -27 V
13 -26 V
12 -24 V
12 -27 V
12 -24 V
11 -14 V
12 -17 V
11 -24 V
11 -19 V
11 -7 V
10 -22 V
11 -8 V
10 -14 V
10 -12 V
10 -6 V
10 -15 V
9 -1 V
10 -11 V
9 -15 V
9 -14 V
9 -10 V
9 -4 V
9 -17 V
9 -11 V
8 -4 V
9 -11 V
8 -22 V
8 -5 V
8 -7 V
8 -9 V
8 -3 V
8 -16 V
7 -7 V
8 -2 V
8 -13 V
7 -8 V
7 -6 V
7 -16 V
8 0 V
7 -16 V
7 -13 V
6 2 V
7 -12 V
7 -16 V
7 -4 V
6 -7 V
7 -15 V
6 -11 V
7 -3 V
6 -11 V
6 -11 V
6 -4 V
7 -5 V
6 -21 V
6 -5 V
6 -2 V
stroke 4848 3242 M
5 -10 V
6 -3 V
6 -21 V
6 -7 V
5 -3 V
6 -15 V
6 -7 V
5 -3 V
6 -18 V
5 -6 V
5 -19 V
6 -11 V
5 -3 V
5 -20 V
5 -9 V
6 -1 V
5 -9 V
5 -24 V
5 -7 V
5 -14 V
5 -3 V
5 -9 V
4 -16 V
5 -9 V
5 -5 V
5 -12 V
4 -14 V
5 -12 V
5 -9 V
4 -14 V
5 -2 V
4 -11 V
5 -16 V
4 10 V
5 -28 V
4 -3 V
5 -25 V
4 10 V
4 2 V
5 -26 V
4 2 V
4 -3 V
4 -36 V
4 13 V
5 -20 V
4 -7 V
4 -28 V
4 1 V
4 -27 V
4 15 V
4 -2 V
4 -26 V
4 -12 V
4 -11 V
3 -4 V
4 -22 V
4 -16 V
4 -1 V
4 -18 V
3 -7 V
4 -9 V
4 -1 V
4 -10 V
3 -8 V
4 -34 V
3 32 V
4 -33 V
4 -4 V
3 -16 V
4 -6 V
3 -34 V
4 14 V
3 2 V
4 -3 V
3 -26 V
3 -2 V
4 -13 V
3 -12 V
4 20 V
3 -37 V
3 1 V
4 -37 V
3 -1 V
3 -8 V
3 -25 V
4 -5 V
3 24 V
3 -38 V
3 -5 V
3 4 V
4 -31 V
3 -15 V
3 -5 V
3 -10 V
3 -37 V
3 -22 V
3 6 V
3 21 V
3 -32 V
3 -44 V
3 -4 V
3 6 V
3 -59 V
3 42 V
stroke 5273 2177 M
3 -34 V
3 -12 V
3 -42 V
3 12 V
3 8 V
2 -52 V
3 14 V
3 -51 V
3 14 V
3 30 V
3 -88 V
2 34 V
3 -23 V
3 5 V
3 -41 V
2 2 V
3 -63 V
3 21 V
3 -27 V
2 0 V
3 -31 V
3 -63 V
2 21 V
3 -25 V
3 -13 V
2 55 V
3 -76 V
2 53 V
3 -116 V
3 86 V
2 -65 V
3 3 V
2 -87 V
3 81 V
2 -78 V
3 21 V
2 -68 V
3 91 V
2 -79 V
3 -64 V
2 0 V
3 68 V
2 -95 V
3 14 V
2 -96 V
2 117 V
3 4 V
2 -39 V
3 -73 V
2 122 V
2 -49 V
3 -61 V
2 -25 V
2 -91 V
3 62 V
2 29 V
2 -134 V
3 61 V
2 8 V
2 -30 V
3 -150 V
2 267 V
2 -60 V
2 -57 V
3 -81 V
2 90 V
2 -19 V
2 -16 V
2 -9 V
3 -49 V
2 -12 V
2 0 V
2 -188 V
2 188 V
3 -188 V
2 -270 V
2 390 V
2 111 V
2 -75 V
2 -8 V
2 -50 V
3 -12 V
2 -59 V
2 -57 V
2 46 V
2 18 V
2 100 V
2 66 V
2 -86 V
2 -28 V
2 -86 V
2 -49 V
2 0 V
2 -96 V
2 73 V
2 99 V
2 -297 V
22 0 R
0 41 V
0 -41 V
% End plot #1
% Begin plot #2
stroke
LT0
LC0 setrgbcolor
LCb setrgbcolor
2959 3055 M
[ [(Helvetica) 240.0 0.0 true true 0 (h)]
[(Helvetica) 192.0 -72.0 true true 0 (0)]
[(Helvetica) 240.0 0.0 true true 0 ( = 102.2 cm)]
] -56.0 MRshow
LT0
3103 3055 M
495 0 V
2022 5725 M
423 -31 V
247 -31 V
175 -42 V
136 -35 V
111 -34 V
94 -37 V
82 -35 V
72 -37 V
64 -37 V
58 -36 V
53 -37 V
49 -39 V
45 -38 V
42 -39 V
39 -40 V
37 -38 V
35 -41 V
33 -41 V
31 -42 V
30 -41 V
28 -41 V
28 -43 V
26 -43 V
24 -41 V
24 -42 V
23 -45 V
22 -42 V
22 -44 V
21 -43 V
20 -43 V
19 -42 V
19 -44 V
18 -40 V
18 -40 V
17 -41 V
16 -38 V
17 -37 V
15 -39 V
16 -34 V
15 -34 V
15 -32 V
14 -32 V
14 -26 V
14 -29 V
13 -24 V
13 -25 V
13 -20 V
13 -23 V
12 -17 V
12 -18 V
12 -18 V
11 -13 V
12 -11 V
11 -15 V
11 -12 V
11 -10 V
10 -9 V
11 -9 V
10 -8 V
10 -8 V
10 -7 V
10 -9 V
9 -6 V
10 -8 V
9 -4 V
9 -3 V
9 -6 V
9 -9 V
9 -5 V
9 -6 V
8 -5 V
9 -3 V
8 -3 V
8 -8 V
8 -6 V
8 -5 V
8 -8 V
8 -4 V
7 -4 V
8 -4 V
8 -6 V
7 -6 V
7 -6 V
7 -2 V
8 -5 V
7 -7 V
7 -2 V
6 -8 V
7 -5 V
7 -6 V
7 -8 V
6 -2 V
7 -8 V
6 0 V
7 -8 V
6 -4 V
6 -3 V
6 -6 V
7 -4 V
6 -5 V
6 -3 V
6 -6 V
stroke 4848 3576 M
5 -5 V
6 -3 V
6 -8 V
6 -9 V
5 -7 V
6 -3 V
6 -4 V
5 -8 V
6 -9 V
5 -8 V
5 -9 V
6 -6 V
5 -9 V
5 -10 V
5 -1 V
6 -7 V
5 -9 V
5 0 V
5 -12 V
5 -2 V
5 -9 V
5 -2 V
4 -10 V
5 -4 V
5 -9 V
5 -4 V
4 -8 V
5 -6 V
5 -2 V
4 -9 V
5 -11 V
4 2 V
5 -10 V
4 -5 V
5 -6 V
4 -11 V
5 -4 V
4 -3 V
4 -8 V
5 -7 V
4 -10 V
4 -8 V
4 -10 V
4 -8 V
5 -1 V
4 -14 V
4 -1 V
4 -7 V
4 -12 V
4 2 V
4 -16 V
4 -1 V
4 -13 V
4 -7 V
3 -9 V
4 -10 V
4 -11 V
4 -1 V
4 -4 V
3 -14 V
4 -12 V
4 -10 V
4 -6 V
3 -7 V
4 -5 V
3 -4 V
4 -14 V
4 -16 V
3 -4 V
4 0 V
3 -8 V
4 -11 V
3 -1 V
4 -13 V
3 -1 V
3 -17 V
4 -9 V
3 -6 V
4 -11 V
3 2 V
3 -26 V
4 0 V
3 -4 V
3 -9 V
3 -10 V
4 -14 V
3 2 V
3 -14 V
3 -9 V
3 -7 V
4 -1 V
3 -18 V
3 10 V
3 -10 V
3 -18 V
3 0 V
3 -10 V
3 -4 V
3 -3 V
3 -7 V
3 -8 V
3 -12 V
3 5 V
3 -12 V
stroke 5273 2834 M
3 -7 V
3 -15 V
3 -8 V
3 -2 V
3 -8 V
2 0 V
3 4 V
3 -33 V
3 13 V
3 -15 V
3 -6 V
2 -3 V
3 -23 V
3 3 V
3 -22 V
2 2 V
3 -19 V
3 1 V
3 -18 V
2 -13 V
3 10 V
3 -33 V
2 -2 V
3 -4 V
3 -2 V
2 -13 V
3 8 V
2 -29 V
3 9 V
3 -21 V
2 -11 V
3 -4 V
2 -27 V
3 24 V
2 -35 V
3 11 V
2 -30 V
3 -31 V
2 23 V
3 -14 V
2 10 V
3 -22 V
2 -5 V
3 -16 V
2 0 V
2 -23 V
3 21 V
2 -22 V
3 13 V
2 -32 V
2 9 V
3 -6 V
2 0 V
2 -14 V
3 -10 V
2 -6 V
2 -12 V
3 5 V
2 17 V
2 -41 V
3 12 V
2 -8 V
2 14 V
2 -35 V
3 -5 V
2 -9 V
2 -5 V
2 -3 V
2 -12 V
3 -5 V
2 -14 V
2 -33 V
2 19 V
2 -11 V
3 11 V
2 -29 V
2 -2 V
2 20 V
2 -32 V
2 -13 V
2 0 V
3 7 V
2 -20 V
2 28 V
2 -4 V
2 -25 V
2 -14 V
2 -35 V
2 -15 V
2 -23 V
2 12 V
2 -36 V
2 44 V
2 -44 V
2 12 V
2 -23 V
2 1 V
2 0 V
2 -22 V
2 -15 V
2 -29 V
2 8 V
2 30 V
2 -24 V
stroke 5521 2033 M
2 -11 V
2 -29 V
2 17 V
2 -20 V
2 9 V
2 -1 V
2 -23 V
2 -19 V
2 12 V
2 -2 V
1 -24 V
2 28 V
2 12 V
2 -73 V
2 -23 V
2 40 V
2 -13 V
2 -26 V
1 -12 V
2 38 V
2 23 V
2 -44 V
2 11 V
2 -11 V
1 -48 V
2 12 V
2 19 V
2 10 V
2 -30 V
1 37 V
2 -33 V
2 5 V
2 -34 V
1 18 V
2 -45 V
2 43 V
2 -4 V
2 -18 V
1 4 V
2 -18 V
2 -7 V
1 47 V
2 -74 V
2 5 V
2 6 V
1 -28 V
2 2 V
2 -14 V
1 -26 V
2 1 V
2 -9 V
1 -20 V
2 11 V
2 -16 V
2 26 V
1 28 V
2 6 V
1 -21 V
2 -26 V
2 39 V
1 -70 V
2 33 V
2 -27 V
1 -8 V
2 -13 V
2 4 V
1 -68 V
2 32 V
1 -16 V
2 -2 V
2 46 V
1 -6 V
2 -49 V
1 24 V
2 -42 V
2 -24 V
1 -78 V
2 67 V
1 50 V
2 0 V
1 -47 V
2 24 V
1 -27 V
2 -19 V
2 -45 V
1 25 V
2 66 V
1 -29 V
2 -4 V
1 -8 V
2 -36 V
1 -41 V
2 38 V
1 -102 V
2 -35 V
1 -35 V
2 64 V
1 -29 V
2 -20 V
1 52 V
2 30 V
1 -49 V
2 28 V
1 -35 V
stroke 5697 1359 M
2 -15 V
1 33 V
2 -87 V
1 55 V
1 -77 V
2 26 V
1 10 V
2 -76 V
1 8 V
2 -133 V
1 70 V
1 -106 V
2 81 V
1 -63 V
2 63 V
1 -22 V
2 29 V
1 -103 V
1 -49 V
2 35 V
1 -140 V
2 0 V
1 154 V
1 -284 V
4 0 R
1 164 V
1 -164 V
4 0 R
0 151 V
1 -104 V
1 -47 V
10 0 R
0 47 V
0 -47 V
17 0 R
0 17 V
0 -17 V
% End plot #2
stroke
1.000 UL
LTb
LCb setrgbcolor
1152 5759 N
0 -4991 V
5615 0 V
0 4991 V
-5615 0 V
Z stroke
1.000 UP
1.000 UL
LTb
LCb setrgbcolor
stroke
grestore
end
showpage
%%Trailer
%%DocumentFonts: Helvetica
