%!PS-Adobe-2.0 EPSF-2.0
%%Title: p13mc1-1sen1-log.eps
%%Creator: gnuplot 4.6 patchlevel 4
%%CreationDate: Thu Nov  5 13:58:56 2015
%%DocumentFonts: (atend)
%%BoundingBox: 50 50 482 377
%%EndComments
%%BeginProlog
/gnudict 256 dict def
gnudict begin
%
% The following true/false flags may be edited by hand if desired.
% The unit line width and grayscale image gamma correction may also be changed.
%
/Color true def
/Blacktext false def
/Solid false def
/Dashlength 1 def
/Landscape false def
/Level1 false def
/Rounded false def
/ClipToBoundingBox false def
/SuppressPDFMark false def
/TransparentPatterns false def
/gnulinewidth 5.000 def
/userlinewidth gnulinewidth def
/Gamma 1.0 def
/BackgroundColor {-1.000 -1.000 -1.000} def
%
/vshift -93 def
/dl1 {
  10.0 Dashlength mul mul
  Rounded { currentlinewidth 0.75 mul sub dup 0 le { pop 0.01 } if } if
} def
/dl2 {
  10.0 Dashlength mul mul
  Rounded { currentlinewidth 0.75 mul add } if
} def
/hpt_ 31.5 def
/vpt_ 31.5 def
/hpt hpt_ def
/vpt vpt_ def
/doclip {
  ClipToBoundingBox {
    newpath 50 50 moveto 482 50 lineto 482 377 lineto 50 377 lineto closepath
    clip
  } if
} def
%
% Gnuplot Prolog Version 4.6 (September 2012)
%
%/SuppressPDFMark true def
%
/M {moveto} bind def
/L {lineto} bind def
/R {rmoveto} bind def
/V {rlineto} bind def
/N {newpath moveto} bind def
/Z {closepath} bind def
/C {setrgbcolor} bind def
/f {rlineto fill} bind def
/g {setgray} bind def
/Gshow {show} def   % May be redefined later in the file to support UTF-8
/vpt2 vpt 2 mul def
/hpt2 hpt 2 mul def
/Lshow {currentpoint stroke M 0 vshift R 
	Blacktext {gsave 0 setgray show grestore} {show} ifelse} def
/Rshow {currentpoint stroke M dup stringwidth pop neg vshift R
	Blacktext {gsave 0 setgray show grestore} {show} ifelse} def
/Cshow {currentpoint stroke M dup stringwidth pop -2 div vshift R 
	Blacktext {gsave 0 setgray show grestore} {show} ifelse} def
/UP {dup vpt_ mul /vpt exch def hpt_ mul /hpt exch def
  /hpt2 hpt 2 mul def /vpt2 vpt 2 mul def} def
/DL {Color {setrgbcolor Solid {pop []} if 0 setdash}
 {pop pop pop 0 setgray Solid {pop []} if 0 setdash} ifelse} def
/BL {stroke userlinewidth 2 mul setlinewidth
	Rounded {1 setlinejoin 1 setlinecap} if} def
/AL {stroke userlinewidth 2 div setlinewidth
	Rounded {1 setlinejoin 1 setlinecap} if} def
/UL {dup gnulinewidth mul /userlinewidth exch def
	dup 1 lt {pop 1} if 10 mul /udl exch def} def
/PL {stroke userlinewidth setlinewidth
	Rounded {1 setlinejoin 1 setlinecap} if} def
3.8 setmiterlimit
% Default Line colors
/LCw {1 1 1} def
/LCb {0 0 0} def
/LCa {0 0 0} def
/LC0 {1 0 0} def
/LC1 {0 1 0} def
/LC2 {0 0 1} def
/LC3 {1 0 1} def
/LC4 {0 1 1} def
/LC5 {1 1 0} def
/LC6 {0 0 0} def
/LC7 {1 0.3 0} def
/LC8 {0.5 0.5 0.5} def
% Default Line Types
/LTw {PL [] 1 setgray} def
/LTb {BL [] LCb DL} def
/LTa {AL [1 udl mul 2 udl mul] 0 setdash LCa setrgbcolor} def
/LT0 {PL [] LC0 DL} def
/LT1 {PL [4 dl1 2 dl2] LC1 DL} def
/LT2 {PL [2 dl1 3 dl2] LC2 DL} def
/LT3 {PL [1 dl1 1.5 dl2] LC3 DL} def
/LT4 {PL [6 dl1 2 dl2 1 dl1 2 dl2] LC4 DL} def
/LT5 {PL [3 dl1 3 dl2 1 dl1 3 dl2] LC5 DL} def
/LT6 {PL [2 dl1 2 dl2 2 dl1 6 dl2] LC6 DL} def
/LT7 {PL [1 dl1 2 dl2 6 dl1 2 dl2 1 dl1 2 dl2] LC7 DL} def
/LT8 {PL [2 dl1 2 dl2 2 dl1 2 dl2 2 dl1 2 dl2 2 dl1 4 dl2] LC8 DL} def
/Pnt {stroke [] 0 setdash gsave 1 setlinecap M 0 0 V stroke grestore} def
/Dia {stroke [] 0 setdash 2 copy vpt add M
  hpt neg vpt neg V hpt vpt neg V
  hpt vpt V hpt neg vpt V closepath stroke
  Pnt} def
/Pls {stroke [] 0 setdash vpt sub M 0 vpt2 V
  currentpoint stroke M
  hpt neg vpt neg R hpt2 0 V stroke
 } def
/Box {stroke [] 0 setdash 2 copy exch hpt sub exch vpt add M
  0 vpt2 neg V hpt2 0 V 0 vpt2 V
  hpt2 neg 0 V closepath stroke
  Pnt} def
/Crs {stroke [] 0 setdash exch hpt sub exch vpt add M
  hpt2 vpt2 neg V currentpoint stroke M
  hpt2 neg 0 R hpt2 vpt2 V stroke} def
/TriU {stroke [] 0 setdash 2 copy vpt 1.12 mul add M
  hpt neg vpt -1.62 mul V
  hpt 2 mul 0 V
  hpt neg vpt 1.62 mul V closepath stroke
  Pnt} def
/Star {2 copy Pls Crs} def
/BoxF {stroke [] 0 setdash exch hpt sub exch vpt add M
  0 vpt2 neg V hpt2 0 V 0 vpt2 V
  hpt2 neg 0 V closepath fill} def
/TriUF {stroke [] 0 setdash vpt 1.12 mul add M
  hpt neg vpt -1.62 mul V
  hpt 2 mul 0 V
  hpt neg vpt 1.62 mul V closepath fill} def
/TriD {stroke [] 0 setdash 2 copy vpt 1.12 mul sub M
  hpt neg vpt 1.62 mul V
  hpt 2 mul 0 V
  hpt neg vpt -1.62 mul V closepath stroke
  Pnt} def
/TriDF {stroke [] 0 setdash vpt 1.12 mul sub M
  hpt neg vpt 1.62 mul V
  hpt 2 mul 0 V
  hpt neg vpt -1.62 mul V closepath fill} def
/DiaF {stroke [] 0 setdash vpt add M
  hpt neg vpt neg V hpt vpt neg V
  hpt vpt V hpt neg vpt V closepath fill} def
/Pent {stroke [] 0 setdash 2 copy gsave
  translate 0 hpt M 4 {72 rotate 0 hpt L} repeat
  closepath stroke grestore Pnt} def
/PentF {stroke [] 0 setdash gsave
  translate 0 hpt M 4 {72 rotate 0 hpt L} repeat
  closepath fill grestore} def
/Circle {stroke [] 0 setdash 2 copy
  hpt 0 360 arc stroke Pnt} def
/CircleF {stroke [] 0 setdash hpt 0 360 arc fill} def
/C0 {BL [] 0 setdash 2 copy moveto vpt 90 450 arc} bind def
/C1 {BL [] 0 setdash 2 copy moveto
	2 copy vpt 0 90 arc closepath fill
	vpt 0 360 arc closepath} bind def
/C2 {BL [] 0 setdash 2 copy moveto
	2 copy vpt 90 180 arc closepath fill
	vpt 0 360 arc closepath} bind def
/C3 {BL [] 0 setdash 2 copy moveto
	2 copy vpt 0 180 arc closepath fill
	vpt 0 360 arc closepath} bind def
/C4 {BL [] 0 setdash 2 copy moveto
	2 copy vpt 180 270 arc closepath fill
	vpt 0 360 arc closepath} bind def
/C5 {BL [] 0 setdash 2 copy moveto
	2 copy vpt 0 90 arc
	2 copy moveto
	2 copy vpt 180 270 arc closepath fill
	vpt 0 360 arc} bind def
/C6 {BL [] 0 setdash 2 copy moveto
	2 copy vpt 90 270 arc closepath fill
	vpt 0 360 arc closepath} bind def
/C7 {BL [] 0 setdash 2 copy moveto
	2 copy vpt 0 270 arc closepath fill
	vpt 0 360 arc closepath} bind def
/C8 {BL [] 0 setdash 2 copy moveto
	2 copy vpt 270 360 arc closepath fill
	vpt 0 360 arc closepath} bind def
/C9 {BL [] 0 setdash 2 copy moveto
	2 copy vpt 270 450 arc closepath fill
	vpt 0 360 arc closepath} bind def
/C10 {BL [] 0 setdash 2 copy 2 copy moveto vpt 270 360 arc closepath fill
	2 copy moveto
	2 copy vpt 90 180 arc closepath fill
	vpt 0 360 arc closepath} bind def
/C11 {BL [] 0 setdash 2 copy moveto
	2 copy vpt 0 180 arc closepath fill
	2 copy moveto
	2 copy vpt 270 360 arc closepath fill
	vpt 0 360 arc closepath} bind def
/C12 {BL [] 0 setdash 2 copy moveto
	2 copy vpt 180 360 arc closepath fill
	vpt 0 360 arc closepath} bind def
/C13 {BL [] 0 setdash 2 copy moveto
	2 copy vpt 0 90 arc closepath fill
	2 copy moveto
	2 copy vpt 180 360 arc closepath fill
	vpt 0 360 arc closepath} bind def
/C14 {BL [] 0 setdash 2 copy moveto
	2 copy vpt 90 360 arc closepath fill
	vpt 0 360 arc} bind def
/C15 {BL [] 0 setdash 2 copy vpt 0 360 arc closepath fill
	vpt 0 360 arc closepath} bind def
/Rec {newpath 4 2 roll moveto 1 index 0 rlineto 0 exch rlineto
	neg 0 rlineto closepath} bind def
/Square {dup Rec} bind def
/Bsquare {vpt sub exch vpt sub exch vpt2 Square} bind def
/S0 {BL [] 0 setdash 2 copy moveto 0 vpt rlineto BL Bsquare} bind def
/S1 {BL [] 0 setdash 2 copy vpt Square fill Bsquare} bind def
/S2 {BL [] 0 setdash 2 copy exch vpt sub exch vpt Square fill Bsquare} bind def
/S3 {BL [] 0 setdash 2 copy exch vpt sub exch vpt2 vpt Rec fill Bsquare} bind def
/S4 {BL [] 0 setdash 2 copy exch vpt sub exch vpt sub vpt Square fill Bsquare} bind def
/S5 {BL [] 0 setdash 2 copy 2 copy vpt Square fill
	exch vpt sub exch vpt sub vpt Square fill Bsquare} bind def
/S6 {BL [] 0 setdash 2 copy exch vpt sub exch vpt sub vpt vpt2 Rec fill Bsquare} bind def
/S7 {BL [] 0 setdash 2 copy exch vpt sub exch vpt sub vpt vpt2 Rec fill
	2 copy vpt Square fill Bsquare} bind def
/S8 {BL [] 0 setdash 2 copy vpt sub vpt Square fill Bsquare} bind def
/S9 {BL [] 0 setdash 2 copy vpt sub vpt vpt2 Rec fill Bsquare} bind def
/S10 {BL [] 0 setdash 2 copy vpt sub vpt Square fill 2 copy exch vpt sub exch vpt Square fill
	Bsquare} bind def
/S11 {BL [] 0 setdash 2 copy vpt sub vpt Square fill 2 copy exch vpt sub exch vpt2 vpt Rec fill
	Bsquare} bind def
/S12 {BL [] 0 setdash 2 copy exch vpt sub exch vpt sub vpt2 vpt Rec fill Bsquare} bind def
/S13 {BL [] 0 setdash 2 copy exch vpt sub exch vpt sub vpt2 vpt Rec fill
	2 copy vpt Square fill Bsquare} bind def
/S14 {BL [] 0 setdash 2 copy exch vpt sub exch vpt sub vpt2 vpt Rec fill
	2 copy exch vpt sub exch vpt Square fill Bsquare} bind def
/S15 {BL [] 0 setdash 2 copy Bsquare fill Bsquare} bind def
/D0 {gsave translate 45 rotate 0 0 S0 stroke grestore} bind def
/D1 {gsave translate 45 rotate 0 0 S1 stroke grestore} bind def
/D2 {gsave translate 45 rotate 0 0 S2 stroke grestore} bind def
/D3 {gsave translate 45 rotate 0 0 S3 stroke grestore} bind def
/D4 {gsave translate 45 rotate 0 0 S4 stroke grestore} bind def
/D5 {gsave translate 45 rotate 0 0 S5 stroke grestore} bind def
/D6 {gsave translate 45 rotate 0 0 S6 stroke grestore} bind def
/D7 {gsave translate 45 rotate 0 0 S7 stroke grestore} bind def
/D8 {gsave translate 45 rotate 0 0 S8 stroke grestore} bind def
/D9 {gsave translate 45 rotate 0 0 S9 stroke grestore} bind def
/D10 {gsave translate 45 rotate 0 0 S10 stroke grestore} bind def
/D11 {gsave translate 45 rotate 0 0 S11 stroke grestore} bind def
/D12 {gsave translate 45 rotate 0 0 S12 stroke grestore} bind def
/D13 {gsave translate 45 rotate 0 0 S13 stroke grestore} bind def
/D14 {gsave translate 45 rotate 0 0 S14 stroke grestore} bind def
/D15 {gsave translate 45 rotate 0 0 S15 stroke grestore} bind def
/DiaE {stroke [] 0 setdash vpt add M
  hpt neg vpt neg V hpt vpt neg V
  hpt vpt V hpt neg vpt V closepath stroke} def
/BoxE {stroke [] 0 setdash exch hpt sub exch vpt add M
  0 vpt2 neg V hpt2 0 V 0 vpt2 V
  hpt2 neg 0 V closepath stroke} def
/TriUE {stroke [] 0 setdash vpt 1.12 mul add M
  hpt neg vpt -1.62 mul V
  hpt 2 mul 0 V
  hpt neg vpt 1.62 mul V closepath stroke} def
/TriDE {stroke [] 0 setdash vpt 1.12 mul sub M
  hpt neg vpt 1.62 mul V
  hpt 2 mul 0 V
  hpt neg vpt -1.62 mul V closepath stroke} def
/PentE {stroke [] 0 setdash gsave
  translate 0 hpt M 4 {72 rotate 0 hpt L} repeat
  closepath stroke grestore} def
/CircE {stroke [] 0 setdash 
  hpt 0 360 arc stroke} def
/Opaque {gsave closepath 1 setgray fill grestore 0 setgray closepath} def
/DiaW {stroke [] 0 setdash vpt add M
  hpt neg vpt neg V hpt vpt neg V
  hpt vpt V hpt neg vpt V Opaque stroke} def
/BoxW {stroke [] 0 setdash exch hpt sub exch vpt add M
  0 vpt2 neg V hpt2 0 V 0 vpt2 V
  hpt2 neg 0 V Opaque stroke} def
/TriUW {stroke [] 0 setdash vpt 1.12 mul add M
  hpt neg vpt -1.62 mul V
  hpt 2 mul 0 V
  hpt neg vpt 1.62 mul V Opaque stroke} def
/TriDW {stroke [] 0 setdash vpt 1.12 mul sub M
  hpt neg vpt 1.62 mul V
  hpt 2 mul 0 V
  hpt neg vpt -1.62 mul V Opaque stroke} def
/PentW {stroke [] 0 setdash gsave
  translate 0 hpt M 4 {72 rotate 0 hpt L} repeat
  Opaque stroke grestore} def
/CircW {stroke [] 0 setdash 
  hpt 0 360 arc Opaque stroke} def
/BoxFill {gsave Rec 1 setgray fill grestore} def
/Density {
  /Fillden exch def
  currentrgbcolor
  /ColB exch def /ColG exch def /ColR exch def
  /ColR ColR Fillden mul Fillden sub 1 add def
  /ColG ColG Fillden mul Fillden sub 1 add def
  /ColB ColB Fillden mul Fillden sub 1 add def
  ColR ColG ColB setrgbcolor} def
/BoxColFill {gsave Rec PolyFill} def
/PolyFill {gsave Density fill grestore grestore} def
/h {rlineto rlineto rlineto gsave closepath fill grestore} bind def
%
% PostScript Level 1 Pattern Fill routine for rectangles
% Usage: x y w h s a XX PatternFill
%	x,y = lower left corner of box to be filled
%	w,h = width and height of box
%	  a = angle in degrees between lines and x-axis
%	 XX = 0/1 for no/yes cross-hatch
%
/PatternFill {gsave /PFa [ 9 2 roll ] def
  PFa 0 get PFa 2 get 2 div add PFa 1 get PFa 3 get 2 div add translate
  PFa 2 get -2 div PFa 3 get -2 div PFa 2 get PFa 3 get Rec
  TransparentPatterns {} {gsave 1 setgray fill grestore} ifelse
  clip
  currentlinewidth 0.5 mul setlinewidth
  /PFs PFa 2 get dup mul PFa 3 get dup mul add sqrt def
  0 0 M PFa 5 get rotate PFs -2 div dup translate
  0 1 PFs PFa 4 get div 1 add floor cvi
	{PFa 4 get mul 0 M 0 PFs V} for
  0 PFa 6 get ne {
	0 1 PFs PFa 4 get div 1 add floor cvi
	{PFa 4 get mul 0 2 1 roll M PFs 0 V} for
 } if
  stroke grestore} def
%
/languagelevel where
 {pop languagelevel} {1} ifelse
 2 lt
	{/InterpretLevel1 true def}
	{/InterpretLevel1 Level1 def}
 ifelse
%
% PostScript level 2 pattern fill definitions
%
/Level2PatternFill {
/Tile8x8 {/PaintType 2 /PatternType 1 /TilingType 1 /BBox [0 0 8 8] /XStep 8 /YStep 8}
	bind def
/KeepColor {currentrgbcolor [/Pattern /DeviceRGB] setcolorspace} bind def
<< Tile8x8
 /PaintProc {0.5 setlinewidth pop 0 0 M 8 8 L 0 8 M 8 0 L stroke} 
>> matrix makepattern
/Pat1 exch def
<< Tile8x8
 /PaintProc {0.5 setlinewidth pop 0 0 M 8 8 L 0 8 M 8 0 L stroke
	0 4 M 4 8 L 8 4 L 4 0 L 0 4 L stroke}
>> matrix makepattern
/Pat2 exch def
<< Tile8x8
 /PaintProc {0.5 setlinewidth pop 0 0 M 0 8 L
	8 8 L 8 0 L 0 0 L fill}
>> matrix makepattern
/Pat3 exch def
<< Tile8x8
 /PaintProc {0.5 setlinewidth pop -4 8 M 8 -4 L
	0 12 M 12 0 L stroke}
>> matrix makepattern
/Pat4 exch def
<< Tile8x8
 /PaintProc {0.5 setlinewidth pop -4 0 M 8 12 L
	0 -4 M 12 8 L stroke}
>> matrix makepattern
/Pat5 exch def
<< Tile8x8
 /PaintProc {0.5 setlinewidth pop -2 8 M 4 -4 L
	0 12 M 8 -4 L 4 12 M 10 0 L stroke}
>> matrix makepattern
/Pat6 exch def
<< Tile8x8
 /PaintProc {0.5 setlinewidth pop -2 0 M 4 12 L
	0 -4 M 8 12 L 4 -4 M 10 8 L stroke}
>> matrix makepattern
/Pat7 exch def
<< Tile8x8
 /PaintProc {0.5 setlinewidth pop 8 -2 M -4 4 L
	12 0 M -4 8 L 12 4 M 0 10 L stroke}
>> matrix makepattern
/Pat8 exch def
<< Tile8x8
 /PaintProc {0.5 setlinewidth pop 0 -2 M 12 4 L
	-4 0 M 12 8 L -4 4 M 8 10 L stroke}
>> matrix makepattern
/Pat9 exch def
/Pattern1 {PatternBgnd KeepColor Pat1 setpattern} bind def
/Pattern2 {PatternBgnd KeepColor Pat2 setpattern} bind def
/Pattern3 {PatternBgnd KeepColor Pat3 setpattern} bind def
/Pattern4 {PatternBgnd KeepColor Landscape {Pat5} {Pat4} ifelse setpattern} bind def
/Pattern5 {PatternBgnd KeepColor Landscape {Pat4} {Pat5} ifelse setpattern} bind def
/Pattern6 {PatternBgnd KeepColor Landscape {Pat9} {Pat6} ifelse setpattern} bind def
/Pattern7 {PatternBgnd KeepColor Landscape {Pat8} {Pat7} ifelse setpattern} bind def
} def
%
%
%End of PostScript Level 2 code
%
/PatternBgnd {
  TransparentPatterns {} {gsave 1 setgray fill grestore} ifelse
} def
%
% Substitute for Level 2 pattern fill codes with
% grayscale if Level 2 support is not selected.
%
/Level1PatternFill {
/Pattern1 {0.250 Density} bind def
/Pattern2 {0.500 Density} bind def
/Pattern3 {0.750 Density} bind def
/Pattern4 {0.125 Density} bind def
/Pattern5 {0.375 Density} bind def
/Pattern6 {0.625 Density} bind def
/Pattern7 {0.875 Density} bind def
} def
%
% Now test for support of Level 2 code
%
Level1 {Level1PatternFill} {Level2PatternFill} ifelse
%
/Symbol-Oblique /Symbol findfont [1 0 .167 1 0 0] makefont
dup length dict begin {1 index /FID eq {pop pop} {def} ifelse} forall
currentdict end definefont pop
/MFshow {
   { dup 5 get 3 ge
     { 5 get 3 eq {gsave} {grestore} ifelse }
     {dup dup 0 get findfont exch 1 get scalefont setfont
     [ currentpoint ] exch dup 2 get 0 exch R dup 5 get 2 ne {dup dup 6
     get exch 4 get {Gshow} {stringwidth pop 0 R} ifelse }if dup 5 get 0 eq
     {dup 3 get {2 get neg 0 exch R pop} {pop aload pop M} ifelse} {dup 5
     get 1 eq {dup 2 get exch dup 3 get exch 6 get stringwidth pop -2 div
     dup 0 R} {dup 6 get stringwidth pop -2 div 0 R 6 get
     show 2 index {aload pop M neg 3 -1 roll neg R pop pop} {pop pop pop
     pop aload pop M} ifelse }ifelse }ifelse }
     ifelse }
   forall} def
/Gswidth {dup type /stringtype eq {stringwidth} {pop (n) stringwidth} ifelse} def
/MFwidth {0 exch { dup 5 get 3 ge { 5 get 3 eq { 0 } { pop } ifelse }
 {dup 3 get{dup dup 0 get findfont exch 1 get scalefont setfont
     6 get Gswidth pop add} {pop} ifelse} ifelse} forall} def
/MLshow { currentpoint stroke M
  0 exch R
  Blacktext {gsave 0 setgray MFshow grestore} {MFshow} ifelse } bind def
/MRshow { currentpoint stroke M
  exch dup MFwidth neg 3 -1 roll R
  Blacktext {gsave 0 setgray MFshow grestore} {MFshow} ifelse } bind def
/MCshow { currentpoint stroke M
  exch dup MFwidth -2 div 3 -1 roll R
  Blacktext {gsave 0 setgray MFshow grestore} {MFshow} ifelse } bind def
/XYsave    { [( ) 1 2 true false 3 ()] } bind def
/XYrestore { [( ) 1 2 true false 4 ()] } bind def
Level1 SuppressPDFMark or 
{} {
/SDict 10 dict def
systemdict /pdfmark known not {
  userdict /pdfmark systemdict /cleartomark get put
} if
SDict begin [
  /Title (p13mc1-1sen1-log.eps)
  /Subject (gnuplot plot)
  /Creator (gnuplot 4.6 patchlevel 4)
  /Author (klkuhlm)
%  /Producer (gnuplot)
%  /Keywords ()
  /CreationDate (Thu Nov  5 13:58:56 2015)
  /DOCINFO pdfmark
end
} ifelse
end
%%EndProlog
%%Page: 1 1
gnudict begin
gsave
doclip
50 50 translate
0.050 0.050 scale
0 setgray
newpath
(Helvetica) findfont 280 scalefont setfont
BackgroundColor 0 lt 3 1 roll 0 lt exch 0 lt or or not {BackgroundColor C 1.000 0 0 8640.00 6552.00 BoxColFill} if
1.000 UL
LTb
LCb setrgbcolor
1344 1120 M
63 0 V
6727 0 R
-63 0 V
stroke
1176 1120 M
[ [(Helvetica) 280.0 0.0 true true 0 (10)]
[(Helvetica) 224.0 140.0 true true 0 (-5)]
] -121.3 MRshow
1.000 UL
LTb
LCb setrgbcolor
1344 1631 M
31 0 V
6759 0 R
-31 0 V
1344 1930 M
31 0 V
6759 0 R
-31 0 V
1344 2142 M
31 0 V
6759 0 R
-31 0 V
1344 2307 M
31 0 V
6759 0 R
-31 0 V
1344 2442 M
31 0 V
6759 0 R
-31 0 V
1344 2555 M
31 0 V
6759 0 R
-31 0 V
-6759 99 R
31 0 V
6759 0 R
-31 0 V
-6759 87 R
31 0 V
6759 0 R
-31 0 V
-6759 77 R
63 0 V
6727 0 R
-63 0 V
stroke
1176 2818 M
[ [(Helvetica) 280.0 0.0 true true 0 (10)]
[(Helvetica) 224.0 140.0 true true 0 (-4)]
] -121.3 MRshow
1.000 UL
LTb
LCb setrgbcolor
1344 3330 M
31 0 V
6759 0 R
-31 0 V
1344 3629 M
31 0 V
6759 0 R
-31 0 V
1344 3841 M
31 0 V
6759 0 R
-31 0 V
1344 4005 M
31 0 V
6759 0 R
-31 0 V
1344 4140 M
31 0 V
6759 0 R
-31 0 V
1344 4254 M
31 0 V
6759 0 R
-31 0 V
-6759 98 R
31 0 V
6759 0 R
-31 0 V
-6759 87 R
31 0 V
6759 0 R
-31 0 V
-6759 78 R
63 0 V
6727 0 R
-63 0 V
stroke
1176 4517 M
[ [(Helvetica) 280.0 0.0 true true 0 (10)]
[(Helvetica) 224.0 140.0 true true 0 (-3)]
] -121.3 MRshow
1.000 UL
LTb
LCb setrgbcolor
1344 5028 M
31 0 V
6759 0 R
-31 0 V
1344 5327 M
31 0 V
6759 0 R
-31 0 V
1344 5539 M
31 0 V
6759 0 R
-31 0 V
1344 5704 M
31 0 V
6759 0 R
-31 0 V
1344 5838 M
31 0 V
6759 0 R
-31 0 V
1344 5952 M
31 0 V
6759 0 R
-31 0 V
-6759 98 R
31 0 V
6759 0 R
-31 0 V
-6759 87 R
31 0 V
6759 0 R
-31 0 V
-6759 78 R
63 0 V
6727 0 R
-63 0 V
stroke
1176 6215 M
[ [(Helvetica) 280.0 0.0 true true 0 (10)]
[(Helvetica) 224.0 140.0 true true 0 (-2)]
] -121.3 MRshow
1.000 UL
LTb
LCb setrgbcolor
1344 1120 M
0 63 V
0 5032 R
0 -63 V
stroke
1344 840 M
[ [(Helvetica) 280.0 0.0 true true 0 ( 0)]
] -93.3 MCshow
1.000 UL
LTb
LCb setrgbcolor
2098 1120 M
0 63 V
0 5032 R
0 -63 V
stroke
2098 840 M
[ [(Helvetica) 280.0 0.0 true true 0 ( 2)]
] -93.3 MCshow
1.000 UL
LTb
LCb setrgbcolor
2853 1120 M
0 63 V
0 5032 R
0 -63 V
stroke
2853 840 M
[ [(Helvetica) 280.0 0.0 true true 0 ( 4)]
] -93.3 MCshow
1.000 UL
LTb
LCb setrgbcolor
3607 1120 M
0 63 V
0 5032 R
0 -63 V
stroke
3607 840 M
[ [(Helvetica) 280.0 0.0 true true 0 ( 6)]
] -93.3 MCshow
1.000 UL
LTb
LCb setrgbcolor
4362 1120 M
0 63 V
0 5032 R
0 -63 V
stroke
4362 840 M
[ [(Helvetica) 280.0 0.0 true true 0 ( 8)]
] -93.3 MCshow
1.000 UL
LTb
LCb setrgbcolor
5116 1120 M
0 63 V
0 5032 R
0 -63 V
stroke
5116 840 M
[ [(Helvetica) 280.0 0.0 true true 0 ( 10)]
] -93.3 MCshow
1.000 UL
LTb
LCb setrgbcolor
5871 1120 M
0 63 V
0 5032 R
0 -63 V
stroke
5871 840 M
[ [(Helvetica) 280.0 0.0 true true 0 ( 12)]
] -93.3 MCshow
1.000 UL
LTb
LCb setrgbcolor
6625 1120 M
0 63 V
0 5032 R
0 -63 V
stroke
6625 840 M
[ [(Helvetica) 280.0 0.0 true true 0 ( 14)]
] -93.3 MCshow
1.000 UL
LTb
LCb setrgbcolor
7380 1120 M
0 63 V
0 5032 R
0 -63 V
stroke
7380 840 M
[ [(Helvetica) 280.0 0.0 true true 0 ( 16)]
] -93.3 MCshow
1.000 UL
LTb
LCb setrgbcolor
8134 1120 M
0 63 V
0 5032 R
0 -63 V
stroke
8134 840 M
[ [(Helvetica) 280.0 0.0 true true 0 ( 18)]
] -93.3 MCshow
1.000 UL
LTb
LCb setrgbcolor
1.000 UL
LTb
LCb setrgbcolor
1344 6215 N
0 -5095 V
6790 0 V
0 5095 V
-6790 0 V
Z stroke
LCb setrgbcolor
364 3667 M
currentpoint gsave translate -270 rotate 0 0 moveto
[ [(Helvetica) 280.0 0.0 true true 0 (Sensitivity		|J)]
[(Symbol) 224.0 -84.0 true true 0 (q)]
[(Helvetica) 179.2 -151.2 true true 0 (m)]
[(Helvetica) 280.0 0.0 true true 0 (|)]
] -42.9 MCshow
grestore
LTb
LCb setrgbcolor
4739 420 M
[ [(Helvetica) 300.0 0.0 true true 0 (Time, t \(s\))]
] -100.0 MCshow
LTb
1.000 UP
1684 5960 M
[ [(Helvetica) 280.0 0.0 true true 0 (\(b\))]
] -93.3 MLshow
1.000 UL
LTb
LCb setrgbcolor
% Begin plot #1
4.000 UL
LT0
LC0 setrgbcolor
LCb setrgbcolor
5152 5907 M
[ [(Helvetica) 260.0 0.0 true true 0 (K)]
] -86.7 MRshow
LT0
5320 5907 M
735 0 V
1582 3824 M
37 -337 V
38 -633 V
38 -981 V
38 1229 V
37 396 V
38 227 V
38 151 V
37 110 V
38 84 V
38 68 V
38 58 V
37 51 V
38 47 V
38 45 V
37 45 V
38 43 V
38 44 V
38 42 V
37 41 V
38 40 V
38 37 V
38 35 V
37 30 V
38 26 V
38 21 V
37 15 V
38 8 V
38 1 V
38 -7 V
37 -17 V
38 -26 V
38 -40 V
37 -53 V
38 -72 V
38 -93 V
38 -125 V
37 -169 V
38 -243 V
38 -402 V
38 -1060 V
37 622 V
38 664 V
38 344 V
37 231 V
38 171 V
38 132 V
38 104 V
37 84 V
38 65 V
38 51 V
37 37 V
38 25 V
38 13 V
38 2 V
37 -11 V
38 -23 V
38 -36 V
38 -51 V
37 -69 V
38 -90 V
38 -117 V
37 -155 V
38 -215 V
38 -326 V
38 -632 V
37 -713 V
38 1131 V
38 422 V
37 260 V
38 182 V
38 138 V
38 105 V
37 82 V
38 63 V
38 47 V
38 32 V
37 20 V
38 8 V
38 -5 V
37 -17 V
38 -29 V
38 -43 V
38 -58 V
37 -77 V
38 -98 V
38 -127 V
37 -167 V
38 -231 V
38 -354 V
38 -731 V
37 -268 V
38 903 V
38 384 V
38 240 V
37 170 V
38 127 V
38 96 V
37 73 V
38 55 V
38 38 V
38 25 V
37 11 V
stroke 5429 4974 M
38 -1 V
38 -14 V
37 -27 V
38 -41 V
38 -56 V
38 -73 V
37 -95 V
38 -122 V
38 -160 V
38 -218 V
37 -327 V
38 -620 V
38 -836 V
37 1194 V
38 423 V
38 257 V
38 178 V
37 132 V
38 100 V
38 76 V
37 57 V
38 41 V
38 27 V
38 13 V
37 1 V
38 -11 V
38 -24 V
38 -37 V
37 -51 V
38 -67 V
38 -86 V
37 -110 V
38 -141 V
38 -187 V
38 -264 V
37 -425 V
38 -1124 V
38 688 V
37 631 V
38 321 V
38 211 V
38 150 V
37 113 V
38 84 V
38 63 V
38 46 V
37 30 V
38 16 V
38 2 V
37 -9 V
38 -23 V
38 -37 V
38 -50 V
37 -68 V
38 -87 V
38 -111 V
37 -145 V
38 -192 V
38 -275 V
38 -455 V
37 -1434 V
38 1174 V
38 571 V
38 306 V
37 203 V
38 147 V
38 110 V
37 83 V
% End plot #1
% Begin plot #2
stroke
LT1
LC1 setrgbcolor
LCb setrgbcolor
5152 5417 M
[ [(Helvetica) 260.0 0.0 true true 0 (K)]
[(Helvetica) 208.0 -78.0 true true 0 (skin)]
] -60.7 MRshow
LT1
5320 5417 M
735 0 V
1582 5230 M
37 175 V
38 131 V
38 98 V
38 74 V
37 53 V
38 36 V
38 22 V
37 8 V
38 -5 V
38 -18 V
38 -30 V
37 -43 V
38 -58 V
38 -74 V
37 -92 V
38 -117 V
38 -148 V
38 -193 V
37 -268 V
38 -428 V
38 -1097 V
38 618 V
37 634 V
38 318 V
38 205 V
37 145 V
38 106 V
38 78 V
38 57 V
37 39 V
38 24 V
38 11 V
37 -3 V
38 -15 V
38 -27 V
38 -40 V
37 -54 V
38 -70 V
38 -87 V
38 -109 V
37 -138 V
38 -177 V
38 -241 V
37 -361 V
38 -722 V
38 -362 V
38 927 V
37 378 V
38 232 V
38 160 V
37 115 V
38 86 V
38 62 V
38 44 V
37 27 V
38 13 V
38 1 V
38 -13 V
37 -25 V
38 -38 V
38 -52 V
37 -67 V
38 -85 V
38 -107 V
38 -134 V
37 -173 V
38 -233 V
38 -347 V
37 -667 V
38 -620 V
38 1055 V
38 398 V
37 240 V
38 165 V
38 120 V
38 88 V
37 65 V
38 47 V
38 30 V
37 16 V
38 3 V
38 -9 V
38 -22 V
37 -33 V
38 -47 V
38 -62 V
37 -77 V
38 -96 V
38 -121 V
38 -152 V
37 -199 V
38 -277 V
38 -447 V
38 -1238 V
37 856 V
38 595 V
38 306 V
37 198 V
38 139 V
38 102 V
38 75 V
37 53 V
stroke 5429 4340 M
38 36 V
38 21 V
37 7 V
38 -6 V
38 -19 V
38 -32 V
37 -45 V
38 -60 V
38 -76 V
38 -97 V
37 -120 V
38 -154 V
38 -203 V
37 -286 V
38 -474 V
38 -1590 V
38 1367 V
37 547 V
38 293 V
38 193 V
37 138 V
38 102 V
38 75 V
38 55 V
37 39 V
38 23 V
38 10 V
38 -2 V
37 -13 V
38 -26 V
38 -38 V
37 -50 V
38 -65 V
38 -80 V
38 -100 V
37 -123 V
38 -156 V
38 -202 V
37 -281 V
38 -452 V
38 -1267 V
38 896 V
37 587 V
38 302 V
38 194 V
38 137 V
37 99 V
38 72 V
38 50 V
37 33 V
38 17 V
38 3 V
38 -10 V
37 -24 V
38 -37 V
38 -51 V
37 -67 V
38 -86 V
38 -108 V
38 -137 V
37 -178 V
38 -244 V
38 -372 V
38 -778 V
37 -137 V
38 839 V
38 366 V
37 228 V
% End plot #2
% Begin plot #3
stroke
LT2
LC2 setrgbcolor
LCb setrgbcolor
6895 5907 M
[ [(Helvetica) 260.0 0.0 true true 0 (S)]
[(Helvetica) 208.0 -78.0 true true 0 (s)]
] -60.7 MRshow
LT2
7063 5907 M
735 0 V
1582 4860 M
37 -40 V
38 -70 V
38 -101 V
38 -135 V
37 -182 V
38 -255 V
38 -402 V
37 -944 V
38 318 V
38 700 V
38 336 V
37 214 V
38 151 V
38 111 V
37 83 V
38 60 V
38 42 V
38 27 V
37 13 V
38 0 V
38 -13 V
38 -26 V
37 -38 V
38 -53 V
38 -69 V
37 -87 V
38 -109 V
38 -140 V
38 -181 V
37 -249 V
38 -385 V
38 -840 V
37 50 V
38 774 V
38 352 V
38 222 V
37 155 V
38 113 V
38 85 V
38 62 V
37 43 V
38 28 V
38 14 V
37 1 V
38 -12 V
38 -25 V
38 -37 V
37 -52 V
38 -67 V
38 -85 V
37 -108 V
38 -136 V
38 -178 V
38 -242 V
37 -369 V
38 -764 V
38 -188 V
38 858 V
37 368 V
38 229 V
38 159 V
37 117 V
38 86 V
38 64 V
38 45 V
37 29 V
38 15 V
38 2 V
37 -11 V
38 -24 V
38 -36 V
38 -51 V
37 -66 V
38 -84 V
38 -105 V
38 -134 V
37 -174 V
38 -236 V
38 -355 V
37 -704 V
38 -424 V
38 959 V
38 386 V
37 236 V
38 163 V
38 119 V
37 89 V
38 65 V
38 46 V
38 31 V
37 16 V
38 2 V
38 -9 V
38 -23 V
37 -35 V
38 -50 V
38 -64 V
37 -83 V
38 -103 V
38 -132 V
38 -170 V
37 -229 V
stroke 5429 3014 M
38 -341 V
38 -650 V
37 -702 V
38 1102 V
38 406 V
38 244 V
37 168 V
38 122 V
38 91 V
38 66 V
37 48 V
38 32 V
38 17 V
37 4 V
38 -9 V
38 -22 V
38 -34 V
37 -48 V
38 -64 V
38 -81 V
37 -102 V
38 -129 V
38 -166 V
38 -224 V
37 -329 V
38 -608 V
26 -685 V
21 0 R
29 968 V
37 426 V
38 252 V
38 172 V
37 125 V
38 93 V
38 69 V
38 49 V
37 32 V
38 19 V
38 4 V
37 -8 V
38 -20 V
38 -33 V
38 -47 V
37 -62 V
38 -80 V
38 -100 V
38 -126 V
37 -163 V
38 -217 V
38 -317 V
37 -567 V
12 -469 V
49 0 R
15 623 V
38 451 V
37 262 V
38 178 V
38 128 V
37 95 V
38 70 V
38 51 V
38 34 V
37 19 V
38 6 V
38 -7 V
38 -20 V
37 -32 V
38 -46 V
38 -61 V
37 -78 V
% End plot #3
% Begin plot #4
stroke
LT3
LC3 setrgbcolor
LCb setrgbcolor
6895 5417 M
[ [(Helvetica) 260.0 0.0 true true 0 (S)]
[(Helvetica) 208.0 -78.0 true true 0 (y)]
] -60.7 MRshow
LT3
7063 5417 M
735 0 V
1582 2431 M
37 377 V
38 304 V
38 250 V
38 210 V
37 179 V
38 154 V
38 133 V
37 117 V
38 102 V
38 89 V
38 77 V
37 68 V
38 59 V
38 50 V
37 43 V
38 36 V
38 29 V
38 23 V
37 17 V
38 12 V
38 6 V
38 1 V
37 -4 V
38 -10 V
38 -14 V
37 -18 V
38 -23 V
38 -28 V
38 -32 V
37 -36 V
38 -40 V
38 -44 V
37 -47 V
38 -51 V
38 -53 V
38 -55 V
37 -56 V
38 -56 V
38 -55 V
38 -52 V
37 -48 V
38 -42 V
38 -35 V
37 -25 V
38 -15 V
38 -4 V
38 6 V
37 17 V
38 25 V
38 33 V
37 38 V
38 41 V
38 44 V
38 45 V
37 44 V
38 44 V
38 42 V
38 39 V
37 37 V
38 33 V
38 31 V
37 27 V
38 24 V
38 21 V
38 17 V
37 13 V
38 11 V
38 7 V
37 4 V
38 1 V
38 -3 V
38 -5 V
37 -8 V
38 -11 V
38 -13 V
38 -16 V
37 -18 V
38 -20 V
38 -22 V
37 -23 V
38 -24 V
38 -25 V
38 -26 V
37 -25 V
38 -26 V
38 -24 V
37 -23 V
38 -20 V
38 -19 V
38 -16 V
37 -13 V
38 -9 V
38 -6 V
38 -2 V
37 1 V
38 5 V
38 8 V
37 10 V
38 13 V
38 15 V
38 17 V
37 17 V
stroke 5429 4257 M
38 18 V
38 18 V
37 19 V
38 18 V
38 17 V
38 16 V
37 15 V
38 13 V
38 13 V
38 10 V
37 9 V
38 8 V
38 5 V
37 4 V
38 2 V
38 0 V
38 -1 V
37 -3 V
38 -4 V
38 -6 V
37 -7 V
38 -9 V
38 -9 V
38 -10 V
37 -12 V
38 -12 V
38 -12 V
38 -12 V
37 -13 V
38 -12 V
38 -12 V
37 -11 V
38 -11 V
38 -9 V
38 -9 V
37 -7 V
38 -6 V
38 -4 V
37 -3 V
38 -2 V
38 0 V
38 2 V
37 2 V
38 4 V
38 5 V
38 6 V
37 7 V
38 7 V
38 8 V
37 8 V
38 8 V
38 8 V
38 8 V
37 7 V
38 7 V
38 7 V
37 6 V
38 5 V
38 4 V
38 4 V
37 2 V
38 2 V
38 1 V
38 0 V
37 -1 V
38 -1 V
38 -3 V
37 -3 V
% End plot #4
stroke
1.000 UL
LTb
LCb setrgbcolor
1344 6215 N
0 -5095 V
6790 0 V
0 5095 V
-6790 0 V
Z stroke
1.000 UP
1.000 UL
LTb
LCb setrgbcolor
stroke
grestore
end
showpage
%%Trailer
%%DocumentFonts: Symbol Helvetica
