%!PS-Adobe-3.0 EPSF-3.0
%%Creator: MATLAB, The Mathworks, Inc. Version 7.9.0.529 (R2009b). Operating System: Linux 3.16.0-46-generic #62~14.04.1-Ubuntu SMP Tue Aug 11 16:27:16 UTC 2015 x86_64.
%%Title: ./P13MC15-finite-fixed-shift2-posterior-histograms.eps
%%CreationDate: 09/02/2015  14:33:41
%%DocumentNeededFonts: Helvetica
%%DocumentProcessColors: Cyan Magenta Yellow Black
%%LanguageLevel: 2
%%Pages: 1
%%BoundingBox:    51    82   555   713
%%EndComments

%%BeginProlog
% MathWorks dictionary
/MathWorks 160 dict begin
% definition operators
/bdef {bind def} bind def
/ldef {load def} bind def
/xdef {exch def} bdef
/xstore {exch store} bdef
% operator abbreviations
/c  /clip ldef
/cc /concat ldef
/cp /closepath ldef
/gr /grestore ldef
/gs /gsave ldef
/mt /moveto ldef
/np /newpath ldef
/cm /currentmatrix ldef
/sm /setmatrix ldef
/rm /rmoveto ldef
/rl /rlineto ldef
/s {show newpath} bdef
/sc {setcmykcolor} bdef
/sr /setrgbcolor ldef
/sg /setgray ldef
/w /setlinewidth ldef
/j /setlinejoin ldef
/cap /setlinecap ldef
/rc {rectclip} bdef
/rf {rectfill} bdef
% page state control
/pgsv () def
/bpage {/pgsv save def} bdef
/epage {pgsv restore} bdef
/bplot /gsave ldef
/eplot {stroke grestore} bdef
% orientation switch
/portraitMode 0 def /landscapeMode 1 def /rotateMode 2 def
% coordinate system mappings
/dpi2point 0 def
% font control
/FontSize 0 def
/FMS {/FontSize xstore findfont [FontSize 0 0 FontSize neg 0 0]
  makefont setfont} bdef
/reencode {exch dup where {pop load} {pop StandardEncoding} ifelse
  exch dup 3 1 roll findfont dup length dict begin
  { 1 index /FID ne {def}{pop pop} ifelse } forall
  /Encoding exch def currentdict end definefont pop} bdef
/isroman {findfont /CharStrings get /Agrave known} bdef
/FMSR {3 1 roll 1 index dup isroman {reencode} {pop pop} ifelse
  exch FMS} bdef
/csm {1 dpi2point div -1 dpi2point div scale neg translate
 dup landscapeMode eq {pop -90 rotate}
  {rotateMode eq {90 rotate} if} ifelse} bdef
% line types: solid, dotted, dashed, dotdash
/SO { [] 0 setdash } bdef
/DO { [.5 dpi2point mul 4 dpi2point mul] 0 setdash } bdef
/DA { [6 dpi2point mul] 0 setdash } bdef
/DD { [.5 dpi2point mul 4 dpi2point mul 6 dpi2point mul 4
  dpi2point mul] 0 setdash } bdef
% macros for lines and objects
/L {lineto stroke} bdef
/MP {3 1 roll moveto 1 sub {rlineto} repeat} bdef
/AP {{rlineto} repeat} bdef
/PDlw -1 def
/W {/PDlw currentlinewidth def setlinewidth} def
/PP {closepath eofill} bdef
/DP {closepath stroke} bdef
/MR {4 -2 roll moveto dup  0 exch rlineto exch 0 rlineto
  neg 0 exch rlineto closepath} bdef
/FR {MR stroke} bdef
/PR {MR fill} bdef
/L1i {{currentfile picstr readhexstring pop} image} bdef
/tMatrix matrix def
/MakeOval {newpath tMatrix currentmatrix pop translate scale
0 0 1 0 360 arc tMatrix setmatrix} bdef
/FO {MakeOval stroke} bdef
/PO {MakeOval fill} bdef
/PD {currentlinewidth 2 div 0 360 arc fill
   PDlw -1 eq not {PDlw w /PDlw -1 def} if} def
/FA {newpath tMatrix currentmatrix pop translate scale
  0 0 1 5 -2 roll arc tMatrix setmatrix stroke} bdef
/PA {newpath tMatrix currentmatrix pop	translate 0 0 moveto scale
  0 0 1 5 -2 roll arc closepath tMatrix setmatrix fill} bdef
/FAn {newpath tMatrix currentmatrix pop translate scale
  0 0 1 5 -2 roll arcn tMatrix setmatrix stroke} bdef
/PAn {newpath tMatrix currentmatrix pop translate 0 0 moveto scale
  0 0 1 5 -2 roll arcn closepath tMatrix setmatrix fill} bdef
/vradius 0 def /hradius 0 def /lry 0 def
/lrx 0 def /uly 0 def /ulx 0 def /rad 0 def
/MRR {/vradius xdef /hradius xdef /lry xdef /lrx xdef /uly xdef
  /ulx xdef newpath tMatrix currentmatrix pop ulx hradius add uly
  vradius add translate hradius vradius scale 0 0 1 180 270 arc 
  tMatrix setmatrix lrx hradius sub uly vradius add translate
  hradius vradius scale 0 0 1 270 360 arc tMatrix setmatrix
  lrx hradius sub lry vradius sub translate hradius vradius scale
  0 0 1 0 90 arc tMatrix setmatrix ulx hradius add lry vradius sub
  translate hradius vradius scale 0 0 1 90 180 arc tMatrix setmatrix
  closepath} bdef
/FRR {MRR stroke } bdef
/PRR {MRR fill } bdef
/MlrRR {/lry xdef /lrx xdef /uly xdef /ulx xdef /rad lry uly sub 2 div def
  newpath tMatrix currentmatrix pop ulx rad add uly rad add translate
  rad rad scale 0 0 1 90 270 arc tMatrix setmatrix lrx rad sub lry rad
  sub translate rad rad scale 0 0 1 270 90 arc tMatrix setmatrix
  closepath} bdef
/FlrRR {MlrRR stroke } bdef
/PlrRR {MlrRR fill } bdef
/MtbRR {/lry xdef /lrx xdef /uly xdef /ulx xdef /rad lrx ulx sub 2 div def
  newpath tMatrix currentmatrix pop ulx rad add uly rad add translate
  rad rad scale 0 0 1 180 360 arc tMatrix setmatrix lrx rad sub lry rad
  sub translate rad rad scale 0 0 1 0 180 arc tMatrix setmatrix
  closepath} bdef
/FtbRR {MtbRR stroke } bdef
/PtbRR {MtbRR fill } bdef
/stri 6 array def /dtri 6 array def
/smat 6 array def /dmat 6 array def
/tmat1 6 array def /tmat2 6 array def /dif 3 array def
/asub {/ind2 exch def /ind1 exch def dup dup
  ind1 get exch ind2 get sub exch } bdef
/tri_to_matrix {
  2 0 asub 3 1 asub 4 0 asub 5 1 asub
  dup 0 get exch 1 get 7 -1 roll astore } bdef
/compute_transform {
  dmat dtri tri_to_matrix tmat1 invertmatrix 
  smat stri tri_to_matrix tmat2 concatmatrix } bdef
/ds {stri astore pop} bdef
/dt {dtri astore pop} bdef
/db {2 copy /cols xdef /rows xdef mul dup 3 mul string
  currentfile 
  3 index 0 eq {/ASCIIHexDecode filter}
  {/ASCII85Decode filter 3 index 2 eq {/RunLengthDecode filter} if }
  ifelse exch readstring pop
  dup 0 3 index getinterval /rbmap xdef
  dup 2 index dup getinterval /gbmap xdef
  1 index dup 2 mul exch getinterval /bbmap xdef pop pop}bdef
/it {gs np dtri aload pop moveto lineto lineto cp c
  cols rows 8 compute_transform 
  rbmap gbmap bbmap true 3 colorimage gr}bdef
/il {newpath moveto lineto stroke}bdef
currentdict end def
%%EndProlog

%%BeginSetup
MathWorks begin

0 cap

end
%%EndSetup

%%Page: 1 1
%%BeginPageSetup
%%PageBoundingBox:    51    82   555   713
MathWorks begin
bpage
%%EndPageSetup

%%BeginObject: obj1
bplot

/dpi2point 12 def
landscapeMode 0216 0216 csm

  774   403  7568  6044 rc
85 dict begin %Colortable dictionary
/c0 { 0.000000 0.000000 0.000000 sr} bdef
/c1 { 1.000000 1.000000 1.000000 sr} bdef
/c2 { 0.900000 0.000000 0.000000 sr} bdef
/c3 { 0.000000 0.820000 0.000000 sr} bdef
/c4 { 0.000000 0.000000 0.800000 sr} bdef
/c5 { 0.910000 0.820000 0.320000 sr} bdef
/c6 { 1.000000 0.260000 0.820000 sr} bdef
/c7 { 0.000000 0.820000 0.820000 sr} bdef
c0
1 j
1 sg
   0    0 9073 6913 rf
6 w
0 993 3036 0 0 -993 1179 1511 4 MP
PP
-3036 0 0 993 3036 0 0 -993 1179 1511 5 MP stroke
4 w
DO
SO
6 w
0 sg
1179 1511 mt 4215 1511 L
1179  518 mt 4215  518 L
1179 1511 mt 1179  518 L
4215 1511 mt 4215  518 L
1179 1511 mt 4215 1511 L
1179 1511 mt 1179  518 L
1179 1511 mt 1179 1480 L
1179  518 mt 1179  548 L
%%IncludeResource: font Helvetica
/Helvetica /ISOLatin1Encoding 120 FMSR

1146 1656 mt 
(0) s
1786 1511 mt 1786 1480 L
1786  518 mt 1786  548 L
1753 1656 mt 
(2) s
2393 1511 mt 2393 1480 L
2393  518 mt 2393  548 L
2360 1656 mt 
(4) s
3000 1511 mt 3000 1480 L
3000  518 mt 3000  548 L
2967 1656 mt 
(6) s
3607 1511 mt 3607 1480 L
3607  518 mt 3607  548 L
3574 1656 mt 
(8) s
4215 1511 mt 4215 1480 L
4215  518 mt 4215  548 L
4149 1656 mt 
(10) s
1179 1511 mt 1209 1511 L
4215 1511 mt 4184 1511 L
1078 1555 mt 
(0) s
1179 1262 mt 1209 1262 L
4215 1262 mt 4184 1262 L
 978 1306 mt 
(0.1) s
1179 1014 mt 1209 1014 L
4215 1014 mt 4184 1014 L
 978 1058 mt 
(0.2) s
1179  766 mt 1209  766 L
4215  766 mt 4184  766 L
 978  810 mt 
(0.3) s
1179  518 mt 1209  518 L
4215  518 mt 4184  518 L
 978  562 mt 
(0.4) s
1179 1511 mt 4215 1511 L
1179  518 mt 4215  518 L
1179 1511 mt 1179  518 L
4215 1511 mt 4215  518 L
gs 1179 518 3037 994 rc
/c8 { 0.000000 0.000000 0.562500 sr} bdef
c8
0 819 108 0 0 -819 1179 1511 4 MP
PP
0 sg
-108 0 0 819 108 0 0 -819 1179 1511 5 MP stroke
c8
0 447 108 0 0 -447 1287 1511 4 MP
PP
0 sg
-108 0 0 447 108 0 0 -447 1287 1511 5 MP stroke
c8
0 224 108 0 0 -224 1395 1511 4 MP
PP
0 sg
-108 0 0 224 108 0 0 -224 1395 1511 5 MP stroke
c8
0 153 108 0 0 -153 1503 1511 4 MP
PP
0 sg
-108 0 0 153 108 0 0 -153 1503 1511 5 MP stroke
c8
0 111 108 0 0 -111 1611 1511 4 MP
PP
0 sg
-108 0 0 111 108 0 0 -111 1611 1511 5 MP stroke
c8
0 110 108 0 0 -110 1719 1511 4 MP
PP
0 sg
-108 0 0 110 108 0 0 -110 1719 1511 5 MP stroke
c8
0 133 108 0 0 -133 1827 1511 4 MP
PP
0 sg
-108 0 0 133 108 0 0 -133 1827 1511 5 MP stroke
c8
0 89 108 0 0 -89 1935 1511 4 MP
PP
0 sg
-108 0 0 89 108 0 0 -89 1935 1511 5 MP stroke
c8
0 161 108 0 0 -161 2043 1511 4 MP
PP
0 sg
-108 0 0 161 108 0 0 -161 2043 1511 5 MP stroke
c8
0 160 108 0 0 -160 2151 1511 4 MP
PP
0 sg
-108 0 0 160 108 0 0 -160 2151 1511 5 MP stroke
c8
0 344 108 0 0 -344 2259 1511 4 MP
PP
0 sg
-108 0 0 344 108 0 0 -344 2259 1511 5 MP stroke
c8
0 469 109 0 0 -469 2367 1511 4 MP
PP
0 sg
-109 0 0 469 109 0 0 -469 2367 1511 5 MP stroke
c8
0 714 108 0 0 -714 2476 1511 4 MP
PP
0 sg
-108 0 0 714 108 0 0 -714 2476 1511 5 MP stroke
c8
0 655 108 0 0 -655 2584 1511 4 MP
PP
0 sg
-108 0 0 655 108 0 0 -655 2584 1511 5 MP stroke
c8
0 699 108 0 0 -699 2692 1511 4 MP
PP
0 sg
-108 0 0 699 108 0 0 -699 2692 1511 5 MP stroke
c8
0 566 108 0 0 -566 2800 1511 4 MP
PP
0 sg
-108 0 0 566 108 0 0 -566 2800 1511 5 MP stroke
c8
0 492 108 0 0 -492 2908 1511 4 MP
PP
0 sg
-108 0 0 492 108 0 0 -492 2908 1511 5 MP stroke
c8
0 310 108 0 0 -310 3016 1511 4 MP
PP
0 sg
-108 0 0 310 108 0 0 -310 3016 1511 5 MP stroke
c8
0 167 108 0 0 -167 3124 1511 4 MP
PP
0 sg
-108 0 0 167 108 0 0 -167 3124 1511 5 MP stroke
c8
0 81 108 0 0 -81 3232 1511 4 MP
PP
0 sg
-108 0 0 81 108 0 0 -81 3232 1511 5 MP stroke
c8
0 53 108 0 0 -53 3340 1511 4 MP
PP
0 sg
-108 0 0 53 108 0 0 -53 3340 1511 5 MP stroke
c8
0 24 108 0 0 -24 3448 1511 4 MP
PP
0 sg
-108 0 0 24 108 0 0 -24 3448 1511 5 MP stroke
c8
0 2 108 0 0 -2 3556 1511 4 MP
PP
0 sg
-108 0 0 2 108 0 0 -2 3556 1511 5 MP stroke
c8
0 2 109 0 0 -2 3664 1511 4 MP
PP
0 sg
-109 0 0 2 109 0 0 -2 3664 1511 5 MP stroke
c8
0 2 108 0 0 -2 3773 1511 4 MP
PP
0 sg
-108 0 0 2 108 0 0 -2 3773 1511 5 MP stroke
3036 0 1179 1511 2 MP stroke
gr

%%IncludeResource: font Helvetica
/Helvetica /ISOLatin1Encoding 144 FMSR

2656 1817 mt 
(L) s
%%IncludeResource: font Helvetica
/Helvetica /ISOLatin1Encoding 108 FMSR

 899 1415 mt  -90 rotate
(Posterior density) s
90 rotate
gs 1179 518 3037 994 rc
/c9 { 1.000000 0.000000 0.000000 sr} bdef
c9
0 -993 2035 1511 2 MP stroke
gr

c9
1 sg
0 993 3036 0 0 -993 5174 1511 4 MP
PP
-3036 0 0 993 3036 0 0 -993 5174 1511 5 MP stroke
4 w
DO
SO
6 w
0 sg
5174 1511 mt 8210 1511 L
5174  518 mt 8210  518 L
5174 1511 mt 5174  518 L
8210 1511 mt 8210  518 L
5174 1511 mt 8210 1511 L
5174 1511 mt 5174  518 L
5174 1511 mt 5174 1480 L
5174  518 mt 5174  548 L
%%IncludeResource: font Helvetica
/Helvetica /ISOLatin1Encoding 120 FMSR

5141 1656 mt 
(0) s
5933 1511 mt 5933 1480 L
5933  518 mt 5933  548 L
5900 1656 mt 
(1) s
6692 1511 mt 6692 1480 L
6692  518 mt 6692  548 L
6659 1656 mt 
(2) s
7451 1511 mt 7451 1480 L
7451  518 mt 7451  548 L
7418 1656 mt 
(3) s
8210 1511 mt 8210 1480 L
8210  518 mt 8210  548 L
8177 1656 mt 
(4) s
5174 1511 mt 5204 1511 L
8210 1511 mt 8179 1511 L
5073 1555 mt 
(0) s
5174 1262 mt 5204 1262 L
8210 1262 mt 8179 1262 L
5073 1306 mt 
(1) s
5174 1014 mt 5204 1014 L
8210 1014 mt 8179 1014 L
5073 1058 mt 
(2) s
5174  766 mt 5204  766 L
8210  766 mt 8179  766 L
5073  810 mt 
(3) s
5174  518 mt 5204  518 L
8210  518 mt 8179  518 L
5073  562 mt 
(4) s
5174 1511 mt 8210 1511 L
5174  518 mt 8210  518 L
5174 1511 mt 5174  518 L
8210 1511 mt 8210  518 L
gs 5174 518 3037 994 rc
c8
0 11 108 0 0 -11 5343 1511 4 MP
PP
0 sg
-108 0 0 11 108 0 0 -11 5343 1511 5 MP stroke
c8
0 246 108 0 0 -246 5451 1511 4 MP
PP
0 sg
-108 0 0 246 108 0 0 -246 5451 1511 5 MP stroke
c8
0 104 107 0 0 -104 5559 1511 4 MP
PP
0 sg
-107 0 0 104 107 0 0 -104 5559 1511 5 MP stroke
c8
0 0 108 0 0 0 5666 1511 4 MP
PP
0 sg
-108 0 0 0 108 0 0 0 5666 1511 5 MP stroke
c8
0 0 108 0 0 0 5774 1511 4 MP
PP
0 sg
-108 0 0 0 108 0 0 0 5774 1511 5 MP stroke
c8
0 0 108 0 0 0 5882 1511 4 MP
PP
0 sg
-108 0 0 0 108 0 0 0 5882 1511 5 MP stroke
c8
0 0 108 0 0 0 5990 1511 4 MP
PP
0 sg
-108 0 0 0 108 0 0 0 5990 1511 5 MP stroke
c8
0 0 108 0 0 0 6098 1511 4 MP
PP
0 sg
-108 0 0 0 108 0 0 0 6098 1511 5 MP stroke
c8
0 0 108 0 0 0 6206 1511 4 MP
PP
0 sg
-108 0 0 0 108 0 0 0 6206 1511 5 MP stroke
c8
0 0 107 0 0 0 6314 1511 4 MP
PP
0 sg
-107 0 0 0 107 0 0 0 6314 1511 5 MP stroke
c8
0 0 108 0 0 0 6421 1511 4 MP
PP
0 sg
-108 0 0 0 108 0 0 0 6421 1511 5 MP stroke
c8
0 0 108 0 0 0 6529 1511 4 MP
PP
0 sg
-108 0 0 0 108 0 0 0 6529 1511 5 MP stroke
c8
0 0 108 0 0 0 6637 1511 4 MP
PP
0 sg
-108 0 0 0 108 0 0 0 6637 1511 5 MP stroke
c8
0 0 108 0 0 0 6745 1511 4 MP
PP
0 sg
-108 0 0 0 108 0 0 0 6745 1511 5 MP stroke
c8
0 0 108 0 0 0 6853 1511 4 MP
PP
0 sg
-108 0 0 0 108 0 0 0 6853 1511 5 MP stroke
c8
0 0 107 0 0 0 6961 1511 4 MP
PP
0 sg
-107 0 0 0 107 0 0 0 6961 1511 5 MP stroke
c8
0 0 108 0 0 0 7068 1511 4 MP
PP
0 sg
-108 0 0 0 108 0 0 0 7068 1511 5 MP stroke
c8
0 0 108 0 0 0 7176 1511 4 MP
PP
0 sg
-108 0 0 0 108 0 0 0 7176 1511 5 MP stroke
c8
0 0 108 0 0 0 7284 1511 4 MP
PP
0 sg
-108 0 0 0 108 0 0 0 7284 1511 5 MP stroke
c8
0 0 108 0 0 0 7392 1511 4 MP
PP
0 sg
-108 0 0 0 108 0 0 0 7392 1511 5 MP stroke
c8
0 3 108 0 0 -3 7500 1511 4 MP
PP
0 sg
-108 0 0 3 108 0 0 -3 7500 1511 5 MP stroke
c8
0 105 108 0 0 -105 7608 1511 4 MP
PP
0 sg
-108 0 0 105 108 0 0 -105 7608 1511 5 MP stroke
c8
0 646 107 0 0 -646 7716 1511 4 MP
PP
0 sg
-107 0 0 646 107 0 0 -646 7716 1511 5 MP stroke
c8
0 576 108 0 0 -576 7823 1511 4 MP
PP
0 sg
-108 0 0 576 108 0 0 -576 7823 1511 5 MP stroke
c8
0 59 108 0 0 -59 7931 1511 4 MP
PP
0 sg
-108 0 0 59 108 0 0 -59 7931 1511 5 MP stroke
3036 0 5174 1511 2 MP stroke
gr

%%IncludeResource: font Helvetica
/Helvetica /ISOLatin1Encoding 144 FMSR

6621 1783 mt 
(L) s
%%IncludeResource: font Helvetica
/Helvetica /ISOLatin1Encoding 108 FMSR

6701 1855 mt 
(e) s
4994 1415 mt  -90 rotate
(Posterior density) s
90 rotate
gs 5174 518 3037 994 rc
c9
0 -993 7591 1511 2 MP stroke
gr

c9
1 sg
0 993 3036 0 0 -993 1179 3026 4 MP
PP
-3036 0 0 993 3036 0 0 -993 1179 3026 5 MP stroke
4 w
DO
SO
6 w
0 sg
1179 3026 mt 4215 3026 L
1179 2033 mt 4215 2033 L
1179 3026 mt 1179 2033 L
4215 3026 mt 4215 2033 L
1179 3026 mt 4215 3026 L
1179 3026 mt 1179 2033 L
1179 3026 mt 1179 2995 L
1179 2033 mt 1179 2063 L
%%IncludeResource: font Helvetica
/Helvetica /ISOLatin1Encoding 120 FMSR

1076 3171 mt 
(-8) s
1938 3026 mt 1938 2995 L
1938 2033 mt 1938 2063 L
1835 3171 mt 
(-7) s
2697 3026 mt 2697 2995 L
2697 2033 mt 2697 2063 L
2594 3171 mt 
(-6) s
3456 3026 mt 3456 2995 L
3456 2033 mt 3456 2063 L
3353 3171 mt 
(-5) s
4215 3026 mt 4215 2995 L
4215 2033 mt 4215 2063 L
4112 3171 mt 
(-4) s
1179 3026 mt 1209 3026 L
4215 3026 mt 4184 3026 L
1078 3070 mt 
(0) s
1179 2827 mt 1209 2827 L
4215 2827 mt 4184 2827 L
 978 2871 mt 
(0.1) s
1179 2628 mt 1209 2628 L
4215 2628 mt 4184 2628 L
 978 2672 mt 
(0.2) s
1179 2430 mt 1209 2430 L
4215 2430 mt 4184 2430 L
 978 2474 mt 
(0.3) s
1179 2231 mt 1209 2231 L
4215 2231 mt 4184 2231 L
 978 2275 mt 
(0.4) s
1179 3026 mt 4215 3026 L
1179 2033 mt 4215 2033 L
1179 3026 mt 1179 2033 L
4215 3026 mt 4215 2033 L
gs 1179 2033 3037 994 rc
c8
0 634 103 0 0 -634 1179 3026 4 MP
PP
0 sg
-103 0 0 634 103 0 0 -634 1179 3026 5 MP stroke
c8
0 556 103 0 0 -556 1282 3026 4 MP
PP
0 sg
-103 0 0 556 103 0 0 -556 1282 3026 5 MP stroke
c8
0 846 103 0 0 -846 1385 3026 4 MP
PP
0 sg
-103 0 0 846 103 0 0 -846 1385 3026 5 MP stroke
c8
0 825 103 0 0 -825 1488 3026 4 MP
PP
0 sg
-103 0 0 825 103 0 0 -825 1488 3026 5 MP stroke
c8
0 761 102 0 0 -761 1591 3026 4 MP
PP
0 sg
-102 0 0 761 102 0 0 -761 1591 3026 5 MP stroke
c8
0 755 103 0 0 -755 1693 3026 4 MP
PP
0 sg
-103 0 0 755 103 0 0 -755 1693 3026 5 MP stroke
c8
0 658 103 0 0 -658 1796 3026 4 MP
PP
0 sg
-103 0 0 658 103 0 0 -658 1796 3026 5 MP stroke
c8
0 632 103 0 0 -632 1899 3026 4 MP
PP
0 sg
-103 0 0 632 103 0 0 -632 1899 3026 5 MP stroke
c8
0 602 103 0 0 -602 2002 3026 4 MP
PP
0 sg
-103 0 0 602 103 0 0 -602 2002 3026 5 MP stroke
c8
0 656 103 0 0 -656 2105 3026 4 MP
PP
0 sg
-103 0 0 656 103 0 0 -656 2105 3026 5 MP stroke
c8
0 772 103 0 0 -772 2208 3026 4 MP
PP
0 sg
-103 0 0 772 103 0 0 -772 2208 3026 5 MP stroke
c8
0 677 102 0 0 -677 2311 3026 4 MP
PP
0 sg
-102 0 0 677 102 0 0 -677 2311 3026 5 MP stroke
c8
0 641 103 0 0 -641 2413 3026 4 MP
PP
0 sg
-103 0 0 641 103 0 0 -641 2413 3026 5 MP stroke
c8
0 769 103 0 0 -769 2516 3026 4 MP
PP
0 sg
-103 0 0 769 103 0 0 -769 2516 3026 5 MP stroke
c8
0 634 103 0 0 -634 2619 3026 4 MP
PP
0 sg
-103 0 0 634 103 0 0 -634 2619 3026 5 MP stroke
c8
0 741 103 0 0 -741 2722 3026 4 MP
PP
0 sg
-103 0 0 741 103 0 0 -741 2722 3026 5 MP stroke
c8
0 664 103 0 0 -664 2825 3026 4 MP
PP
0 sg
-103 0 0 664 103 0 0 -664 2825 3026 5 MP stroke
c8
0 629 102 0 0 -629 2928 3026 4 MP
PP
0 sg
-102 0 0 629 102 0 0 -629 2928 3026 5 MP stroke
c8
0 645 103 0 0 -645 3030 3026 4 MP
PP
0 sg
-103 0 0 645 103 0 0 -645 3030 3026 5 MP stroke
c8
0 507 103 0 0 -507 3133 3026 4 MP
PP
0 sg
-103 0 0 507 103 0 0 -507 3133 3026 5 MP stroke
c8
0 504 103 0 0 -504 3236 3026 4 MP
PP
0 sg
-103 0 0 504 103 0 0 -504 3236 3026 5 MP stroke
c8
0 304 103 0 0 -304 3339 3026 4 MP
PP
0 sg
-103 0 0 304 103 0 0 -304 3339 3026 5 MP stroke
c8
0 205 103 0 0 -205 3442 3026 4 MP
PP
0 sg
-103 0 0 205 103 0 0 -205 3442 3026 5 MP stroke
c8
0 46 103 0 0 -46 3545 3026 4 MP
PP
0 sg
-103 0 0 46 103 0 0 -46 3545 3026 5 MP stroke
c8
0 8 102 0 0 -8 3648 3026 4 MP
PP
0 sg
-102 0 0 8 102 0 0 -8 3648 3026 5 MP stroke
3036 0 1179 3026 2 MP stroke
gr

%%IncludeResource: font Helvetica
/Helvetica /ISOLatin1Encoding 144 FMSR

2418 3298 mt 
(log) s
%%IncludeResource: font Helvetica
/Helvetica /ISOLatin1Encoding 108 FMSR

2610 3370 mt 
(10) s
%%IncludeResource: font Helvetica
/Helvetica /ISOLatin1Encoding 144 FMSR

2730 3298 mt 
(\(S) s
%%IncludeResource: font Helvetica
/Helvetica /ISOLatin1Encoding 108 FMSR

2874 3370 mt 
(s) s
%%IncludeResource: font Helvetica
/Helvetica /ISOLatin1Encoding 144 FMSR

2928 3298 mt 
(\)) s
%%IncludeResource: font Helvetica
/Helvetica /ISOLatin1Encoding 108 FMSR

 899 2930 mt  -90 rotate
(Posterior density) s
90 rotate
gs 1179 2033 3037 994 rc
c9
0 -993 3482 3026 2 MP stroke
gr

c9
1 sg
0 993 3036 0 0 -993 5174 3026 4 MP
PP
-3036 0 0 993 3036 0 0 -993 5174 3026 5 MP stroke
4 w
DO
SO
6 w
0 sg
5174 3026 mt 8210 3026 L
5174 2033 mt 8210 2033 L
5174 3026 mt 5174 2033 L
8210 3026 mt 8210 2033 L
5174 3026 mt 8210 3026 L
5174 3026 mt 5174 2033 L
5174 3026 mt 5174 2995 L
5174 2033 mt 5174 2063 L
%%IncludeResource: font Helvetica
/Helvetica /ISOLatin1Encoding 120 FMSR

5071 3171 mt 
(-3) s
5680 3026 mt 5680 2995 L
5680 2033 mt 5680 2063 L
5527 3171 mt 
(-2.5) s
6186 3026 mt 6186 2995 L
6186 2033 mt 6186 2063 L
6083 3171 mt 
(-2) s
6692 3026 mt 6692 2995 L
6692 2033 mt 6692 2063 L
6539 3171 mt 
(-1.5) s
7198 3026 mt 7198 2995 L
7198 2033 mt 7198 2063 L
7095 3171 mt 
(-1) s
7704 3026 mt 7704 2995 L
7704 2033 mt 7704 2063 L
7551 3171 mt 
(-0.5) s
8210 3026 mt 8210 2995 L
8210 2033 mt 8210 2063 L
8177 3171 mt 
(0) s
5174 3026 mt 5204 3026 L
8210 3026 mt 8179 3026 L
5073 3070 mt 
(0) s
5174 2529 mt 5204 2529 L
8210 2529 mt 8179 2529 L
4973 2573 mt 
(0.5) s
5174 2033 mt 5204 2033 L
8210 2033 mt 8179 2033 L
5073 2077 mt 
(1) s
5174 3026 mt 8210 3026 L
5174 2033 mt 8210 2033 L
5174 3026 mt 5174 2033 L
8210 3026 mt 8210 2033 L
gs 5174 2033 3037 994 rc
c8
0 176 86 0 0 -176 5333 3026 4 MP
PP
0 sg
-86 0 0 176 86 0 0 -176 5333 3026 5 MP stroke
c8
0 525 86 0 0 -525 5419 3026 4 MP
PP
0 sg
-86 0 0 525 86 0 0 -525 5419 3026 5 MP stroke
c8
0 387 86 0 0 -387 5505 3026 4 MP
PP
0 sg
-86 0 0 387 86 0 0 -387 5505 3026 5 MP stroke
c8
0 388 86 0 0 -388 5591 3026 4 MP
PP
0 sg
-86 0 0 388 86 0 0 -388 5591 3026 5 MP stroke
c8
0 497 86 0 0 -497 5677 3026 4 MP
PP
0 sg
-86 0 0 497 86 0 0 -497 5677 3026 5 MP stroke
c8
0 478 86 0 0 -478 5763 3026 4 MP
PP
0 sg
-86 0 0 478 86 0 0 -478 5763 3026 5 MP stroke
c8
0 418 86 0 0 -418 5849 3026 4 MP
PP
0 sg
-86 0 0 418 86 0 0 -418 5849 3026 5 MP stroke
c8
0 390 86 0 0 -390 5935 3026 4 MP
PP
0 sg
-86 0 0 390 86 0 0 -390 5935 3026 5 MP stroke
c8
0 448 86 0 0 -448 6021 3026 4 MP
PP
0 sg
-86 0 0 448 86 0 0 -448 6021 3026 5 MP stroke
c8
0 475 86 0 0 -475 6107 3026 4 MP
PP
0 sg
-86 0 0 475 86 0 0 -475 6107 3026 5 MP stroke
c8
0 366 86 0 0 -366 6193 3026 4 MP
PP
0 sg
-86 0 0 366 86 0 0 -366 6193 3026 5 MP stroke
c8
0 349 86 0 0 -349 6279 3026 4 MP
PP
0 sg
-86 0 0 349 86 0 0 -349 6279 3026 5 MP stroke
c8
0 482 86 0 0 -482 6365 3026 4 MP
PP
0 sg
-86 0 0 482 86 0 0 -482 6365 3026 5 MP stroke
c8
0 493 86 0 0 -493 6451 3026 4 MP
PP
0 sg
-86 0 0 493 86 0 0 -493 6451 3026 5 MP stroke
c8
0 469 86 0 0 -469 6537 3026 4 MP
PP
0 sg
-86 0 0 469 86 0 0 -469 6537 3026 5 MP stroke
c8
0 489 86 0 0 -489 6623 3026 4 MP
PP
0 sg
-86 0 0 489 86 0 0 -489 6623 3026 5 MP stroke
c8
0 447 86 0 0 -447 6709 3026 4 MP
PP
0 sg
-86 0 0 447 86 0 0 -447 6709 3026 5 MP stroke
c8
0 448 86 0 0 -448 6795 3026 4 MP
PP
0 sg
-86 0 0 448 86 0 0 -448 6795 3026 5 MP stroke
c8
0 382 86 0 0 -382 6881 3026 4 MP
PP
0 sg
-86 0 0 382 86 0 0 -382 6881 3026 5 MP stroke
c8
0 565 86 0 0 -565 6967 3026 4 MP
PP
0 sg
-86 0 0 565 86 0 0 -565 6967 3026 5 MP stroke
c8
0 482 87 0 0 -482 7053 3026 4 MP
PP
0 sg
-87 0 0 482 87 0 0 -482 7053 3026 5 MP stroke
c8
0 751 86 0 0 -751 7140 3026 4 MP
PP
0 sg
-86 0 0 751 86 0 0 -751 7140 3026 5 MP stroke
c8
0 842 86 0 0 -842 7226 3026 4 MP
PP
0 sg
-86 0 0 842 86 0 0 -842 7226 3026 5 MP stroke
c8
0 725 86 0 0 -725 7312 3026 4 MP
PP
0 sg
-86 0 0 725 86 0 0 -725 7312 3026 5 MP stroke
c8
0 223 86 0 0 -223 7398 3026 4 MP
PP
0 sg
-86 0 0 223 86 0 0 -223 7398 3026 5 MP stroke
3036 0 5174 3026 2 MP stroke
gr

%%IncludeResource: font Helvetica
/Helvetica /ISOLatin1Encoding 144 FMSR

6410 3298 mt 
(log) s
%%IncludeResource: font Helvetica
/Helvetica /ISOLatin1Encoding 108 FMSR

6602 3370 mt 
(10) s
%%IncludeResource: font Helvetica
/Helvetica /ISOLatin1Encoding 144 FMSR

6722 3298 mt 
(\(K) s
%%IncludeResource: font Helvetica
/Helvetica /ISOLatin1Encoding 108 FMSR

6866 3370 mt 
(1) s
%%IncludeResource: font Helvetica
/Helvetica /ISOLatin1Encoding 144 FMSR

6926 3298 mt 
(\)) s
%%IncludeResource: font Helvetica
/Helvetica /ISOLatin1Encoding 108 FMSR

4894 2930 mt  -90 rotate
(Posterior density) s
90 rotate
gs 5174 2033 3037 994 rc
c9
0 -993 7085 3026 2 MP stroke
gr

c9
1 sg
0 993 3036 0 0 -993 1179 4540 4 MP
PP
-3036 0 0 993 3036 0 0 -993 1179 4540 5 MP stroke
4 w
DO
SO
6 w
0 sg
1179 4540 mt 4215 4540 L
1179 3547 mt 4215 3547 L
1179 4540 mt 1179 3547 L
4215 4540 mt 4215 3547 L
1179 4540 mt 4215 4540 L
1179 4540 mt 1179 3547 L
1179 4540 mt 1179 4509 L
1179 3547 mt 1179 3577 L
%%IncludeResource: font Helvetica
/Helvetica /ISOLatin1Encoding 120 FMSR

1026 4685 mt 
(-3.4) s
1938 4540 mt 1938 4509 L
1938 3547 mt 1938 3577 L
1785 4685 mt 
(-3.2) s
2697 4540 mt 2697 4509 L
2697 3547 mt 2697 3577 L
2594 4685 mt 
(-3) s
3455 4540 mt 3455 4509 L
3455 3547 mt 3455 3577 L
3302 4685 mt 
(-2.8) s
4215 4540 mt 4215 4509 L
4215 3547 mt 4215 3577 L
4062 4685 mt 
(-2.6) s
1179 4540 mt 1209 4540 L
4215 4540 mt 4184 4540 L
1078 4584 mt 
(0) s
1179 4043 mt 1209 4043 L
4215 4043 mt 4184 4043 L
1078 4087 mt 
(5) s
1179 3547 mt 1209 3547 L
4215 3547 mt 4184 3547 L
1011 3591 mt 
(10) s
1179 4540 mt 4215 4540 L
1179 3547 mt 4215 3547 L
1179 4540 mt 1179 3547 L
4215 4540 mt 4215 3547 L
gs 1179 3547 3037 994 rc
c8
0 19 108 0 0 -19 1227 4540 4 MP
PP
0 sg
-108 0 0 19 108 0 0 -19 1227 4540 5 MP stroke
c8
0 12 109 0 0 -12 1335 4540 4 MP
PP
0 sg
-109 0 0 12 109 0 0 -12 1335 4540 5 MP stroke
c8
0 27 109 0 0 -27 1444 4540 4 MP
PP
0 sg
-109 0 0 27 109 0 0 -27 1444 4540 5 MP stroke
c8
0 18 109 0 0 -18 1553 4540 4 MP
PP
0 sg
-109 0 0 18 109 0 0 -18 1553 4540 5 MP stroke
c8
0 28 109 0 0 -28 1662 4540 4 MP
PP
0 sg
-109 0 0 28 109 0 0 -28 1662 4540 5 MP stroke
c8
0 49 108 0 0 -49 1771 4540 4 MP
PP
0 sg
-108 0 0 49 108 0 0 -49 1771 4540 5 MP stroke
c8
0 63 109 0 0 -63 1879 4540 4 MP
PP
0 sg
-109 0 0 63 109 0 0 -63 1879 4540 5 MP stroke
c8
0 44 109 0 0 -44 1988 4540 4 MP
PP
0 sg
-109 0 0 44 109 0 0 -44 1988 4540 5 MP stroke
c8
0 38 109 0 0 -38 2097 4540 4 MP
PP
0 sg
-109 0 0 38 109 0 0 -38 2097 4540 5 MP stroke
c8
0 51 109 0 0 -51 2206 4540 4 MP
PP
0 sg
-109 0 0 51 109 0 0 -51 2206 4540 5 MP stroke
c8
0 69 108 0 0 -69 2315 4540 4 MP
PP
0 sg
-108 0 0 69 108 0 0 -69 2315 4540 5 MP stroke
c8
0 77 109 0 0 -77 2423 4540 4 MP
PP
0 sg
-109 0 0 77 109 0 0 -77 2423 4540 5 MP stroke
c8
0 70 109 0 0 -70 2532 4540 4 MP
PP
0 sg
-109 0 0 70 109 0 0 -70 2532 4540 5 MP stroke
c8
0 113 109 0 0 -113 2641 4540 4 MP
PP
0 sg
-109 0 0 113 109 0 0 -113 2641 4540 5 MP stroke
c8
0 114 109 0 0 -114 2750 4540 4 MP
PP
0 sg
-109 0 0 114 109 0 0 -114 2750 4540 5 MP stroke
c8
0 114 109 0 0 -114 2859 4540 4 MP
PP
0 sg
-109 0 0 114 109 0 0 -114 2859 4540 5 MP stroke
c8
0 154 108 0 0 -154 2968 4540 4 MP
PP
0 sg
-108 0 0 154 108 0 0 -154 2968 4540 5 MP stroke
c8
0 197 109 0 0 -197 3076 4540 4 MP
PP
0 sg
-109 0 0 197 109 0 0 -197 3076 4540 5 MP stroke
c8
0 300 109 0 0 -300 3185 4540 4 MP
PP
0 sg
-109 0 0 300 109 0 0 -300 3185 4540 5 MP stroke
c8
0 498 109 0 0 -498 3294 4540 4 MP
PP
0 sg
-109 0 0 498 109 0 0 -498 3294 4540 5 MP stroke
c8
0 661 109 0 0 -661 3403 4540 4 MP
PP
0 sg
-109 0 0 661 109 0 0 -661 3403 4540 5 MP stroke
c8
0 445 108 0 0 -445 3512 4540 4 MP
PP
0 sg
-108 0 0 445 108 0 0 -445 3512 4540 5 MP stroke
c8
0 250 109 0 0 -250 3620 4540 4 MP
PP
0 sg
-109 0 0 250 109 0 0 -250 3620 4540 5 MP stroke
c8
0 59 109 0 0 -59 3729 4540 4 MP
PP
0 sg
-109 0 0 59 109 0 0 -59 3729 4540 5 MP stroke
c8
0 6 109 0 0 -6 3838 4540 4 MP
PP
0 sg
-109 0 0 6 109 0 0 -6 3838 4540 5 MP stroke
3036 0 1179 4540 2 MP stroke
gr

%%IncludeResource: font Helvetica
/Helvetica /ISOLatin1Encoding 144 FMSR

2428 4812 mt 
(log) s
%%IncludeResource: font Helvetica
/Helvetica /ISOLatin1Encoding 108 FMSR

2620 4884 mt 
(10) s
%%IncludeResource: font Helvetica
/Helvetica /ISOLatin1Encoding 144 FMSR

2740 4812 mt 
(\(K) s
%%IncludeResource: font Helvetica
/Helvetica /ISOLatin1Encoding 108 FMSR

2884 4884 mt 
(r) s
%%IncludeResource: font Helvetica
/Helvetica /ISOLatin1Encoding 144 FMSR

2919 4812 mt 
(\)) s
%%IncludeResource: font Helvetica
/Helvetica /ISOLatin1Encoding 108 FMSR

 932 4444 mt  -90 rotate
(Posterior density) s
90 rotate
gs 1179 3547 3037 994 rc
c9
0 -993 2337 4540 2 MP stroke
gr

c9
1 sg
0 993 3036 0 0 -993 5174 4540 4 MP
PP
-3036 0 0 993 3036 0 0 -993 5174 4540 5 MP stroke
4 w
DO
SO
6 w
0 sg
5174 4540 mt 8210 4540 L
5174 3547 mt 8210 3547 L
5174 4540 mt 5174 3547 L
8210 4540 mt 8210 3547 L
5174 4540 mt 8210 4540 L
5174 4540 mt 5174 3547 L
5174 4540 mt 5174 4509 L
5174 3547 mt 5174 3577 L
%%IncludeResource: font Helvetica
/Helvetica /ISOLatin1Encoding 120 FMSR

5141 4685 mt 
(0) s
5933 4540 mt 5933 4509 L
5933 3547 mt 5933 3577 L
5850 4685 mt 
(0.1) s
6692 4540 mt 6692 4509 L
6692 3547 mt 6692 3577 L
6609 4685 mt 
(0.2) s
7451 4540 mt 7451 4509 L
7451 3547 mt 7451 3577 L
7368 4685 mt 
(0.3) s
8210 4540 mt 8210 4509 L
8210 3547 mt 8210 3577 L
8127 4685 mt 
(0.4) s
5174 4540 mt 5204 4540 L
8210 4540 mt 8179 4540 L
5073 4584 mt 
(0) s
5174 4291 mt 5204 4291 L
8210 4291 mt 8179 4291 L
5073 4335 mt 
(1) s
5174 4043 mt 5204 4043 L
8210 4043 mt 8179 4043 L
5073 4087 mt 
(2) s
5174 3795 mt 5204 3795 L
8210 3795 mt 8179 3795 L
5073 3839 mt 
(3) s
5174 3547 mt 5204 3547 L
8210 3547 mt 8179 3547 L
5073 3591 mt 
(4) s
5174 4540 mt 8210 4540 L
5174 3547 mt 8210 3547 L
5174 4540 mt 5174 3547 L
8210 4540 mt 8210 3547 L
gs 5174 3547 3037 994 rc
c8
0 468 119 0 0 -468 5229 4540 4 MP
PP
0 sg
-119 0 0 468 119 0 0 -468 5229 4540 5 MP stroke
c8
0 557 119 0 0 -557 5348 4540 4 MP
PP
0 sg
-119 0 0 557 119 0 0 -557 5348 4540 5 MP stroke
c8
0 650 119 0 0 -650 5467 4540 4 MP
PP
0 sg
-119 0 0 650 119 0 0 -650 5467 4540 5 MP stroke
c8
0 723 120 0 0 -723 5586 4540 4 MP
PP
0 sg
-120 0 0 723 120 0 0 -723 5586 4540 5 MP stroke
c8
0 659 119 0 0 -659 5706 4540 4 MP
PP
0 sg
-119 0 0 659 119 0 0 -659 5706 4540 5 MP stroke
c8
0 893 119 0 0 -893 5825 4540 4 MP
PP
0 sg
-119 0 0 893 119 0 0 -893 5825 4540 5 MP stroke
c8
0 510 119 0 0 -510 5944 4540 4 MP
PP
0 sg
-119 0 0 510 119 0 0 -510 5944 4540 5 MP stroke
c8
0 533 119 0 0 -533 6063 4540 4 MP
PP
0 sg
-119 0 0 533 119 0 0 -533 6063 4540 5 MP stroke
c8
0 617 120 0 0 -617 6182 4540 4 MP
PP
0 sg
-120 0 0 617 120 0 0 -617 6182 4540 5 MP stroke
c8
0 618 119 0 0 -618 6302 4540 4 MP
PP
0 sg
-119 0 0 618 119 0 0 -618 6302 4540 5 MP stroke
c8
0 632 119 0 0 -632 6421 4540 4 MP
PP
0 sg
-119 0 0 632 119 0 0 -632 6421 4540 5 MP stroke
c8
0 661 119 0 0 -661 6540 4540 4 MP
PP
0 sg
-119 0 0 661 119 0 0 -661 6540 4540 5 MP stroke
c8
0 674 120 0 0 -674 6659 4540 4 MP
PP
0 sg
-120 0 0 674 120 0 0 -674 6659 4540 5 MP stroke
c8
0 595 119 0 0 -595 6779 4540 4 MP
PP
0 sg
-119 0 0 595 119 0 0 -595 6779 4540 5 MP stroke
c8
0 588 119 0 0 -588 6898 4540 4 MP
PP
0 sg
-119 0 0 588 119 0 0 -588 6898 4540 5 MP stroke
c8
0 616 119 0 0 -616 7017 4540 4 MP
PP
0 sg
-119 0 0 616 119 0 0 -616 7017 4540 5 MP stroke
c8
0 615 119 0 0 -615 7136 4540 4 MP
PP
0 sg
-119 0 0 615 119 0 0 -615 7136 4540 5 MP stroke
c8
0 528 120 0 0 -528 7255 4540 4 MP
PP
0 sg
-120 0 0 528 120 0 0 -528 7255 4540 5 MP stroke
c8
0 828 119 0 0 -828 7375 4540 4 MP
PP
0 sg
-119 0 0 828 119 0 0 -828 7375 4540 5 MP stroke
c8
0 695 119 0 0 -695 7494 4540 4 MP
PP
0 sg
-119 0 0 695 119 0 0 -695 7494 4540 5 MP stroke
c8
0 642 119 0 0 -642 7613 4540 4 MP
PP
0 sg
-119 0 0 642 119 0 0 -642 7613 4540 5 MP stroke
c8
0 698 120 0 0 -698 7732 4540 4 MP
PP
0 sg
-120 0 0 698 120 0 0 -698 7732 4540 5 MP stroke
c8
0 662 119 0 0 -662 7852 4540 4 MP
PP
0 sg
-119 0 0 662 119 0 0 -662 7852 4540 5 MP stroke
c8
0 652 119 0 0 -652 7971 4540 4 MP
PP
0 sg
-119 0 0 652 119 0 0 -652 7971 4540 5 MP stroke
c8
0 504 119 0 0 -504 8090 4540 4 MP
PP
0 sg
-119 0 0 504 119 0 0 -504 8090 4540 5 MP stroke
3036 0 5174 4540 2 MP stroke
gr

%%IncludeResource: font Helvetica
/Helvetica /ISOLatin1Encoding 144 FMSR

6616 4812 mt 
(S) s
%%IncludeResource: font Helvetica
/Helvetica /ISOLatin1Encoding 108 FMSR

6712 4884 mt 
(y) s
4994 4444 mt  -90 rotate
(Posterior density) s
90 rotate
gs 5174 3547 3037 994 rc
c9
0 -993 8210 4540 2 MP stroke
gr

c9
1 sg
0 993 3036 0 0 -993 1179 6054 4 MP
PP
-3036 0 0 993 3036 0 0 -993 1179 6054 5 MP stroke
4 w
DO
SO
6 w
0 sg
1179 6054 mt 4215 6054 L
1179 5061 mt 4215 5061 L
1179 6054 mt 1179 5061 L
4215 6054 mt 4215 5061 L
1179 6054 mt 4215 6054 L
1179 6054 mt 1179 5061 L
1179 6054 mt 1179 6023 L
1179 5061 mt 1179 5091 L
%%IncludeResource: font Helvetica
/Helvetica /ISOLatin1Encoding 120 FMSR

1146 6199 mt 
(0) s
1938 6054 mt 1938 6023 L
1938 5061 mt 1938 5091 L
1905 6199 mt 
(1) s
2697 6054 mt 2697 6023 L
2697 5061 mt 2697 5091 L
2664 6199 mt 
(2) s
3456 6054 mt 3456 6023 L
3456 5061 mt 3456 5091 L
3423 6199 mt 
(3) s
4215 6054 mt 4215 6023 L
4215 5061 mt 4215 5091 L
4182 6199 mt 
(4) s
1179 6054 mt 1209 6054 L
4215 6054 mt 4184 6054 L
1078 6098 mt 
(0) s
1179 5855 mt 1209 5855 L
4215 5855 mt 4184 5855 L
1078 5899 mt 
(1) s
1179 5656 mt 1209 5656 L
4215 5656 mt 4184 5656 L
1078 5700 mt 
(2) s
1179 5458 mt 1209 5458 L
4215 5458 mt 4184 5458 L
1078 5502 mt 
(3) s
1179 5259 mt 1209 5259 L
4215 5259 mt 4184 5259 L
1078 5303 mt 
(4) s
1179 5061 mt 1209 5061 L
4215 5061 mt 4184 5061 L
1078 5105 mt 
(5) s
1179 6054 mt 4215 6054 L
1179 5061 mt 4215 5061 L
1179 6054 mt 1179 5061 L
4215 6054 mt 4215 5061 L
gs 1179 5061 3037 994 rc
c8
0 47 103 0 0 -47 1366 6054 4 MP
PP
0 sg
-103 0 0 47 103 0 0 -47 1366 6054 5 MP stroke
c8
0 822 104 0 0 -822 1469 6054 4 MP
PP
0 sg
-104 0 0 822 104 0 0 -822 1469 6054 5 MP stroke
c8
0 287 103 0 0 -287 1573 6054 4 MP
PP
0 sg
-103 0 0 287 103 0 0 -287 1573 6054 5 MP stroke
c8
0 1 104 0 0 -1 1676 6054 4 MP
PP
0 sg
-104 0 0 1 104 0 0 -1 1676 6054 5 MP stroke
c8
0 0 104 0 0 0 1780 6054 4 MP
PP
0 sg
-104 0 0 0 104 0 0 0 1780 6054 5 MP stroke
c8
0 0 103 0 0 0 1884 6054 4 MP
PP
0 sg
-103 0 0 0 103 0 0 0 1884 6054 5 MP stroke
c8
0 0 104 0 0 0 1987 6054 4 MP
PP
0 sg
-104 0 0 0 104 0 0 0 1987 6054 5 MP stroke
c8
0 0 104 0 0 0 2091 6054 4 MP
PP
0 sg
-104 0 0 0 104 0 0 0 2091 6054 5 MP stroke
c8
0 0 103 0 0 0 2195 6054 4 MP
PP
0 sg
-103 0 0 0 103 0 0 0 2195 6054 5 MP stroke
c8
0 0 104 0 0 0 2298 6054 4 MP
PP
0 sg
-104 0 0 0 104 0 0 0 2298 6054 5 MP stroke
c8
0 0 103 0 0 0 2402 6054 4 MP
PP
0 sg
-103 0 0 0 103 0 0 0 2402 6054 5 MP stroke
c8
0 0 104 0 0 0 2505 6054 4 MP
PP
0 sg
-104 0 0 0 104 0 0 0 2505 6054 5 MP stroke
c8
0 0 104 0 0 0 2609 6054 4 MP
PP
0 sg
-104 0 0 0 104 0 0 0 2609 6054 5 MP stroke
c8
0 0 103 0 0 0 2713 6054 4 MP
PP
0 sg
-103 0 0 0 103 0 0 0 2713 6054 5 MP stroke
c8
0 0 104 0 0 0 2816 6054 4 MP
PP
0 sg
-104 0 0 0 104 0 0 0 2816 6054 5 MP stroke
c8
0 0 103 0 0 0 2920 6054 4 MP
PP
0 sg
-103 0 0 0 103 0 0 0 2920 6054 5 MP stroke
c8
0 0 104 0 0 0 3023 6054 4 MP
PP
0 sg
-104 0 0 0 104 0 0 0 3023 6054 5 MP stroke
c8
0 0 104 0 0 0 3127 6054 4 MP
PP
0 sg
-104 0 0 0 104 0 0 0 3127 6054 5 MP stroke
c8
0 0 103 0 0 0 3231 6054 4 MP
PP
0 sg
-103 0 0 0 103 0 0 0 3231 6054 5 MP stroke
c8
0 0 104 0 0 0 3334 6054 4 MP
PP
0 sg
-104 0 0 0 104 0 0 0 3334 6054 5 MP stroke
c8
0 1 103 0 0 -1 3438 6054 4 MP
PP
0 sg
-103 0 0 1 103 0 0 -1 3438 6054 5 MP stroke
c8
0 11 104 0 0 -11 3541 6054 4 MP
PP
0 sg
-104 0 0 11 104 0 0 -11 3541 6054 5 MP stroke
c8
0 84 104 0 0 -84 3645 6054 4 MP
PP
0 sg
-104 0 0 84 104 0 0 -84 3645 6054 5 MP stroke
c8
0 172 103 0 0 -172 3749 6054 4 MP
PP
0 sg
-103 0 0 172 103 0 0 -172 3749 6054 5 MP stroke
c8
0 34 104 0 0 -34 3852 6054 4 MP
PP
0 sg
-104 0 0 34 104 0 0 -34 3852 6054 5 MP stroke
3036 0 1179 6054 2 MP stroke
gr

%%IncludeResource: font Helvetica
/Helvetica /ISOLatin1Encoding 144 FMSR

2524 6326 mt 
(L) s
%%IncludeResource: font Helvetica
/Helvetica /ISOLatin1Encoding 108 FMSR

2604 6398 mt 
(e,obs) s
 999 5958 mt  -90 rotate
(Posterior density) s
90 rotate
gs 1179 5061 3037 994 rc
c9
0 -993 1192 6054 2 MP stroke
gr

c9
1 sg
0 993 3036 0 0 -993 5174 6054 4 MP
PP
-3036 0 0 993 3036 0 0 -993 5174 6054 5 MP stroke
4 w
DO
SO
6 w
0 sg
5174 6054 mt 8210 6054 L
5174 5061 mt 8210 5061 L
5174 6054 mt 5174 5061 L
8210 6054 mt 8210 5061 L
5174 6054 mt 8210 6054 L
5174 6054 mt 5174 5061 L
5174 6054 mt 5174 6023 L
5174 5061 mt 5174 5091 L
%%IncludeResource: font Helvetica
/Helvetica /ISOLatin1Encoding 120 FMSR

5141 6199 mt 
(0) s
6186 6054 mt 6186 6023 L
6186 5061 mt 6186 5091 L
6153 6199 mt 
(5) s
7198 6054 mt 7198 6023 L
7198 5061 mt 7198 5091 L
7132 6199 mt 
(10) s
8210 6054 mt 8210 6023 L
8210 5061 mt 8210 5091 L
8144 6199 mt 
(15) s
5174 6054 mt 5204 6054 L
8210 6054 mt 8179 6054 L
5073 6098 mt 
(0) s
5174 5855 mt 5204 5855 L
8210 5855 mt 8179 5855 L
4973 5899 mt 
(0.1) s
5174 5656 mt 5204 5656 L
8210 5656 mt 8179 5656 L
4973 5700 mt 
(0.2) s
5174 5458 mt 5204 5458 L
8210 5458 mt 8179 5458 L
4973 5502 mt 
(0.3) s
5174 5259 mt 5204 5259 L
8210 5259 mt 8179 5259 L
4973 5303 mt 
(0.4) s
5174 6054 mt 8210 6054 L
5174 5061 mt 8210 5061 L
5174 6054 mt 5174 5061 L
8210 6054 mt 8210 5061 L
gs 5174 5061 3037 994 rc
c8
0 37 89 0 0 -37 5419 6054 4 MP
PP
0 sg
-89 0 0 37 89 0 0 -37 5419 6054 5 MP stroke
c8
0 184 89 0 0 -184 5508 6054 4 MP
PP
0 sg
-89 0 0 184 89 0 0 -184 5508 6054 5 MP stroke
c8
0 620 88 0 0 -620 5597 6054 4 MP
PP
0 sg
-88 0 0 620 88 0 0 -620 5597 6054 5 MP stroke
c8
0 872 89 0 0 -872 5685 6054 4 MP
PP
0 sg
-89 0 0 872 89 0 0 -872 5685 6054 5 MP stroke
c8
0 744 89 0 0 -744 5774 6054 4 MP
PP
0 sg
-89 0 0 744 89 0 0 -744 5774 6054 5 MP stroke
c8
0 601 88 0 0 -601 5863 6054 4 MP
PP
0 sg
-88 0 0 601 88 0 0 -601 5863 6054 5 MP stroke
c8
0 317 89 0 0 -317 5951 6054 4 MP
PP
0 sg
-89 0 0 317 89 0 0 -317 5951 6054 5 MP stroke
c8
0 131 89 0 0 -131 6040 6054 4 MP
PP
0 sg
-89 0 0 131 89 0 0 -131 6040 6054 5 MP stroke
c8
0 67 88 0 0 -67 6129 6054 4 MP
PP
0 sg
-88 0 0 67 88 0 0 -67 6129 6054 5 MP stroke
c8
0 15 89 0 0 -15 6217 6054 4 MP
PP
0 sg
-89 0 0 15 89 0 0 -15 6217 6054 5 MP stroke
c8
0 10 88 0 0 -10 6306 6054 4 MP
PP
0 sg
-88 0 0 10 88 0 0 -10 6306 6054 5 MP stroke
c8
0 6 89 0 0 -6 6394 6054 4 MP
PP
0 sg
-89 0 0 6 89 0 0 -6 6394 6054 5 MP stroke
c8
0 14 89 0 0 -14 6483 6054 4 MP
PP
0 sg
-89 0 0 14 89 0 0 -14 6483 6054 5 MP stroke
c8
0 43 88 0 0 -43 6572 6054 4 MP
PP
0 sg
-88 0 0 43 88 0 0 -43 6572 6054 5 MP stroke
c8
0 88 89 0 0 -88 6660 6054 4 MP
PP
0 sg
-89 0 0 88 89 0 0 -88 6660 6054 5 MP stroke
c8
0 139 89 0 0 -139 6749 6054 4 MP
PP
0 sg
-89 0 0 139 89 0 0 -139 6749 6054 5 MP stroke
c8
0 178 88 0 0 -178 6838 6054 4 MP
PP
0 sg
-88 0 0 178 88 0 0 -178 6838 6054 5 MP stroke
c8
0 176 89 0 0 -176 6926 6054 4 MP
PP
0 sg
-89 0 0 176 89 0 0 -176 6926 6054 5 MP stroke
c8
0 107 89 0 0 -107 7015 6054 4 MP
PP
0 sg
-89 0 0 107 89 0 0 -107 7015 6054 5 MP stroke
c8
0 97 88 0 0 -97 7104 6054 4 MP
PP
0 sg
-88 0 0 97 88 0 0 -97 7104 6054 5 MP stroke
c8
0 42 89 0 0 -42 7192 6054 4 MP
PP
0 sg
-89 0 0 42 89 0 0 -42 7192 6054 5 MP stroke
c8
0 30 88 0 0 -30 7281 6054 4 MP
PP
0 sg
-88 0 0 30 88 0 0 -30 7281 6054 5 MP stroke
c8
0 18 89 0 0 -18 7369 6054 4 MP
PP
0 sg
-89 0 0 18 89 0 0 -18 7369 6054 5 MP stroke
c8
0 9 89 0 0 -9 7458 6054 4 MP
PP
0 sg
-89 0 0 9 89 0 0 -9 7458 6054 5 MP stroke
c8
0 1 88 0 0 -1 7547 6054 4 MP
PP
0 sg
-88 0 0 1 88 0 0 -1 7547 6054 5 MP stroke
3036 0 5174 6054 2 MP stroke
gr

%%IncludeResource: font Helvetica
/Helvetica /ISOLatin1Encoding 144 FMSR

6564 6326 mt 
(L) s
%%IncludeResource: font Helvetica
/Helvetica /ISOLatin1Encoding 108 FMSR

6644 6398 mt 
(obs) s
4894 5958 mt  -90 rotate
(Posterior density) s
90 rotate
gs 5174 5061 3037 994 rc
c9
0 -993 5801 6054 2 MP stroke
gr

c9

end %%Color Dict

eplot
%%EndObject

epage
end

showpage

%%Trailer
%%EOF
