%!PS-Adobe-2.0 EPSF-2.0
%%Title: p13mc1-9sen2-log.eps
%%Creator: gnuplot 4.6 patchlevel 4
%%CreationDate: Mon Oct 12 07:34:24 2015
%%DocumentFonts: (atend)
%%BoundingBox: 50 50 482 377
%%EndComments
%%BeginProlog
/gnudict 256 dict def
gnudict begin
%
% The following true/false flags may be edited by hand if desired.
% The unit line width and grayscale image gamma correction may also be changed.
%
/Color true def
/Blacktext false def
/Solid false def
/Dashlength 1 def
/Landscape false def
/Level1 false def
/Rounded false def
/ClipToBoundingBox false def
/SuppressPDFMark false def
/TransparentPatterns false def
/gnulinewidth 5.000 def
/userlinewidth gnulinewidth def
/Gamma 1.0 def
/BackgroundColor {-1.000 -1.000 -1.000} def
%
/vshift -93 def
/dl1 {
  10.0 Dashlength mul mul
  Rounded { currentlinewidth 0.75 mul sub dup 0 le { pop 0.01 } if } if
} def
/dl2 {
  10.0 Dashlength mul mul
  Rounded { currentlinewidth 0.75 mul add } if
} def
/hpt_ 31.5 def
/vpt_ 31.5 def
/hpt hpt_ def
/vpt vpt_ def
/doclip {
  ClipToBoundingBox {
    newpath 50 50 moveto 482 50 lineto 482 377 lineto 50 377 lineto closepath
    clip
  } if
} def
%
% Gnuplot Prolog Version 4.6 (September 2012)
%
%/SuppressPDFMark true def
%
/M {moveto} bind def
/L {lineto} bind def
/R {rmoveto} bind def
/V {rlineto} bind def
/N {newpath moveto} bind def
/Z {closepath} bind def
/C {setrgbcolor} bind def
/f {rlineto fill} bind def
/g {setgray} bind def
/Gshow {show} def   % May be redefined later in the file to support UTF-8
/vpt2 vpt 2 mul def
/hpt2 hpt 2 mul def
/Lshow {currentpoint stroke M 0 vshift R 
	Blacktext {gsave 0 setgray show grestore} {show} ifelse} def
/Rshow {currentpoint stroke M dup stringwidth pop neg vshift R
	Blacktext {gsave 0 setgray show grestore} {show} ifelse} def
/Cshow {currentpoint stroke M dup stringwidth pop -2 div vshift R 
	Blacktext {gsave 0 setgray show grestore} {show} ifelse} def
/UP {dup vpt_ mul /vpt exch def hpt_ mul /hpt exch def
  /hpt2 hpt 2 mul def /vpt2 vpt 2 mul def} def
/DL {Color {setrgbcolor Solid {pop []} if 0 setdash}
 {pop pop pop 0 setgray Solid {pop []} if 0 setdash} ifelse} def
/BL {stroke userlinewidth 2 mul setlinewidth
	Rounded {1 setlinejoin 1 setlinecap} if} def
/AL {stroke userlinewidth 2 div setlinewidth
	Rounded {1 setlinejoin 1 setlinecap} if} def
/UL {dup gnulinewidth mul /userlinewidth exch def
	dup 1 lt {pop 1} if 10 mul /udl exch def} def
/PL {stroke userlinewidth setlinewidth
	Rounded {1 setlinejoin 1 setlinecap} if} def
3.8 setmiterlimit
% Default Line colors
/LCw {1 1 1} def
/LCb {0 0 0} def
/LCa {0 0 0} def
/LC0 {1 0 0} def
/LC1 {0 1 0} def
/LC2 {0 0 1} def
/LC3 {1 0 1} def
/LC4 {0 1 1} def
/LC5 {1 1 0} def
/LC6 {0 0 0} def
/LC7 {1 0.3 0} def
/LC8 {0.5 0.5 0.5} def
% Default Line Types
/LTw {PL [] 1 setgray} def
/LTb {BL [] LCb DL} def
/LTa {AL [1 udl mul 2 udl mul] 0 setdash LCa setrgbcolor} def
/LT0 {PL [] LC0 DL} def
/LT1 {PL [4 dl1 2 dl2] LC1 DL} def
/LT2 {PL [2 dl1 3 dl2] LC2 DL} def
/LT3 {PL [1 dl1 1.5 dl2] LC3 DL} def
/LT4 {PL [6 dl1 2 dl2 1 dl1 2 dl2] LC4 DL} def
/LT5 {PL [3 dl1 3 dl2 1 dl1 3 dl2] LC5 DL} def
/LT6 {PL [2 dl1 2 dl2 2 dl1 6 dl2] LC6 DL} def
/LT7 {PL [1 dl1 2 dl2 6 dl1 2 dl2 1 dl1 2 dl2] LC7 DL} def
/LT8 {PL [2 dl1 2 dl2 2 dl1 2 dl2 2 dl1 2 dl2 2 dl1 4 dl2] LC8 DL} def
/Pnt {stroke [] 0 setdash gsave 1 setlinecap M 0 0 V stroke grestore} def
/Dia {stroke [] 0 setdash 2 copy vpt add M
  hpt neg vpt neg V hpt vpt neg V
  hpt vpt V hpt neg vpt V closepath stroke
  Pnt} def
/Pls {stroke [] 0 setdash vpt sub M 0 vpt2 V
  currentpoint stroke M
  hpt neg vpt neg R hpt2 0 V stroke
 } def
/Box {stroke [] 0 setdash 2 copy exch hpt sub exch vpt add M
  0 vpt2 neg V hpt2 0 V 0 vpt2 V
  hpt2 neg 0 V closepath stroke
  Pnt} def
/Crs {stroke [] 0 setdash exch hpt sub exch vpt add M
  hpt2 vpt2 neg V currentpoint stroke M
  hpt2 neg 0 R hpt2 vpt2 V stroke} def
/TriU {stroke [] 0 setdash 2 copy vpt 1.12 mul add M
  hpt neg vpt -1.62 mul V
  hpt 2 mul 0 V
  hpt neg vpt 1.62 mul V closepath stroke
  Pnt} def
/Star {2 copy Pls Crs} def
/BoxF {stroke [] 0 setdash exch hpt sub exch vpt add M
  0 vpt2 neg V hpt2 0 V 0 vpt2 V
  hpt2 neg 0 V closepath fill} def
/TriUF {stroke [] 0 setdash vpt 1.12 mul add M
  hpt neg vpt -1.62 mul V
  hpt 2 mul 0 V
  hpt neg vpt 1.62 mul V closepath fill} def
/TriD {stroke [] 0 setdash 2 copy vpt 1.12 mul sub M
  hpt neg vpt 1.62 mul V
  hpt 2 mul 0 V
  hpt neg vpt -1.62 mul V closepath stroke
  Pnt} def
/TriDF {stroke [] 0 setdash vpt 1.12 mul sub M
  hpt neg vpt 1.62 mul V
  hpt 2 mul 0 V
  hpt neg vpt -1.62 mul V closepath fill} def
/DiaF {stroke [] 0 setdash vpt add M
  hpt neg vpt neg V hpt vpt neg V
  hpt vpt V hpt neg vpt V closepath fill} def
/Pent {stroke [] 0 setdash 2 copy gsave
  translate 0 hpt M 4 {72 rotate 0 hpt L} repeat
  closepath stroke grestore Pnt} def
/PentF {stroke [] 0 setdash gsave
  translate 0 hpt M 4 {72 rotate 0 hpt L} repeat
  closepath fill grestore} def
/Circle {stroke [] 0 setdash 2 copy
  hpt 0 360 arc stroke Pnt} def
/CircleF {stroke [] 0 setdash hpt 0 360 arc fill} def
/C0 {BL [] 0 setdash 2 copy moveto vpt 90 450 arc} bind def
/C1 {BL [] 0 setdash 2 copy moveto
	2 copy vpt 0 90 arc closepath fill
	vpt 0 360 arc closepath} bind def
/C2 {BL [] 0 setdash 2 copy moveto
	2 copy vpt 90 180 arc closepath fill
	vpt 0 360 arc closepath} bind def
/C3 {BL [] 0 setdash 2 copy moveto
	2 copy vpt 0 180 arc closepath fill
	vpt 0 360 arc closepath} bind def
/C4 {BL [] 0 setdash 2 copy moveto
	2 copy vpt 180 270 arc closepath fill
	vpt 0 360 arc closepath} bind def
/C5 {BL [] 0 setdash 2 copy moveto
	2 copy vpt 0 90 arc
	2 copy moveto
	2 copy vpt 180 270 arc closepath fill
	vpt 0 360 arc} bind def
/C6 {BL [] 0 setdash 2 copy moveto
	2 copy vpt 90 270 arc closepath fill
	vpt 0 360 arc closepath} bind def
/C7 {BL [] 0 setdash 2 copy moveto
	2 copy vpt 0 270 arc closepath fill
	vpt 0 360 arc closepath} bind def
/C8 {BL [] 0 setdash 2 copy moveto
	2 copy vpt 270 360 arc closepath fill
	vpt 0 360 arc closepath} bind def
/C9 {BL [] 0 setdash 2 copy moveto
	2 copy vpt 270 450 arc closepath fill
	vpt 0 360 arc closepath} bind def
/C10 {BL [] 0 setdash 2 copy 2 copy moveto vpt 270 360 arc closepath fill
	2 copy moveto
	2 copy vpt 90 180 arc closepath fill
	vpt 0 360 arc closepath} bind def
/C11 {BL [] 0 setdash 2 copy moveto
	2 copy vpt 0 180 arc closepath fill
	2 copy moveto
	2 copy vpt 270 360 arc closepath fill
	vpt 0 360 arc closepath} bind def
/C12 {BL [] 0 setdash 2 copy moveto
	2 copy vpt 180 360 arc closepath fill
	vpt 0 360 arc closepath} bind def
/C13 {BL [] 0 setdash 2 copy moveto
	2 copy vpt 0 90 arc closepath fill
	2 copy moveto
	2 copy vpt 180 360 arc closepath fill
	vpt 0 360 arc closepath} bind def
/C14 {BL [] 0 setdash 2 copy moveto
	2 copy vpt 90 360 arc closepath fill
	vpt 0 360 arc} bind def
/C15 {BL [] 0 setdash 2 copy vpt 0 360 arc closepath fill
	vpt 0 360 arc closepath} bind def
/Rec {newpath 4 2 roll moveto 1 index 0 rlineto 0 exch rlineto
	neg 0 rlineto closepath} bind def
/Square {dup Rec} bind def
/Bsquare {vpt sub exch vpt sub exch vpt2 Square} bind def
/S0 {BL [] 0 setdash 2 copy moveto 0 vpt rlineto BL Bsquare} bind def
/S1 {BL [] 0 setdash 2 copy vpt Square fill Bsquare} bind def
/S2 {BL [] 0 setdash 2 copy exch vpt sub exch vpt Square fill Bsquare} bind def
/S3 {BL [] 0 setdash 2 copy exch vpt sub exch vpt2 vpt Rec fill Bsquare} bind def
/S4 {BL [] 0 setdash 2 copy exch vpt sub exch vpt sub vpt Square fill Bsquare} bind def
/S5 {BL [] 0 setdash 2 copy 2 copy vpt Square fill
	exch vpt sub exch vpt sub vpt Square fill Bsquare} bind def
/S6 {BL [] 0 setdash 2 copy exch vpt sub exch vpt sub vpt vpt2 Rec fill Bsquare} bind def
/S7 {BL [] 0 setdash 2 copy exch vpt sub exch vpt sub vpt vpt2 Rec fill
	2 copy vpt Square fill Bsquare} bind def
/S8 {BL [] 0 setdash 2 copy vpt sub vpt Square fill Bsquare} bind def
/S9 {BL [] 0 setdash 2 copy vpt sub vpt vpt2 Rec fill Bsquare} bind def
/S10 {BL [] 0 setdash 2 copy vpt sub vpt Square fill 2 copy exch vpt sub exch vpt Square fill
	Bsquare} bind def
/S11 {BL [] 0 setdash 2 copy vpt sub vpt Square fill 2 copy exch vpt sub exch vpt2 vpt Rec fill
	Bsquare} bind def
/S12 {BL [] 0 setdash 2 copy exch vpt sub exch vpt sub vpt2 vpt Rec fill Bsquare} bind def
/S13 {BL [] 0 setdash 2 copy exch vpt sub exch vpt sub vpt2 vpt Rec fill
	2 copy vpt Square fill Bsquare} bind def
/S14 {BL [] 0 setdash 2 copy exch vpt sub exch vpt sub vpt2 vpt Rec fill
	2 copy exch vpt sub exch vpt Square fill Bsquare} bind def
/S15 {BL [] 0 setdash 2 copy Bsquare fill Bsquare} bind def
/D0 {gsave translate 45 rotate 0 0 S0 stroke grestore} bind def
/D1 {gsave translate 45 rotate 0 0 S1 stroke grestore} bind def
/D2 {gsave translate 45 rotate 0 0 S2 stroke grestore} bind def
/D3 {gsave translate 45 rotate 0 0 S3 stroke grestore} bind def
/D4 {gsave translate 45 rotate 0 0 S4 stroke grestore} bind def
/D5 {gsave translate 45 rotate 0 0 S5 stroke grestore} bind def
/D6 {gsave translate 45 rotate 0 0 S6 stroke grestore} bind def
/D7 {gsave translate 45 rotate 0 0 S7 stroke grestore} bind def
/D8 {gsave translate 45 rotate 0 0 S8 stroke grestore} bind def
/D9 {gsave translate 45 rotate 0 0 S9 stroke grestore} bind def
/D10 {gsave translate 45 rotate 0 0 S10 stroke grestore} bind def
/D11 {gsave translate 45 rotate 0 0 S11 stroke grestore} bind def
/D12 {gsave translate 45 rotate 0 0 S12 stroke grestore} bind def
/D13 {gsave translate 45 rotate 0 0 S13 stroke grestore} bind def
/D14 {gsave translate 45 rotate 0 0 S14 stroke grestore} bind def
/D15 {gsave translate 45 rotate 0 0 S15 stroke grestore} bind def
/DiaE {stroke [] 0 setdash vpt add M
  hpt neg vpt neg V hpt vpt neg V
  hpt vpt V hpt neg vpt V closepath stroke} def
/BoxE {stroke [] 0 setdash exch hpt sub exch vpt add M
  0 vpt2 neg V hpt2 0 V 0 vpt2 V
  hpt2 neg 0 V closepath stroke} def
/TriUE {stroke [] 0 setdash vpt 1.12 mul add M
  hpt neg vpt -1.62 mul V
  hpt 2 mul 0 V
  hpt neg vpt 1.62 mul V closepath stroke} def
/TriDE {stroke [] 0 setdash vpt 1.12 mul sub M
  hpt neg vpt 1.62 mul V
  hpt 2 mul 0 V
  hpt neg vpt -1.62 mul V closepath stroke} def
/PentE {stroke [] 0 setdash gsave
  translate 0 hpt M 4 {72 rotate 0 hpt L} repeat
  closepath stroke grestore} def
/CircE {stroke [] 0 setdash 
  hpt 0 360 arc stroke} def
/Opaque {gsave closepath 1 setgray fill grestore 0 setgray closepath} def
/DiaW {stroke [] 0 setdash vpt add M
  hpt neg vpt neg V hpt vpt neg V
  hpt vpt V hpt neg vpt V Opaque stroke} def
/BoxW {stroke [] 0 setdash exch hpt sub exch vpt add M
  0 vpt2 neg V hpt2 0 V 0 vpt2 V
  hpt2 neg 0 V Opaque stroke} def
/TriUW {stroke [] 0 setdash vpt 1.12 mul add M
  hpt neg vpt -1.62 mul V
  hpt 2 mul 0 V
  hpt neg vpt 1.62 mul V Opaque stroke} def
/TriDW {stroke [] 0 setdash vpt 1.12 mul sub M
  hpt neg vpt 1.62 mul V
  hpt 2 mul 0 V
  hpt neg vpt -1.62 mul V Opaque stroke} def
/PentW {stroke [] 0 setdash gsave
  translate 0 hpt M 4 {72 rotate 0 hpt L} repeat
  Opaque stroke grestore} def
/CircW {stroke [] 0 setdash 
  hpt 0 360 arc Opaque stroke} def
/BoxFill {gsave Rec 1 setgray fill grestore} def
/Density {
  /Fillden exch def
  currentrgbcolor
  /ColB exch def /ColG exch def /ColR exch def
  /ColR ColR Fillden mul Fillden sub 1 add def
  /ColG ColG Fillden mul Fillden sub 1 add def
  /ColB ColB Fillden mul Fillden sub 1 add def
  ColR ColG ColB setrgbcolor} def
/BoxColFill {gsave Rec PolyFill} def
/PolyFill {gsave Density fill grestore grestore} def
/h {rlineto rlineto rlineto gsave closepath fill grestore} bind def
%
% PostScript Level 1 Pattern Fill routine for rectangles
% Usage: x y w h s a XX PatternFill
%	x,y = lower left corner of box to be filled
%	w,h = width and height of box
%	  a = angle in degrees between lines and x-axis
%	 XX = 0/1 for no/yes cross-hatch
%
/PatternFill {gsave /PFa [ 9 2 roll ] def
  PFa 0 get PFa 2 get 2 div add PFa 1 get PFa 3 get 2 div add translate
  PFa 2 get -2 div PFa 3 get -2 div PFa 2 get PFa 3 get Rec
  TransparentPatterns {} {gsave 1 setgray fill grestore} ifelse
  clip
  currentlinewidth 0.5 mul setlinewidth
  /PFs PFa 2 get dup mul PFa 3 get dup mul add sqrt def
  0 0 M PFa 5 get rotate PFs -2 div dup translate
  0 1 PFs PFa 4 get div 1 add floor cvi
	{PFa 4 get mul 0 M 0 PFs V} for
  0 PFa 6 get ne {
	0 1 PFs PFa 4 get div 1 add floor cvi
	{PFa 4 get mul 0 2 1 roll M PFs 0 V} for
 } if
  stroke grestore} def
%
/languagelevel where
 {pop languagelevel} {1} ifelse
 2 lt
	{/InterpretLevel1 true def}
	{/InterpretLevel1 Level1 def}
 ifelse
%
% PostScript level 2 pattern fill definitions
%
/Level2PatternFill {
/Tile8x8 {/PaintType 2 /PatternType 1 /TilingType 1 /BBox [0 0 8 8] /XStep 8 /YStep 8}
	bind def
/KeepColor {currentrgbcolor [/Pattern /DeviceRGB] setcolorspace} bind def
<< Tile8x8
 /PaintProc {0.5 setlinewidth pop 0 0 M 8 8 L 0 8 M 8 0 L stroke} 
>> matrix makepattern
/Pat1 exch def
<< Tile8x8
 /PaintProc {0.5 setlinewidth pop 0 0 M 8 8 L 0 8 M 8 0 L stroke
	0 4 M 4 8 L 8 4 L 4 0 L 0 4 L stroke}
>> matrix makepattern
/Pat2 exch def
<< Tile8x8
 /PaintProc {0.5 setlinewidth pop 0 0 M 0 8 L
	8 8 L 8 0 L 0 0 L fill}
>> matrix makepattern
/Pat3 exch def
<< Tile8x8
 /PaintProc {0.5 setlinewidth pop -4 8 M 8 -4 L
	0 12 M 12 0 L stroke}
>> matrix makepattern
/Pat4 exch def
<< Tile8x8
 /PaintProc {0.5 setlinewidth pop -4 0 M 8 12 L
	0 -4 M 12 8 L stroke}
>> matrix makepattern
/Pat5 exch def
<< Tile8x8
 /PaintProc {0.5 setlinewidth pop -2 8 M 4 -4 L
	0 12 M 8 -4 L 4 12 M 10 0 L stroke}
>> matrix makepattern
/Pat6 exch def
<< Tile8x8
 /PaintProc {0.5 setlinewidth pop -2 0 M 4 12 L
	0 -4 M 8 12 L 4 -4 M 10 8 L stroke}
>> matrix makepattern
/Pat7 exch def
<< Tile8x8
 /PaintProc {0.5 setlinewidth pop 8 -2 M -4 4 L
	12 0 M -4 8 L 12 4 M 0 10 L stroke}
>> matrix makepattern
/Pat8 exch def
<< Tile8x8
 /PaintProc {0.5 setlinewidth pop 0 -2 M 12 4 L
	-4 0 M 12 8 L -4 4 M 8 10 L stroke}
>> matrix makepattern
/Pat9 exch def
/Pattern1 {PatternBgnd KeepColor Pat1 setpattern} bind def
/Pattern2 {PatternBgnd KeepColor Pat2 setpattern} bind def
/Pattern3 {PatternBgnd KeepColor Pat3 setpattern} bind def
/Pattern4 {PatternBgnd KeepColor Landscape {Pat5} {Pat4} ifelse setpattern} bind def
/Pattern5 {PatternBgnd KeepColor Landscape {Pat4} {Pat5} ifelse setpattern} bind def
/Pattern6 {PatternBgnd KeepColor Landscape {Pat9} {Pat6} ifelse setpattern} bind def
/Pattern7 {PatternBgnd KeepColor Landscape {Pat8} {Pat7} ifelse setpattern} bind def
} def
%
%
%End of PostScript Level 2 code
%
/PatternBgnd {
  TransparentPatterns {} {gsave 1 setgray fill grestore} ifelse
} def
%
% Substitute for Level 2 pattern fill codes with
% grayscale if Level 2 support is not selected.
%
/Level1PatternFill {
/Pattern1 {0.250 Density} bind def
/Pattern2 {0.500 Density} bind def
/Pattern3 {0.750 Density} bind def
/Pattern4 {0.125 Density} bind def
/Pattern5 {0.375 Density} bind def
/Pattern6 {0.625 Density} bind def
/Pattern7 {0.875 Density} bind def
} def
%
% Now test for support of Level 2 code
%
Level1 {Level1PatternFill} {Level2PatternFill} ifelse
%
/Symbol-Oblique /Symbol findfont [1 0 .167 1 0 0] makefont
dup length dict begin {1 index /FID eq {pop pop} {def} ifelse} forall
currentdict end definefont pop
/MFshow {
   { dup 5 get 3 ge
     { 5 get 3 eq {gsave} {grestore} ifelse }
     {dup dup 0 get findfont exch 1 get scalefont setfont
     [ currentpoint ] exch dup 2 get 0 exch R dup 5 get 2 ne {dup dup 6
     get exch 4 get {Gshow} {stringwidth pop 0 R} ifelse }if dup 5 get 0 eq
     {dup 3 get {2 get neg 0 exch R pop} {pop aload pop M} ifelse} {dup 5
     get 1 eq {dup 2 get exch dup 3 get exch 6 get stringwidth pop -2 div
     dup 0 R} {dup 6 get stringwidth pop -2 div 0 R 6 get
     show 2 index {aload pop M neg 3 -1 roll neg R pop pop} {pop pop pop
     pop aload pop M} ifelse }ifelse }ifelse }
     ifelse }
   forall} def
/Gswidth {dup type /stringtype eq {stringwidth} {pop (n) stringwidth} ifelse} def
/MFwidth {0 exch { dup 5 get 3 ge { 5 get 3 eq { 0 } { pop } ifelse }
 {dup 3 get{dup dup 0 get findfont exch 1 get scalefont setfont
     6 get Gswidth pop add} {pop} ifelse} ifelse} forall} def
/MLshow { currentpoint stroke M
  0 exch R
  Blacktext {gsave 0 setgray MFshow grestore} {MFshow} ifelse } bind def
/MRshow { currentpoint stroke M
  exch dup MFwidth neg 3 -1 roll R
  Blacktext {gsave 0 setgray MFshow grestore} {MFshow} ifelse } bind def
/MCshow { currentpoint stroke M
  exch dup MFwidth -2 div 3 -1 roll R
  Blacktext {gsave 0 setgray MFshow grestore} {MFshow} ifelse } bind def
/XYsave    { [( ) 1 2 true false 3 ()] } bind def
/XYrestore { [( ) 1 2 true false 4 ()] } bind def
Level1 SuppressPDFMark or 
{} {
/SDict 10 dict def
systemdict /pdfmark known not {
  userdict /pdfmark systemdict /cleartomark get put
} if
SDict begin [
  /Title (p13mc1-9sen2-log.eps)
  /Subject (gnuplot plot)
  /Creator (gnuplot 4.6 patchlevel 4)
  /Author (klkuhlm)
%  /Producer (gnuplot)
%  /Keywords ()
  /CreationDate (Mon Oct 12 07:34:24 2015)
  /DOCINFO pdfmark
end
} ifelse
end
%%EndProlog
%%Page: 1 1
gnudict begin
gsave
doclip
50 50 translate
0.050 0.050 scale
0 setgray
newpath
(Helvetica) findfont 280 scalefont setfont
BackgroundColor 0 lt 3 1 roll 0 lt exch 0 lt or or not {BackgroundColor C 1.000 0 0 8640.00 6552.00 BoxColFill} if
1.000 UL
LTb
LCb setrgbcolor
1344 1120 M
63 0 V
6727 0 R
-63 0 V
stroke
1176 1120 M
[ [(Helvetica) 280.0 0.0 true true 0 (10)]
[(Helvetica) 224.0 140.0 true true 0 (-9)]
] -121.3 MRshow
1.000 UL
LTb
LCb setrgbcolor
1344 1339 M
31 0 V
6759 0 R
-31 0 V
1344 1629 M
31 0 V
6759 0 R
-31 0 V
1344 1777 M
31 0 V
6759 0 R
-31 0 V
-6759 71 R
63 0 V
6727 0 R
-63 0 V
stroke
1176 1848 M
[ [(Helvetica) 280.0 0.0 true true 0 (10)]
[(Helvetica) 224.0 140.0 true true 0 (-8)]
] -121.3 MRshow
1.000 UL
LTb
LCb setrgbcolor
1344 2067 M
31 0 V
6759 0 R
-31 0 V
1344 2357 M
31 0 V
6759 0 R
-31 0 V
1344 2505 M
31 0 V
6759 0 R
-31 0 V
-6759 71 R
63 0 V
6727 0 R
-63 0 V
stroke
1176 2576 M
[ [(Helvetica) 280.0 0.0 true true 0 (10)]
[(Helvetica) 224.0 140.0 true true 0 (-7)]
] -121.3 MRshow
1.000 UL
LTb
LCb setrgbcolor
1344 2795 M
31 0 V
6759 0 R
-31 0 V
1344 3084 M
31 0 V
6759 0 R
-31 0 V
1344 3233 M
31 0 V
6759 0 R
-31 0 V
-6759 71 R
63 0 V
6727 0 R
-63 0 V
stroke
1176 3304 M
[ [(Helvetica) 280.0 0.0 true true 0 (10)]
[(Helvetica) 224.0 140.0 true true 0 (-6)]
] -121.3 MRshow
1.000 UL
LTb
LCb setrgbcolor
1344 3523 M
31 0 V
6759 0 R
-31 0 V
1344 3812 M
31 0 V
6759 0 R
-31 0 V
1344 3961 M
31 0 V
6759 0 R
-31 0 V
-6759 70 R
63 0 V
6727 0 R
-63 0 V
stroke
1176 4031 M
[ [(Helvetica) 280.0 0.0 true true 0 (10)]
[(Helvetica) 224.0 140.0 true true 0 (-5)]
] -121.3 MRshow
1.000 UL
LTb
LCb setrgbcolor
1344 4251 M
31 0 V
6759 0 R
-31 0 V
1344 4540 M
31 0 V
6759 0 R
-31 0 V
1344 4689 M
31 0 V
6759 0 R
-31 0 V
-6759 70 R
63 0 V
6727 0 R
-63 0 V
stroke
1176 4759 M
[ [(Helvetica) 280.0 0.0 true true 0 (10)]
[(Helvetica) 224.0 140.0 true true 0 (-4)]
] -121.3 MRshow
1.000 UL
LTb
LCb setrgbcolor
1344 4978 M
31 0 V
6759 0 R
-31 0 V
1344 5268 M
31 0 V
6759 0 R
-31 0 V
1344 5417 M
31 0 V
6759 0 R
-31 0 V
-6759 70 R
63 0 V
6727 0 R
-63 0 V
stroke
1176 5487 M
[ [(Helvetica) 280.0 0.0 true true 0 (10)]
[(Helvetica) 224.0 140.0 true true 0 (-3)]
] -121.3 MRshow
1.000 UL
LTb
LCb setrgbcolor
1344 5706 M
31 0 V
6759 0 R
-31 0 V
1344 5996 M
31 0 V
6759 0 R
-31 0 V
1344 6144 M
31 0 V
6759 0 R
-31 0 V
-6759 71 R
63 0 V
6727 0 R
-63 0 V
stroke
1176 6215 M
[ [(Helvetica) 280.0 0.0 true true 0 (10)]
[(Helvetica) 224.0 140.0 true true 0 (-2)]
] -121.3 MRshow
1.000 UL
LTb
LCb setrgbcolor
1344 1120 M
0 63 V
0 5032 R
0 -63 V
stroke
1344 840 M
[ [(Helvetica) 280.0 0.0 true true 0 ( 0)]
] -93.3 MCshow
1.000 UL
LTb
LCb setrgbcolor
2476 1120 M
0 63 V
0 5032 R
0 -63 V
stroke
2476 840 M
[ [(Helvetica) 280.0 0.0 true true 0 ( 2)]
] -93.3 MCshow
1.000 UL
LTb
LCb setrgbcolor
3607 1120 M
0 63 V
0 5032 R
0 -63 V
stroke
3607 840 M
[ [(Helvetica) 280.0 0.0 true true 0 ( 4)]
] -93.3 MCshow
1.000 UL
LTb
LCb setrgbcolor
4739 1120 M
0 63 V
0 5032 R
0 -63 V
stroke
4739 840 M
[ [(Helvetica) 280.0 0.0 true true 0 ( 6)]
] -93.3 MCshow
1.000 UL
LTb
LCb setrgbcolor
5871 1120 M
0 63 V
0 5032 R
0 -63 V
stroke
5871 840 M
[ [(Helvetica) 280.0 0.0 true true 0 ( 8)]
] -93.3 MCshow
1.000 UL
LTb
LCb setrgbcolor
7002 1120 M
0 63 V
0 5032 R
0 -63 V
stroke
7002 840 M
[ [(Helvetica) 280.0 0.0 true true 0 ( 10)]
] -93.3 MCshow
1.000 UL
LTb
LCb setrgbcolor
8134 1120 M
0 63 V
0 5032 R
0 -63 V
stroke
8134 840 M
[ [(Helvetica) 280.0 0.0 true true 0 ( 12)]
] -93.3 MCshow
1.000 UL
LTb
LCb setrgbcolor
1.000 UL
LTb
LCb setrgbcolor
1344 6215 N
0 -5095 V
6790 0 V
0 5095 V
-6790 0 V
Z stroke
LCb setrgbcolor
280 3667 M
currentpoint gsave translate -270 rotate 0 0 moveto
[ [(Helvetica) 280.0 0.0 true true 0 (Sensitivity		|J)]
[(Symbol) 224.0 -84.0 true true 0 (q)]
[(Helvetica) 179.2 -151.2 true true 0 (m)]
[(Helvetica) 280.0 0.0 true true 0 (|)]
] -42.9 MCshow
grestore
LTb
LCb setrgbcolor
4739 420 M
[ [(Helvetica) 300.0 0.0 true true 0 (Time, t \(s\))]
] -100.0 MCshow
LTb
1.000 UP
1684 1375 M
[ [(Helvetica) 280.0 0.0 true true 0 (\(d\))]
] -93.3 MLshow
1.000 UL
LTb
LCb setrgbcolor
% Begin plot #1
4.000 UL
LT0
LC0 setrgbcolor
LCb setrgbcolor
4984 5942 M
[ [(Helvetica) 240.0 0.0 true true 0 (L)]
] -80.0 MRshow
LT0
5152 5942 M
735 0 V
1607 4235 M
57 136 V
56 93 V
57 62 V
56 39 V
57 20 V
57 5 V
56 -10 V
57 -23 V
56 -36 V
57 -50 V
57 -68 V
56 -92 V
57 -131 V
56 -215 V
57 -775 V
56 682 V
57 217 V
57 112 V
56 70 V
57 47 V
56 31 V
57 20 V
57 12 V
56 6 V
57 0 V
56 -4 V
57 -9 V
56 -12 V
57 -15 V
57 -18 V
56 -21 V
57 -23 V
56 -25 V
57 -27 V
57 -29 V
56 -31 V
57 -33 V
56 -35 V
57 -36 V
56 -38 V
57 -39 V
57 -41 V
56 -43 V
57 -44 V
56 -46 V
57 -47 V
57 -49 V
56 -51 V
57 -53 V
56 -54 V
57 -57 V
56 -59 V
57 -61 V
57 -63 V
56 -67 V
57 -70 V
56 -74 V
57 -78 V
57 -84 V
56 -91 V
57 -101 V
56 -115 V
57 -136 V
56 -174 V
57 -268 V
44 -946 V
26 0 R
43 868 V
57 168 V
56 79 V
57 41 V
57 21 V
56 8 V
57 -2 V
56 -9 V
57 -15 V
56 -19 V
57 -23 V
57 -26 V
56 -30 V
57 -32 V
56 -34 V
57 -36 V
57 -39 V
56 -40 V
57 -42 V
56 -44 V
57 -46 V
56 -47 V
57 -49 V
57 -51 V
56 -52 V
57 -54 V
56 -57 V
57 -58 V
57 -60 V
56 -62 V
57 -65 V
56 -67 V
57 -70 V
43 -56 V
% End plot #1
% Begin plot #2
stroke
LT1
LC1 setrgbcolor
LCb setrgbcolor
4984 5522 M
[ [(Helvetica) 240.0 0.0 true true 0 (L)]
[(Helvetica) 192.0 -72.0 true true 0 (e)]
] -56.0 MRshow
LT1
5152 5522 M
735 0 V
1607 5802 M
57 15 V
56 -30 V
57 -73 V
56 -132 V
57 -260 V
57 -452 V
56 545 V
57 164 V
56 85 V
57 48 V
57 24 V
56 7 V
57 -5 V
56 -16 V
57 -26 V
56 -35 V
57 -43 V
57 -54 V
56 -64 V
57 -78 V
56 -97 V
57 -126 V
57 -184 V
56 -369 V
57 -34 V
56 322 V
57 133 V
56 75 V
57 47 V
57 29 V
56 18 V
57 8 V
56 2 V
57 -4 V
57 -8 V
56 -12 V
57 -16 V
56 -19 V
57 -22 V
56 -25 V
57 -26 V
57 -29 V
56 -31 V
57 -33 V
56 -34 V
57 -37 V
57 -38 V
56 -40 V
57 -41 V
56 -44 V
57 -45 V
56 -46 V
57 -49 V
57 -50 V
56 -51 V
57 -54 V
56 -56 V
57 -58 V
57 -60 V
56 -63 V
57 -66 V
56 -69 V
57 -72 V
56 -77 V
57 -83 V
57 -89 V
56 -98 V
57 -110 V
56 -129 V
57 -160 V
57 -231 V
56 -550 V
57 292 V
56 222 V
57 95 V
56 50 V
57 26 V
57 10 V
56 1 V
57 -8 V
56 -13 V
57 -18 V
57 -23 V
56 -25 V
57 -29 V
56 -31 V
57 -34 V
56 -36 V
57 -38 V
57 -40 V
56 -42 V
57 -44 V
56 -45 V
57 -48 V
57 -49 V
56 -50 V
57 -53 V
56 -54 V
57 -56 V
56 -59 V
57 -60 V
57 -62 V
stroke 7379 2300 M
56 -66 V
57 -67 V
56 -72 V
57 -74 V
57 -79 V
56 -84 V
57 -91 V
56 -99 V
57 -112 V
56 -129 V
57 -159 V
38 -148 V
% End plot #2
% Begin plot #3
stroke
LT2
LC2 setrgbcolor
LCb setrgbcolor
6895 5942 M
[ [(Helvetica) 240.0 0.0 true true 0 (L)]
[(Helvetica) 192.0 -72.0 true true 0 (obs)]
] -56.0 MRshow
LT2
7063 5942 M
735 0 V
1607 5761 M
57 19 V
56 -24 V
57 -60 V
56 -96 V
57 -144 V
57 -245 V
56 -1399 V
57 1341 V
56 178 V
57 85 V
57 46 V
56 24 V
57 8 V
56 -2 V
57 -9 V
56 -16 V
57 -21 V
57 -25 V
56 -28 V
57 -32 V
56 -35 V
57 -37 V
57 -39 V
56 -42 V
57 -43 V
56 -46 V
57 -47 V
56 -49 V
57 -51 V
57 -53 V
56 -54 V
57 -56 V
56 -58 V
57 -60 V
57 -62 V
56 -64 V
57 -66 V
56 -69 V
57 -72 V
56 -75 V
57 -79 V
57 -84 V
56 -89 V
57 -96 V
56 -105 V
57 -119 V
57 -139 V
56 -175 V
57 -261 V
56 -982 V
57 843 V
56 176 V
57 78 V
57 39 V
56 17 V
57 4 V
56 -7 V
57 -13 V
57 -19 V
56 -24 V
57 -28 V
56 -31 V
57 -33 V
56 -37 V
57 -39 V
57 -41 V
56 -43 V
57 -45 V
56 -46 V
57 -49 V
57 -50 V
56 -52 V
57 -54 V
56 -56 V
57 -57 V
56 -59 V
57 -61 V
57 -64 V
56 -65 V
57 -68 V
56 -70 V
57 -73 V
57 -77 V
56 -80 V
57 -85 V
56 -90 V
57 -98 V
56 -106 V
57 -120 V
57 -138 V
56 -172 V
10 -41 V
% End plot #3
% Begin plot #4
stroke
LT3
LC3 setrgbcolor
LCb setrgbcolor
6895 5522 M
[ [(Helvetica) 240.0 0.0 true true 0 (L)]
[(Helvetica) 192.0 -72.0 true true 0 (e,obs)]
] -56.0 MRshow
LT3
7063 5522 M
735 0 V
1607 4759 M
57 -685 V
56 662 V
57 127 V
56 36 V
57 -8 V
57 -36 V
56 -57 V
57 -75 V
56 -94 V
57 -117 V
57 -152 V
56 -221 V
57 -509 V
56 225 V
57 232 V
56 97 V
57 49 V
57 24 V
56 9 V
57 -3 V
56 -10 V
57 -17 V
57 -22 V
56 -25 V
57 -30 V
56 -32 V
57 -35 V
56 -38 V
57 -40 V
57 -42 V
56 -44 V
57 -46 V
56 -48 V
57 -49 V
57 -51 V
56 -53 V
57 -55 V
56 -57 V
57 -58 V
56 -61 V
57 -62 V
57 -65 V
56 -67 V
57 -69 V
56 -73 V
57 -76 V
57 -80 V
56 -85 V
57 -90 V
56 -99 V
57 -108 V
56 -123 V
57 -146 V
57 -189 V
56 -306 V
57 -500 V
56 521 V
57 140 V
57 65 V
56 33 V
57 13 V
56 0 V
57 -8 V
56 -15 V
57 -20 V
57 -25 V
56 -29 V
57 -31 V
56 -35 V
57 -37 V
57 -39 V
56 -42 V
57 -44 V
56 -45 V
57 -47 V
56 -49 V
57 -51 V
57 -53 V
56 -54 V
57 -56 V
56 -58 V
57 -60 V
57 -62 V
56 -64 V
34 -40 V
% End plot #4
stroke
1.000 UL
LTb
LCb setrgbcolor
1344 6215 N
0 -5095 V
6790 0 V
0 5095 V
-6790 0 V
Z stroke
1.000 UP
1.000 UL
LTb
LCb setrgbcolor
stroke
grestore
end
showpage
%%Trailer
%%DocumentFonts: Symbol Helvetica
