%!PS-Adobe-3.0 EPSF-3.0
%%Creator: MATLAB, The Mathworks, Inc. Version 7.9.0.529 (R2009b). Operating System: Linux 3.16.0-51-generic #69~14.04.1-Ubuntu SMP Wed Oct 7 15:32:41 UTC 2015 x86_64.
%%Title: /home/klkuhlm/repos/slug-osc/swiss-data/DREAM/parallel-finite2/finite-P13-MC1-5-fixed-shift/P13MC15-finite-fixed-shift2-horsetail_manual.eps
%%CreationDate: 11/03/2015  11:14:13
%%DocumentNeededFonts: Helvetica
%%DocumentProcessColors: Cyan Magenta Yellow Black
%%LanguageLevel: 2
%%Pages: 1
%%BoundingBox:   -88   -82   306   225
%%EndComments

%%BeginProlog
% MathWorks dictionary
/MathWorks 160 dict begin
% definition operators
/bdef {bind def} bind def
/ldef {load def} bind def
/xdef {exch def} bdef
/xstore {exch store} bdef
% operator abbreviations
/c  /clip ldef
/cc /concat ldef
/cp /closepath ldef
/gr /grestore ldef
/gs /gsave ldef
/mt /moveto ldef
/np /newpath ldef
/cm /currentmatrix ldef
/sm /setmatrix ldef
/rm /rmoveto ldef
/rl /rlineto ldef
/s {show newpath} bdef
/sc {setcmykcolor} bdef
/sr /setrgbcolor ldef
/sg /setgray ldef
/w /setlinewidth ldef
/j /setlinejoin ldef
/cap /setlinecap ldef
/rc {rectclip} bdef
/rf {rectfill} bdef
% page state control
/pgsv () def
/bpage {/pgsv save def} bdef
/epage {pgsv restore} bdef
/bplot /gsave ldef
/eplot {stroke grestore} bdef
% orientation switch
/portraitMode 0 def /landscapeMode 1 def /rotateMode 2 def
% coordinate system mappings
/dpi2point 0 def
% font control
/FontSize 0 def
/FMS {/FontSize xstore findfont [FontSize 0 0 FontSize neg 0 0]
  makefont setfont} bdef
/reencode {exch dup where {pop load} {pop StandardEncoding} ifelse
  exch dup 3 1 roll findfont dup length dict begin
  { 1 index /FID ne {def}{pop pop} ifelse } forall
  /Encoding exch def currentdict end definefont pop} bdef
/isroman {findfont /CharStrings get /Agrave known} bdef
/FMSR {3 1 roll 1 index dup isroman {reencode} {pop pop} ifelse
  exch FMS} bdef
/csm {1 dpi2point div -1 dpi2point div scale neg translate
 dup landscapeMode eq {pop -90 rotate}
  {rotateMode eq {90 rotate} if} ifelse} bdef
% line types: solid, dotted, dashed, dotdash
/SO { [] 0 setdash } bdef
/DO { [.5 dpi2point mul 4 dpi2point mul] 0 setdash } bdef
/DA { [6 dpi2point mul] 0 setdash } bdef
/DD { [.5 dpi2point mul 4 dpi2point mul 6 dpi2point mul 4
  dpi2point mul] 0 setdash } bdef
% macros for lines and objects
/L {lineto stroke} bdef
/MP {3 1 roll moveto 1 sub {rlineto} repeat} bdef
/AP {{rlineto} repeat} bdef
/PDlw -1 def
/W {/PDlw currentlinewidth def setlinewidth} def
/PP {closepath eofill} bdef
/DP {closepath stroke} bdef
/MR {4 -2 roll moveto dup  0 exch rlineto exch 0 rlineto
  neg 0 exch rlineto closepath} bdef
/FR {MR stroke} bdef
/PR {MR fill} bdef
/L1i {{currentfile picstr readhexstring pop} image} bdef
/tMatrix matrix def
/MakeOval {newpath tMatrix currentmatrix pop translate scale
0 0 1 0 360 arc tMatrix setmatrix} bdef
/FO {MakeOval stroke} bdef
/PO {MakeOval fill} bdef
/PD {currentlinewidth 2 div 0 360 arc fill
   PDlw -1 eq not {PDlw w /PDlw -1 def} if} def
/FA {newpath tMatrix currentmatrix pop translate scale
  0 0 1 5 -2 roll arc tMatrix setmatrix stroke} bdef
/PA {newpath tMatrix currentmatrix pop	translate 0 0 moveto scale
  0 0 1 5 -2 roll arc closepath tMatrix setmatrix fill} bdef
/FAn {newpath tMatrix currentmatrix pop translate scale
  0 0 1 5 -2 roll arcn tMatrix setmatrix stroke} bdef
/PAn {newpath tMatrix currentmatrix pop translate 0 0 moveto scale
  0 0 1 5 -2 roll arcn closepath tMatrix setmatrix fill} bdef
/vradius 0 def /hradius 0 def /lry 0 def
/lrx 0 def /uly 0 def /ulx 0 def /rad 0 def
/MRR {/vradius xdef /hradius xdef /lry xdef /lrx xdef /uly xdef
  /ulx xdef newpath tMatrix currentmatrix pop ulx hradius add uly
  vradius add translate hradius vradius scale 0 0 1 180 270 arc 
  tMatrix setmatrix lrx hradius sub uly vradius add translate
  hradius vradius scale 0 0 1 270 360 arc tMatrix setmatrix
  lrx hradius sub lry vradius sub translate hradius vradius scale
  0 0 1 0 90 arc tMatrix setmatrix ulx hradius add lry vradius sub
  translate hradius vradius scale 0 0 1 90 180 arc tMatrix setmatrix
  closepath} bdef
/FRR {MRR stroke } bdef
/PRR {MRR fill } bdef
/MlrRR {/lry xdef /lrx xdef /uly xdef /ulx xdef /rad lry uly sub 2 div def
  newpath tMatrix currentmatrix pop ulx rad add uly rad add translate
  rad rad scale 0 0 1 90 270 arc tMatrix setmatrix lrx rad sub lry rad
  sub translate rad rad scale 0 0 1 270 90 arc tMatrix setmatrix
  closepath} bdef
/FlrRR {MlrRR stroke } bdef
/PlrRR {MlrRR fill } bdef
/MtbRR {/lry xdef /lrx xdef /uly xdef /ulx xdef /rad lrx ulx sub 2 div def
  newpath tMatrix currentmatrix pop ulx rad add uly rad add translate
  rad rad scale 0 0 1 180 360 arc tMatrix setmatrix lrx rad sub lry rad
  sub translate rad rad scale 0 0 1 0 180 arc tMatrix setmatrix
  closepath} bdef
/FtbRR {MtbRR stroke } bdef
/PtbRR {MtbRR fill } bdef
/stri 6 array def /dtri 6 array def
/smat 6 array def /dmat 6 array def
/tmat1 6 array def /tmat2 6 array def /dif 3 array def
/asub {/ind2 exch def /ind1 exch def dup dup
  ind1 get exch ind2 get sub exch } bdef
/tri_to_matrix {
  2 0 asub 3 1 asub 4 0 asub 5 1 asub
  dup 0 get exch 1 get 7 -1 roll astore } bdef
/compute_transform {
  dmat dtri tri_to_matrix tmat1 invertmatrix 
  smat stri tri_to_matrix tmat2 concatmatrix } bdef
/ds {stri astore pop} bdef
/dt {dtri astore pop} bdef
/db {2 copy /cols xdef /rows xdef mul dup 3 mul string
  currentfile 
  3 index 0 eq {/ASCIIHexDecode filter}
  {/ASCII85Decode filter 3 index 2 eq {/RunLengthDecode filter} if }
  ifelse exch readstring pop
  dup 0 3 index getinterval /rbmap xdef
  dup 2 index dup getinterval /gbmap xdef
  1 index dup 2 mul exch getinterval /bbmap xdef pop pop}bdef
/it {gs np dtri aload pop moveto lineto lineto cp c
  cols rows 8 compute_transform 
  rbmap gbmap bbmap true 3 colorimage gr}bdef
/il {newpath moveto lineto stroke}bdef
currentdict end def
%%EndProlog

%%BeginSetup
MathWorks begin

0 cap

end
%%EndSetup

%%Page: 1 1
%%BeginPageSetup
%%PageBoundingBox:   -88   -82   306   225
MathWorks begin
bpage
%%EndPageSetup

%%BeginObject: obj1
bplot

/dpi2point 12 def
portraitMode -1056 2700 csm

    0     0  4732  3695 rc
85 dict begin %Colortable dictionary
/c0 { 0.000000 0.000000 0.000000 sr} bdef
/c1 { 1.000000 1.000000 1.000000 sr} bdef
/c2 { 0.900000 0.000000 0.000000 sr} bdef
/c3 { 0.000000 0.820000 0.000000 sr} bdef
/c4 { 0.000000 0.000000 0.800000 sr} bdef
/c5 { 0.910000 0.820000 0.320000 sr} bdef
/c6 { 1.000000 0.260000 0.820000 sr} bdef
/c7 { 0.000000 0.820000 0.820000 sr} bdef
c0
1 j
1 sg
   0    0 4733 3696 rf
6 w
0 3013 3668 0 0 -3013 614 3289 4 MP
PP
-3668 0 0 3013 3668 0 0 -3013 614 3289 5 MP stroke
4 w
DO
0 sg
 614 3289 mt  614  277 L
 614  277 mt  614  277 L
1046 3289 mt 1046  277 L
1046  277 mt 1046  277 L
1477 3289 mt 1477  277 L
1477  277 mt 1477  277 L
1909 3289 mt 1909  277 L
1909  277 mt 1909  277 L
2340 3289 mt 2340  277 L
2340  277 mt 2340  277 L
2772 3289 mt 2772  277 L
2772  277 mt 2772  277 L
3203 3289 mt 3203  277 L
3203  277 mt 3203  277 L
3634 3289 mt 3634  277 L
3634  277 mt 3634  277 L
4066 3289 mt 4066  277 L
4066  277 mt 4066  277 L
 614 3289 mt 4282 3289 L
4282 3289 mt 4282 3289 L
 614 3015 mt 4282 3015 L
4282 3015 mt 4282 3015 L
 614 2741 mt 4282 2741 L
4282 2741 mt 4282 2741 L
 614 2467 mt 4282 2467 L
4282 2467 mt 4282 2467 L
 614 2193 mt 4282 2193 L
4282 2193 mt 4282 2193 L
 614 1919 mt 4282 1919 L
4282 1919 mt 4282 1919 L
 614 1646 mt 4282 1646 L
4282 1646 mt 4282 1646 L
 614 1372 mt 4282 1372 L
4282 1372 mt 4282 1372 L
 614 1098 mt 4282 1098 L
4282 1098 mt 4282 1098 L
 614  824 mt 4282  824 L
4282  824 mt 4282  824 L
 614  550 mt 4282  550 L
4282  550 mt 4282  550 L
 614  277 mt 4282  277 L
4282  277 mt 4282  277 L
SO
6 w
 614 3289 mt 4282 3289 L
 614  276 mt 4282  276 L
 614 3289 mt  614  276 L
4282 3289 mt 4282  276 L
 614 3289 mt 4282 3289 L
 614 3289 mt  614  276 L
 614 3289 mt  614 3252 L
 614  277 mt  614  313 L
%%IncludeResource: font Helvetica
/Helvetica /ISOLatin1Encoding 120 FMSR

 581 3434 mt 
(0) s
1046 3289 mt 1046 3252 L
1046  277 mt 1046  313 L
1013 3434 mt 
(2) s
1477 3289 mt 1477 3252 L
1477  277 mt 1477  313 L
1444 3434 mt 
(4) s
1909 3289 mt 1909 3252 L
1909  277 mt 1909  313 L
1876 3434 mt 
(6) s
2340 3289 mt 2340 3252 L
2340  277 mt 2340  313 L
2307 3434 mt 
(8) s
2772 3289 mt 2772 3252 L
2772  277 mt 2772  313 L
2706 3434 mt 
(10) s
3203 3289 mt 3203 3252 L
3203  277 mt 3203  313 L
3137 3434 mt 
(12) s
3634 3289 mt 3634 3252 L
3634  277 mt 3634  313 L
3568 3434 mt 
(14) s
4066 3289 mt 4066 3252 L
4066  277 mt 4066  313 L
4000 3434 mt 
(16) s
 614 3289 mt  651 3289 L
4282 3289 mt 4245 3289 L
 444 3333 mt 
(-4) s
 614 3015 mt  651 3015 L
4282 3015 mt 4245 3015 L
 444 3059 mt 
(-3) s
 614 2741 mt  651 2741 L
4282 2741 mt 4245 2741 L
 444 2785 mt 
(-2) s
 614 2467 mt  651 2467 L
4282 2467 mt 4245 2467 L
 444 2511 mt 
(-1) s
 614 2193 mt  651 2193 L
4282 2193 mt 4245 2193 L
 514 2237 mt 
(0) s
 614 1919 mt  651 1919 L
4282 1919 mt 4245 1919 L
 514 1963 mt 
(1) s
 614 1646 mt  651 1646 L
4282 1646 mt 4245 1646 L
 514 1690 mt 
(2) s
 614 1372 mt  651 1372 L
4282 1372 mt 4245 1372 L
 514 1416 mt 
(3) s
 614 1098 mt  651 1098 L
4282 1098 mt 4245 1098 L
 514 1142 mt 
(4) s
 614  824 mt  651  824 L
4282  824 mt 4245  824 L
 514  868 mt 
(5) s
 614  550 mt  651  550 L
4282  550 mt 4245  550 L
 514  594 mt 
(6) s
 614  277 mt  651  277 L
4282  277 mt 4245  277 L
 514  321 mt 
(7) s
 614  223 mt 
(x 10) s
%%IncludeResource: font Helvetica
/Helvetica /ISOLatin1Encoding 80 FMSR

 840  149 mt 
(-3) s
 614 3289 mt 4282 3289 L
 614  276 mt 4282  276 L
 614 3289 mt  614  276 L
4282 3289 mt 4282  276 L
gs 615 277 3668 3013 rc
5 1 54 8 53 8 53 7 53 4 53 0 53 -4 53 -8 
53 -11 53 -13 53 -13 53 -10 53 -4 54 2 53 9 53 16 
53 20 53 22 53 19 53 13 53 4 53 -8 53 -20 53 -30 
54 -35 53 -34 53 -27 53 -17 53 1 53 20 53 41 53 55 
53 58 53 52 53 36 53 15 54 -11 53 -44 53 -77 53 -98 
53 -99 53 -74 53 -40 53 -3 53 36 53 82 53 138 54 176 
53 168 53 104 53 20 53 -45 53 -84 53 -134 53 -225 53 -314 
53 -305 53 -150 54 66 53 199 53 191 53 171 53 299 53 539 
53 613 53 283 53 -304 53 -663 53 -492 53 -97 615 2193 71 MP stroke
5 1 54 6 53 5 53 2 53 -2 53 -6 53 -9 53 -11 
53 -12 53 -10 53 -7 53 -2 53 4 54 11 53 16 53 20 
53 19 53 17 53 10 53 1 53 -10 53 -20 53 -29 53 -33 
54 -33 53 -26 53 -14 53 2 53 20 53 38 53 51 53 57 
53 54 53 40 53 19 53 -10 54 -40 53 -69 53 -91 53 -98 
53 -86 53 -60 53 -23 53 24 53 80 53 131 53 160 54 157 
53 132 53 94 53 36 53 -59 53 -170 53 -249 53 -258 53 -230 
53 -216 53 -189 54 -54 53 193 53 393 53 398 53 302 53 353 
53 530 53 439 53 -139 53 -736 53 -675 53 -149 615 2193 71 MP stroke
5 1 54 2 53 1 53 1 53 -1 53 -3 53 -3 53 -4 
53 -5 53 -3 53 -3 53 0 53 2 54 5 53 7 53 9 
53 8 53 7 53 4 53 -1 53 -5 53 -11 53 -14 53 -17 
54 -15 53 -13 53 -6 53 3 53 12 53 23 53 30 53 32 
53 30 53 21 53 7 53 -8 54 -27 53 -46 53 -62 53 -66 
53 -55 53 -33 53 -5 53 24 53 54 53 92 53 127 54 136 
53 108 53 45 53 -20 53 -67 53 -105 53 -164 53 -248 53 -295 
53 -234 53 -58 54 131 53 213 53 197 53 227 53 423 53 655 
53 612 53 127 53 -513 53 -769 53 -448 53 -54 615 2193 71 MP stroke
5 0 54 4 53 3 53 2 53 -1 53 -3 53 -5 53 -6 
53 -8 53 -7 53 -5 53 -2 53 2 54 6 53 10 53 12 
53 13 53 12 53 9 53 2 53 -6 53 -13 53 -19 53 -22 
54 -22 53 -20 53 -13 53 -2 53 13 53 26 53 37 53 40 
53 38 53 30 53 20 53 0 54 -25 53 -53 53 -72 53 -75 
53 -63 53 -42 53 -21 53 4 53 43 53 96 53 140 54 150 
53 112 53 50 53 -2 53 -32 53 -67 53 -144 53 -249 53 -308 
53 -243 53 -68 54 105 53 166 53 133 53 154 53 338 53 582 
53 603 53 232 53 -337 53 -659 53 -479 53 -99 615 2193 71 MP stroke
5 0 54 6 53 6 53 4 53 2 53 0 53 -4 53 -7 
53 -9 53 -9 53 -9 53 -7 53 -2 54 3 53 9 53 13 
53 16 53 17 53 14 53 9 53 0 53 -9 53 -19 53 -25 
54 -29 53 -28 53 -21 53 -9 53 6 53 22 53 37 53 47 
53 51 53 44 53 29 53 6 54 -21 53 -49 53 -73 53 -85 
53 -85 53 -68 53 -35 53 7 53 57 53 102 53 137 54 150 
53 138 53 97 53 33 53 -46 53 -129 53 -202 53 -251 53 -261 
53 -220 53 -124 54 10 53 147 53 260 53 349 53 434 53 490 
53 426 53 144 53 -293 53 -598 53 -484 53 -111 615 2193 71 MP stroke
5 0 54 2 53 2 53 1 53 0 53 -2 53 -3 53 -3 
53 -5 53 -4 53 -2 53 -2 53 1 54 4 53 5 53 8 
53 8 53 8 53 5 53 1 53 -3 53 -8 53 -12 53 -15 
54 -15 53 -14 53 -9 53 -1 53 9 53 18 53 25 53 28 
53 29 53 25 53 16 53 -1 54 -21 53 -41 53 -53 53 -57 
53 -52 53 -40 53 -24 53 3 53 43 53 87 53 119 54 122 
53 93 53 52 53 16 53 -16 53 -69 53 -155 53 -251 53 -286 
53 -212 53 -58 54 80 53 127 53 118 53 185 53 398 53 635 
53 624 53 220 53 -370 53 -699 53 -511 53 -106 615 2193 71 MP stroke
5 0 54 2 53 3 53 2 53 2 53 1 53 -1 53 -2 
53 -4 53 -5 53 -5 53 -4 53 -3 54 0 53 3 53 6 
53 8 53 10 53 9 53 7 53 3 53 -2 53 -8 53 -14 
54 -18 53 -18 53 -17 53 -10 53 -1 53 10 53 21 53 30 
53 35 53 35 53 27 53 13 54 -7 53 -29 53 -50 53 -64 
53 -69 53 -62 53 -40 53 -9 53 33 53 74 53 111 54 132 
53 129 53 102 53 50 53 -18 53 -95 53 -173 53 -240 53 -271 
53 -240 53 -145 54 -10 53 121 53 222 53 327 53 466 53 597 
53 560 53 215 53 -336 53 -706 53 -563 53 -126 615 2193 71 MP stroke
5 1 54 5 53 4 53 2 53 -2 53 -5 53 -7 53 -10 
53 -10 53 -9 53 -6 53 -2 53 4 54 10 53 14 53 17 
53 17 53 14 53 9 53 1 53 -9 53 -19 53 -25 53 -30 
54 -29 53 -23 53 -11 53 2 53 20 53 34 53 46 53 51 
53 48 53 36 53 15 53 -11 54 -40 53 -65 53 -81 53 -87 
53 -78 53 -55 53 -18 53 29 53 80 53 123 53 147 54 145 
53 119 53 75 53 17 53 -57 53 -142 53 -227 53 -281 53 -268 
53 -184 53 -60 54 51 53 123 53 193 53 314 53 487 53 595 
53 470 53 70 53 -409 53 -628 53 -428 53 -81 615 2193 71 MP stroke
5 1 54 8 53 8 53 7 53 4 53 0 53 -4 53 -8 
53 -11 53 -13 53 -13 53 -10 53 -4 54 2 53 9 53 16 
53 20 53 22 53 19 53 13 53 4 53 -8 53 -20 53 -30 
54 -35 53 -34 53 -27 53 -17 53 1 53 20 53 41 53 55 
53 58 53 52 53 36 53 15 54 -11 53 -44 53 -77 53 -98 
53 -99 53 -74 53 -40 53 -3 53 36 53 82 53 138 54 176 
53 168 53 104 53 20 53 -45 53 -84 53 -134 53 -225 53 -314 
53 -305 53 -150 54 66 53 199 53 191 53 171 53 299 53 539 
53 613 53 283 53 -304 53 -663 53 -492 53 -97 615 2193 71 MP stroke
5 1 54 6 53 5 53 2 53 -2 53 -6 53 -9 53 -11 
53 -12 53 -10 53 -7 53 -2 53 4 54 11 53 16 53 20 
53 19 53 17 53 10 53 1 53 -10 53 -20 53 -29 53 -33 
54 -33 53 -26 53 -14 53 2 53 20 53 38 53 51 53 57 
53 54 53 40 53 19 53 -10 54 -40 53 -69 53 -91 53 -98 
53 -86 53 -60 53 -23 53 24 53 80 53 131 53 160 54 157 
53 132 53 94 53 36 53 -59 53 -170 53 -249 53 -258 53 -230 
53 -216 53 -189 54 -54 53 193 53 393 53 398 53 302 53 353 
53 530 53 439 53 -139 53 -736 53 -675 53 -149 615 2193 71 MP stroke
5 1 54 2 53 1 53 1 53 -1 53 -3 53 -3 53 -4 
53 -5 53 -3 53 -3 53 0 53 2 54 5 53 7 53 9 
53 8 53 7 53 4 53 -1 53 -5 53 -11 53 -14 53 -17 
54 -15 53 -13 53 -6 53 3 53 12 53 23 53 30 53 32 
53 30 53 21 53 7 53 -8 54 -27 53 -46 53 -62 53 -66 
53 -55 53 -33 53 -5 53 24 53 54 53 92 53 127 54 136 
53 108 53 45 53 -20 53 -67 53 -105 53 -164 53 -248 53 -295 
53 -234 53 -58 54 131 53 213 53 197 53 227 53 423 53 655 
53 612 53 127 53 -513 53 -769 53 -448 53 -54 615 2193 71 MP stroke
5 0 54 4 53 3 53 2 53 -1 53 -3 53 -5 53 -6 
53 -8 53 -7 53 -5 53 -2 53 2 54 6 53 10 53 12 
53 13 53 12 53 9 53 2 53 -6 53 -13 53 -19 53 -22 
54 -22 53 -20 53 -13 53 -2 53 13 53 26 53 37 53 40 
53 38 53 30 53 20 53 0 54 -25 53 -53 53 -72 53 -75 
53 -63 53 -42 53 -21 53 4 53 43 53 96 53 140 54 150 
53 112 53 50 53 -2 53 -32 53 -67 53 -144 53 -249 53 -308 
53 -243 53 -68 54 105 53 166 53 133 53 154 53 338 53 582 
53 603 53 232 53 -337 53 -659 53 -479 53 -99 615 2193 71 MP stroke
5 0 54 6 53 6 53 4 53 2 53 0 53 -4 53 -7 
53 -9 53 -9 53 -9 53 -7 53 -2 54 3 53 9 53 13 
53 16 53 17 53 14 53 9 53 0 53 -9 53 -19 53 -25 
54 -29 53 -28 53 -21 53 -9 53 6 53 22 53 37 53 47 
53 51 53 44 53 29 53 6 54 -21 53 -49 53 -73 53 -85 
53 -85 53 -68 53 -35 53 7 53 57 53 102 53 137 54 150 
53 138 53 97 53 33 53 -46 53 -129 53 -202 53 -251 53 -261 
53 -220 53 -124 54 10 53 147 53 260 53 349 53 434 53 490 
53 426 53 144 53 -293 53 -598 53 -484 53 -111 615 2193 71 MP stroke
5 0 54 2 53 2 53 1 53 0 53 -2 53 -3 53 -3 
53 -5 53 -4 53 -2 53 -2 53 1 54 4 53 5 53 8 
53 8 53 8 53 5 53 1 53 -3 53 -8 53 -12 53 -15 
54 -15 53 -14 53 -9 53 -1 53 9 53 18 53 25 53 28 
53 29 53 25 53 16 53 -1 54 -21 53 -41 53 -53 53 -57 
53 -52 53 -40 53 -24 53 3 53 43 53 87 53 119 54 122 
53 93 53 52 53 16 53 -16 53 -69 53 -155 53 -251 53 -286 
53 -212 53 -58 54 80 53 127 53 118 53 185 53 398 53 635 
53 624 53 220 53 -370 53 -699 53 -511 53 -106 615 2193 71 MP stroke
5 0 54 2 53 3 53 2 53 2 53 1 53 -1 53 -2 
53 -4 53 -5 53 -5 53 -4 53 -3 54 0 53 3 53 6 
53 8 53 10 53 9 53 7 53 3 53 -2 53 -8 53 -14 
54 -18 53 -18 53 -17 53 -10 53 -1 53 10 53 21 53 30 
53 35 53 35 53 27 53 13 54 -7 53 -29 53 -50 53 -64 
53 -69 53 -62 53 -40 53 -9 53 33 53 74 53 111 54 132 
53 129 53 102 53 50 53 -18 53 -95 53 -173 53 -240 53 -271 
53 -240 53 -145 54 -10 53 121 53 222 53 327 53 466 53 597 
53 560 53 215 53 -336 53 -706 53 -563 53 -126 615 2193 71 MP stroke
5 1 54 5 53 4 53 2 53 -2 53 -5 53 -7 53 -10 
53 -10 53 -9 53 -6 53 -2 53 4 54 10 53 14 53 17 
53 17 53 14 53 9 53 1 53 -9 53 -19 53 -25 53 -30 
54 -29 53 -23 53 -11 53 2 53 20 53 34 53 46 53 51 
53 48 53 36 53 15 53 -11 54 -40 53 -65 53 -81 53 -87 
53 -78 53 -55 53 -18 53 29 53 80 53 123 53 147 54 145 
53 119 53 75 53 17 53 -57 53 -142 53 -227 53 -281 53 -268 
53 -184 53 -60 54 51 53 123 53 193 53 314 53 487 53 595 
53 470 53 70 53 -409 53 -628 53 -428 53 -81 615 2193 71 MP stroke
5 1 54 8 53 8 53 7 53 4 53 0 53 -4 53 -8 
53 -11 53 -13 53 -13 53 -10 53 -4 54 2 53 9 53 16 
53 20 53 22 53 19 53 13 53 4 53 -8 53 -20 53 -30 
54 -35 53 -34 53 -27 53 -17 53 1 53 20 53 41 53 55 
53 58 53 52 53 36 53 15 54 -11 53 -44 53 -77 53 -98 
53 -99 53 -74 53 -40 53 -3 53 36 53 82 53 138 54 176 
53 168 53 104 53 20 53 -45 53 -84 53 -134 53 -225 53 -314 
53 -305 53 -150 54 66 53 199 53 191 53 171 53 299 53 539 
53 613 53 283 53 -304 53 -663 53 -492 53 -97 615 2193 71 MP stroke
5 1 54 6 53 5 53 2 53 -2 53 -6 53 -9 53 -11 
53 -12 53 -10 53 -7 53 -2 53 4 54 11 53 16 53 20 
53 19 53 17 53 10 53 1 53 -10 53 -20 53 -29 53 -33 
54 -33 53 -26 53 -14 53 2 53 20 53 38 53 51 53 57 
53 54 53 40 53 19 53 -10 54 -40 53 -69 53 -91 53 -98 
53 -86 53 -60 53 -23 53 24 53 80 53 131 53 160 54 157 
53 132 53 94 53 36 53 -59 53 -170 53 -249 53 -258 53 -230 
53 -216 53 -189 54 -54 53 193 53 393 53 398 53 302 53 353 
53 530 53 439 53 -139 53 -736 53 -675 53 -149 615 2193 71 MP stroke
5 1 54 2 53 1 53 1 53 -1 53 -3 53 -3 53 -4 
53 -5 53 -3 53 -3 53 0 53 2 54 5 53 7 53 9 
53 8 53 7 53 4 53 -1 53 -5 53 -11 53 -14 53 -17 
54 -15 53 -13 53 -6 53 3 53 12 53 23 53 30 53 32 
53 30 53 21 53 7 53 -8 54 -27 53 -46 53 -62 53 -66 
53 -55 53 -33 53 -5 53 24 53 54 53 92 53 127 54 136 
53 108 53 45 53 -20 53 -67 53 -105 53 -164 53 -248 53 -295 
53 -234 53 -58 54 131 53 213 53 197 53 227 53 423 53 655 
53 612 53 127 53 -513 53 -769 53 -448 53 -54 615 2193 71 MP stroke
5 0 54 4 53 3 53 2 53 -1 53 -3 53 -5 53 -6 
53 -8 53 -7 53 -5 53 -2 53 2 54 6 53 10 53 12 
53 13 53 12 53 9 53 2 53 -6 53 -13 53 -19 53 -22 
54 -22 53 -20 53 -13 53 -2 53 13 53 26 53 37 53 40 
53 38 53 30 53 20 53 0 54 -25 53 -53 53 -72 53 -75 
53 -63 53 -42 53 -21 53 4 53 43 53 96 53 140 54 150 
53 112 53 50 53 -2 53 -32 53 -67 53 -144 53 -249 53 -308 
53 -243 53 -68 54 105 53 166 53 133 53 154 53 338 53 582 
53 603 53 232 53 -337 53 -659 53 -479 53 -99 615 2193 71 MP stroke
5 0 54 6 53 6 53 4 53 2 53 0 53 -4 53 -7 
53 -9 53 -9 53 -9 53 -7 53 -2 54 3 53 9 53 13 
53 16 53 17 53 14 53 9 53 0 53 -9 53 -19 53 -25 
54 -29 53 -28 53 -21 53 -9 53 6 53 22 53 37 53 47 
53 51 53 44 53 29 53 6 54 -21 53 -49 53 -73 53 -85 
53 -85 53 -68 53 -35 53 7 53 57 53 102 53 137 54 150 
53 138 53 97 53 33 53 -46 53 -129 53 -202 53 -251 53 -261 
53 -220 53 -124 54 10 53 147 53 260 53 349 53 434 53 490 
53 426 53 144 53 -293 53 -598 53 -484 53 -111 615 2193 71 MP stroke
5 0 54 2 53 2 53 1 53 0 53 -2 53 -3 53 -3 
53 -5 53 -4 53 -2 53 -2 53 1 54 4 53 5 53 8 
53 8 53 8 53 5 53 1 53 -3 53 -8 53 -12 53 -15 
54 -15 53 -14 53 -9 53 -1 53 9 53 18 53 25 53 28 
53 29 53 25 53 16 53 -1 54 -21 53 -41 53 -53 53 -57 
53 -52 53 -40 53 -24 53 3 53 43 53 87 53 119 54 122 
53 93 53 52 53 16 53 -16 53 -69 53 -155 53 -251 53 -286 
53 -212 53 -58 54 80 53 127 53 118 53 185 53 398 53 635 
53 624 53 220 53 -370 53 -699 53 -511 53 -106 615 2193 71 MP stroke
5 0 54 2 53 3 53 2 53 2 53 1 53 -1 53 -2 
53 -4 53 -5 53 -5 53 -4 53 -3 54 0 53 3 53 6 
53 8 53 10 53 9 53 7 53 3 53 -2 53 -8 53 -14 
54 -18 53 -18 53 -17 53 -10 53 -1 53 10 53 21 53 30 
53 35 53 35 53 27 53 13 54 -7 53 -29 53 -50 53 -64 
53 -69 53 -62 53 -40 53 -9 53 33 53 74 53 111 54 132 
53 129 53 102 53 50 53 -18 53 -95 53 -173 53 -240 53 -271 
53 -240 53 -145 54 -10 53 121 53 222 53 327 53 466 53 597 
53 560 53 215 53 -336 53 -706 53 -563 53 -126 615 2193 71 MP stroke
5 1 54 5 53 4 53 2 53 -2 53 -5 53 -7 53 -10 
53 -10 53 -9 53 -6 53 -2 53 4 54 10 53 14 53 17 
53 17 53 14 53 9 53 1 53 -9 53 -19 53 -25 53 -30 
54 -29 53 -23 53 -11 53 2 53 20 53 34 53 46 53 51 
53 48 53 36 53 15 53 -11 54 -40 53 -65 53 -81 53 -87 
53 -78 53 -55 53 -18 53 29 53 80 53 123 53 147 54 145 
53 119 53 75 53 17 53 -57 53 -142 53 -227 53 -281 53 -268 
53 -184 53 -60 54 51 53 123 53 193 53 314 53 487 53 595 
53 470 53 70 53 -409 53 -628 53 -428 53 -81 615 2193 71 MP stroke
5 1 54 8 53 8 53 7 53 4 53 0 53 -4 53 -8 
53 -11 53 -13 53 -13 53 -10 53 -4 54 2 53 9 53 16 
53 20 53 22 53 19 53 13 53 4 53 -8 53 -20 53 -30 
54 -35 53 -34 53 -27 53 -17 53 1 53 20 53 41 53 55 
53 58 53 52 53 36 53 15 54 -11 53 -44 53 -77 53 -98 
53 -99 53 -74 53 -40 53 -3 53 36 53 82 53 138 54 176 
53 168 53 104 53 20 53 -45 53 -84 53 -134 53 -225 53 -314 
53 -305 53 -150 54 66 53 199 53 191 53 171 53 299 53 539 
53 613 53 283 53 -304 53 -663 53 -492 53 -97 615 2193 71 MP stroke
5 1 54 6 53 5 53 2 53 -2 53 -6 53 -9 53 -11 
53 -12 53 -10 53 -7 53 -2 53 4 54 11 53 16 53 20 
53 19 53 17 53 10 53 1 53 -10 53 -20 53 -29 53 -33 
54 -33 53 -26 53 -14 53 2 53 20 53 38 53 51 53 57 
53 54 53 40 53 19 53 -10 54 -40 53 -69 53 -91 53 -98 
53 -86 53 -60 53 -23 53 24 53 80 53 131 53 160 54 157 
53 132 53 94 53 36 53 -59 53 -170 53 -249 53 -258 53 -230 
53 -216 53 -189 54 -54 53 193 53 393 53 398 53 302 53 353 
53 530 53 439 53 -139 53 -736 53 -675 53 -149 615 2193 71 MP stroke
5 1 54 2 53 1 53 1 53 -1 53 -3 53 -3 53 -4 
53 -5 53 -3 53 -3 53 0 53 2 54 5 53 7 53 9 
53 8 53 7 53 4 53 -1 53 -5 53 -11 53 -14 53 -17 
54 -15 53 -13 53 -6 53 3 53 12 53 23 53 30 53 32 
53 30 53 21 53 7 53 -8 54 -27 53 -46 53 -62 53 -66 
53 -55 53 -33 53 -5 53 24 53 54 53 92 53 127 54 136 
53 108 53 45 53 -20 53 -67 53 -105 53 -164 53 -248 53 -295 
53 -234 53 -58 54 131 53 213 53 197 53 227 53 423 53 655 
53 612 53 127 53 -513 53 -769 53 -448 53 -54 615 2193 71 MP stroke
5 0 54 4 53 3 53 2 53 -1 53 -3 53 -5 53 -6 
53 -8 53 -7 53 -5 53 -2 53 2 54 6 53 10 53 12 
53 13 53 12 53 9 53 2 53 -6 53 -13 53 -19 53 -22 
54 -22 53 -20 53 -13 53 -2 53 13 53 26 53 37 53 40 
53 38 53 30 53 20 53 0 54 -25 53 -53 53 -72 53 -75 
53 -63 53 -42 53 -21 53 4 53 43 53 96 53 140 54 150 
53 112 53 50 53 -2 53 -32 53 -67 53 -144 53 -249 53 -308 
53 -243 53 -68 54 105 53 166 53 133 53 154 53 338 53 582 
53 603 53 232 53 -337 53 -659 53 -479 53 -99 615 2193 71 MP stroke
5 0 54 6 53 6 53 4 53 2 53 0 53 -4 53 -7 
53 -9 53 -9 53 -9 53 -7 53 -2 54 3 53 9 53 13 
53 16 53 17 53 14 53 9 53 0 53 -9 53 -19 53 -25 
54 -29 53 -28 53 -21 53 -9 53 6 53 22 53 37 53 47 
53 51 53 44 53 29 53 6 54 -21 53 -49 53 -73 53 -85 
53 -85 53 -68 53 -35 53 7 53 57 53 102 53 137 54 150 
53 138 53 97 53 33 53 -46 53 -129 53 -202 53 -251 53 -261 
53 -220 53 -124 54 10 53 147 53 260 53 349 53 434 53 490 
53 426 53 144 53 -293 53 -598 53 -484 53 -111 615 2193 71 MP stroke
5 0 54 2 53 2 53 1 53 0 53 -2 53 -3 53 -3 
53 -5 53 -4 53 -2 53 -2 53 1 54 4 53 5 53 8 
53 8 53 8 53 5 53 1 53 -3 53 -8 53 -12 53 -15 
54 -15 53 -14 53 -9 53 -1 53 9 53 18 53 25 53 28 
53 29 53 25 53 16 53 -1 54 -21 53 -41 53 -53 53 -57 
53 -52 53 -40 53 -24 53 3 53 43 53 87 53 119 54 122 
53 93 53 52 53 16 53 -16 53 -69 53 -155 53 -251 53 -286 
53 -212 53 -58 54 80 53 127 53 118 53 185 53 398 53 635 
53 624 53 220 53 -370 53 -699 53 -511 53 -106 615 2193 71 MP stroke
5 0 54 2 53 3 53 2 53 2 53 1 53 -1 53 -2 
53 -4 53 -5 53 -5 53 -4 53 -3 54 0 53 3 53 6 
53 8 53 10 53 9 53 7 53 3 53 -2 53 -8 53 -14 
54 -18 53 -18 53 -17 53 -10 53 -1 53 10 53 21 53 30 
53 35 53 35 53 27 53 13 54 -7 53 -29 53 -50 53 -64 
53 -69 53 -62 53 -40 53 -9 53 33 53 74 53 111 54 132 
53 129 53 102 53 50 53 -18 53 -95 53 -173 53 -240 53 -271 
53 -240 53 -145 54 -10 53 121 53 222 53 327 53 466 53 597 
53 560 53 215 53 -336 53 -706 53 -563 53 -126 615 2193 71 MP stroke
5 1 54 5 53 4 53 2 53 -2 53 -5 53 -7 53 -10 
53 -10 53 -9 53 -6 53 -2 53 4 54 10 53 14 53 17 
53 17 53 14 53 9 53 1 53 -9 53 -19 53 -25 53 -30 
54 -29 53 -23 53 -11 53 2 53 20 53 34 53 46 53 51 
53 48 53 36 53 15 53 -11 54 -40 53 -65 53 -81 53 -87 
53 -78 53 -55 53 -18 53 29 53 80 53 123 53 147 54 145 
53 119 53 75 53 17 53 -57 53 -142 53 -227 53 -281 53 -268 
53 -184 53 -60 54 51 53 123 53 193 53 314 53 487 53 595 
53 470 53 70 53 -409 53 -628 53 -428 53 -81 615 2193 71 MP stroke
5 1 54 8 53 8 53 7 53 4 53 0 53 -4 53 -8 
53 -11 53 -13 53 -13 53 -10 53 -4 54 2 53 9 53 16 
53 20 53 22 53 19 53 13 53 4 53 -8 53 -20 53 -30 
54 -35 53 -34 53 -27 53 -17 53 1 53 20 53 41 53 55 
53 58 53 52 53 36 53 15 54 -11 53 -44 53 -77 53 -98 
53 -99 53 -74 53 -40 53 -3 53 36 53 82 53 138 54 176 
53 168 53 104 53 20 53 -45 53 -84 53 -134 53 -225 53 -314 
53 -305 53 -150 54 66 53 199 53 191 53 171 53 299 53 539 
53 613 53 283 53 -304 53 -663 53 -492 53 -97 615 2193 71 MP stroke
5 1 54 6 53 5 53 2 53 -2 53 -6 53 -9 53 -11 
53 -12 53 -10 53 -7 53 -2 53 4 54 11 53 16 53 20 
53 19 53 17 53 10 53 1 53 -10 53 -20 53 -29 53 -33 
54 -33 53 -26 53 -14 53 2 53 20 53 38 53 51 53 57 
53 54 53 40 53 19 53 -10 54 -40 53 -69 53 -91 53 -98 
53 -86 53 -60 53 -23 53 24 53 80 53 131 53 160 54 157 
53 132 53 94 53 36 53 -59 53 -170 53 -249 53 -258 53 -230 
53 -216 53 -189 54 -54 53 193 53 393 53 398 53 302 53 353 
53 530 53 439 53 -139 53 -736 53 -675 53 -149 615 2193 71 MP stroke
5 1 54 2 53 1 53 1 53 -1 53 -3 53 -3 53 -4 
53 -5 53 -3 53 -3 53 0 53 2 54 5 53 7 53 9 
53 8 53 7 53 4 53 -1 53 -5 53 -11 53 -14 53 -17 
54 -15 53 -13 53 -6 53 3 53 12 53 23 53 30 53 32 
53 30 53 21 53 7 53 -8 54 -27 53 -46 53 -62 53 -66 
53 -55 53 -33 53 -5 53 24 53 54 53 92 53 127 54 136 
53 108 53 45 53 -20 53 -67 53 -105 53 -164 53 -248 53 -295 
53 -234 53 -58 54 131 53 213 53 197 53 227 53 423 53 655 
53 612 53 127 53 -513 53 -769 53 -448 53 -54 615 2193 71 MP stroke
5 0 54 4 53 3 53 2 53 -1 53 -3 53 -5 53 -6 
53 -8 53 -7 53 -5 53 -2 53 2 54 6 53 10 53 12 
53 13 53 12 53 9 53 2 53 -6 53 -13 53 -19 53 -22 
54 -22 53 -20 53 -13 53 -2 53 13 53 26 53 37 53 40 
53 38 53 30 53 20 53 0 54 -25 53 -53 53 -72 53 -75 
53 -63 53 -42 53 -21 53 4 53 43 53 96 53 140 54 150 
53 112 53 50 53 -2 53 -32 53 -67 53 -144 53 -249 53 -308 
53 -243 53 -68 54 105 53 166 53 133 53 154 53 338 53 582 
53 603 53 232 53 -337 53 -659 53 -479 53 -99 615 2193 71 MP stroke
5 0 54 6 53 6 53 4 53 2 53 0 53 -4 53 -7 
53 -9 53 -9 53 -9 53 -7 53 -2 54 3 53 9 53 13 
53 16 53 17 53 14 53 9 53 0 53 -9 53 -19 53 -25 
54 -29 53 -28 53 -21 53 -9 53 6 53 22 53 37 53 47 
53 51 53 44 53 29 53 6 54 -21 53 -49 53 -73 53 -85 
53 -85 53 -68 53 -35 53 7 53 57 53 102 53 137 54 150 
53 138 53 97 53 33 53 -46 53 -129 53 -202 53 -251 53 -261 
53 -220 53 -124 54 10 53 147 53 260 53 349 53 434 53 490 
53 426 53 144 53 -293 53 -598 53 -484 53 -111 615 2193 71 MP stroke
5 0 54 2 53 2 53 1 53 0 53 -2 53 -3 53 -3 
53 -5 53 -4 53 -2 53 -2 53 1 54 4 53 5 53 8 
53 8 53 8 53 5 53 1 53 -3 53 -8 53 -12 53 -15 
54 -15 53 -14 53 -9 53 -1 53 9 53 18 53 25 53 28 
53 29 53 25 53 16 53 -1 54 -21 53 -41 53 -53 53 -57 
53 -52 53 -40 53 -24 53 3 53 43 53 87 53 119 54 122 
53 93 53 52 53 16 53 -16 53 -69 53 -155 53 -251 53 -286 
53 -212 53 -58 54 80 53 127 53 118 53 185 53 398 53 635 
53 624 53 220 53 -370 53 -699 53 -511 53 -106 615 2193 71 MP stroke
5 0 54 2 53 3 53 2 53 2 53 1 53 -1 53 -2 
53 -4 53 -5 53 -5 53 -4 53 -3 54 0 53 3 53 6 
53 8 53 10 53 9 53 7 53 3 53 -2 53 -8 53 -14 
54 -18 53 -18 53 -17 53 -10 53 -1 53 10 53 21 53 30 
53 35 53 35 53 27 53 13 54 -7 53 -29 53 -50 53 -64 
53 -69 53 -62 53 -40 53 -9 53 33 53 74 53 111 54 132 
53 129 53 102 53 50 53 -18 53 -95 53 -173 53 -240 53 -271 
53 -240 53 -145 54 -10 53 121 53 222 53 327 53 466 53 597 
53 560 53 215 53 -336 53 -706 53 -563 53 -126 615 2193 71 MP stroke
5 1 54 5 53 4 53 2 53 -2 53 -5 53 -7 53 -10 
53 -10 53 -9 53 -6 53 -2 53 4 54 10 53 14 53 17 
53 17 53 14 53 9 53 1 53 -9 53 -19 53 -25 53 -30 
54 -29 53 -23 53 -11 53 2 53 20 53 34 53 46 53 51 
53 48 53 36 53 15 53 -11 54 -40 53 -65 53 -81 53 -87 
53 -78 53 -55 53 -18 53 29 53 80 53 123 53 147 54 145 
53 119 53 75 53 17 53 -57 53 -142 53 -227 53 -281 53 -268 
53 -184 53 -60 54 51 53 123 53 193 53 314 53 487 53 595 
53 470 53 70 53 -409 53 -628 53 -428 53 -81 615 2193 71 MP stroke
5 1 54 8 53 8 53 7 53 4 53 0 53 -4 53 -8 
53 -11 53 -13 53 -13 53 -10 53 -4 54 2 53 9 53 16 
53 20 53 22 53 19 53 13 53 4 53 -8 53 -20 53 -30 
54 -35 53 -34 53 -27 53 -17 53 1 53 20 53 41 53 55 
53 58 53 52 53 36 53 15 54 -11 53 -44 53 -77 53 -98 
53 -99 53 -74 53 -40 53 -3 53 36 53 82 53 138 54 176 
53 168 53 104 53 20 53 -45 53 -84 53 -134 53 -225 53 -314 
53 -305 53 -150 54 66 53 199 53 191 53 171 53 299 53 539 
53 613 53 283 53 -304 53 -663 53 -492 53 -97 615 2193 71 MP stroke
5 1 54 6 53 5 53 2 53 -2 53 -6 53 -9 53 -11 
53 -12 53 -10 53 -7 53 -2 53 4 54 11 53 16 53 20 
53 19 53 17 53 10 53 1 53 -10 53 -20 53 -29 53 -33 
54 -33 53 -26 53 -14 53 2 53 20 53 38 53 51 53 57 
53 54 53 40 53 19 53 -10 54 -40 53 -69 53 -91 53 -98 
53 -86 53 -60 53 -23 53 24 53 80 53 131 53 160 54 157 
53 132 53 94 53 36 53 -59 53 -170 53 -249 53 -258 53 -230 
53 -216 53 -189 54 -54 53 193 53 393 53 398 53 302 53 353 
53 530 53 439 53 -139 53 -736 53 -675 53 -149 615 2193 71 MP stroke
5 1 54 2 53 1 53 1 53 -1 53 -3 53 -3 53 -4 
53 -5 53 -3 53 -3 53 0 53 2 54 5 53 7 53 9 
53 8 53 7 53 4 53 -1 53 -5 53 -11 53 -14 53 -17 
54 -15 53 -13 53 -6 53 3 53 12 53 23 53 30 53 32 
53 30 53 21 53 7 53 -8 54 -27 53 -46 53 -62 53 -66 
53 -55 53 -33 53 -5 53 24 53 54 53 92 53 127 54 136 
53 108 53 45 53 -20 53 -67 53 -105 53 -164 53 -248 53 -295 
53 -234 53 -58 54 131 53 213 53 197 53 227 53 423 53 655 
53 612 53 127 53 -513 53 -769 53 -448 53 -54 615 2193 71 MP stroke
5 0 54 4 53 3 53 2 53 -1 53 -3 53 -5 53 -6 
53 -8 53 -7 53 -5 53 -2 53 2 54 6 53 10 53 12 
53 13 53 12 53 9 53 2 53 -6 53 -13 53 -19 53 -22 
54 -22 53 -20 53 -13 53 -2 53 13 53 26 53 37 53 40 
53 38 53 30 53 20 53 0 54 -25 53 -53 53 -72 53 -75 
53 -63 53 -42 53 -21 53 4 53 43 53 96 53 140 54 150 
53 112 53 50 53 -2 53 -32 53 -67 53 -144 53 -249 53 -308 
53 -243 53 -68 54 105 53 166 53 133 53 154 53 338 53 582 
53 603 53 232 53 -337 53 -659 53 -479 53 -99 615 2193 71 MP stroke
5 0 54 6 53 6 53 4 53 2 53 0 53 -4 53 -7 
53 -9 53 -9 53 -9 53 -7 53 -2 54 3 53 9 53 13 
53 16 53 17 53 14 53 9 53 0 53 -9 53 -19 53 -25 
54 -29 53 -28 53 -21 53 -9 53 6 53 22 53 37 53 47 
53 51 53 44 53 29 53 6 54 -21 53 -49 53 -73 53 -85 
53 -85 53 -68 53 -35 53 7 53 57 53 102 53 137 54 150 
53 138 53 97 53 33 53 -46 53 -129 53 -202 53 -251 53 -261 
53 -220 53 -124 54 10 53 147 53 260 53 349 53 434 53 490 
53 426 53 144 53 -293 53 -598 53 -484 53 -111 615 2193 71 MP stroke
5 0 54 2 53 2 53 1 53 0 53 -2 53 -3 53 -3 
53 -5 53 -4 53 -2 53 -2 53 1 54 4 53 5 53 8 
53 8 53 8 53 5 53 1 53 -3 53 -8 53 -12 53 -15 
54 -15 53 -14 53 -9 53 -1 53 9 53 18 53 25 53 28 
53 29 53 25 53 16 53 -1 54 -21 53 -41 53 -53 53 -57 
53 -52 53 -40 53 -24 53 3 53 43 53 87 53 119 54 122 
53 93 53 52 53 16 53 -16 53 -69 53 -155 53 -251 53 -286 
53 -212 53 -58 54 80 53 127 53 118 53 185 53 398 53 635 
53 624 53 220 53 -370 53 -699 53 -511 53 -106 615 2193 71 MP stroke
5 0 54 2 53 3 53 2 53 2 53 1 53 -1 53 -2 
53 -4 53 -5 53 -5 53 -4 53 -3 54 0 53 3 53 6 
53 8 53 10 53 9 53 7 53 3 53 -2 53 -8 53 -14 
54 -18 53 -18 53 -17 53 -10 53 -1 53 10 53 21 53 30 
53 35 53 35 53 27 53 13 54 -7 53 -29 53 -50 53 -64 
53 -69 53 -62 53 -40 53 -9 53 33 53 74 53 111 54 132 
53 129 53 102 53 50 53 -18 53 -95 53 -173 53 -240 53 -271 
53 -240 53 -145 54 -10 53 121 53 222 53 327 53 466 53 597 
53 560 53 215 53 -336 53 -706 53 -563 53 -126 615 2193 71 MP stroke
5 1 54 5 53 4 53 2 53 -2 53 -5 53 -7 53 -10 
53 -10 53 -9 53 -6 53 -2 53 4 54 10 53 14 53 17 
53 17 53 14 53 9 53 1 53 -9 53 -19 53 -25 53 -30 
54 -29 53 -23 53 -11 53 2 53 20 53 34 53 46 53 51 
53 48 53 36 53 15 53 -11 54 -40 53 -65 53 -81 53 -87 
53 -78 53 -55 53 -18 53 29 53 80 53 123 53 147 54 145 
53 119 53 75 53 17 53 -57 53 -142 53 -227 53 -281 53 -268 
53 -184 53 -60 54 51 53 123 53 193 53 314 53 487 53 595 
53 470 53 70 53 -409 53 -628 53 -428 53 -81 615 2193 71 MP stroke
5 1 54 8 53 8 53 7 53 4 53 0 53 -4 53 -8 
53 -11 53 -13 53 -13 53 -10 53 -4 54 2 53 9 53 16 
53 20 53 22 53 19 53 13 53 4 53 -8 53 -20 53 -30 
54 -35 53 -34 53 -27 53 -17 53 1 53 20 53 41 53 55 
53 58 53 52 53 36 53 15 54 -11 53 -44 53 -77 53 -98 
53 -99 53 -74 53 -40 53 -3 53 36 53 82 53 138 54 176 
53 168 53 104 53 20 53 -45 53 -84 53 -134 53 -225 53 -314 
53 -305 53 -150 54 66 53 199 53 191 53 171 53 299 53 539 
53 613 53 283 53 -304 53 -663 53 -492 53 -97 615 2193 71 MP stroke
5 1 54 1 53 2 53 1 53 0 53 -1 53 -2 53 -4 
53 -3 53 -4 53 -3 53 -1 53 0 54 3 53 5 53 7 
53 8 53 7 53 4 53 2 53 -2 53 -7 53 -11 53 -14 
54 -15 53 -12 53 -8 53 -2 53 7 53 16 53 24 53 28 
53 29 53 23 53 11 53 -2 54 -18 53 -34 53 -49 53 -59 
53 -56 53 -39 53 -14 53 15 53 43 53 70 53 101 54 122 
53 112 53 67 53 0 53 -57 53 -95 53 -134 53 -195 53 -255 
53 -244 53 -115 54 75 53 202 53 210 53 201 53 325 53 552 
53 606 53 246 53 -374 53 -727 53 -498 53 -79 615 2193 71 MP stroke
5 1 54 2 53 1 53 1 53 -1 53 -3 53 -3 53 -4 
53 -5 53 -3 53 -3 53 0 53 2 54 5 53 7 53 9 
53 8 53 7 53 4 53 -1 53 -5 53 -11 53 -14 53 -17 
54 -15 53 -13 53 -6 53 3 53 12 53 23 53 30 53 32 
53 30 53 21 53 7 53 -8 54 -27 53 -46 53 -62 53 -66 
53 -55 53 -33 53 -5 53 24 53 54 53 92 53 127 54 136 
53 108 53 45 53 -20 53 -67 53 -105 53 -164 53 -248 53 -295 
53 -234 53 -58 54 131 53 213 53 197 53 227 53 423 53 655 
53 612 53 127 53 -513 53 -769 53 -448 53 -54 615 2193 71 MP stroke
5 0 54 4 53 3 53 2 53 -1 53 -3 53 -5 53 -6 
53 -8 53 -7 53 -5 53 -2 53 2 54 6 53 10 53 12 
53 13 53 12 53 9 53 2 53 -6 53 -13 53 -19 53 -22 
54 -22 53 -20 53 -13 53 -2 53 13 53 26 53 37 53 40 
53 38 53 30 53 20 53 0 54 -25 53 -53 53 -72 53 -75 
53 -63 53 -42 53 -21 53 4 53 43 53 96 53 140 54 150 
53 112 53 50 53 -2 53 -32 53 -67 53 -144 53 -249 53 -308 
53 -243 53 -68 54 105 53 166 53 133 53 154 53 338 53 582 
53 603 53 232 53 -337 53 -659 53 -479 53 -99 615 2193 71 MP stroke
5 0 54 6 53 6 53 4 53 2 53 0 53 -4 53 -7 
53 -9 53 -9 53 -9 53 -7 53 -2 54 3 53 9 53 13 
53 16 53 17 53 14 53 9 53 0 53 -9 53 -19 53 -25 
54 -29 53 -28 53 -21 53 -9 53 6 53 22 53 37 53 47 
53 51 53 44 53 29 53 6 54 -21 53 -49 53 -73 53 -85 
53 -85 53 -68 53 -35 53 7 53 57 53 102 53 137 54 150 
53 138 53 97 53 33 53 -46 53 -129 53 -202 53 -251 53 -261 
53 -220 53 -124 54 10 53 147 53 260 53 349 53 434 53 490 
53 426 53 144 53 -293 53 -598 53 -484 53 -111 615 2193 71 MP stroke
5 0 54 3 53 1 53 1 53 -1 53 -3 53 -4 53 -5 
53 -6 53 -5 53 -3 53 0 53 2 54 6 53 8 53 10 
53 11 53 8 53 5 53 0 53 -6 53 -11 53 -17 53 -19 
54 -19 53 -15 53 -7 53 2 53 13 53 24 53 32 53 35 
53 34 53 26 53 12 53 -8 54 -29 53 -49 53 -62 53 -66 
53 -59 53 -43 53 -17 53 18 53 60 53 100 53 126 54 125 
53 100 53 60 53 14 53 -39 53 -104 53 -187 53 -256 53 -268 
53 -195 53 -60 54 64 53 129 53 159 53 246 53 433 53 606 
53 553 53 163 53 -376 53 -668 53 -486 53 -101 615 2193 71 MP stroke
5 0 54 2 53 3 53 2 53 2 53 1 53 -1 53 -2 
53 -4 53 -5 53 -5 53 -4 53 -3 54 0 53 3 53 6 
53 8 53 10 53 9 53 7 53 3 53 -2 53 -8 53 -14 
54 -18 53 -18 53 -17 53 -10 53 -1 53 10 53 21 53 30 
53 35 53 35 53 27 53 13 54 -7 53 -29 53 -50 53 -64 
53 -69 53 -62 53 -40 53 -9 53 33 53 74 53 111 54 132 
53 129 53 102 53 50 53 -18 53 -95 53 -173 53 -240 53 -271 
53 -240 53 -145 54 -10 53 121 53 222 53 327 53 466 53 597 
53 560 53 215 53 -336 53 -706 53 -563 53 -126 615 2193 71 MP stroke
5 1 54 5 53 4 53 2 53 -2 53 -5 53 -7 53 -10 
53 -10 53 -9 53 -6 53 -2 53 4 54 10 53 14 53 17 
53 17 53 14 53 9 53 1 53 -9 53 -19 53 -25 53 -30 
54 -29 53 -23 53 -11 53 2 53 20 53 34 53 46 53 51 
53 48 53 36 53 15 53 -11 54 -40 53 -65 53 -81 53 -87 
53 -78 53 -55 53 -18 53 29 53 80 53 123 53 147 54 145 
53 119 53 75 53 17 53 -57 53 -142 53 -227 53 -281 53 -268 
53 -184 53 -60 54 51 53 123 53 193 53 314 53 487 53 595 
53 470 53 70 53 -409 53 -628 53 -428 53 -81 615 2193 71 MP stroke
5 0 54 5 53 5 53 4 53 3 53 1 53 -3 53 -5 
53 -7 53 -8 53 -9 53 -7 53 -3 54 1 53 6 53 10 
53 15 53 15 53 15 53 10 53 3 53 -6 53 -14 53 -23 
54 -27 53 -27 53 -23 53 -13 53 0 53 17 53 33 53 44 
53 50 53 47 53 35 53 13 54 -14 53 -43 53 -68 53 -84 
53 -88 53 -76 53 -49 53 -7 53 46 53 100 53 141 54 160 
53 147 53 108 53 53 53 -18 53 -105 53 -205 53 -290 53 -317 
53 -254 53 -120 54 24 53 123 53 193 53 309 53 510 53 682 
53 608 53 172 53 -423 53 -741 53 -527 53 -102 615 2193 71 MP stroke
5 1 54 1 53 2 53 1 53 0 53 -1 53 -2 53 -4 
53 -3 53 -4 53 -3 53 -1 53 0 54 3 53 5 53 7 
53 8 53 7 53 4 53 2 53 -2 53 -7 53 -11 53 -14 
54 -15 53 -12 53 -8 53 -2 53 7 53 16 53 24 53 28 
53 29 53 23 53 11 53 -2 54 -18 53 -34 53 -49 53 -59 
53 -56 53 -39 53 -14 53 15 53 43 53 70 53 101 54 122 
53 112 53 67 53 0 53 -57 53 -95 53 -134 53 -195 53 -255 
53 -244 53 -115 54 75 53 202 53 210 53 201 53 325 53 552 
53 606 53 246 53 -374 53 -727 53 -498 53 -79 615 2193 71 MP stroke
5 1 54 2 53 1 53 1 53 -1 53 -3 53 -3 53 -4 
53 -5 53 -3 53 -3 53 0 53 2 54 5 53 7 53 9 
53 8 53 7 53 4 53 -1 53 -5 53 -11 53 -14 53 -17 
54 -15 53 -13 53 -6 53 3 53 12 53 23 53 30 53 32 
53 30 53 21 53 7 53 -8 54 -27 53 -46 53 -62 53 -66 
53 -55 53 -33 53 -5 53 24 53 54 53 92 53 127 54 136 
53 108 53 45 53 -20 53 -67 53 -105 53 -164 53 -248 53 -295 
53 -234 53 -58 54 131 53 213 53 197 53 227 53 423 53 655 
53 612 53 127 53 -513 53 -769 53 -448 53 -54 615 2193 71 MP stroke
5 0 54 4 53 3 53 2 53 -1 53 -3 53 -5 53 -6 
53 -8 53 -7 53 -5 53 -2 53 2 54 6 53 10 53 12 
53 13 53 12 53 9 53 2 53 -6 53 -13 53 -19 53 -22 
54 -22 53 -20 53 -13 53 -2 53 13 53 26 53 37 53 40 
53 38 53 30 53 20 53 0 54 -25 53 -53 53 -72 53 -75 
53 -63 53 -42 53 -21 53 4 53 43 53 96 53 140 54 150 
53 112 53 50 53 -2 53 -32 53 -67 53 -144 53 -249 53 -308 
53 -243 53 -68 54 105 53 166 53 133 53 154 53 338 53 582 
53 603 53 232 53 -337 53 -659 53 -479 53 -99 615 2193 71 MP stroke
5 0 54 6 53 6 53 4 53 2 53 0 53 -4 53 -7 
53 -9 53 -9 53 -9 53 -7 53 -2 54 3 53 9 53 13 
53 16 53 17 53 14 53 9 53 0 53 -9 53 -19 53 -25 
54 -29 53 -28 53 -21 53 -9 53 6 53 22 53 37 53 47 
53 51 53 44 53 29 53 6 54 -21 53 -49 53 -73 53 -85 
53 -85 53 -68 53 -35 53 7 53 57 53 102 53 137 54 150 
53 138 53 97 53 33 53 -46 53 -129 53 -202 53 -251 53 -261 
53 -220 53 -124 54 10 53 147 53 260 53 349 53 434 53 490 
53 426 53 144 53 -293 53 -598 53 -484 53 -111 615 2193 71 MP stroke
5 0 54 3 53 1 53 1 53 -1 53 -3 53 -4 53 -5 
53 -6 53 -5 53 -3 53 0 53 2 54 6 53 8 53 10 
53 11 53 8 53 5 53 0 53 -6 53 -11 53 -17 53 -19 
54 -19 53 -15 53 -7 53 2 53 13 53 24 53 32 53 35 
53 34 53 26 53 12 53 -8 54 -29 53 -49 53 -62 53 -66 
53 -59 53 -43 53 -17 53 18 53 60 53 100 53 126 54 125 
53 100 53 60 53 14 53 -39 53 -104 53 -187 53 -256 53 -268 
53 -195 53 -60 54 64 53 129 53 159 53 246 53 433 53 606 
53 553 53 163 53 -376 53 -668 53 -486 53 -101 615 2193 71 MP stroke
5 0 54 2 53 3 53 2 53 2 53 1 53 -1 53 -2 
53 -4 53 -5 53 -5 53 -4 53 -3 54 0 53 3 53 6 
53 8 53 10 53 9 53 7 53 3 53 -2 53 -8 53 -14 
54 -18 53 -18 53 -17 53 -10 53 -1 53 10 53 21 53 30 
53 35 53 35 53 27 53 13 54 -7 53 -29 53 -50 53 -64 
53 -69 53 -62 53 -40 53 -9 53 33 53 74 53 111 54 132 
53 129 53 102 53 50 53 -18 53 -95 53 -173 53 -240 53 -271 
53 -240 53 -145 54 -10 53 121 53 222 53 327 53 466 53 597 
53 560 53 215 53 -336 53 -706 53 -563 53 -126 615 2193 71 MP stroke
5 1 54 5 53 4 53 2 53 -2 53 -5 53 -7 53 -10 
53 -10 53 -9 53 -6 53 -2 53 4 54 10 53 14 53 17 
53 17 53 14 53 9 53 1 53 -9 53 -19 53 -25 53 -30 
54 -29 53 -23 53 -11 53 2 53 20 53 34 53 46 53 51 
53 48 53 36 53 15 53 -11 54 -40 53 -65 53 -81 53 -87 
53 -78 53 -55 53 -18 53 29 53 80 53 123 53 147 54 145 
53 119 53 75 53 17 53 -57 53 -142 53 -227 53 -281 53 -268 
53 -184 53 -60 54 51 53 123 53 193 53 314 53 487 53 595 
53 470 53 70 53 -409 53 -628 53 -428 53 -81 615 2193 71 MP stroke
5 0 54 5 53 5 53 4 53 3 53 1 53 -3 53 -5 
53 -7 53 -8 53 -9 53 -7 53 -3 54 1 53 6 53 10 
53 15 53 15 53 15 53 10 53 3 53 -6 53 -14 53 -23 
54 -27 53 -27 53 -23 53 -13 53 0 53 17 53 33 53 44 
53 50 53 47 53 35 53 13 54 -14 53 -43 53 -68 53 -84 
53 -88 53 -76 53 -49 53 -7 53 46 53 100 53 141 54 160 
53 147 53 108 53 53 53 -18 53 -105 53 -205 53 -290 53 -317 
53 -254 53 -120 54 24 53 123 53 193 53 309 53 510 53 682 
53 608 53 172 53 -423 53 -741 53 -527 53 -102 615 2193 71 MP stroke
5 1 54 1 53 2 53 1 53 0 53 -1 53 -2 53 -4 
53 -3 53 -4 53 -3 53 -1 53 0 54 3 53 5 53 7 
53 8 53 7 53 4 53 2 53 -2 53 -7 53 -11 53 -14 
54 -15 53 -12 53 -8 53 -2 53 7 53 16 53 24 53 28 
53 29 53 23 53 11 53 -2 54 -18 53 -34 53 -49 53 -59 
53 -56 53 -39 53 -14 53 15 53 43 53 70 53 101 54 122 
53 112 53 67 53 0 53 -57 53 -95 53 -134 53 -195 53 -255 
53 -244 53 -115 54 75 53 202 53 210 53 201 53 325 53 552 
53 606 53 246 53 -374 53 -727 53 -498 53 -79 615 2193 71 MP stroke
5 1 54 2 53 1 53 1 53 -1 53 -3 53 -3 53 -4 
53 -5 53 -3 53 -3 53 0 53 2 54 5 53 7 53 9 
53 8 53 7 53 4 53 -1 53 -5 53 -11 53 -14 53 -17 
54 -15 53 -13 53 -6 53 3 53 12 53 23 53 30 53 32 
53 30 53 21 53 7 53 -8 54 -27 53 -46 53 -62 53 -66 
53 -55 53 -33 53 -5 53 24 53 54 53 92 53 127 54 136 
53 108 53 45 53 -20 53 -67 53 -105 53 -164 53 -248 53 -295 
53 -234 53 -58 54 131 53 213 53 197 53 227 53 423 53 655 
53 612 53 127 53 -513 53 -769 53 -448 53 -54 615 2193 71 MP stroke
5 0 54 5 53 4 53 2 53 0 53 -1 53 -5 53 -6 
53 -8 53 -8 53 -6 53 -4 53 1 54 5 53 9 53 12 
53 14 53 14 53 10 53 5 53 -4 53 -11 53 -18 53 -22 
54 -25 53 -23 53 -18 53 -6 53 10 53 26 53 38 53 41 
53 40 53 37 53 27 53 9 54 -21 53 -55 53 -79 53 -82 
53 -67 53 -49 53 -32 53 -9 53 35 53 101 53 160 54 172 
53 127 53 54 53 2 53 -18 53 -51 53 -147 53 -287 53 -366 
53 -289 53 -76 54 125 53 181 53 123 53 146 53 380 53 687 
53 722 53 284 53 -388 53 -762 53 -555 53 -113 615 2193 71 MP stroke
5 0 54 6 53 6 53 4 53 2 53 0 53 -4 53 -7 
53 -9 53 -9 53 -9 53 -7 53 -2 54 3 53 9 53 13 
53 16 53 17 53 14 53 9 53 0 53 -9 53 -19 53 -25 
54 -29 53 -28 53 -21 53 -9 53 6 53 22 53 37 53 47 
53 51 53 44 53 29 53 6 54 -21 53 -49 53 -73 53 -85 
53 -85 53 -68 53 -35 53 7 53 57 53 102 53 137 54 150 
53 138 53 97 53 33 53 -46 53 -129 53 -202 53 -251 53 -261 
53 -220 53 -124 54 10 53 147 53 260 53 349 53 434 53 490 
53 426 53 144 53 -293 53 -598 53 -484 53 -111 615 2193 71 MP stroke
5 0 54 3 53 1 53 1 53 -1 53 -3 53 -4 53 -5 
53 -6 53 -5 53 -3 53 0 53 2 54 6 53 8 53 10 
53 11 53 8 53 5 53 0 53 -6 53 -11 53 -17 53 -19 
54 -19 53 -15 53 -7 53 2 53 13 53 24 53 32 53 35 
53 34 53 26 53 12 53 -8 54 -29 53 -49 53 -62 53 -66 
53 -59 53 -43 53 -17 53 18 53 60 53 100 53 126 54 125 
53 100 53 60 53 14 53 -39 53 -104 53 -187 53 -256 53 -268 
53 -195 53 -60 54 64 53 129 53 159 53 246 53 433 53 606 
53 553 53 163 53 -376 53 -668 53 -486 53 -101 615 2193 71 MP stroke
5 0 54 2 53 3 53 2 53 2 53 1 53 -1 53 -2 
53 -4 53 -5 53 -5 53 -4 53 -3 54 0 53 3 53 6 
53 8 53 10 53 9 53 7 53 3 53 -2 53 -8 53 -14 
54 -18 53 -18 53 -17 53 -10 53 -1 53 10 53 21 53 30 
53 35 53 35 53 27 53 13 54 -7 53 -29 53 -50 53 -64 
53 -69 53 -62 53 -40 53 -9 53 33 53 74 53 111 54 132 
53 129 53 102 53 50 53 -18 53 -95 53 -173 53 -240 53 -271 
53 -240 53 -145 54 -10 53 121 53 222 53 327 53 466 53 597 
53 560 53 215 53 -336 53 -706 53 -563 53 -126 615 2193 71 MP stroke
5 1 54 5 53 4 53 2 53 -2 53 -5 53 -7 53 -10 
53 -10 53 -9 53 -6 53 -2 53 4 54 10 53 14 53 17 
53 17 53 14 53 9 53 1 53 -9 53 -19 53 -25 53 -30 
54 -29 53 -23 53 -11 53 2 53 20 53 34 53 46 53 51 
53 48 53 36 53 15 53 -11 54 -40 53 -65 53 -81 53 -87 
53 -78 53 -55 53 -18 53 29 53 80 53 123 53 147 54 145 
53 119 53 75 53 17 53 -57 53 -142 53 -227 53 -281 53 -268 
53 -184 53 -60 54 51 53 123 53 193 53 314 53 487 53 595 
53 470 53 70 53 -409 53 -628 53 -428 53 -81 615 2193 71 MP stroke
5 0 54 5 53 5 53 4 53 3 53 1 53 -3 53 -5 
53 -7 53 -8 53 -9 53 -7 53 -3 54 1 53 6 53 10 
53 15 53 15 53 15 53 10 53 3 53 -6 53 -14 53 -23 
54 -27 53 -27 53 -23 53 -13 53 0 53 17 53 33 53 44 
53 50 53 47 53 35 53 13 54 -14 53 -43 53 -68 53 -84 
53 -88 53 -76 53 -49 53 -7 53 46 53 100 53 141 54 160 
53 147 53 108 53 53 53 -18 53 -105 53 -205 53 -290 53 -317 
53 -254 53 -120 54 24 53 123 53 193 53 309 53 510 53 682 
53 608 53 172 53 -423 53 -741 53 -527 53 -102 615 2193 71 MP stroke
5 1 54 1 53 2 53 1 53 0 53 -1 53 -2 53 -4 
53 -3 53 -4 53 -3 53 -1 53 0 54 3 53 5 53 7 
53 8 53 7 53 4 53 2 53 -2 53 -7 53 -11 53 -14 
54 -15 53 -12 53 -8 53 -2 53 7 53 16 53 24 53 28 
53 29 53 23 53 11 53 -2 54 -18 53 -34 53 -49 53 -59 
53 -56 53 -39 53 -14 53 15 53 43 53 70 53 101 54 122 
53 112 53 67 53 0 53 -57 53 -95 53 -134 53 -195 53 -255 
53 -244 53 -115 54 75 53 202 53 210 53 201 53 325 53 552 
53 606 53 246 53 -374 53 -727 53 -498 53 -79 615 2193 71 MP stroke
5 1 54 2 53 1 53 1 53 -1 53 -3 53 -3 53 -4 
53 -5 53 -3 53 -3 53 0 53 2 54 5 53 7 53 9 
53 8 53 7 53 4 53 -1 53 -5 53 -11 53 -14 53 -17 
54 -15 53 -13 53 -6 53 3 53 12 53 23 53 30 53 32 
53 30 53 21 53 7 53 -8 54 -27 53 -46 53 -62 53 -66 
53 -55 53 -33 53 -5 53 24 53 54 53 92 53 127 54 136 
53 108 53 45 53 -20 53 -67 53 -105 53 -164 53 -248 53 -295 
53 -234 53 -58 54 131 53 213 53 197 53 227 53 423 53 655 
53 612 53 127 53 -513 53 -769 53 -448 53 -54 615 2193 71 MP stroke
5 0 54 5 53 4 53 2 53 0 53 -1 53 -5 53 -6 
53 -8 53 -8 53 -6 53 -4 53 1 54 5 53 9 53 12 
53 14 53 14 53 10 53 5 53 -4 53 -11 53 -18 53 -22 
54 -25 53 -23 53 -18 53 -6 53 10 53 26 53 38 53 41 
53 40 53 37 53 27 53 9 54 -21 53 -55 53 -79 53 -82 
53 -67 53 -49 53 -32 53 -9 53 35 53 101 53 160 54 172 
53 127 53 54 53 2 53 -18 53 -51 53 -147 53 -287 53 -366 
53 -289 53 -76 54 125 53 181 53 123 53 146 53 380 53 687 
53 722 53 284 53 -388 53 -762 53 -555 53 -113 615 2193 71 MP stroke
5 0 54 6 53 6 53 4 53 2 53 0 53 -4 53 -7 
53 -9 53 -9 53 -9 53 -7 53 -2 54 3 53 9 53 13 
53 16 53 17 53 14 53 9 53 0 53 -9 53 -19 53 -25 
54 -29 53 -28 53 -21 53 -9 53 6 53 22 53 37 53 47 
53 51 53 44 53 29 53 6 54 -21 53 -49 53 -73 53 -85 
53 -85 53 -68 53 -35 53 7 53 57 53 102 53 137 54 150 
53 138 53 97 53 33 53 -46 53 -129 53 -202 53 -251 53 -261 
53 -220 53 -124 54 10 53 147 53 260 53 349 53 434 53 490 
53 426 53 144 53 -293 53 -598 53 -484 53 -111 615 2193 71 MP stroke
5 0 54 3 53 1 53 1 53 -1 53 -3 53 -4 53 -5 
53 -6 53 -5 53 -3 53 0 53 2 54 6 53 8 53 10 
53 11 53 8 53 5 53 0 53 -6 53 -11 53 -17 53 -19 
54 -19 53 -15 53 -7 53 2 53 13 53 24 53 32 53 35 
53 34 53 26 53 12 53 -8 54 -29 53 -49 53 -62 53 -66 
53 -59 53 -43 53 -17 53 18 53 60 53 100 53 126 54 125 
53 100 53 60 53 14 53 -39 53 -104 53 -187 53 -256 53 -268 
53 -195 53 -60 54 64 53 129 53 159 53 246 53 433 53 606 
53 553 53 163 53 -376 53 -668 53 -486 53 -101 615 2193 71 MP stroke
5 0 54 2 53 3 53 2 53 2 53 1 53 -1 53 -2 
53 -4 53 -5 53 -5 53 -4 53 -3 54 0 53 3 53 6 
53 8 53 10 53 9 53 7 53 3 53 -2 53 -8 53 -14 
54 -18 53 -18 53 -17 53 -10 53 -1 53 10 53 21 53 30 
53 35 53 35 53 27 53 13 54 -7 53 -29 53 -50 53 -64 
53 -69 53 -62 53 -40 53 -9 53 33 53 74 53 111 54 132 
53 129 53 102 53 50 53 -18 53 -95 53 -173 53 -240 53 -271 
53 -240 53 -145 54 -10 53 121 53 222 53 327 53 466 53 597 
53 560 53 215 53 -336 53 -706 53 -563 53 -126 615 2193 71 MP stroke
5 1 54 5 53 4 53 2 53 -2 53 -5 53 -7 53 -10 
53 -10 53 -9 53 -6 53 -2 53 4 54 10 53 14 53 17 
53 17 53 14 53 9 53 1 53 -9 53 -19 53 -25 53 -30 
54 -29 53 -23 53 -11 53 2 53 20 53 34 53 46 53 51 
53 48 53 36 53 15 53 -11 54 -40 53 -65 53 -81 53 -87 
53 -78 53 -55 53 -18 53 29 53 80 53 123 53 147 54 145 
53 119 53 75 53 17 53 -57 53 -142 53 -227 53 -281 53 -268 
53 -184 53 -60 54 51 53 123 53 193 53 314 53 487 53 595 
53 470 53 70 53 -409 53 -628 53 -428 53 -81 615 2193 71 MP stroke
36 w
/c8 { 1.000000 0.000000 0.000000 sr} bdef
c8
5 0 54 3 53 4 53 4 53 3 53 3 53 1 53 -2 
53 -4 53 -6 53 -7 53 -7 53 -6 54 -3 53 1 53 6 
53 9 53 13 53 14 53 12 53 7 53 2 53 -7 53 -15 
54 -22 53 -25 53 -24 53 -17 53 -8 53 7 53 22 53 35 
53 44 53 46 53 38 53 22 54 -1 53 -29 53 -56 53 -75 
53 -85 53 -78 53 -54 53 -16 53 32 53 83 53 126 54 152 
53 151 53 121 53 61 53 -22 53 -116 53 -203 53 -264 53 -285 
53 -251 53 -163 54 -24 53 143 53 312 53 448 53 519 53 499 
53 376 53 155 53 -136 53 -449 53 -690 53 -319 615 2193 71 MP stroke
6 w
/c9 { 0.000000 0.000000 1.000000 sr} bdef
c9
13 -105 18 283 17 -283 17 141 17 142 18 -142 17 142 17 -142 
17 0 18 -141 17 141 17 0 17 0 18 -141 17 565 17 -141 
17 0 18 -424 17 141 17 -141 17 141 18 -141 17 424 17 0 
18 0 17 -283 17 0 17 142 18 -424 17 424 17 -283 17 141 
18 -141 17 141 17 0 17 -141 18 0 17 0 17 283 17 -142 
18 0 17 0 17 142 17 -142 18 -141 17 141 17 -141 17 141 
18 -282 17 565 17 -141 17 141 18 -424 17 424 17 0 17 -141 
18 -142 17 0 17 0 17 -282 18 141 17 0 17 0 18 0 
17 424 17 -283 17 -141 18 283 17 -142 17 -141 17 283 18 -142 
17 0 17 -141 17 141 18 -141 17 141 17 0 17 -141 18 0 
17 141 17 -423 17 282 18 141 17 -141 17 141 17 -141 18 141 
17 -141 17 0 17 141 18 0 17 0 17 -141 17 141 18 142 
17 0 17 -283 17 424 18 -289 17 141 17 -141 18 282 17 -141 
17 282 17 -141 18 141 17 -282 17 141 17 -141 18 0 17 0 
17 -282 17 141 18 282 17 -282 17 0 17 0 18 141 17 -282 
17 0 17 0 18 -141 17 0 17 282 17 0 18 0 17 0 
17 0 17 -141 18 141 17 -141 17 0 17 0 18 0 17 0 
17 141 18 282 17 -423 17 141 17 0 18 -141 17 423 17 -282 
17 141 18 -141 17 141 17 141 17 -141 18 141 17 -282 17 282 
17 -141 18 141 17 141 17 -282 17 -141 18 282 17 -141 17 282 
17 -141 18 -282 17 -282 17 423 17 0 18 -282 17 141 17 -282 
17 0 18 -282 17 423 17 -141 17 -141 18 0 17 -141 17 0 
18 282 17 0 17 141 17 -423 18 0 17 282 17 -141 17 0 
18 141 17 282 17 -141 17 0 18 141 17 141 17 -282 17 282 
18 282 17 142 17 -142 17 142 18 282 17 -142 17 283 17 141 
18 -282 17 423 17 -282 17 0 18 -423 17 -424 17 -282 715 2337 208 MP stroke
gr

c9
0 sg
%%IncludeResource: font Helvetica
/Helvetica /ISOLatin1Encoding 120 FMSR

2227 3577 mt 
(Time \(s\)) s
 308 2582 mt  -90 rotate
(Observation well response, s) s
90 rotate
%%IncludeResource: font Helvetica
/Helvetica /ISOLatin1Encoding 96 FMSR

 368 1044 mt  -90 rotate
(D) s
90 rotate

end %%Color Dict

eplot
%%EndObject

epage
end

showpage

%%Trailer
%%EOF
