%!PS-Adobe-3.0 EPSF-3.0
%%BoundingBox: -166 -121 381 267
%%HiResBoundingBox: -165.773 -120.161 380.454 267.000
%%Creator: MATLAB, The Mathworks, Inc. Version 7.9.0.529 (R2009b). Operating System: Linux 3.16.0-51-generic #69~14.04.1-Ubuntu SMP Wed Oct 7 15:32:41 UTC 2015 x86_64.
%%Title: /home/klkuhlm/repos/slug-osc/swiss-data/DREAM/parallel-finite2/finite-P13-MC1-5-fixed-shift/P13MC15-finite-fixed-shift2-posterior-histograms_manual.eps
%%CreationDate: 11/04/2015  12:23:21
%%DocumentNeededFonts: Helvetica
%%DocumentProcessColors: Cyan Magenta Yellow Black
%%LanguageLevel: 2
%%Pages: 1
%%EndComments

%%BeginProlog
% MathWorks dictionary
/MathWorks 160 dict begin
% definition operators
/bdef {bind def} bind def
/ldef {load def} bind def
/xdef {exch def} bdef
/xstore {exch store} bdef
% operator abbreviations
/c  /clip ldef
/cc /concat ldef
/cp /closepath ldef
/gr /grestore ldef
/gs /gsave ldef
/mt /moveto ldef
/np /newpath ldef
/cm /currentmatrix ldef
/sm /setmatrix ldef
/rm /rmoveto ldef
/rl /rlineto ldef
/s {show newpath} bdef
/sc {setcmykcolor} bdef
/sr /setrgbcolor ldef
/sg /setgray ldef
/w /setlinewidth ldef
/j /setlinejoin ldef
/cap /setlinecap ldef
/rc {rectclip} bdef
/rf {rectfill} bdef
% page state control
/pgsv () def
/bpage {/pgsv save def} bdef
/epage {pgsv restore} bdef
/bplot /gsave ldef
/eplot {stroke grestore} bdef
% orientation switch
/portraitMode 0 def /landscapeMode 1 def /rotateMode 2 def
% coordinate system mappings
/dpi2point 0 def
% font control
/FontSize 0 def
/FMS {/FontSize xstore findfont [FontSize 0 0 FontSize neg 0 0]
  makefont setfont} bdef
/reencode {exch dup where {pop load} {pop StandardEncoding} ifelse
  exch dup 3 1 roll findfont dup length dict begin
  { 1 index /FID ne {def}{pop pop} ifelse } forall
  /Encoding exch def currentdict end definefont pop} bdef
/isroman {findfont /CharStrings get /Agrave known} bdef
/FMSR {3 1 roll 1 index dup isroman {reencode} {pop pop} ifelse
  exch FMS} bdef
/csm {1 dpi2point div -1 dpi2point div scale neg translate
 dup landscapeMode eq {pop -90 rotate}
  {rotateMode eq {90 rotate} if} ifelse} bdef
% line types: solid, dotted, dashed, dotdash
/SO { [] 0 setdash } bdef
/DO { [.5 dpi2point mul 4 dpi2point mul] 0 setdash } bdef
/DA { [6 dpi2point mul] 0 setdash } bdef
/DD { [.5 dpi2point mul 4 dpi2point mul 6 dpi2point mul 4
  dpi2point mul] 0 setdash } bdef
% macros for lines and objects
/L {lineto stroke} bdef
/MP {3 1 roll moveto 1 sub {rlineto} repeat} bdef
/AP {{rlineto} repeat} bdef
/PDlw -1 def
/W {/PDlw currentlinewidth def setlinewidth} def
/PP {closepath eofill} bdef
/DP {closepath stroke} bdef
/MR {4 -2 roll moveto dup  0 exch rlineto exch 0 rlineto
  neg 0 exch rlineto closepath} bdef
/FR {MR stroke} bdef
/PR {MR fill} bdef
/L1i {{currentfile picstr readhexstring pop} image} bdef
/tMatrix matrix def
/MakeOval {newpath tMatrix currentmatrix pop translate scale
0 0 1 0 360 arc tMatrix setmatrix} bdef
/FO {MakeOval stroke} bdef
/PO {MakeOval fill} bdef
/PD {currentlinewidth 2 div 0 360 arc fill
   PDlw -1 eq not {PDlw w /PDlw -1 def} if} def
/FA {newpath tMatrix currentmatrix pop translate scale
  0 0 1 5 -2 roll arc tMatrix setmatrix stroke} bdef
/PA {newpath tMatrix currentmatrix pop	translate 0 0 moveto scale
  0 0 1 5 -2 roll arc closepath tMatrix setmatrix fill} bdef
/FAn {newpath tMatrix currentmatrix pop translate scale
  0 0 1 5 -2 roll arcn tMatrix setmatrix stroke} bdef
/PAn {newpath tMatrix currentmatrix pop translate 0 0 moveto scale
  0 0 1 5 -2 roll arcn closepath tMatrix setmatrix fill} bdef
/vradius 0 def /hradius 0 def /lry 0 def
/lrx 0 def /uly 0 def /ulx 0 def /rad 0 def
/MRR {/vradius xdef /hradius xdef /lry xdef /lrx xdef /uly xdef
  /ulx xdef newpath tMatrix currentmatrix pop ulx hradius add uly
  vradius add translate hradius vradius scale 0 0 1 180 270 arc 
  tMatrix setmatrix lrx hradius sub uly vradius add translate
  hradius vradius scale 0 0 1 270 360 arc tMatrix setmatrix
  lrx hradius sub lry vradius sub translate hradius vradius scale
  0 0 1 0 90 arc tMatrix setmatrix ulx hradius add lry vradius sub
  translate hradius vradius scale 0 0 1 90 180 arc tMatrix setmatrix
  closepath} bdef
/FRR {MRR stroke } bdef
/PRR {MRR fill } bdef
/MlrRR {/lry xdef /lrx xdef /uly xdef /ulx xdef /rad lry uly sub 2 div def
  newpath tMatrix currentmatrix pop ulx rad add uly rad add translate
  rad rad scale 0 0 1 90 270 arc tMatrix setmatrix lrx rad sub lry rad
  sub translate rad rad scale 0 0 1 270 90 arc tMatrix setmatrix
  closepath} bdef
/FlrRR {MlrRR stroke } bdef
/PlrRR {MlrRR fill } bdef
/MtbRR {/lry xdef /lrx xdef /uly xdef /ulx xdef /rad lrx ulx sub 2 div def
  newpath tMatrix currentmatrix pop ulx rad add uly rad add translate
  rad rad scale 0 0 1 180 360 arc tMatrix setmatrix lrx rad sub lry rad
  sub translate rad rad scale 0 0 1 0 180 arc tMatrix setmatrix
  closepath} bdef
/FtbRR {MtbRR stroke } bdef
/PtbRR {MtbRR fill } bdef
/stri 6 array def /dtri 6 array def
/smat 6 array def /dmat 6 array def
/tmat1 6 array def /tmat2 6 array def /dif 3 array def
/asub {/ind2 exch def /ind1 exch def dup dup
  ind1 get exch ind2 get sub exch } bdef
/tri_to_matrix {
  2 0 asub 3 1 asub 4 0 asub 5 1 asub
  dup 0 get exch 1 get 7 -1 roll astore } bdef
/compute_transform {
  dmat dtri tri_to_matrix tmat1 invertmatrix 
  smat stri tri_to_matrix tmat2 concatmatrix } bdef
/ds {stri astore pop} bdef
/dt {dtri astore pop} bdef
/db {2 copy /cols xdef /rows xdef mul dup 3 mul string
  currentfile 
  3 index 0 eq {/ASCIIHexDecode filter}
  {/ASCII85Decode filter 3 index 2 eq {/RunLengthDecode filter} if }
  ifelse exch readstring pop
  dup 0 3 index getinterval /rbmap xdef
  dup 2 index dup getinterval /gbmap xdef
  1 index dup 2 mul exch getinterval /bbmap xdef pop pop}bdef
/it {gs np dtri aload pop moveto lineto lineto cp c
  cols rows 8 compute_transform 
  rbmap gbmap bbmap true 3 colorimage gr}bdef
/il {newpath moveto lineto stroke}bdef
currentdict end def
%%EndProlog

%%BeginSetup
MathWorks begin

0 cap

end
%%EndSetup

%%Page: 1 1
%%BeginPageSetup
%%PageBoundingBox:  -219  -152   436   296
MathWorks begin
bpage
%%EndPageSetup

%%BeginObject: obj1
bplot

/dpi2point 12 def
portraitMode -2628 3552 csm

    0     0  7861  5384 rc
85 dict begin %Colortable dictionary
/c0 { 0.000000 0.000000 0.000000 sr} bdef
/c1 { 1.000000 1.000000 1.000000 sr} bdef
/c2 { 0.900000 0.000000 0.000000 sr} bdef
/c3 { 0.000000 0.820000 0.000000 sr} bdef
/c4 { 0.000000 0.000000 0.800000 sr} bdef
/c5 { 0.910000 0.820000 0.320000 sr} bdef
/c6 { 1.000000 0.260000 0.820000 sr} bdef
/c7 { 0.000000 0.820000 0.820000 sr} bdef
c0
1 j
1 sg
   0    0 7862 5385 rf
6 w
0 691 2631 0 0 -691 1022 1095 4 MP
PP
-2631 0 0 691 2631 0 0 -691 1022 1095 5 MP stroke
4 w
DO
SO
6 w
0 sg
1022 1095 mt 3653 1095 L
1022  404 mt 3653  404 L
1022 1095 mt 1022  404 L
3653 1095 mt 3653  404 L
1022 1095 mt 3653 1095 L
1022 1095 mt 1022  404 L
1022 1095 mt 1022 1068 L
1022  404 mt 1022  430 L
%%IncludeResource: font Helvetica
/Helvetica /ISOLatin1Encoding 120 FMSR

 989 1240 mt 
(0) s
1548 1095 mt 1548 1068 L
1548  404 mt 1548  430 L
1515 1240 mt 
(2) s
2074 1095 mt 2074 1068 L
2074  404 mt 2074  430 L
2041 1240 mt 
(4) s
2600 1095 mt 2600 1068 L
2600  404 mt 2600  430 L
2567 1240 mt 
(6) s
3126 1095 mt 3126 1068 L
3126  404 mt 3126  430 L
3093 1240 mt 
(8) s
3653 1095 mt 3653 1068 L
3653  404 mt 3653  430 L
3587 1240 mt 
(10) s
1022 1095 mt 1048 1095 L
3653 1095 mt 3626 1095 L
 921 1139 mt 
(0) s
1022  749 mt 1048  749 L
3653  749 mt 3626  749 L
 821  793 mt 
(0.2) s
1022  404 mt 1048  404 L
3653  404 mt 3626  404 L
 821  448 mt 
(0.4) s
1022 1095 mt 3653 1095 L
1022  404 mt 3653  404 L
1022 1095 mt 1022  404 L
3653 1095 mt 3653  404 L
gs 1022 404 2632 692 rc
/c8 { 0.000000 0.000000 0.562500 sr} bdef
c8
0 570 93 0 0 -570 1022 1095 4 MP
PP
0 sg
-93 0 0 570 93 0 0 -570 1022 1095 5 MP stroke
c8
0 311 94 0 0 -311 1115 1095 4 MP
PP
0 sg
-94 0 0 311 94 0 0 -311 1115 1095 5 MP stroke
c8
0 156 94 0 0 -156 1209 1095 4 MP
PP
0 sg
-94 0 0 156 94 0 0 -156 1209 1095 5 MP stroke
c8
0 106 93 0 0 -106 1303 1095 4 MP
PP
0 sg
-93 0 0 106 93 0 0 -106 1303 1095 5 MP stroke
c8
0 77 94 0 0 -77 1396 1095 4 MP
PP
0 sg
-94 0 0 77 94 0 0 -77 1396 1095 5 MP stroke
c8
0 77 94 0 0 -77 1490 1095 4 MP
PP
0 sg
-94 0 0 77 94 0 0 -77 1490 1095 5 MP stroke
c8
0 92 93 0 0 -92 1584 1095 4 MP
PP
0 sg
-93 0 0 92 93 0 0 -92 1584 1095 5 MP stroke
c8
0 62 94 0 0 -62 1677 1095 4 MP
PP
0 sg
-94 0 0 62 94 0 0 -62 1677 1095 5 MP stroke
c8
0 112 94 0 0 -112 1771 1095 4 MP
PP
0 sg
-94 0 0 112 94 0 0 -112 1771 1095 5 MP stroke
c8
0 112 93 0 0 -112 1865 1095 4 MP
PP
0 sg
-93 0 0 112 93 0 0 -112 1865 1095 5 MP stroke
c8
0 240 94 0 0 -240 1958 1095 4 MP
PP
0 sg
-94 0 0 240 94 0 0 -240 1958 1095 5 MP stroke
c8
0 327 94 0 0 -327 2052 1095 4 MP
PP
0 sg
-94 0 0 327 94 0 0 -327 2052 1095 5 MP stroke
c8
0 497 93 0 0 -497 2146 1095 4 MP
PP
0 sg
-93 0 0 497 93 0 0 -497 2146 1095 5 MP stroke
c8
0 456 94 0 0 -456 2239 1095 4 MP
PP
0 sg
-94 0 0 456 94 0 0 -456 2239 1095 5 MP stroke
c8
0 487 94 0 0 -487 2333 1095 4 MP
PP
0 sg
-94 0 0 487 94 0 0 -487 2333 1095 5 MP stroke
c8
0 394 93 0 0 -394 2427 1095 4 MP
PP
0 sg
-93 0 0 394 93 0 0 -394 2427 1095 5 MP stroke
c8
0 343 94 0 0 -343 2520 1095 4 MP
PP
0 sg
-94 0 0 343 94 0 0 -343 2520 1095 5 MP stroke
c8
0 216 94 0 0 -216 2614 1095 4 MP
PP
0 sg
-94 0 0 216 94 0 0 -216 2614 1095 5 MP stroke
c8
0 116 93 0 0 -116 2708 1095 4 MP
PP
0 sg
-93 0 0 116 93 0 0 -116 2708 1095 5 MP stroke
c8
0 56 94 0 0 -56 2801 1095 4 MP
PP
0 sg
-94 0 0 56 94 0 0 -56 2801 1095 5 MP stroke
c8
0 37 94 0 0 -37 2895 1095 4 MP
PP
0 sg
-94 0 0 37 94 0 0 -37 2895 1095 5 MP stroke
c8
0 17 93 0 0 -17 2989 1095 4 MP
PP
0 sg
-93 0 0 17 93 0 0 -17 2989 1095 5 MP stroke
c8
0 1 94 0 0 -1 3082 1095 4 MP
PP
0 sg
-94 0 0 1 94 0 0 -1 3082 1095 5 MP stroke
c8
0 1 93 0 0 -1 3176 1095 4 MP
PP
0 sg
-93 0 0 1 93 0 0 -1 3176 1095 5 MP stroke
c8
0 1 94 0 0 -1 3269 1095 4 MP
PP
0 sg
-94 0 0 1 94 0 0 -1 3269 1095 5 MP stroke
2631 0 1022 1095 2 MP stroke
gr

%%IncludeResource: font Helvetica
/Helvetica /ISOLatin1Encoding 144 FMSR

2296 1401 mt 
(L) s
%%IncludeResource: font Helvetica
/Helvetica /ISOLatin1Encoding 108 FMSR

 742 1150 mt  -90 rotate
(Posterior density) s
90 rotate
gs 1022 404 2632 692 rc
/c9 { 1.000000 0.000000 0.000000 sr} bdef
c9
0 -691 1764 1095 2 MP stroke
gr

c9
1 sg
0 691 2631 0 0 -691 4483 1095 4 MP
PP
-2631 0 0 691 2631 0 0 -691 4483 1095 5 MP stroke
4 w
DO
SO
6 w
0 sg
4483 1095 mt 7114 1095 L
4483  404 mt 7114  404 L
4483 1095 mt 4483  404 L
7114 1095 mt 7114  404 L
4483 1095 mt 7114 1095 L
4483 1095 mt 4483  404 L
4483 1095 mt 4483 1068 L
4483  404 mt 4483  430 L
%%IncludeResource: font Helvetica
/Helvetica /ISOLatin1Encoding 120 FMSR

4450 1240 mt 
(0) s
5140 1095 mt 5140 1068 L
5140  404 mt 5140  430 L
5107 1240 mt 
(1) s
5798 1095 mt 5798 1068 L
5798  404 mt 5798  430 L
5765 1240 mt 
(2) s
6456 1095 mt 6456 1068 L
6456  404 mt 6456  430 L
6423 1240 mt 
(3) s
7114 1095 mt 7114 1068 L
7114  404 mt 7114  430 L
7081 1240 mt 
(4) s
4483 1095 mt 4509 1095 L
7114 1095 mt 7087 1095 L
4382 1139 mt 
(0) s
4483  749 mt 4509  749 L
7114  749 mt 7087  749 L
4382  793 mt 
(2) s
4483  404 mt 4509  404 L
7114  404 mt 7087  404 L
4382  448 mt 
(4) s
4483 1095 mt 7114 1095 L
4483  404 mt 7114  404 L
4483 1095 mt 4483  404 L
7114 1095 mt 7114  404 L
gs 4483 404 2632 692 rc
c8
0 8 94 0 0 -8 4629 1095 4 MP
PP
0 sg
-94 0 0 8 94 0 0 -8 4629 1095 5 MP stroke
c8
0 171 93 0 0 -171 4723 1095 4 MP
PP
0 sg
-93 0 0 171 93 0 0 -171 4723 1095 5 MP stroke
c8
0 73 94 0 0 -73 4816 1095 4 MP
PP
0 sg
-94 0 0 73 94 0 0 -73 4816 1095 5 MP stroke
c8
0 0 93 0 0 0 4910 1095 4 MP
PP
0 sg
-93 0 0 0 93 0 0 0 4910 1095 5 MP stroke
c8
0 0 94 0 0 0 5003 1095 4 MP
PP
0 sg
-94 0 0 0 94 0 0 0 5003 1095 5 MP stroke
c8
0 0 93 0 0 0 5097 1095 4 MP
PP
0 sg
-93 0 0 0 93 0 0 0 5097 1095 5 MP stroke
c8
0 0 94 0 0 0 5190 1095 4 MP
PP
0 sg
-94 0 0 0 94 0 0 0 5190 1095 5 MP stroke
c8
0 0 93 0 0 0 5284 1095 4 MP
PP
0 sg
-93 0 0 0 93 0 0 0 5284 1095 5 MP stroke
c8
0 0 93 0 0 0 5377 1095 4 MP
PP
0 sg
-93 0 0 0 93 0 0 0 5377 1095 5 MP stroke
c8
0 0 94 0 0 0 5470 1095 4 MP
PP
0 sg
-94 0 0 0 94 0 0 0 5470 1095 5 MP stroke
c8
0 0 93 0 0 0 5564 1095 4 MP
PP
0 sg
-93 0 0 0 93 0 0 0 5564 1095 5 MP stroke
c8
0 0 94 0 0 0 5657 1095 4 MP
PP
0 sg
-94 0 0 0 94 0 0 0 5657 1095 5 MP stroke
c8
0 0 93 0 0 0 5751 1095 4 MP
PP
0 sg
-93 0 0 0 93 0 0 0 5751 1095 5 MP stroke
c8
0 0 94 0 0 0 5844 1095 4 MP
PP
0 sg
-94 0 0 0 94 0 0 0 5844 1095 5 MP stroke
c8
0 0 93 0 0 0 5938 1095 4 MP
PP
0 sg
-93 0 0 0 93 0 0 0 5938 1095 5 MP stroke
c8
0 0 94 0 0 0 6031 1095 4 MP
PP
0 sg
-94 0 0 0 94 0 0 0 6031 1095 5 MP stroke
c8
0 0 93 0 0 0 6125 1095 4 MP
PP
0 sg
-93 0 0 0 93 0 0 0 6125 1095 5 MP stroke
c8
0 0 94 0 0 0 6218 1095 4 MP
PP
0 sg
-94 0 0 0 94 0 0 0 6218 1095 5 MP stroke
c8
0 0 93 0 0 0 6312 1095 4 MP
PP
0 sg
-93 0 0 0 93 0 0 0 6312 1095 5 MP stroke
c8
0 0 94 0 0 0 6405 1095 4 MP
PP
0 sg
-94 0 0 0 94 0 0 0 6405 1095 5 MP stroke
c8
0 2 93 0 0 -2 6499 1095 4 MP
PP
0 sg
-93 0 0 2 93 0 0 -2 6499 1095 5 MP stroke
c8
0 73 93 0 0 -73 6592 1095 4 MP
PP
0 sg
-93 0 0 73 93 0 0 -73 6592 1095 5 MP stroke
c8
0 450 94 0 0 -450 6685 1095 4 MP
PP
0 sg
-94 0 0 450 94 0 0 -450 6685 1095 5 MP stroke
c8
0 401 93 0 0 -401 6779 1095 4 MP
PP
0 sg
-93 0 0 401 93 0 0 -401 6779 1095 5 MP stroke
c8
0 41 94 0 0 -41 6872 1095 4 MP
PP
0 sg
-94 0 0 41 94 0 0 -41 6872 1095 5 MP stroke
2631 0 4483 1095 2 MP stroke
gr

%%IncludeResource: font Helvetica
/Helvetica /ISOLatin1Encoding 144 FMSR

5727 1367 mt 
(L) s
%%IncludeResource: font Helvetica
/Helvetica /ISOLatin1Encoding 108 FMSR

5807 1439 mt 
(e) s
4303 1150 mt  -90 rotate
(Posterior density) s
90 rotate
gs 4483 404 2632 692 rc
c9
0 -691 6577 1095 2 MP stroke
gr

c9
1 sg
0 692 2631 0 0 -692 1022 2275 4 MP
PP
-2631 0 0 692 2631 0 0 -692 1022 2275 5 MP stroke
4 w
DO
SO
6 w
0 sg
1022 2275 mt 3653 2275 L
1022 1583 mt 3653 1583 L
1022 2275 mt 1022 1583 L
3653 2275 mt 3653 1583 L
1022 2275 mt 3653 2275 L
1022 2275 mt 1022 1583 L
1022 2275 mt 1022 2248 L
1022 1583 mt 1022 1609 L
%%IncludeResource: font Helvetica
/Helvetica /ISOLatin1Encoding 120 FMSR

 919 2420 mt 
(-8) s
1679 2275 mt 1679 2248 L
1679 1583 mt 1679 1609 L
1576 2420 mt 
(-7) s
2337 2275 mt 2337 2248 L
2337 1583 mt 2337 1609 L
2234 2420 mt 
(-6) s
2995 2275 mt 2995 2248 L
2995 1583 mt 2995 1609 L
2892 2420 mt 
(-5) s
3653 2275 mt 3653 2248 L
3653 1583 mt 3653 1609 L
3550 2420 mt 
(-4) s
1022 2275 mt 1048 2275 L
3653 2275 mt 3626 2275 L
 921 2319 mt 
(0) s
1022 1583 mt 1048 1583 L
3653 1583 mt 3626 1583 L
 821 1627 mt 
(0.5) s
1022 2275 mt 3653 2275 L
1022 1583 mt 3653 1583 L
1022 2275 mt 1022 1583 L
3653 2275 mt 3653 1583 L
gs 1022 1583 2632 693 rc
c8
0 442 89 0 0 -442 1022 2275 4 MP
PP
0 sg
-89 0 0 442 89 0 0 -442 1022 2275 5 MP stroke
c8
0 388 89 0 0 -388 1111 2275 4 MP
PP
0 sg
-89 0 0 388 89 0 0 -388 1111 2275 5 MP stroke
c8
0 589 90 0 0 -589 1200 2275 4 MP
PP
0 sg
-90 0 0 589 90 0 0 -589 1200 2275 5 MP stroke
c8
0 575 89 0 0 -575 1290 2275 4 MP
PP
0 sg
-89 0 0 575 89 0 0 -575 1290 2275 5 MP stroke
c8
0 530 89 0 0 -530 1379 2275 4 MP
PP
0 sg
-89 0 0 530 89 0 0 -530 1379 2275 5 MP stroke
c8
0 527 89 0 0 -527 1468 2275 4 MP
PP
0 sg
-89 0 0 527 89 0 0 -527 1468 2275 5 MP stroke
c8
0 459 89 0 0 -459 1557 2275 4 MP
PP
0 sg
-89 0 0 459 89 0 0 -459 1557 2275 5 MP stroke
c8
0 440 89 0 0 -440 1646 2275 4 MP
PP
0 sg
-89 0 0 440 89 0 0 -440 1646 2275 5 MP stroke
c8
0 419 89 0 0 -419 1735 2275 4 MP
PP
0 sg
-89 0 0 419 89 0 0 -419 1735 2275 5 MP stroke
c8
0 457 89 0 0 -457 1824 2275 4 MP
PP
0 sg
-89 0 0 457 89 0 0 -457 1824 2275 5 MP stroke
c8
0 538 90 0 0 -538 1913 2275 4 MP
PP
0 sg
-90 0 0 538 90 0 0 -538 1913 2275 5 MP stroke
c8
0 472 89 0 0 -472 2003 2275 4 MP
PP
0 sg
-89 0 0 472 89 0 0 -472 2003 2275 5 MP stroke
c8
0 447 89 0 0 -447 2092 2275 4 MP
PP
0 sg
-89 0 0 447 89 0 0 -447 2092 2275 5 MP stroke
c8
0 536 89 0 0 -536 2181 2275 4 MP
PP
0 sg
-89 0 0 536 89 0 0 -536 2181 2275 5 MP stroke
c8
0 442 89 0 0 -442 2270 2275 4 MP
PP
0 sg
-89 0 0 442 89 0 0 -442 2270 2275 5 MP stroke
c8
0 516 89 0 0 -516 2359 2275 4 MP
PP
0 sg
-89 0 0 516 89 0 0 -516 2359 2275 5 MP stroke
c8
0 463 89 0 0 -463 2448 2275 4 MP
PP
0 sg
-89 0 0 463 89 0 0 -463 2448 2275 5 MP stroke
c8
0 439 89 0 0 -439 2537 2275 4 MP
PP
0 sg
-89 0 0 439 89 0 0 -439 2537 2275 5 MP stroke
c8
0 449 90 0 0 -449 2626 2275 4 MP
PP
0 sg
-90 0 0 449 90 0 0 -449 2626 2275 5 MP stroke
c8
0 354 89 0 0 -354 2716 2275 4 MP
PP
0 sg
-89 0 0 354 89 0 0 -354 2716 2275 5 MP stroke
c8
0 351 89 0 0 -351 2805 2275 4 MP
PP
0 sg
-89 0 0 351 89 0 0 -351 2805 2275 5 MP stroke
c8
0 212 89 0 0 -212 2894 2275 4 MP
PP
0 sg
-89 0 0 212 89 0 0 -212 2894 2275 5 MP stroke
c8
0 143 89 0 0 -143 2983 2275 4 MP
PP
0 sg
-89 0 0 143 89 0 0 -143 2983 2275 5 MP stroke
c8
0 32 89 0 0 -32 3072 2275 4 MP
PP
0 sg
-89 0 0 32 89 0 0 -32 3072 2275 5 MP stroke
c8
0 5 89 0 0 -5 3161 2275 4 MP
PP
0 sg
-89 0 0 5 89 0 0 -5 3161 2275 5 MP stroke
2631 0 1022 2275 2 MP stroke
gr

%%IncludeResource: font Helvetica
/Helvetica /ISOLatin1Encoding 144 FMSR

2058 2547 mt 
(log) s
%%IncludeResource: font Helvetica
/Helvetica /ISOLatin1Encoding 108 FMSR

2250 2619 mt 
(10) s
%%IncludeResource: font Helvetica
/Helvetica /ISOLatin1Encoding 144 FMSR

2370 2547 mt 
(\(S) s
%%IncludeResource: font Helvetica
/Helvetica /ISOLatin1Encoding 108 FMSR

2514 2619 mt 
(s) s
%%IncludeResource: font Helvetica
/Helvetica /ISOLatin1Encoding 144 FMSR

2568 2547 mt 
(\)) s
%%IncludeResource: font Helvetica
/Helvetica /ISOLatin1Encoding 108 FMSR

 742 2330 mt  -90 rotate
(Posterior density) s
90 rotate
gs 1022 1583 2632 693 rc
c9
0 -692 3017 2275 2 MP stroke
gr

c9
1 sg
0 692 2631 0 0 -692 4483 2275 4 MP
PP
-2631 0 0 692 2631 0 0 -692 4483 2275 5 MP stroke
4 w
DO
SO
6 w
0 sg
4483 2275 mt 7114 2275 L
4483 1583 mt 7114 1583 L
4483 2275 mt 4483 1583 L
7114 2275 mt 7114 1583 L
4483 2275 mt 7114 2275 L
4483 2275 mt 4483 1583 L
4483 2275 mt 4483 2248 L
4483 1583 mt 4483 1609 L
%%IncludeResource: font Helvetica
/Helvetica /ISOLatin1Encoding 120 FMSR

4380 2420 mt 
(-3) s
5009 2275 mt 5009 2248 L
5009 1583 mt 5009 1609 L
4856 2420 mt 
(-2.5) s
5535 2275 mt 5535 2248 L
5535 1583 mt 5535 1609 L
5432 2420 mt 
(-2) s
6061 2275 mt 6061 2248 L
6061 1583 mt 6061 1609 L
5908 2420 mt 
(-1.5) s
6587 2275 mt 6587 2248 L
6587 1583 mt 6587 1609 L
6484 2420 mt 
(-1) s
7114 2275 mt 7114 2248 L
7114 1583 mt 7114 1609 L
6961 2420 mt 
(-0.5) s
4483 2275 mt 4509 2275 L
7114 2275 mt 7087 2275 L
4382 2319 mt 
(0) s
4483 1929 mt 4509 1929 L
7114 1929 mt 7087 1929 L
4282 1973 mt 
(0.5) s
4483 1583 mt 4509 1583 L
7114 1583 mt 7087 1583 L
4382 1627 mt 
(1) s
4483 2275 mt 7114 2275 L
4483 1583 mt 7114 1583 L
4483 2275 mt 4483 1583 L
7114 2275 mt 7114 1583 L
gs 4483 1583 2632 693 rc
c8
0 123 90 0 0 -123 4648 2275 4 MP
PP
0 sg
-90 0 0 123 90 0 0 -123 4648 2275 5 MP stroke
c8
0 366 89 0 0 -366 4738 2275 4 MP
PP
0 sg
-89 0 0 366 89 0 0 -366 4738 2275 5 MP stroke
c8
0 270 90 0 0 -270 4827 2275 4 MP
PP
0 sg
-90 0 0 270 90 0 0 -270 4827 2275 5 MP stroke
c8
0 270 89 0 0 -270 4917 2275 4 MP
PP
0 sg
-89 0 0 270 89 0 0 -270 4917 2275 5 MP stroke
c8
0 346 90 0 0 -346 5006 2275 4 MP
PP
0 sg
-90 0 0 346 90 0 0 -346 5006 2275 5 MP stroke
c8
0 333 89 0 0 -333 5096 2275 4 MP
PP
0 sg
-89 0 0 333 89 0 0 -333 5096 2275 5 MP stroke
c8
0 291 90 0 0 -291 5185 2275 4 MP
PP
0 sg
-90 0 0 291 90 0 0 -291 5185 2275 5 MP stroke
c8
0 272 89 0 0 -272 5275 2275 4 MP
PP
0 sg
-89 0 0 272 89 0 0 -272 5275 2275 5 MP stroke
c8
0 312 89 0 0 -312 5364 2275 4 MP
PP
0 sg
-89 0 0 312 89 0 0 -312 5364 2275 5 MP stroke
c8
0 331 90 0 0 -331 5453 2275 4 MP
PP
0 sg
-90 0 0 331 90 0 0 -331 5453 2275 5 MP stroke
c8
0 255 89 0 0 -255 5543 2275 4 MP
PP
0 sg
-89 0 0 255 89 0 0 -255 5543 2275 5 MP stroke
c8
0 243 90 0 0 -243 5632 2275 4 MP
PP
0 sg
-90 0 0 243 90 0 0 -243 5632 2275 5 MP stroke
c8
0 336 89 0 0 -336 5722 2275 4 MP
PP
0 sg
-89 0 0 336 89 0 0 -336 5722 2275 5 MP stroke
c8
0 344 90 0 0 -344 5811 2275 4 MP
PP
0 sg
-90 0 0 344 90 0 0 -344 5811 2275 5 MP stroke
c8
0 327 89 0 0 -327 5901 2275 4 MP
PP
0 sg
-89 0 0 327 89 0 0 -327 5901 2275 5 MP stroke
c8
0 341 90 0 0 -341 5990 2275 4 MP
PP
0 sg
-90 0 0 341 90 0 0 -341 5990 2275 5 MP stroke
c8
0 312 89 0 0 -312 6080 2275 4 MP
PP
0 sg
-89 0 0 312 89 0 0 -312 6080 2275 5 MP stroke
c8
0 312 90 0 0 -312 6169 2275 4 MP
PP
0 sg
-90 0 0 312 90 0 0 -312 6169 2275 5 MP stroke
c8
0 266 89 0 0 -266 6259 2275 4 MP
PP
0 sg
-89 0 0 266 89 0 0 -266 6259 2275 5 MP stroke
c8
0 394 90 0 0 -394 6348 2275 4 MP
PP
0 sg
-90 0 0 394 90 0 0 -394 6348 2275 5 MP stroke
c8
0 336 89 0 0 -336 6438 2275 4 MP
PP
0 sg
-89 0 0 336 89 0 0 -336 6438 2275 5 MP stroke
c8
0 524 89 0 0 -524 6527 2275 4 MP
PP
0 sg
-89 0 0 524 89 0 0 -524 6527 2275 5 MP stroke
c8
0 587 90 0 0 -587 6616 2275 4 MP
PP
0 sg
-90 0 0 587 90 0 0 -587 6616 2275 5 MP stroke
c8
0 506 89 0 0 -506 6706 2275 4 MP
PP
0 sg
-89 0 0 506 89 0 0 -506 6706 2275 5 MP stroke
c8
0 156 90 0 0 -156 6795 2275 4 MP
PP
0 sg
-90 0 0 156 90 0 0 -156 6795 2275 5 MP stroke
2631 0 4483 2275 2 MP stroke
gr

%%IncludeResource: font Helvetica
/Helvetica /ISOLatin1Encoding 144 FMSR

5451 2547 mt 
(log) s
%%IncludeResource: font Helvetica
/Helvetica /ISOLatin1Encoding 108 FMSR

5643 2619 mt 
(10) s
%%IncludeResource: font Helvetica
/Helvetica /ISOLatin1Encoding 144 FMSR

5763 2547 mt 
(\(K) s
%%IncludeResource: font Helvetica
/Helvetica /ISOLatin1Encoding 108 FMSR

5907 2619 mt 
(skin) s
%%IncludeResource: font Helvetica
/Helvetica /ISOLatin1Encoding 144 FMSR

6099 2547 mt 
(\)) s
%%IncludeResource: font Helvetica
/Helvetica /ISOLatin1Encoding 108 FMSR

4203 2330 mt  -90 rotate
(Posterior density) s
90 rotate
gs 4483 1583 2632 693 rc
c9
0 -692 6470 2275 2 MP stroke
gr

c9
1 sg
0 692 2631 0 0 -692 1022 3455 4 MP
PP
-2631 0 0 692 2631 0 0 -692 1022 3455 5 MP stroke
4 w
DO
SO
6 w
0 sg
1022 3455 mt 3653 3455 L
1022 2763 mt 3653 2763 L
1022 3455 mt 1022 2763 L
3653 3455 mt 3653 2763 L
1022 3455 mt 3653 3455 L
1022 3455 mt 1022 2763 L
1022 3455 mt 1022 3428 L
1022 2763 mt 1022 2789 L
%%IncludeResource: font Helvetica
/Helvetica /ISOLatin1Encoding 120 FMSR

 869 3600 mt 
(-3.4) s
2337 3455 mt 2337 3428 L
2337 2763 mt 2337 2789 L
2234 3600 mt 
(-3) s
3653 3455 mt 3653 3428 L
3653 2763 mt 3653 2789 L
3500 3600 mt 
(-2.6) s
1022 3455 mt 1048 3455 L
3653 3455 mt 3626 3455 L
 921 3499 mt 
(0) s
1022 3109 mt 1048 3109 L
3653 3109 mt 3626 3109 L
 921 3153 mt 
(5) s
1022 2763 mt 1048 2763 L
3653 2763 mt 3626 2763 L
 854 2807 mt 
(10) s
1022 3455 mt 3653 3455 L
1022 2763 mt 3653 2763 L
1022 3455 mt 1022 2763 L
3653 3455 mt 3653 2763 L
gs 1022 2763 2632 693 rc
c8
0 13 94 0 0 -13 1063 3455 4 MP
PP
0 sg
-94 0 0 13 94 0 0 -13 1063 3455 5 MP stroke
c8
0 8 95 0 0 -8 1157 3455 4 MP
PP
0 sg
-95 0 0 8 95 0 0 -8 1157 3455 5 MP stroke
c8
0 19 94 0 0 -19 1252 3455 4 MP
PP
0 sg
-94 0 0 19 94 0 0 -19 1252 3455 5 MP stroke
c8
0 13 94 0 0 -13 1346 3455 4 MP
PP
0 sg
-94 0 0 13 94 0 0 -13 1346 3455 5 MP stroke
c8
0 20 95 0 0 -20 1440 3455 4 MP
PP
0 sg
-95 0 0 20 95 0 0 -20 1440 3455 5 MP stroke
c8
0 34 94 0 0 -34 1535 3455 4 MP
PP
0 sg
-94 0 0 34 94 0 0 -34 1535 3455 5 MP stroke
c8
0 44 94 0 0 -44 1629 3455 4 MP
PP
0 sg
-94 0 0 44 94 0 0 -44 1629 3455 5 MP stroke
c8
0 31 95 0 0 -31 1723 3455 4 MP
PP
0 sg
-95 0 0 31 95 0 0 -31 1723 3455 5 MP stroke
c8
0 27 94 0 0 -27 1818 3455 4 MP
PP
0 sg
-94 0 0 27 94 0 0 -27 1818 3455 5 MP stroke
c8
0 35 94 0 0 -35 1912 3455 4 MP
PP
0 sg
-94 0 0 35 94 0 0 -35 1912 3455 5 MP stroke
c8
0 48 94 0 0 -48 2006 3455 4 MP
PP
0 sg
-94 0 0 48 94 0 0 -48 2006 3455 5 MP stroke
c8
0 54 95 0 0 -54 2100 3455 4 MP
PP
0 sg
-95 0 0 54 95 0 0 -54 2100 3455 5 MP stroke
c8
0 49 94 0 0 -49 2195 3455 4 MP
PP
0 sg
-94 0 0 49 94 0 0 -49 2195 3455 5 MP stroke
c8
0 79 94 0 0 -79 2289 3455 4 MP
PP
0 sg
-94 0 0 79 94 0 0 -79 2289 3455 5 MP stroke
c8
0 80 95 0 0 -80 2383 3455 4 MP
PP
0 sg
-95 0 0 80 95 0 0 -80 2383 3455 5 MP stroke
c8
0 80 94 0 0 -80 2478 3455 4 MP
PP
0 sg
-94 0 0 80 94 0 0 -80 2478 3455 5 MP stroke
c8
0 108 94 0 0 -108 2572 3455 4 MP
PP
0 sg
-94 0 0 108 94 0 0 -108 2572 3455 5 MP stroke
c8
0 137 94 0 0 -137 2666 3455 4 MP
PP
0 sg
-94 0 0 137 94 0 0 -137 2666 3455 5 MP stroke
c8
0 209 95 0 0 -209 2760 3455 4 MP
PP
0 sg
-95 0 0 209 95 0 0 -209 2760 3455 5 MP stroke
c8
0 347 94 0 0 -347 2855 3455 4 MP
PP
0 sg
-94 0 0 347 94 0 0 -347 2855 3455 5 MP stroke
c8
0 461 94 0 0 -461 2949 3455 4 MP
PP
0 sg
-94 0 0 461 94 0 0 -461 2949 3455 5 MP stroke
c8
0 310 95 0 0 -310 3043 3455 4 MP
PP
0 sg
-95 0 0 310 95 0 0 -310 3043 3455 5 MP stroke
c8
0 174 94 0 0 -174 3138 3455 4 MP
PP
0 sg
-94 0 0 174 94 0 0 -174 3138 3455 5 MP stroke
c8
0 41 94 0 0 -41 3232 3455 4 MP
PP
0 sg
-94 0 0 41 94 0 0 -41 3232 3455 5 MP stroke
c8
0 4 94 0 0 -4 3326 3455 4 MP
PP
0 sg
-94 0 0 4 94 0 0 -4 3326 3455 5 MP stroke
2631 0 1022 3455 2 MP stroke
gr

%%IncludeResource: font Helvetica
/Helvetica /ISOLatin1Encoding 144 FMSR

2085 3727 mt 
(log) s
%%IncludeResource: font Helvetica
/Helvetica /ISOLatin1Encoding 108 FMSR

2277 3799 mt 
(10) s
%%IncludeResource: font Helvetica
/Helvetica /ISOLatin1Encoding 144 FMSR

2397 3727 mt 
(\(K\)) s
%%IncludeResource: font Helvetica
/Helvetica /ISOLatin1Encoding 108 FMSR

 775 3510 mt  -90 rotate
(Posterior density) s
90 rotate
gs 1022 2763 2632 693 rc
c9
0 -692 2026 3455 2 MP stroke
gr

c9
1 sg
0 692 2631 0 0 -692 4483 3455 4 MP
PP
-2631 0 0 692 2631 0 0 -692 4483 3455 5 MP stroke
4 w
DO
SO
6 w
0 sg
4483 3455 mt 7114 3455 L
4483 2763 mt 7114 2763 L
4483 3455 mt 4483 2763 L
7114 3455 mt 7114 2763 L
4483 3455 mt 7114 3455 L
4483 3455 mt 4483 2763 L
4483 3455 mt 4483 3428 L
4483 2763 mt 4483 2789 L
%%IncludeResource: font Helvetica
/Helvetica /ISOLatin1Encoding 120 FMSR

4450 3600 mt 
(0) s
5140 3455 mt 5140 3428 L
5140 2763 mt 5140 2789 L
5057 3600 mt 
(0.1) s
5798 3455 mt 5798 3428 L
5798 2763 mt 5798 2789 L
5715 3600 mt 
(0.2) s
6456 3455 mt 6456 3428 L
6456 2763 mt 6456 2789 L
6373 3600 mt 
(0.3) s
7114 3455 mt 7114 3428 L
7114 2763 mt 7114 2789 L
7031 3600 mt 
(0.4) s
4483 3455 mt 4509 3455 L
7114 3455 mt 7087 3455 L
4382 3499 mt 
(0) s
4483 3109 mt 4509 3109 L
7114 3109 mt 7087 3109 L
4382 3153 mt 
(2) s
4483 2763 mt 4509 2763 L
7114 2763 mt 7087 2763 L
4382 2807 mt 
(4) s
4483 3455 mt 7114 3455 L
4483 2763 mt 7114 2763 L
4483 3455 mt 4483 2763 L
7114 3455 mt 7114 2763 L
gs 4483 2763 2632 693 rc
c8
0 326 104 0 0 -326 4530 3455 4 MP
PP
0 sg
-104 0 0 326 104 0 0 -326 4530 3455 5 MP stroke
c8
0 388 103 0 0 -388 4634 3455 4 MP
PP
0 sg
-103 0 0 388 103 0 0 -388 4634 3455 5 MP stroke
c8
0 453 103 0 0 -453 4737 3455 4 MP
PP
0 sg
-103 0 0 453 103 0 0 -453 4737 3455 5 MP stroke
c8
0 504 104 0 0 -504 4840 3455 4 MP
PP
0 sg
-104 0 0 504 104 0 0 -504 4840 3455 5 MP stroke
c8
0 459 103 0 0 -459 4944 3455 4 MP
PP
0 sg
-103 0 0 459 103 0 0 -459 4944 3455 5 MP stroke
c8
0 622 103 0 0 -622 5047 3455 4 MP
PP
0 sg
-103 0 0 622 103 0 0 -622 5047 3455 5 MP stroke
c8
0 356 104 0 0 -356 5150 3455 4 MP
PP
0 sg
-104 0 0 356 104 0 0 -356 5150 3455 5 MP stroke
c8
0 371 103 0 0 -371 5254 3455 4 MP
PP
0 sg
-103 0 0 371 103 0 0 -371 5254 3455 5 MP stroke
c8
0 430 103 0 0 -430 5357 3455 4 MP
PP
0 sg
-103 0 0 430 103 0 0 -430 5357 3455 5 MP stroke
c8
0 431 103 0 0 -431 5460 3455 4 MP
PP
0 sg
-103 0 0 431 103 0 0 -431 5460 3455 5 MP stroke
c8
0 441 104 0 0 -441 5563 3455 4 MP
PP
0 sg
-104 0 0 441 104 0 0 -441 5563 3455 5 MP stroke
c8
0 460 103 0 0 -460 5667 3455 4 MP
PP
0 sg
-103 0 0 460 103 0 0 -460 5667 3455 5 MP stroke
c8
0 470 103 0 0 -470 5770 3455 4 MP
PP
0 sg
-103 0 0 470 103 0 0 -470 5770 3455 5 MP stroke
c8
0 414 104 0 0 -414 5873 3455 4 MP
PP
0 sg
-104 0 0 414 104 0 0 -414 5873 3455 5 MP stroke
c8
0 410 103 0 0 -410 5977 3455 4 MP
PP
0 sg
-103 0 0 410 103 0 0 -410 5977 3455 5 MP stroke
c8
0 429 103 0 0 -429 6080 3455 4 MP
PP
0 sg
-103 0 0 429 103 0 0 -429 6080 3455 5 MP stroke
c8
0 429 104 0 0 -429 6183 3455 4 MP
PP
0 sg
-104 0 0 429 104 0 0 -429 6183 3455 5 MP stroke
c8
0 368 103 0 0 -368 6287 3455 4 MP
PP
0 sg
-103 0 0 368 103 0 0 -368 6287 3455 5 MP stroke
c8
0 577 103 0 0 -577 6390 3455 4 MP
PP
0 sg
-103 0 0 577 103 0 0 -577 6390 3455 5 MP stroke
c8
0 484 104 0 0 -484 6493 3455 4 MP
PP
0 sg
-104 0 0 484 104 0 0 -484 6493 3455 5 MP stroke
c8
0 448 103 0 0 -448 6597 3455 4 MP
PP
0 sg
-103 0 0 448 103 0 0 -448 6597 3455 5 MP stroke
c8
0 486 103 0 0 -486 6700 3455 4 MP
PP
0 sg
-103 0 0 486 103 0 0 -486 6700 3455 5 MP stroke
c8
0 462 104 0 0 -462 6803 3455 4 MP
PP
0 sg
-104 0 0 462 104 0 0 -462 6803 3455 5 MP stroke
c8
0 454 103 0 0 -454 6907 3455 4 MP
PP
0 sg
-103 0 0 454 103 0 0 -454 6907 3455 5 MP stroke
c8
0 351 103 0 0 -351 7010 3455 4 MP
PP
0 sg
-103 0 0 351 103 0 0 -351 7010 3455 5 MP stroke
2631 0 4483 3455 2 MP stroke
gr

%%IncludeResource: font Helvetica
/Helvetica /ISOLatin1Encoding 144 FMSR

5722 3727 mt 
(S) s
%%IncludeResource: font Helvetica
/Helvetica /ISOLatin1Encoding 108 FMSR

5818 3799 mt 
(y) s
4303 3510 mt  -90 rotate
(Posterior density) s
90 rotate
gs 4483 2763 2632 693 rc
c9
0 -692 7114 3455 2 MP stroke
gr

c9
1 sg
0 692 2631 0 0 -692 1022 4634 4 MP
PP
-2631 0 0 692 2631 0 0 -692 1022 4634 5 MP stroke
4 w
DO
SO
6 w
0 sg
1022 4634 mt 3653 4634 L
1022 3942 mt 3653 3942 L
1022 4634 mt 1022 3942 L
3653 4634 mt 3653 3942 L
1022 4634 mt 3653 4634 L
1022 4634 mt 1022 3942 L
1022 4634 mt 1022 4607 L
1022 3942 mt 1022 3968 L
%%IncludeResource: font Helvetica
/Helvetica /ISOLatin1Encoding 120 FMSR

 989 4779 mt 
(0) s
1426 4634 mt 1426 4607 L
1426 3942 mt 1426 3968 L
1393 4779 mt 
(1) s
1831 4634 mt 1831 4607 L
1831 3942 mt 1831 3968 L
1798 4779 mt 
(2) s
2236 4634 mt 2236 4607 L
2236 3942 mt 2236 3968 L
2203 4779 mt 
(3) s
2641 4634 mt 2641 4607 L
2641 3942 mt 2641 3968 L
2608 4779 mt 
(4) s
3045 4634 mt 3045 4607 L
3045 3942 mt 3045 3968 L
3012 4779 mt 
(5) s
3450 4634 mt 3450 4607 L
3450 3942 mt 3450 3968 L
3417 4779 mt 
(6) s
1022 4634 mt 1048 4634 L
3653 4634 mt 3626 4634 L
 921 4678 mt 
(0) s
1022 3942 mt 1048 3942 L
3653 3942 mt 3626 3942 L
 921 3986 mt 
(5) s
1022 4634 mt 3653 4634 L
1022 3942 mt 3653 3942 L
1022 4634 mt 1022 3942 L
3653 4634 mt 3653 3942 L
gs 1022 3942 2632 693 rc
c8
0 33 56 0 0 -33 1121 4634 4 MP
PP
0 sg
-56 0 0 33 56 0 0 -33 1121 4634 5 MP stroke
c8
0 573 55 0 0 -573 1177 4634 4 MP
PP
0 sg
-55 0 0 573 55 0 0 -573 1177 4634 5 MP stroke
c8
0 200 55 0 0 -200 1232 4634 4 MP
PP
0 sg
-55 0 0 200 55 0 0 -200 1232 4634 5 MP stroke
c8
0 1 55 0 0 -1 1287 4634 4 MP
PP
0 sg
-55 0 0 1 55 0 0 -1 1287 4634 5 MP stroke
c8
0 0 56 0 0 0 1342 4634 4 MP
PP
0 sg
-56 0 0 0 56 0 0 0 1342 4634 5 MP stroke
c8
0 0 55 0 0 0 1398 4634 4 MP
PP
0 sg
-55 0 0 0 55 0 0 0 1398 4634 5 MP stroke
c8
0 0 55 0 0 0 1453 4634 4 MP
PP
0 sg
-55 0 0 0 55 0 0 0 1453 4634 5 MP stroke
c8
0 0 55 0 0 0 1508 4634 4 MP
PP
0 sg
-55 0 0 0 55 0 0 0 1508 4634 5 MP stroke
c8
0 0 56 0 0 0 1563 4634 4 MP
PP
0 sg
-56 0 0 0 56 0 0 0 1563 4634 5 MP stroke
c8
0 0 55 0 0 0 1619 4634 4 MP
PP
0 sg
-55 0 0 0 55 0 0 0 1619 4634 5 MP stroke
c8
0 0 55 0 0 0 1674 4634 4 MP
PP
0 sg
-55 0 0 0 55 0 0 0 1674 4634 5 MP stroke
c8
0 0 55 0 0 0 1729 4634 4 MP
PP
0 sg
-55 0 0 0 55 0 0 0 1729 4634 5 MP stroke
c8
0 0 56 0 0 0 1784 4634 4 MP
PP
0 sg
-56 0 0 0 56 0 0 0 1784 4634 5 MP stroke
c8
0 0 55 0 0 0 1840 4634 4 MP
PP
0 sg
-55 0 0 0 55 0 0 0 1840 4634 5 MP stroke
c8
0 0 55 0 0 0 1895 4634 4 MP
PP
0 sg
-55 0 0 0 55 0 0 0 1895 4634 5 MP stroke
c8
0 0 55 0 0 0 1950 4634 4 MP
PP
0 sg
-55 0 0 0 55 0 0 0 1950 4634 5 MP stroke
c8
0 0 56 0 0 0 2005 4634 4 MP
PP
0 sg
-56 0 0 0 56 0 0 0 2005 4634 5 MP stroke
c8
0 0 55 0 0 0 2061 4634 4 MP
PP
0 sg
-55 0 0 0 55 0 0 0 2061 4634 5 MP stroke
c8
0 0 55 0 0 0 2116 4634 4 MP
PP
0 sg
-55 0 0 0 55 0 0 0 2116 4634 5 MP stroke
c8
0 0 55 0 0 0 2171 4634 4 MP
PP
0 sg
-55 0 0 0 55 0 0 0 2171 4634 5 MP stroke
c8
0 1 56 0 0 -1 2226 4634 4 MP
PP
0 sg
-56 0 0 1 56 0 0 -1 2226 4634 5 MP stroke
c8
0 8 55 0 0 -8 2282 4634 4 MP
PP
0 sg
-55 0 0 8 55 0 0 -8 2282 4634 5 MP stroke
c8
0 59 55 0 0 -59 2337 4634 4 MP
PP
0 sg
-55 0 0 59 55 0 0 -59 2337 4634 5 MP stroke
c8
0 120 55 0 0 -120 2392 4634 4 MP
PP
0 sg
-55 0 0 120 55 0 0 -120 2392 4634 5 MP stroke
c8
0 24 56 0 0 -24 2447 4634 4 MP
PP
0 sg
-56 0 0 24 56 0 0 -24 2447 4634 5 MP stroke
2631 0 1022 4634 2 MP stroke
gr

%%IncludeResource: font Helvetica
/Helvetica /ISOLatin1Encoding 144 FMSR

2164 4906 mt 
(L) s
%%IncludeResource: font Helvetica
/Helvetica /ISOLatin1Encoding 108 FMSR

2244 4978 mt 
(e,obs) s
 842 4689 mt  -90 rotate
(Posterior density) s
90 rotate
gs 1022 3942 2632 693 rc
c9
0 -692 1029 4634 2 MP stroke
gr

c9
1 sg
0 692 2631 0 0 -692 4483 4634 4 MP
PP
-2631 0 0 692 2631 0 0 -692 4483 4634 5 MP stroke
4 w
DO
SO
6 w
0 sg
4483 4634 mt 7114 4634 L
4483 3942 mt 7114 3942 L
4483 4634 mt 4483 3942 L
7114 4634 mt 7114 3942 L
4483 4634 mt 7114 4634 L
4483 4634 mt 4483 3942 L
4483 4634 mt 4483 4607 L
4483 3942 mt 4483 3968 L
%%IncludeResource: font Helvetica
/Helvetica /ISOLatin1Encoding 120 FMSR

4450 4779 mt 
(0) s
4858 4634 mt 4858 4607 L
4858 3942 mt 4858 3968 L
4825 4779 mt 
(2) s
5234 4634 mt 5234 4607 L
5234 3942 mt 5234 3968 L
5201 4779 mt 
(4) s
5610 4634 mt 5610 4607 L
5610 3942 mt 5610 3968 L
5577 4779 mt 
(6) s
5986 4634 mt 5986 4607 L
5986 3942 mt 5986 3968 L
5953 4779 mt 
(8) s
6362 4634 mt 6362 4607 L
6362 3942 mt 6362 3968 L
6296 4779 mt 
(10) s
6738 4634 mt 6738 4607 L
6738 3942 mt 6738 3968 L
6672 4779 mt 
(12) s
7114 4634 mt 7114 4607 L
7114 3942 mt 7114 3968 L
7048 4779 mt 
(14) s
4483 4634 mt 4509 4634 L
7114 4634 mt 7087 4634 L
4382 4678 mt 
(0) s
4483 3942 mt 4509 3942 L
7114 3942 mt 7087 3942 L
4282 3986 mt 
(0.5) s
4483 4634 mt 7114 4634 L
4483 3942 mt 7114 3942 L
4483 4634 mt 4483 3942 L
7114 4634 mt 7114 3942 L
gs 4483 3942 2632 693 rc
c8
0 26 82 0 0 -26 4711 4634 4 MP
PP
0 sg
-82 0 0 26 82 0 0 -26 4711 4634 5 MP stroke
c8
0 128 82 0 0 -128 4793 4634 4 MP
PP
0 sg
-82 0 0 128 82 0 0 -128 4793 4634 5 MP stroke
c8
0 432 83 0 0 -432 4875 4634 4 MP
PP
0 sg
-83 0 0 432 83 0 0 -432 4875 4634 5 MP stroke
c8
0 608 82 0 0 -608 4958 4634 4 MP
PP
0 sg
-82 0 0 608 82 0 0 -608 4958 4634 5 MP stroke
c8
0 519 82 0 0 -519 5040 4634 4 MP
PP
0 sg
-82 0 0 519 82 0 0 -519 5040 4634 5 MP stroke
c8
0 419 83 0 0 -419 5122 4634 4 MP
PP
0 sg
-83 0 0 419 83 0 0 -419 5122 4634 5 MP stroke
c8
0 221 82 0 0 -221 5205 4634 4 MP
PP
0 sg
-82 0 0 221 82 0 0 -221 5205 4634 5 MP stroke
c8
0 92 82 0 0 -92 5287 4634 4 MP
PP
0 sg
-82 0 0 92 82 0 0 -92 5287 4634 5 MP stroke
c8
0 47 83 0 0 -47 5369 4634 4 MP
PP
0 sg
-83 0 0 47 83 0 0 -47 5369 4634 5 MP stroke
c8
0 11 82 0 0 -11 5452 4634 4 MP
PP
0 sg
-82 0 0 11 82 0 0 -11 5452 4634 5 MP stroke
c8
0 7 82 0 0 -7 5534 4634 4 MP
PP
0 sg
-82 0 0 7 82 0 0 -7 5534 4634 5 MP stroke
c8
0 4 82 0 0 -4 5616 4634 4 MP
PP
0 sg
-82 0 0 4 82 0 0 -4 5616 4634 5 MP stroke
c8
0 10 83 0 0 -10 5698 4634 4 MP
PP
0 sg
-83 0 0 10 83 0 0 -10 5698 4634 5 MP stroke
c8
0 30 82 0 0 -30 5781 4634 4 MP
PP
0 sg
-82 0 0 30 82 0 0 -30 5781 4634 5 MP stroke
c8
0 61 82 0 0 -61 5863 4634 4 MP
PP
0 sg
-82 0 0 61 82 0 0 -61 5863 4634 5 MP stroke
c8
0 97 83 0 0 -97 5945 4634 4 MP
PP
0 sg
-83 0 0 97 83 0 0 -97 5945 4634 5 MP stroke
c8
0 124 82 0 0 -124 6028 4634 4 MP
PP
0 sg
-82 0 0 124 82 0 0 -124 6028 4634 5 MP stroke
c8
0 123 82 0 0 -123 6110 4634 4 MP
PP
0 sg
-82 0 0 123 82 0 0 -123 6110 4634 5 MP stroke
c8
0 75 83 0 0 -75 6192 4634 4 MP
PP
0 sg
-83 0 0 75 83 0 0 -75 6192 4634 5 MP stroke
c8
0 68 82 0 0 -68 6275 4634 4 MP
PP
0 sg
-82 0 0 68 82 0 0 -68 6275 4634 5 MP stroke
c8
0 29 82 0 0 -29 6357 4634 4 MP
PP
0 sg
-82 0 0 29 82 0 0 -29 6357 4634 5 MP stroke
c8
0 21 82 0 0 -21 6439 4634 4 MP
PP
0 sg
-82 0 0 21 82 0 0 -21 6439 4634 5 MP stroke
c8
0 13 83 0 0 -13 6521 4634 4 MP
PP
0 sg
-83 0 0 13 83 0 0 -13 6521 4634 5 MP stroke
c8
0 6 82 0 0 -6 6604 4634 4 MP
PP
0 sg
-82 0 0 6 82 0 0 -6 6604 4634 5 MP stroke
c8
0 1 82 0 0 -1 6686 4634 4 MP
PP
0 sg
-82 0 0 1 82 0 0 -1 6686 4634 5 MP stroke
2631 0 4483 4634 2 MP stroke
gr

%%IncludeResource: font Helvetica
/Helvetica /ISOLatin1Encoding 144 FMSR

5670 4906 mt 
(L) s
%%IncludeResource: font Helvetica
/Helvetica /ISOLatin1Encoding 108 FMSR

5750 4978 mt 
(obs) s
4203 4689 mt  -90 rotate
(Posterior density) s
90 rotate
gs 4483 3942 2632 693 rc
c9
0 -692 5065 4634 2 MP stroke
gr

c9

end %%Color Dict

eplot
%%EndObject

epage
end

showpage

%%Trailer
%%EOF
