%!PS-Adobe-3.0 EPSF-3.0
%%BoundingBox: -158 -114 371 262
%%HiResBoundingBox: -157.763 -113.411 370.536 261.744
%%Creator: MATLAB, The Mathworks, Inc. Version 7.9.0.529 (R2009b). Operating System: Linux 3.16.0-51-generic #69~14.04.1-Ubuntu SMP Wed Oct 7 15:32:41 UTC 2015 x86_64.
%%Title: /home/klkuhlm/repos/slug-osc/swiss-data/DREAM/parallel-finite2/finite-P13-MC1-1-fixed-shift/P13MC11-finite-fixed-shift2-posterior-histograms_manual.eps
%%CreationDate: 11/04/2015  12:19:16
%%DocumentNeededFonts: Helvetica
%%DocumentProcessColors: Cyan Magenta Yellow Black
%%LanguageLevel: 2
%%Pages: 1
%%EndComments

%%BeginProlog
% MathWorks dictionary
/MathWorks 160 dict begin
% definition operators
/bdef {bind def} bind def
/ldef {load def} bind def
/xdef {exch def} bdef
/xstore {exch store} bdef
% operator abbreviations
/c  /clip ldef
/cc /concat ldef
/cp /closepath ldef
/gr /grestore ldef
/gs /gsave ldef
/mt /moveto ldef
/np /newpath ldef
/cm /currentmatrix ldef
/sm /setmatrix ldef
/rm /rmoveto ldef
/rl /rlineto ldef
/s {show newpath} bdef
/sc {setcmykcolor} bdef
/sr /setrgbcolor ldef
/sg /setgray ldef
/w /setlinewidth ldef
/j /setlinejoin ldef
/cap /setlinecap ldef
/rc {rectclip} bdef
/rf {rectfill} bdef
% page state control
/pgsv () def
/bpage {/pgsv save def} bdef
/epage {pgsv restore} bdef
/bplot /gsave ldef
/eplot {stroke grestore} bdef
% orientation switch
/portraitMode 0 def /landscapeMode 1 def /rotateMode 2 def
% coordinate system mappings
/dpi2point 0 def
% font control
/FontSize 0 def
/FMS {/FontSize xstore findfont [FontSize 0 0 FontSize neg 0 0]
  makefont setfont} bdef
/reencode {exch dup where {pop load} {pop StandardEncoding} ifelse
  exch dup 3 1 roll findfont dup length dict begin
  { 1 index /FID ne {def}{pop pop} ifelse } forall
  /Encoding exch def currentdict end definefont pop} bdef
/isroman {findfont /CharStrings get /Agrave known} bdef
/FMSR {3 1 roll 1 index dup isroman {reencode} {pop pop} ifelse
  exch FMS} bdef
/csm {1 dpi2point div -1 dpi2point div scale neg translate
 dup landscapeMode eq {pop -90 rotate}
  {rotateMode eq {90 rotate} if} ifelse} bdef
% line types: solid, dotted, dashed, dotdash
/SO { [] 0 setdash } bdef
/DO { [.5 dpi2point mul 4 dpi2point mul] 0 setdash } bdef
/DA { [6 dpi2point mul] 0 setdash } bdef
/DD { [.5 dpi2point mul 4 dpi2point mul 6 dpi2point mul 4
  dpi2point mul] 0 setdash } bdef
% macros for lines and objects
/L {lineto stroke} bdef
/MP {3 1 roll moveto 1 sub {rlineto} repeat} bdef
/AP {{rlineto} repeat} bdef
/PDlw -1 def
/W {/PDlw currentlinewidth def setlinewidth} def
/PP {closepath eofill} bdef
/DP {closepath stroke} bdef
/MR {4 -2 roll moveto dup  0 exch rlineto exch 0 rlineto
  neg 0 exch rlineto closepath} bdef
/FR {MR stroke} bdef
/PR {MR fill} bdef
/L1i {{currentfile picstr readhexstring pop} image} bdef
/tMatrix matrix def
/MakeOval {newpath tMatrix currentmatrix pop translate scale
0 0 1 0 360 arc tMatrix setmatrix} bdef
/FO {MakeOval stroke} bdef
/PO {MakeOval fill} bdef
/PD {currentlinewidth 2 div 0 360 arc fill
   PDlw -1 eq not {PDlw w /PDlw -1 def} if} def
/FA {newpath tMatrix currentmatrix pop translate scale
  0 0 1 5 -2 roll arc tMatrix setmatrix stroke} bdef
/PA {newpath tMatrix currentmatrix pop	translate 0 0 moveto scale
  0 0 1 5 -2 roll arc closepath tMatrix setmatrix fill} bdef
/FAn {newpath tMatrix currentmatrix pop translate scale
  0 0 1 5 -2 roll arcn tMatrix setmatrix stroke} bdef
/PAn {newpath tMatrix currentmatrix pop translate 0 0 moveto scale
  0 0 1 5 -2 roll arcn closepath tMatrix setmatrix fill} bdef
/vradius 0 def /hradius 0 def /lry 0 def
/lrx 0 def /uly 0 def /ulx 0 def /rad 0 def
/MRR {/vradius xdef /hradius xdef /lry xdef /lrx xdef /uly xdef
  /ulx xdef newpath tMatrix currentmatrix pop ulx hradius add uly
  vradius add translate hradius vradius scale 0 0 1 180 270 arc 
  tMatrix setmatrix lrx hradius sub uly vradius add translate
  hradius vradius scale 0 0 1 270 360 arc tMatrix setmatrix
  lrx hradius sub lry vradius sub translate hradius vradius scale
  0 0 1 0 90 arc tMatrix setmatrix ulx hradius add lry vradius sub
  translate hradius vradius scale 0 0 1 90 180 arc tMatrix setmatrix
  closepath} bdef
/FRR {MRR stroke } bdef
/PRR {MRR fill } bdef
/MlrRR {/lry xdef /lrx xdef /uly xdef /ulx xdef /rad lry uly sub 2 div def
  newpath tMatrix currentmatrix pop ulx rad add uly rad add translate
  rad rad scale 0 0 1 90 270 arc tMatrix setmatrix lrx rad sub lry rad
  sub translate rad rad scale 0 0 1 270 90 arc tMatrix setmatrix
  closepath} bdef
/FlrRR {MlrRR stroke } bdef
/PlrRR {MlrRR fill } bdef
/MtbRR {/lry xdef /lrx xdef /uly xdef /ulx xdef /rad lrx ulx sub 2 div def
  newpath tMatrix currentmatrix pop ulx rad add uly rad add translate
  rad rad scale 0 0 1 180 360 arc tMatrix setmatrix lrx rad sub lry rad
  sub translate rad rad scale 0 0 1 0 180 arc tMatrix setmatrix
  closepath} bdef
/FtbRR {MtbRR stroke } bdef
/PtbRR {MtbRR fill } bdef
/stri 6 array def /dtri 6 array def
/smat 6 array def /dmat 6 array def
/tmat1 6 array def /tmat2 6 array def /dif 3 array def
/asub {/ind2 exch def /ind1 exch def dup dup
  ind1 get exch ind2 get sub exch } bdef
/tri_to_matrix {
  2 0 asub 3 1 asub 4 0 asub 5 1 asub
  dup 0 get exch 1 get 7 -1 roll astore } bdef
/compute_transform {
  dmat dtri tri_to_matrix tmat1 invertmatrix 
  smat stri tri_to_matrix tmat2 concatmatrix } bdef
/ds {stri astore pop} bdef
/dt {dtri astore pop} bdef
/db {2 copy /cols xdef /rows xdef mul dup 3 mul string
  currentfile 
  3 index 0 eq {/ASCIIHexDecode filter}
  {/ASCII85Decode filter 3 index 2 eq {/RunLengthDecode filter} if }
  ifelse exch readstring pop
  dup 0 3 index getinterval /rbmap xdef
  dup 2 index dup getinterval /gbmap xdef
  1 index dup 2 mul exch getinterval /bbmap xdef pop pop}bdef
/it {gs np dtri aload pop moveto lineto lineto cp c
  cols rows 8 compute_transform 
  rbmap gbmap bbmap true 3 colorimage gr}bdef
/il {newpath moveto lineto stroke}bdef
currentdict end def
%%EndProlog

%%BeginSetup
MathWorks begin

0 cap

end
%%EndSetup

%%Page: 1 1
%%BeginPageSetup
%%PageBoundingBox:  -208  -144   423   288
MathWorks begin
bpage
%%EndPageSetup

%%BeginObject: obj1
bplot

/dpi2point 12 def
portraitMode -2496 3456 csm

    0     0  7583  5193 rc
85 dict begin %Colortable dictionary
/c0 { 0.000000 0.000000 0.000000 sr} bdef
/c1 { 1.000000 1.000000 1.000000 sr} bdef
/c2 { 0.900000 0.000000 0.000000 sr} bdef
/c3 { 0.000000 0.820000 0.000000 sr} bdef
/c4 { 0.000000 0.000000 0.800000 sr} bdef
/c5 { 0.910000 0.820000 0.320000 sr} bdef
/c6 { 1.000000 0.260000 0.820000 sr} bdef
/c7 { 0.000000 0.820000 0.820000 sr} bdef
c0
1 j
1 sg
   0    0 7584 5194 rf
6 w
0 654 2538 0 0 -654 986 1043 4 MP
PP
-2538 0 0 654 2538 0 0 -654 986 1043 5 MP stroke
4 w
DO
SO
6 w
0 sg
 986 1043 mt 3524 1043 L
 986  389 mt 3524  389 L
 986 1043 mt  986  389 L
3524 1043 mt 3524  389 L
 986 1043 mt 3524 1043 L
 986 1043 mt  986  389 L
 986 1043 mt  986 1017 L
 986  389 mt  986  414 L
%%IncludeResource: font Helvetica
/Helvetica /ISOLatin1Encoding 120 FMSR

 953 1188 mt 
(0) s
1493 1043 mt 1493 1017 L
1493  389 mt 1493  414 L
1460 1188 mt 
(2) s
2001 1043 mt 2001 1017 L
2001  389 mt 2001  414 L
1968 1188 mt 
(4) s
2508 1043 mt 2508 1017 L
2508  389 mt 2508  414 L
2475 1188 mt 
(6) s
3016 1043 mt 3016 1017 L
3016  389 mt 3016  414 L
2983 1188 mt 
(8) s
3524 1043 mt 3524 1017 L
3524  389 mt 3524  414 L
3458 1188 mt 
(10) s
 986 1043 mt 1011 1043 L
3524 1043 mt 3498 1043 L
 885 1087 mt 
(0) s
 986  716 mt 1011  716 L
3524  716 mt 3498  716 L
 785  760 mt 
(0.2) s
 986  389 mt 1011  389 L
3524  389 mt 3498  389 L
 785  433 mt 
(0.4) s
 986 1043 mt 3524 1043 L
 986  389 mt 3524  389 L
 986 1043 mt  986  389 L
3524 1043 mt 3524  389 L
gs 986 389 2539 655 rc
/c8 { 0.000000 0.000000 0.562500 sr} bdef
c8
0 320 93 0 0 -320 986 1043 4 MP
PP
0 sg
-93 0 0 320 93 0 0 -320 986 1043 5 MP stroke
c8
0 464 94 0 0 -464 1079 1043 4 MP
PP
0 sg
-94 0 0 464 94 0 0 -464 1079 1043 5 MP stroke
c8
0 467 93 0 0 -467 1173 1043 4 MP
PP
0 sg
-93 0 0 467 93 0 0 -467 1173 1043 5 MP stroke
c8
0 491 94 0 0 -491 1266 1043 4 MP
PP
0 sg
-94 0 0 491 94 0 0 -491 1266 1043 5 MP stroke
c8
0 511 93 0 0 -511 1360 1043 4 MP
PP
0 sg
-93 0 0 511 93 0 0 -511 1360 1043 5 MP stroke
c8
0 486 93 0 0 -486 1453 1043 4 MP
PP
0 sg
-93 0 0 486 93 0 0 -486 1453 1043 5 MP stroke
c8
0 415 94 0 0 -415 1546 1043 4 MP
PP
0 sg
-94 0 0 415 94 0 0 -415 1546 1043 5 MP stroke
c8
0 383 93 0 0 -383 1640 1043 4 MP
PP
0 sg
-93 0 0 383 93 0 0 -383 1640 1043 5 MP stroke
c8
0 277 94 0 0 -277 1733 1043 4 MP
PP
0 sg
-94 0 0 277 94 0 0 -277 1733 1043 5 MP stroke
c8
0 198 93 0 0 -198 1827 1043 4 MP
PP
0 sg
-93 0 0 198 93 0 0 -198 1827 1043 5 MP stroke
c8
0 147 94 0 0 -147 1920 1043 4 MP
PP
0 sg
-94 0 0 147 94 0 0 -147 1920 1043 5 MP stroke
c8
0 96 93 0 0 -96 2014 1043 4 MP
PP
0 sg
-93 0 0 96 93 0 0 -96 2014 1043 5 MP stroke
c8
0 70 93 0 0 -70 2107 1043 4 MP
PP
0 sg
-93 0 0 70 93 0 0 -70 2107 1043 5 MP stroke
c8
0 42 94 0 0 -42 2200 1043 4 MP
PP
0 sg
-94 0 0 42 94 0 0 -42 2200 1043 5 MP stroke
c8
0 32 93 0 0 -32 2294 1043 4 MP
PP
0 sg
-93 0 0 32 93 0 0 -32 2294 1043 5 MP stroke
c8
0 15 94 0 0 -15 2387 1043 4 MP
PP
0 sg
-94 0 0 15 94 0 0 -15 2387 1043 5 MP stroke
c8
0 14 93 0 0 -14 2481 1043 4 MP
PP
0 sg
-93 0 0 14 93 0 0 -14 2481 1043 5 MP stroke
c8
0 9 94 0 0 -9 2574 1043 4 MP
PP
0 sg
-94 0 0 9 94 0 0 -9 2574 1043 5 MP stroke
c8
0 6 93 0 0 -6 2668 1043 4 MP
PP
0 sg
-93 0 0 6 93 0 0 -6 2668 1043 5 MP stroke
c8
0 3 93 0 0 -3 2761 1043 4 MP
PP
0 sg
-93 0 0 3 93 0 0 -3 2761 1043 5 MP stroke
c8
0 3 94 0 0 -3 2854 1043 4 MP
PP
0 sg
-94 0 0 3 94 0 0 -3 2854 1043 5 MP stroke
c8
0 2 93 0 0 -2 2948 1043 4 MP
PP
0 sg
-93 0 0 2 93 0 0 -2 2948 1043 5 MP stroke
c8
0 1 94 0 0 -1 3041 1043 4 MP
PP
0 sg
-94 0 0 1 94 0 0 -1 3041 1043 5 MP stroke
c8
0 1 93 0 0 -1 3135 1043 4 MP
PP
0 sg
-93 0 0 1 93 0 0 -1 3135 1043 5 MP stroke
c8
0 2 94 0 0 -2 3228 1043 4 MP
PP
0 sg
-94 0 0 2 94 0 0 -2 3228 1043 5 MP stroke
2538 0 986 1043 2 MP stroke
gr

%%IncludeResource: font Helvetica
/Helvetica /ISOLatin1Encoding 144 FMSR

2214 1349 mt 
(L) s
%%IncludeResource: font Helvetica
/Helvetica /ISOLatin1Encoding 108 FMSR

 706 1117 mt  -90 rotate
(Posterior density) s
90 rotate
gs 986 389 2539 655 rc
/c9 { 1.000000 0.000000 0.000000 sr} bdef
c9
0 -654 1161 1043 2 MP stroke
gr

c9
1 sg
0 654 2538 0 0 -654 4325 1043 4 MP
PP
-2538 0 0 654 2538 0 0 -654 4325 1043 5 MP stroke
4 w
DO
SO
6 w
0 sg
4325 1043 mt 6863 1043 L
4325  389 mt 6863  389 L
4325 1043 mt 4325  389 L
6863 1043 mt 6863  389 L
4325 1043 mt 6863 1043 L
4325 1043 mt 4325  389 L
4325 1043 mt 4325 1017 L
4325  389 mt 4325  414 L
%%IncludeResource: font Helvetica
/Helvetica /ISOLatin1Encoding 120 FMSR

4292 1188 mt 
(0) s
4959 1043 mt 4959 1017 L
4959  389 mt 4959  414 L
4926 1188 mt 
(1) s
5594 1043 mt 5594 1017 L
5594  389 mt 5594  414 L
5561 1188 mt 
(2) s
6228 1043 mt 6228 1017 L
6228  389 mt 6228  414 L
6195 1188 mt 
(3) s
6863 1043 mt 6863 1017 L
6863  389 mt 6863  414 L
6830 1188 mt 
(4) s
4325 1043 mt 4350 1043 L
6863 1043 mt 6837 1043 L
4224 1087 mt 
(0) s
4325  716 mt 4350  716 L
6863  716 mt 6837  716 L
4224  760 mt 
(2) s
4325  389 mt 4350  389 L
6863  389 mt 6837  389 L
4224  433 mt 
(4) s
4325 1043 mt 6863 1043 L
4325  389 mt 6863  389 L
4325 1043 mt 4325  389 L
6863 1043 mt 6863  389 L
gs 4325 389 2539 655 rc
c8
0 1 29 0 0 -1 4362 1043 4 MP
PP
0 sg
-29 0 0 1 29 0 0 -1 4362 1043 5 MP stroke
c8
0 1 30 0 0 -1 4391 1043 4 MP
PP
0 sg
-30 0 0 1 30 0 0 -1 4391 1043 5 MP stroke
c8
0 1 29 0 0 -1 4421 1043 4 MP
PP
0 sg
-29 0 0 1 29 0 0 -1 4421 1043 5 MP stroke
c8
0 2 29 0 0 -2 4450 1043 4 MP
PP
0 sg
-29 0 0 2 29 0 0 -2 4450 1043 5 MP stroke
c8
0 2 30 0 0 -2 4479 1043 4 MP
PP
0 sg
-30 0 0 2 30 0 0 -2 4479 1043 5 MP stroke
c8
0 3 29 0 0 -3 4509 1043 4 MP
PP
0 sg
-29 0 0 3 29 0 0 -3 4509 1043 5 MP stroke
c8
0 1 30 0 0 -1 4538 1043 4 MP
PP
0 sg
-30 0 0 1 30 0 0 -1 4538 1043 5 MP stroke
c8
0 11 29 0 0 -11 4568 1043 4 MP
PP
0 sg
-29 0 0 11 29 0 0 -11 4568 1043 5 MP stroke
c8
0 7 29 0 0 -7 4597 1043 4 MP
PP
0 sg
-29 0 0 7 29 0 0 -7 4597 1043 5 MP stroke
c8
0 13 30 0 0 -13 4626 1043 4 MP
PP
0 sg
-30 0 0 13 30 0 0 -13 4626 1043 5 MP stroke
c8
0 33 29 0 0 -33 4656 1043 4 MP
PP
0 sg
-29 0 0 33 29 0 0 -33 4656 1043 5 MP stroke
c8
0 67 29 0 0 -67 4685 1043 4 MP
PP
0 sg
-29 0 0 67 29 0 0 -67 4685 1043 5 MP stroke
c8
0 113 30 0 0 -113 4714 1043 4 MP
PP
0 sg
-30 0 0 113 30 0 0 -113 4714 1043 5 MP stroke
c8
0 237 29 0 0 -237 4744 1043 4 MP
PP
0 sg
-29 0 0 237 29 0 0 -237 4744 1043 5 MP stroke
c8
0 425 29 0 0 -425 4773 1043 4 MP
PP
0 sg
-29 0 0 425 29 0 0 -425 4773 1043 5 MP stroke
c8
0 566 30 0 0 -566 4802 1043 4 MP
PP
0 sg
-30 0 0 566 30 0 0 -566 4802 1043 5 MP stroke
c8
0 606 29 0 0 -606 4832 1043 4 MP
PP
0 sg
-29 0 0 606 29 0 0 -606 4832 1043 5 MP stroke
c8
0 568 30 0 0 -568 4861 1043 4 MP
PP
0 sg
-30 0 0 568 30 0 0 -568 4861 1043 5 MP stroke
c8
0 415 29 0 0 -415 4891 1043 4 MP
PP
0 sg
-29 0 0 415 29 0 0 -415 4891 1043 5 MP stroke
c8
0 247 29 0 0 -247 4920 1043 4 MP
PP
0 sg
-29 0 0 247 29 0 0 -247 4920 1043 5 MP stroke
c8
0 139 30 0 0 -139 4949 1043 4 MP
PP
0 sg
-30 0 0 139 30 0 0 -139 4949 1043 5 MP stroke
c8
0 58 29 0 0 -58 4979 1043 4 MP
PP
0 sg
-29 0 0 58 29 0 0 -58 4979 1043 5 MP stroke
c8
0 24 29 0 0 -24 5008 1043 4 MP
PP
0 sg
-29 0 0 24 29 0 0 -24 5008 1043 5 MP stroke
c8
0 5 30 0 0 -5 5037 1043 4 MP
PP
0 sg
-30 0 0 5 30 0 0 -5 5037 1043 5 MP stroke
c8
0 1 29 0 0 -1 5067 1043 4 MP
PP
0 sg
-29 0 0 1 29 0 0 -1 5067 1043 5 MP stroke
2538 0 4325 1043 2 MP stroke
gr

%%IncludeResource: font Helvetica
/Helvetica /ISOLatin1Encoding 144 FMSR

5523 1315 mt 
(L) s
%%IncludeResource: font Helvetica
/Helvetica /ISOLatin1Encoding 108 FMSR

5603 1387 mt 
(e) s
4145 1117 mt  -90 rotate
(Posterior density) s
90 rotate
1 sg
0 654 2538 0 0 -654 986 2181 4 MP
PP
-2538 0 0 654 2538 0 0 -654 986 2181 5 MP stroke
4 w
DO
SO
6 w
0 sg
 986 2181 mt 3524 2181 L
 986 1527 mt 3524 1527 L
 986 2181 mt  986 1527 L
3524 2181 mt 3524 1527 L
 986 2181 mt 3524 2181 L
 986 2181 mt  986 1527 L
 986 2181 mt  986 2155 L
 986 1527 mt  986 1552 L
%%IncludeResource: font Helvetica
/Helvetica /ISOLatin1Encoding 120 FMSR

 883 2326 mt 
(-8) s
1620 2181 mt 1620 2155 L
1620 1527 mt 1620 1552 L
1517 2326 mt 
(-7) s
2255 2181 mt 2255 2155 L
2255 1527 mt 2255 1552 L
2152 2326 mt 
(-6) s
2889 2181 mt 2889 2155 L
2889 1527 mt 2889 1552 L
2786 2326 mt 
(-5) s
3524 2181 mt 3524 2155 L
3524 1527 mt 3524 1552 L
3421 2326 mt 
(-4) s
 986 2181 mt 1011 2181 L
3524 2181 mt 3498 2181 L
 885 2225 mt 
(0) s
 986 1527 mt 1011 1527 L
3524 1527 mt 3498 1527 L
 785 1571 mt 
(0.5) s
 986 2181 mt 3524 2181 L
 986 1527 mt 3524 1527 L
 986 2181 mt  986 1527 L
3524 2181 mt 3524 1527 L
gs 986 1527 2539 655 rc
c8
0 371 91 0 0 -371 986 2181 4 MP
PP
0 sg
-91 0 0 371 91 0 0 -371 986 2181 5 MP stroke
c8
0 333 92 0 0 -333 1077 2181 4 MP
PP
0 sg
-92 0 0 333 92 0 0 -333 1077 2181 5 MP stroke
c8
0 324 91 0 0 -324 1169 2181 4 MP
PP
0 sg
-91 0 0 324 91 0 0 -324 1169 2181 5 MP stroke
c8
0 329 92 0 0 -329 1260 2181 4 MP
PP
0 sg
-92 0 0 329 92 0 0 -329 1260 2181 5 MP stroke
c8
0 345 91 0 0 -345 1352 2181 4 MP
PP
0 sg
-91 0 0 345 91 0 0 -345 1352 2181 5 MP stroke
c8
0 417 92 0 0 -417 1443 2181 4 MP
PP
0 sg
-92 0 0 417 92 0 0 -417 1443 2181 5 MP stroke
c8
0 415 91 0 0 -415 1535 2181 4 MP
PP
0 sg
-91 0 0 415 91 0 0 -415 1535 2181 5 MP stroke
c8
0 403 92 0 0 -403 1626 2181 4 MP
PP
0 sg
-92 0 0 403 92 0 0 -403 1626 2181 5 MP stroke
c8
0 350 91 0 0 -350 1718 2181 4 MP
PP
0 sg
-91 0 0 350 91 0 0 -350 1718 2181 5 MP stroke
c8
0 404 92 0 0 -404 1809 2181 4 MP
PP
0 sg
-92 0 0 404 92 0 0 -404 1809 2181 5 MP stroke
c8
0 431 91 0 0 -431 1901 2181 4 MP
PP
0 sg
-91 0 0 431 91 0 0 -431 1901 2181 5 MP stroke
c8
0 469 92 0 0 -469 1992 2181 4 MP
PP
0 sg
-92 0 0 469 92 0 0 -469 1992 2181 5 MP stroke
c8
0 438 91 0 0 -438 2084 2181 4 MP
PP
0 sg
-91 0 0 438 91 0 0 -438 2084 2181 5 MP stroke
c8
0 440 92 0 0 -440 2175 2181 4 MP
PP
0 sg
-92 0 0 440 92 0 0 -440 2175 2181 5 MP stroke
c8
0 395 91 0 0 -395 2267 2181 4 MP
PP
0 sg
-91 0 0 395 91 0 0 -395 2267 2181 5 MP stroke
c8
0 391 92 0 0 -391 2358 2181 4 MP
PP
0 sg
-92 0 0 391 92 0 0 -391 2358 2181 5 MP stroke
c8
0 458 91 0 0 -458 2450 2181 4 MP
PP
0 sg
-91 0 0 458 91 0 0 -458 2450 2181 5 MP stroke
c8
0 549 92 0 0 -549 2541 2181 4 MP
PP
0 sg
-92 0 0 549 92 0 0 -549 2541 2181 5 MP stroke
c8
0 413 91 0 0 -413 2633 2181 4 MP
PP
0 sg
-91 0 0 413 91 0 0 -413 2633 2181 5 MP stroke
c8
0 417 92 0 0 -417 2724 2181 4 MP
PP
0 sg
-92 0 0 417 92 0 0 -417 2724 2181 5 MP stroke
c8
0 379 91 0 0 -379 2816 2181 4 MP
PP
0 sg
-91 0 0 379 91 0 0 -379 2816 2181 5 MP stroke
c8
0 397 92 0 0 -397 2907 2181 4 MP
PP
0 sg
-92 0 0 397 92 0 0 -397 2907 2181 5 MP stroke
c8
0 137 91 0 0 -137 2999 2181 4 MP
PP
0 sg
-91 0 0 137 91 0 0 -137 2999 2181 5 MP stroke
c8
0 67 92 0 0 -67 3090 2181 4 MP
PP
0 sg
-92 0 0 67 92 0 0 -67 3090 2181 5 MP stroke
c8
0 9 91 0 0 -9 3182 2181 4 MP
PP
0 sg
-91 0 0 9 91 0 0 -9 3182 2181 5 MP stroke
2538 0 986 2181 2 MP stroke
gr

%%IncludeResource: font Helvetica
/Helvetica /ISOLatin1Encoding 144 FMSR

1976 2453 mt 
(log) s
%%IncludeResource: font Helvetica
/Helvetica /ISOLatin1Encoding 108 FMSR

2168 2525 mt 
(10) s
%%IncludeResource: font Helvetica
/Helvetica /ISOLatin1Encoding 144 FMSR

2288 2453 mt 
(\(S) s
%%IncludeResource: font Helvetica
/Helvetica /ISOLatin1Encoding 108 FMSR

2432 2525 mt 
(s) s
%%IncludeResource: font Helvetica
/Helvetica /ISOLatin1Encoding 144 FMSR

2486 2453 mt 
(\)) s
%%IncludeResource: font Helvetica
/Helvetica /ISOLatin1Encoding 108 FMSR

 706 2255 mt  -90 rotate
(Posterior density) s
90 rotate
gs 986 1527 2539 655 rc
c9
0 -654 3077 2181 2 MP stroke
gr

c9
1 sg
0 654 2538 0 0 -654 4325 2181 4 MP
PP
-2538 0 0 654 2538 0 0 -654 4325 2181 5 MP stroke
4 w
DO
SO
6 w
0 sg
4325 2181 mt 6863 2181 L
4325 1527 mt 6863 1527 L
4325 2181 mt 4325 1527 L
6863 2181 mt 6863 1527 L
4325 2181 mt 6863 2181 L
4325 2181 mt 4325 1527 L
4325 2181 mt 4325 2155 L
4325 1527 mt 4325 1552 L
%%IncludeResource: font Helvetica
/Helvetica /ISOLatin1Encoding 120 FMSR

4222 2326 mt 
(-3) s
4832 2181 mt 4832 2155 L
4832 1527 mt 4832 1552 L
4679 2326 mt 
(-2.5) s
5340 2181 mt 5340 2155 L
5340 1527 mt 5340 1552 L
5237 2326 mt 
(-2) s
5847 2181 mt 5847 2155 L
5847 1527 mt 5847 1552 L
5694 2326 mt 
(-1.5) s
6355 2181 mt 6355 2155 L
6355 1527 mt 6355 1552 L
6252 2326 mt 
(-1) s
6863 2181 mt 6863 2155 L
6863 1527 mt 6863 1552 L
6710 2326 mt 
(-0.5) s
4325 2181 mt 4350 2181 L
6863 2181 mt 6837 2181 L
4224 2225 mt 
(0) s
4325 1854 mt 4350 1854 L
6863 1854 mt 6837 1854 L
4224 1898 mt 
(1) s
4325 1527 mt 4350 1527 L
6863 1527 mt 6837 1527 L
4224 1571 mt 
(2) s
4325 2181 mt 6863 2181 L
4325 1527 mt 6863 1527 L
4325 2181 mt 4325 1527 L
6863 2181 mt 6863 1527 L
gs 4325 1527 2539 655 rc
c8
0 49 85 0 0 -49 4572 2181 4 MP
PP
0 sg
-85 0 0 49 85 0 0 -49 4572 2181 5 MP stroke
c8
0 126 85 0 0 -126 4657 2181 4 MP
PP
0 sg
-85 0 0 126 85 0 0 -126 4657 2181 5 MP stroke
c8
0 149 85 0 0 -149 4742 2181 4 MP
PP
0 sg
-85 0 0 149 85 0 0 -149 4742 2181 5 MP stroke
c8
0 107 85 0 0 -107 4827 2181 4 MP
PP
0 sg
-85 0 0 107 85 0 0 -107 4827 2181 5 MP stroke
c8
0 134 86 0 0 -134 4912 2181 4 MP
PP
0 sg
-86 0 0 134 86 0 0 -134 4912 2181 5 MP stroke
c8
0 128 85 0 0 -128 4998 2181 4 MP
PP
0 sg
-85 0 0 128 85 0 0 -128 4998 2181 5 MP stroke
c8
0 113 85 0 0 -113 5083 2181 4 MP
PP
0 sg
-85 0 0 113 85 0 0 -113 5083 2181 5 MP stroke
c8
0 138 85 0 0 -138 5168 2181 4 MP
PP
0 sg
-85 0 0 138 85 0 0 -138 5168 2181 5 MP stroke
c8
0 134 85 0 0 -134 5253 2181 4 MP
PP
0 sg
-85 0 0 134 85 0 0 -134 5253 2181 5 MP stroke
c8
0 129 86 0 0 -129 5338 2181 4 MP
PP
0 sg
-86 0 0 129 86 0 0 -129 5338 2181 5 MP stroke
c8
0 144 85 0 0 -144 5424 2181 4 MP
PP
0 sg
-85 0 0 144 85 0 0 -144 5424 2181 5 MP stroke
c8
0 123 85 0 0 -123 5509 2181 4 MP
PP
0 sg
-85 0 0 123 85 0 0 -123 5509 2181 5 MP stroke
c8
0 136 85 0 0 -136 5594 2181 4 MP
PP
0 sg
-85 0 0 136 85 0 0 -136 5594 2181 5 MP stroke
c8
0 140 85 0 0 -140 5679 2181 4 MP
PP
0 sg
-85 0 0 140 85 0 0 -140 5679 2181 5 MP stroke
c8
0 130 85 0 0 -130 5764 2181 4 MP
PP
0 sg
-85 0 0 130 85 0 0 -130 5764 2181 5 MP stroke
c8
0 170 86 0 0 -170 5849 2181 4 MP
PP
0 sg
-86 0 0 170 86 0 0 -170 5849 2181 5 MP stroke
c8
0 164 85 0 0 -164 5935 2181 4 MP
PP
0 sg
-85 0 0 164 85 0 0 -164 5935 2181 5 MP stroke
c8
0 171 85 0 0 -171 6020 2181 4 MP
PP
0 sg
-85 0 0 171 85 0 0 -171 6020 2181 5 MP stroke
c8
0 212 85 0 0 -212 6105 2181 4 MP
PP
0 sg
-85 0 0 212 85 0 0 -212 6105 2181 5 MP stroke
c8
0 226 85 0 0 -226 6190 2181 4 MP
PP
0 sg
-85 0 0 226 85 0 0 -226 6190 2181 5 MP stroke
c8
0 233 86 0 0 -233 6275 2181 4 MP
PP
0 sg
-86 0 0 233 86 0 0 -233 6275 2181 5 MP stroke
c8
0 265 85 0 0 -265 6361 2181 4 MP
PP
0 sg
-85 0 0 265 85 0 0 -265 6361 2181 5 MP stroke
c8
0 337 85 0 0 -337 6446 2181 4 MP
PP
0 sg
-85 0 0 337 85 0 0 -337 6446 2181 5 MP stroke
c8
0 208 85 0 0 -208 6531 2181 4 MP
PP
0 sg
-85 0 0 208 85 0 0 -208 6531 2181 5 MP stroke
c8
0 42 85 0 0 -42 6616 2181 4 MP
PP
0 sg
-85 0 0 42 85 0 0 -42 6616 2181 5 MP stroke
2538 0 4325 2181 2 MP stroke
gr

%%IncludeResource: font Helvetica
/Helvetica /ISOLatin1Encoding 144 FMSR

5247 2453 mt 
(log) s
%%IncludeResource: font Helvetica
/Helvetica /ISOLatin1Encoding 108 FMSR

5439 2525 mt 
(10) s
%%IncludeResource: font Helvetica
/Helvetica /ISOLatin1Encoding 144 FMSR

5559 2453 mt 
(\(K) s
%%IncludeResource: font Helvetica
/Helvetica /ISOLatin1Encoding 108 FMSR

5703 2525 mt 
(skin) s
%%IncludeResource: font Helvetica
/Helvetica /ISOLatin1Encoding 144 FMSR

5895 2453 mt 
(\)) s
%%IncludeResource: font Helvetica
/Helvetica /ISOLatin1Encoding 108 FMSR

4145 2255 mt  -90 rotate
(Posterior density) s
90 rotate
gs 4325 1527 2539 655 rc
c9
0 -654 6587 2181 2 MP stroke
gr

c9
1 sg
0 654 2538 0 0 -654 986 3319 4 MP
PP
-2538 0 0 654 2538 0 0 -654 986 3319 5 MP stroke
4 w
DO
SO
6 w
0 sg
 986 3319 mt 3524 3319 L
 986 2665 mt 3524 2665 L
 986 3319 mt  986 2665 L
3524 3319 mt 3524 2665 L
 986 3319 mt 3524 3319 L
 986 3319 mt  986 2665 L
 986 3319 mt  986 3293 L
 986 2665 mt  986 2690 L
%%IncludeResource: font Helvetica
/Helvetica /ISOLatin1Encoding 120 FMSR

 833 3464 mt 
(-3.4) s
2255 3319 mt 2255 3293 L
2255 2665 mt 2255 2690 L
2152 3464 mt 
(-3) s
3524 3319 mt 3524 3293 L
3524 2665 mt 3524 2690 L
3371 3464 mt 
(-2.6) s
 986 3319 mt 1011 3319 L
3524 3319 mt 3498 3319 L
 885 3363 mt 
(0) s
 986 2992 mt 1011 2992 L
3524 2992 mt 3498 2992 L
 885 3036 mt 
(5) s
 986 2665 mt 1011 2665 L
3524 2665 mt 3498 2665 L
 818 2709 mt 
(10) s
 986 3319 mt 3524 3319 L
 986 2665 mt 3524 2665 L
 986 3319 mt  986 2665 L
3524 3319 mt 3524 2665 L
gs 986 2665 2539 655 rc
c8
0 1 87 0 0 -1 1336 3319 4 MP
PP
0 sg
-87 0 0 1 87 0 0 -1 1336 3319 5 MP stroke
c8
0 3 87 0 0 -3 1423 3319 4 MP
PP
0 sg
-87 0 0 3 87 0 0 -3 1423 3319 5 MP stroke
c8
0 5 88 0 0 -5 1510 3319 4 MP
PP
0 sg
-88 0 0 5 88 0 0 -5 1510 3319 5 MP stroke
c8
0 10 87 0 0 -10 1598 3319 4 MP
PP
0 sg
-87 0 0 10 87 0 0 -10 1598 3319 5 MP stroke
c8
0 8 87 0 0 -8 1685 3319 4 MP
PP
0 sg
-87 0 0 8 87 0 0 -8 1685 3319 5 MP stroke
c8
0 6 87 0 0 -6 1772 3319 4 MP
PP
0 sg
-87 0 0 6 87 0 0 -6 1772 3319 5 MP stroke
c8
0 14 88 0 0 -14 1859 3319 4 MP
PP
0 sg
-88 0 0 14 88 0 0 -14 1859 3319 5 MP stroke
c8
0 14 87 0 0 -14 1947 3319 4 MP
PP
0 sg
-87 0 0 14 87 0 0 -14 1947 3319 5 MP stroke
c8
0 25 87 0 0 -25 2034 3319 4 MP
PP
0 sg
-87 0 0 25 87 0 0 -25 2034 3319 5 MP stroke
c8
0 45 87 0 0 -45 2121 3319 4 MP
PP
0 sg
-87 0 0 45 87 0 0 -45 2121 3319 5 MP stroke
c8
0 55 88 0 0 -55 2208 3319 4 MP
PP
0 sg
-88 0 0 55 88 0 0 -55 2208 3319 5 MP stroke
c8
0 54 87 0 0 -54 2296 3319 4 MP
PP
0 sg
-87 0 0 54 87 0 0 -54 2296 3319 5 MP stroke
c8
0 80 87 0 0 -80 2383 3319 4 MP
PP
0 sg
-87 0 0 80 87 0 0 -80 2383 3319 5 MP stroke
c8
0 90 88 0 0 -90 2470 3319 4 MP
PP
0 sg
-88 0 0 90 88 0 0 -90 2470 3319 5 MP stroke
c8
0 81 87 0 0 -81 2558 3319 4 MP
PP
0 sg
-87 0 0 81 87 0 0 -81 2558 3319 5 MP stroke
c8
0 130 87 0 0 -130 2645 3319 4 MP
PP
0 sg
-87 0 0 130 87 0 0 -130 2645 3319 5 MP stroke
c8
0 150 87 0 0 -150 2732 3319 4 MP
PP
0 sg
-87 0 0 150 87 0 0 -150 2732 3319 5 MP stroke
c8
0 139 88 0 0 -139 2819 3319 4 MP
PP
0 sg
-88 0 0 139 88 0 0 -139 2819 3319 5 MP stroke
c8
0 197 87 0 0 -197 2907 3319 4 MP
PP
0 sg
-87 0 0 197 87 0 0 -197 2907 3319 5 MP stroke
c8
0 324 87 0 0 -324 2994 3319 4 MP
PP
0 sg
-87 0 0 324 87 0 0 -324 2994 3319 5 MP stroke
c8
0 446 87 0 0 -446 3081 3319 4 MP
PP
0 sg
-87 0 0 446 87 0 0 -446 3081 3319 5 MP stroke
c8
0 339 88 0 0 -339 3168 3319 4 MP
PP
0 sg
-88 0 0 339 88 0 0 -339 3168 3319 5 MP stroke
c8
0 140 87 0 0 -140 3256 3319 4 MP
PP
0 sg
-87 0 0 140 87 0 0 -140 3256 3319 5 MP stroke
c8
0 28 87 0 0 -28 3343 3319 4 MP
PP
0 sg
-87 0 0 28 87 0 0 -28 3343 3319 5 MP stroke
c8
0 4 87 0 0 -4 3430 3319 4 MP
PP
0 sg
-87 0 0 4 87 0 0 -4 3430 3319 5 MP stroke
2538 0 986 3319 2 MP stroke
gr

%%IncludeResource: font Helvetica
/Helvetica /ISOLatin1Encoding 144 FMSR

2003 3591 mt 
(log) s
%%IncludeResource: font Helvetica
/Helvetica /ISOLatin1Encoding 108 FMSR

2195 3663 mt 
(10) s
%%IncludeResource: font Helvetica
/Helvetica /ISOLatin1Encoding 144 FMSR

2315 3591 mt 
(\(K\)) s
%%IncludeResource: font Helvetica
/Helvetica /ISOLatin1Encoding 108 FMSR

 739 3393 mt  -90 rotate
(Posterior density) s
90 rotate
gs 986 2665 2539 655 rc
c9
0 -654 1592 3319 2 MP stroke
gr

c9
1 sg
0 654 2538 0 0 -654 4325 3319 4 MP
PP
-2538 0 0 654 2538 0 0 -654 4325 3319 5 MP stroke
4 w
DO
SO
6 w
0 sg
4325 3319 mt 6863 3319 L
4325 2665 mt 6863 2665 L
4325 3319 mt 4325 2665 L
6863 3319 mt 6863 2665 L
4325 3319 mt 6863 3319 L
4325 3319 mt 4325 2665 L
4325 3319 mt 4325 3293 L
4325 2665 mt 4325 2690 L
%%IncludeResource: font Helvetica
/Helvetica /ISOLatin1Encoding 120 FMSR

4292 3464 mt 
(0) s
4959 3319 mt 4959 3293 L
4959 2665 mt 4959 2690 L
4876 3464 mt 
(0.1) s
5594 3319 mt 5594 3293 L
5594 2665 mt 5594 2690 L
5511 3464 mt 
(0.2) s
6228 3319 mt 6228 3293 L
6228 2665 mt 6228 2690 L
6145 3464 mt 
(0.3) s
6863 3319 mt 6863 3293 L
6863 2665 mt 6863 2690 L
6780 3464 mt 
(0.4) s
4325 3319 mt 4350 3319 L
6863 3319 mt 6837 3319 L
4224 3363 mt 
(0) s
4325 2992 mt 4350 2992 L
6863 2992 mt 6837 2992 L
4224 3036 mt 
(5) s
4325 2665 mt 4350 2665 L
6863 2665 mt 6837 2665 L
4157 2709 mt 
(10) s
4325 3319 mt 6863 3319 L
4325 2665 mt 6863 2665 L
4325 3319 mt 4325 2665 L
6863 3319 mt 6863 2665 L
gs 4325 2665 2539 655 rc
c8
0 620 101 0 0 -620 4341 3319 4 MP
PP
0 sg
-101 0 0 620 101 0 0 -620 4341 3319 5 MP stroke
c8
0 402 101 0 0 -402 4442 3319 4 MP
PP
0 sg
-101 0 0 402 101 0 0 -402 4442 3319 5 MP stroke
c8
0 284 101 0 0 -284 4543 3319 4 MP
PP
0 sg
-101 0 0 284 101 0 0 -284 4543 3319 5 MP stroke
c8
0 217 101 0 0 -217 4644 3319 4 MP
PP
0 sg
-101 0 0 217 101 0 0 -217 4644 3319 5 MP stroke
c8
0 231 100 0 0 -231 4745 3319 4 MP
PP
0 sg
-100 0 0 231 100 0 0 -231 4745 3319 5 MP stroke
c8
0 147 101 0 0 -147 4845 3319 4 MP
PP
0 sg
-101 0 0 147 101 0 0 -147 4845 3319 5 MP stroke
c8
0 161 101 0 0 -161 4946 3319 4 MP
PP
0 sg
-101 0 0 161 101 0 0 -161 4946 3319 5 MP stroke
c8
0 140 101 0 0 -140 5047 3319 4 MP
PP
0 sg
-101 0 0 140 101 0 0 -140 5047 3319 5 MP stroke
c8
0 138 101 0 0 -138 5148 3319 4 MP
PP
0 sg
-101 0 0 138 101 0 0 -138 5148 3319 5 MP stroke
c8
0 131 100 0 0 -131 5249 3319 4 MP
PP
0 sg
-100 0 0 131 100 0 0 -131 5249 3319 5 MP stroke
c8
0 128 101 0 0 -128 5349 3319 4 MP
PP
0 sg
-101 0 0 128 101 0 0 -128 5349 3319 5 MP stroke
c8
0 117 101 0 0 -117 5450 3319 4 MP
PP
0 sg
-101 0 0 117 101 0 0 -117 5450 3319 5 MP stroke
c8
0 125 101 0 0 -125 5551 3319 4 MP
PP
0 sg
-101 0 0 125 101 0 0 -125 5551 3319 5 MP stroke
c8
0 125 101 0 0 -125 5652 3319 4 MP
PP
0 sg
-101 0 0 125 101 0 0 -125 5652 3319 5 MP stroke
c8
0 109 101 0 0 -109 5753 3319 4 MP
PP
0 sg
-101 0 0 109 101 0 0 -109 5753 3319 5 MP stroke
c8
0 111 100 0 0 -111 5854 3319 4 MP
PP
0 sg
-100 0 0 111 100 0 0 -111 5854 3319 5 MP stroke
c8
0 109 101 0 0 -109 5954 3319 4 MP
PP
0 sg
-101 0 0 109 101 0 0 -109 5954 3319 5 MP stroke
c8
0 104 101 0 0 -104 6055 3319 4 MP
PP
0 sg
-101 0 0 104 101 0 0 -104 6055 3319 5 MP stroke
c8
0 123 101 0 0 -123 6156 3319 4 MP
PP
0 sg
-101 0 0 123 101 0 0 -123 6156 3319 5 MP stroke
c8
0 94 101 0 0 -94 6257 3319 4 MP
PP
0 sg
-101 0 0 94 101 0 0 -94 6257 3319 5 MP stroke
c8
0 99 101 0 0 -99 6358 3319 4 MP
PP
0 sg
-101 0 0 99 101 0 0 -99 6358 3319 5 MP stroke
c8
0 99 100 0 0 -99 6459 3319 4 MP
PP
0 sg
-100 0 0 99 100 0 0 -99 6459 3319 5 MP stroke
c8
0 112 101 0 0 -112 6559 3319 4 MP
PP
0 sg
-101 0 0 112 101 0 0 -112 6559 3319 5 MP stroke
c8
0 102 101 0 0 -102 6660 3319 4 MP
PP
0 sg
-101 0 0 102 101 0 0 -102 6660 3319 5 MP stroke
c8
0 99 101 0 0 -99 6761 3319 4 MP
PP
0 sg
-101 0 0 99 101 0 0 -99 6761 3319 5 MP stroke
2538 0 4325 3319 2 MP stroke
gr

%%IncludeResource: font Helvetica
/Helvetica /ISOLatin1Encoding 144 FMSR

5518 3591 mt 
(S) s
%%IncludeResource: font Helvetica
/Helvetica /ISOLatin1Encoding 108 FMSR

5614 3663 mt 
(y) s
4078 3393 mt  -90 rotate
(Posterior density) s
90 rotate
gs 4325 2665 2539 655 rc
c9
0 -654 4583 3319 2 MP stroke
gr

c9
1 sg
0 654 2538 0 0 -654 986 4457 4 MP
PP
-2538 0 0 654 2538 0 0 -654 986 4457 5 MP stroke
4 w
DO
SO
6 w
0 sg
 986 4457 mt 3524 4457 L
 986 3803 mt 3524 3803 L
 986 4457 mt  986 3803 L
3524 4457 mt 3524 3803 L
 986 4457 mt 3524 4457 L
 986 4457 mt  986 3803 L
 986 4457 mt  986 4431 L
 986 3803 mt  986 3828 L
%%IncludeResource: font Helvetica
/Helvetica /ISOLatin1Encoding 120 FMSR

 953 4602 mt 
(0) s
1376 4457 mt 1376 4431 L
1376 3803 mt 1376 3828 L
1343 4602 mt 
(1) s
1766 4457 mt 1766 4431 L
1766 3803 mt 1766 3828 L
1733 4602 mt 
(2) s
2157 4457 mt 2157 4431 L
2157 3803 mt 2157 3828 L
2124 4602 mt 
(3) s
2547 4457 mt 2547 4431 L
2547 3803 mt 2547 3828 L
2514 4602 mt 
(4) s
2938 4457 mt 2938 4431 L
2938 3803 mt 2938 3828 L
2905 4602 mt 
(5) s
3328 4457 mt 3328 4431 L
3328 3803 mt 3328 3828 L
3295 4602 mt 
(6) s
 986 4457 mt 1011 4457 L
3524 4457 mt 3498 4457 L
 885 4501 mt 
(0) s
 986 4130 mt 1011 4130 L
3524 4130 mt 3498 4130 L
 885 4174 mt 
(2) s
 986 3803 mt 1011 3803 L
3524 3803 mt 3498 3803 L
 885 3847 mt 
(4) s
 986 4457 mt 3524 4457 L
 986 3803 mt 3524 3803 L
 986 4457 mt  986 3803 L
3524 4457 mt 3524 3803 L
gs 986 3803 2539 655 rc
c8
0 1 16 0 0 -1 3107 4457 4 MP
PP
0 sg
-16 0 0 1 16 0 0 -1 3107 4457 5 MP stroke
c8
0 1 16 0 0 -1 3123 4457 4 MP
PP
0 sg
-16 0 0 1 16 0 0 -1 3123 4457 5 MP stroke
c8
0 3 15 0 0 -3 3139 4457 4 MP
PP
0 sg
-15 0 0 3 15 0 0 -3 3139 4457 5 MP stroke
c8
0 8 16 0 0 -8 3154 4457 4 MP
PP
0 sg
-16 0 0 8 16 0 0 -8 3154 4457 5 MP stroke
c8
0 17 16 0 0 -17 3170 4457 4 MP
PP
0 sg
-16 0 0 17 16 0 0 -17 3170 4457 5 MP stroke
c8
0 34 16 0 0 -34 3186 4457 4 MP
PP
0 sg
-16 0 0 34 16 0 0 -34 3186 4457 5 MP stroke
c8
0 57 16 0 0 -57 3202 4457 4 MP
PP
0 sg
-16 0 0 57 16 0 0 -57 3202 4457 5 MP stroke
c8
0 94 16 0 0 -94 3218 4457 4 MP
PP
0 sg
-16 0 0 94 16 0 0 -94 3218 4457 5 MP stroke
c8
0 169 16 0 0 -169 3234 4457 4 MP
PP
0 sg
-16 0 0 169 16 0 0 -169 3234 4457 5 MP stroke
c8
0 243 15 0 0 -243 3250 4457 4 MP
PP
0 sg
-15 0 0 243 15 0 0 -243 3250 4457 5 MP stroke
c8
0 283 16 0 0 -283 3265 4457 4 MP
PP
0 sg
-16 0 0 283 16 0 0 -283 3265 4457 5 MP stroke
c8
0 429 16 0 0 -429 3281 4457 4 MP
PP
0 sg
-16 0 0 429 16 0 0 -429 3281 4457 5 MP stroke
c8
0 506 16 0 0 -506 3297 4457 4 MP
PP
0 sg
-16 0 0 506 16 0 0 -506 3297 4457 5 MP stroke
c8
0 537 16 0 0 -537 3313 4457 4 MP
PP
0 sg
-16 0 0 537 16 0 0 -537 3313 4457 5 MP stroke
c8
0 480 16 0 0 -480 3329 4457 4 MP
PP
0 sg
-16 0 0 480 16 0 0 -480 3329 4457 5 MP stroke
c8
0 385 16 0 0 -385 3345 4457 4 MP
PP
0 sg
-16 0 0 385 16 0 0 -385 3345 4457 5 MP stroke
c8
0 314 15 0 0 -314 3361 4457 4 MP
PP
0 sg
-15 0 0 314 15 0 0 -314 3361 4457 5 MP stroke
c8
0 204 16 0 0 -204 3376 4457 4 MP
PP
0 sg
-16 0 0 204 16 0 0 -204 3376 4457 5 MP stroke
c8
0 133 16 0 0 -133 3392 4457 4 MP
PP
0 sg
-16 0 0 133 16 0 0 -133 3392 4457 5 MP stroke
c8
0 76 16 0 0 -76 3408 4457 4 MP
PP
0 sg
-16 0 0 76 16 0 0 -76 3408 4457 5 MP stroke
c8
0 30 16 0 0 -30 3424 4457 4 MP
PP
0 sg
-16 0 0 30 16 0 0 -30 3424 4457 5 MP stroke
c8
0 22 16 0 0 -22 3440 4457 4 MP
PP
0 sg
-16 0 0 22 16 0 0 -22 3440 4457 5 MP stroke
c8
0 4 16 0 0 -4 3456 4457 4 MP
PP
0 sg
-16 0 0 4 16 0 0 -4 3456 4457 5 MP stroke
c8
0 3 15 0 0 -3 3472 4457 4 MP
PP
0 sg
-15 0 0 3 15 0 0 -3 3472 4457 5 MP stroke
c8
0 4 16 0 0 -4 3487 4457 4 MP
PP
0 sg
-16 0 0 4 16 0 0 -4 3487 4457 5 MP stroke
2538 0 986 4457 2 MP stroke
gr

%%IncludeResource: font Helvetica
/Helvetica /ISOLatin1Encoding 144 FMSR

2082 4729 mt 
(L) s
%%IncludeResource: font Helvetica
/Helvetica /ISOLatin1Encoding 108 FMSR

2162 4801 mt 
(e,obs) s
 806 4531 mt  -90 rotate
(Posterior density) s
90 rotate
gs 986 3803 2539 655 rc
c9
0 -654 993 4457 2 MP stroke
gr

c9
1 sg
0 654 2538 0 0 -654 4325 4457 4 MP
PP
-2538 0 0 654 2538 0 0 -654 4325 4457 5 MP stroke
4 w
DO
SO
6 w
0 sg
4325 4457 mt 6863 4457 L
4325 3803 mt 6863 3803 L
4325 4457 mt 4325 3803 L
6863 4457 mt 6863 3803 L
4325 4457 mt 6863 4457 L
4325 4457 mt 4325 3803 L
4325 4457 mt 4325 4431 L
4325 3803 mt 4325 3828 L
%%IncludeResource: font Helvetica
/Helvetica /ISOLatin1Encoding 120 FMSR

4292 4602 mt 
(0) s
4687 4457 mt 4687 4431 L
4687 3803 mt 4687 3828 L
4654 4602 mt 
(2) s
5050 4457 mt 5050 4431 L
5050 3803 mt 5050 3828 L
5017 4602 mt 
(4) s
5412 4457 mt 5412 4431 L
5412 3803 mt 5412 3828 L
5379 4602 mt 
(6) s
5775 4457 mt 5775 4431 L
5775 3803 mt 5775 3828 L
5742 4602 mt 
(8) s
6137 4457 mt 6137 4431 L
6137 3803 mt 6137 3828 L
6071 4602 mt 
(10) s
6500 4457 mt 6500 4431 L
6500 3803 mt 6500 3828 L
6434 4602 mt 
(12) s
6863 4457 mt 6863 4431 L
6863 3803 mt 6863 3828 L
6797 4602 mt 
(14) s
4325 4457 mt 4350 4457 L
6863 4457 mt 6837 4457 L
4224 4501 mt 
(0) s
4325 4130 mt 4350 4130 L
6863 4130 mt 6837 4130 L
4124 4174 mt 
(0.5) s
4325 3803 mt 4350 3803 L
6863 3803 mt 6837 3803 L
4224 3847 mt 
(1) s
4325 4457 mt 6863 4457 L
4325 3803 mt 6863 3803 L
4325 4457 mt 4325 3803 L
6863 4457 mt 6863 3803 L
gs 4325 3803 2539 655 rc
c8
0 1 50 0 0 -1 5519 4457 4 MP
PP
0 sg
-50 0 0 1 50 0 0 -1 5519 4457 5 MP stroke
c8
0 2 51 0 0 -2 5569 4457 4 MP
PP
0 sg
-51 0 0 2 51 0 0 -2 5569 4457 5 MP stroke
c8
0 7 50 0 0 -7 5620 4457 4 MP
PP
0 sg
-50 0 0 7 50 0 0 -7 5620 4457 5 MP stroke
c8
0 17 51 0 0 -17 5670 4457 4 MP
PP
0 sg
-51 0 0 17 51 0 0 -17 5670 4457 5 MP stroke
c8
0 42 51 0 0 -42 5721 4457 4 MP
PP
0 sg
-51 0 0 42 51 0 0 -42 5721 4457 5 MP stroke
c8
0 65 50 0 0 -65 5772 4457 4 MP
PP
0 sg
-50 0 0 65 50 0 0 -65 5772 4457 5 MP stroke
c8
0 120 51 0 0 -120 5822 4457 4 MP
PP
0 sg
-51 0 0 120 51 0 0 -120 5822 4457 5 MP stroke
c8
0 182 50 0 0 -182 5873 4457 4 MP
PP
0 sg
-50 0 0 182 50 0 0 -182 5873 4457 5 MP stroke
c8
0 235 51 0 0 -235 5923 4457 4 MP
PP
0 sg
-51 0 0 235 51 0 0 -235 5923 4457 5 MP stroke
c8
0 310 50 0 0 -310 5974 4457 4 MP
PP
0 sg
-50 0 0 310 50 0 0 -310 5974 4457 5 MP stroke
c8
0 339 51 0 0 -339 6024 4457 4 MP
PP
0 sg
-51 0 0 339 51 0 0 -339 6024 4457 5 MP stroke
c8
0 262 50 0 0 -262 6075 4457 4 MP
PP
0 sg
-50 0 0 262 50 0 0 -262 6075 4457 5 MP stroke
c8
0 266 51 0 0 -266 6125 4457 4 MP
PP
0 sg
-51 0 0 266 51 0 0 -266 6125 4457 5 MP stroke
c8
0 186 50 0 0 -186 6176 4457 4 MP
PP
0 sg
-50 0 0 186 50 0 0 -186 6176 4457 5 MP stroke
c8
0 124 51 0 0 -124 6226 4457 4 MP
PP
0 sg
-51 0 0 124 51 0 0 -124 6226 4457 5 MP stroke
c8
0 93 50 0 0 -93 6277 4457 4 MP
PP
0 sg
-50 0 0 93 50 0 0 -93 6277 4457 5 MP stroke
c8
0 54 51 0 0 -54 6327 4457 4 MP
PP
0 sg
-51 0 0 54 51 0 0 -54 6327 4457 5 MP stroke
c8
0 31 50 0 0 -31 6378 4457 4 MP
PP
0 sg
-50 0 0 31 50 0 0 -31 6378 4457 5 MP stroke
c8
0 13 51 0 0 -13 6428 4457 4 MP
PP
0 sg
-51 0 0 13 51 0 0 -13 6428 4457 5 MP stroke
c8
0 4 50 0 0 -4 6479 4457 4 MP
PP
0 sg
-50 0 0 4 50 0 0 -4 6479 4457 5 MP stroke
c8
0 2 51 0 0 -2 6529 4457 4 MP
PP
0 sg
-51 0 0 2 51 0 0 -2 6529 4457 5 MP stroke
c8
0 2 50 0 0 -2 6580 4457 4 MP
PP
0 sg
-50 0 0 2 50 0 0 -2 6580 4457 5 MP stroke
c8
0 1 51 0 0 -1 6630 4457 4 MP
PP
0 sg
-51 0 0 1 51 0 0 -1 6630 4457 5 MP stroke
c8
0 0 50 0 0 0 6681 4457 4 MP
PP
0 sg
-50 0 0 0 50 0 0 0 6681 4457 5 MP stroke
c8
0 1 51 0 0 -1 6731 4457 4 MP
PP
0 sg
-51 0 0 1 51 0 0 -1 6731 4457 5 MP stroke
2538 0 4325 4457 2 MP stroke
gr

%%IncludeResource: font Helvetica
/Helvetica /ISOLatin1Encoding 144 FMSR

5466 4729 mt 
(L) s
%%IncludeResource: font Helvetica
/Helvetica /ISOLatin1Encoding 108 FMSR

5546 4801 mt 
(obs) s
4045 4531 mt  -90 rotate
(Posterior density) s
90 rotate
gs 4325 3803 2539 655 rc
c9
0 -654 5062 4457 2 MP stroke
gr

c9

end %%Color Dict

eplot
%%EndObject

epage
end

showpage

%%Trailer
%%EOF
