%!PS-Adobe-3.0 EPSF-3.0
%%Creator: MATLAB, The Mathworks, Inc. Version 7.9.0.529 (R2009b). Operating System: Linux 3.16.0-49-generic #65~14.04.1-Ubuntu SMP Wed Sep 9 10:03:23 UTC 2015 x86_64.
%%Title: ./P13MC15-finite-fixed-shift2-horsetail.eps
%%CreationDate: 09/22/2015  13:51:48
%%DocumentNeededFonts: Helvetica
%%DocumentProcessColors: Cyan Magenta Yellow Black
%%LanguageLevel: 2
%%Pages: 1
%%BoundingBox:    40    83   559   709
%%EndComments

%%BeginProlog
% MathWorks dictionary
/MathWorks 160 dict begin
% definition operators
/bdef {bind def} bind def
/ldef {load def} bind def
/xdef {exch def} bdef
/xstore {exch store} bdef
% operator abbreviations
/c  /clip ldef
/cc /concat ldef
/cp /closepath ldef
/gr /grestore ldef
/gs /gsave ldef
/mt /moveto ldef
/np /newpath ldef
/cm /currentmatrix ldef
/sm /setmatrix ldef
/rm /rmoveto ldef
/rl /rlineto ldef
/s {show newpath} bdef
/sc {setcmykcolor} bdef
/sr /setrgbcolor ldef
/sg /setgray ldef
/w /setlinewidth ldef
/j /setlinejoin ldef
/cap /setlinecap ldef
/rc {rectclip} bdef
/rf {rectfill} bdef
% page state control
/pgsv () def
/bpage {/pgsv save def} bdef
/epage {pgsv restore} bdef
/bplot /gsave ldef
/eplot {stroke grestore} bdef
% orientation switch
/portraitMode 0 def /landscapeMode 1 def /rotateMode 2 def
% coordinate system mappings
/dpi2point 0 def
% font control
/FontSize 0 def
/FMS {/FontSize xstore findfont [FontSize 0 0 FontSize neg 0 0]
  makefont setfont} bdef
/reencode {exch dup where {pop load} {pop StandardEncoding} ifelse
  exch dup 3 1 roll findfont dup length dict begin
  { 1 index /FID ne {def}{pop pop} ifelse } forall
  /Encoding exch def currentdict end definefont pop} bdef
/isroman {findfont /CharStrings get /Agrave known} bdef
/FMSR {3 1 roll 1 index dup isroman {reencode} {pop pop} ifelse
  exch FMS} bdef
/csm {1 dpi2point div -1 dpi2point div scale neg translate
 dup landscapeMode eq {pop -90 rotate}
  {rotateMode eq {90 rotate} if} ifelse} bdef
% line types: solid, dotted, dashed, dotdash
/SO { [] 0 setdash } bdef
/DO { [.5 dpi2point mul 4 dpi2point mul] 0 setdash } bdef
/DA { [6 dpi2point mul] 0 setdash } bdef
/DD { [.5 dpi2point mul 4 dpi2point mul 6 dpi2point mul 4
  dpi2point mul] 0 setdash } bdef
% macros for lines and objects
/L {lineto stroke} bdef
/MP {3 1 roll moveto 1 sub {rlineto} repeat} bdef
/AP {{rlineto} repeat} bdef
/PDlw -1 def
/W {/PDlw currentlinewidth def setlinewidth} def
/PP {closepath eofill} bdef
/DP {closepath stroke} bdef
/MR {4 -2 roll moveto dup  0 exch rlineto exch 0 rlineto
  neg 0 exch rlineto closepath} bdef
/FR {MR stroke} bdef
/PR {MR fill} bdef
/L1i {{currentfile picstr readhexstring pop} image} bdef
/tMatrix matrix def
/MakeOval {newpath tMatrix currentmatrix pop translate scale
0 0 1 0 360 arc tMatrix setmatrix} bdef
/FO {MakeOval stroke} bdef
/PO {MakeOval fill} bdef
/PD {currentlinewidth 2 div 0 360 arc fill
   PDlw -1 eq not {PDlw w /PDlw -1 def} if} def
/FA {newpath tMatrix currentmatrix pop translate scale
  0 0 1 5 -2 roll arc tMatrix setmatrix stroke} bdef
/PA {newpath tMatrix currentmatrix pop	translate 0 0 moveto scale
  0 0 1 5 -2 roll arc closepath tMatrix setmatrix fill} bdef
/FAn {newpath tMatrix currentmatrix pop translate scale
  0 0 1 5 -2 roll arcn tMatrix setmatrix stroke} bdef
/PAn {newpath tMatrix currentmatrix pop translate 0 0 moveto scale
  0 0 1 5 -2 roll arcn closepath tMatrix setmatrix fill} bdef
/vradius 0 def /hradius 0 def /lry 0 def
/lrx 0 def /uly 0 def /ulx 0 def /rad 0 def
/MRR {/vradius xdef /hradius xdef /lry xdef /lrx xdef /uly xdef
  /ulx xdef newpath tMatrix currentmatrix pop ulx hradius add uly
  vradius add translate hradius vradius scale 0 0 1 180 270 arc 
  tMatrix setmatrix lrx hradius sub uly vradius add translate
  hradius vradius scale 0 0 1 270 360 arc tMatrix setmatrix
  lrx hradius sub lry vradius sub translate hradius vradius scale
  0 0 1 0 90 arc tMatrix setmatrix ulx hradius add lry vradius sub
  translate hradius vradius scale 0 0 1 90 180 arc tMatrix setmatrix
  closepath} bdef
/FRR {MRR stroke } bdef
/PRR {MRR fill } bdef
/MlrRR {/lry xdef /lrx xdef /uly xdef /ulx xdef /rad lry uly sub 2 div def
  newpath tMatrix currentmatrix pop ulx rad add uly rad add translate
  rad rad scale 0 0 1 90 270 arc tMatrix setmatrix lrx rad sub lry rad
  sub translate rad rad scale 0 0 1 270 90 arc tMatrix setmatrix
  closepath} bdef
/FlrRR {MlrRR stroke } bdef
/PlrRR {MlrRR fill } bdef
/MtbRR {/lry xdef /lrx xdef /uly xdef /ulx xdef /rad lrx ulx sub 2 div def
  newpath tMatrix currentmatrix pop ulx rad add uly rad add translate
  rad rad scale 0 0 1 180 360 arc tMatrix setmatrix lrx rad sub lry rad
  sub translate rad rad scale 0 0 1 0 180 arc tMatrix setmatrix
  closepath} bdef
/FtbRR {MtbRR stroke } bdef
/PtbRR {MtbRR fill } bdef
/stri 6 array def /dtri 6 array def
/smat 6 array def /dmat 6 array def
/tmat1 6 array def /tmat2 6 array def /dif 3 array def
/asub {/ind2 exch def /ind1 exch def dup dup
  ind1 get exch ind2 get sub exch } bdef
/tri_to_matrix {
  2 0 asub 3 1 asub 4 0 asub 5 1 asub
  dup 0 get exch 1 get 7 -1 roll astore } bdef
/compute_transform {
  dmat dtri tri_to_matrix tmat1 invertmatrix 
  smat stri tri_to_matrix tmat2 concatmatrix } bdef
/ds {stri astore pop} bdef
/dt {dtri astore pop} bdef
/db {2 copy /cols xdef /rows xdef mul dup 3 mul string
  currentfile 
  3 index 0 eq {/ASCIIHexDecode filter}
  {/ASCII85Decode filter 3 index 2 eq {/RunLengthDecode filter} if }
  ifelse exch readstring pop
  dup 0 3 index getinterval /rbmap xdef
  dup 2 index dup getinterval /gbmap xdef
  1 index dup 2 mul exch getinterval /bbmap xdef pop pop}bdef
/it {gs np dtri aload pop moveto lineto lineto cp c
  cols rows 8 compute_transform 
  rbmap gbmap bbmap true 3 colorimage gr}bdef
/il {newpath moveto lineto stroke}bdef
currentdict end def
%%EndProlog

%%BeginSetup
MathWorks begin

0 cap

end
%%EndSetup

%%Page: 1 1
%%BeginPageSetup
%%PageBoundingBox:    40    83   559   709
MathWorks begin
bpage
%%EndPageSetup

%%BeginObject: obj1
bplot

/dpi2point 12 def
landscapeMode 0216 0216 csm

  790   268  7506  6224 rc
86 dict begin %Colortable dictionary
/c0 { 0.000000 0.000000 0.000000 sr} bdef
/c1 { 1.000000 1.000000 1.000000 sr} bdef
/c2 { 0.900000 0.000000 0.000000 sr} bdef
/c3 { 0.000000 0.820000 0.000000 sr} bdef
/c4 { 0.000000 0.000000 0.800000 sr} bdef
/c5 { 0.910000 0.820000 0.320000 sr} bdef
/c6 { 1.000000 0.260000 0.820000 sr} bdef
/c7 { 0.000000 0.820000 0.820000 sr} bdef
c0
1 j
1 sg
   0    0 9073 6913 rf
6 w
0 5634 7032 0 0 -5634 1178 6152 4 MP
PP
-7032 0 0 5634 7032 0 0 -5634 1178 6152 5 MP stroke
4 w
DO
0 sg
1178 6152 mt 1178  518 L
1178  518 mt 1178  518 L
2006 6152 mt 2006  518 L
2006  518 mt 2006  518 L
2833 6152 mt 2833  518 L
2833  518 mt 2833  518 L
3660 6152 mt 3660  518 L
3660  518 mt 3660  518 L
4487 6152 mt 4487  518 L
4487  518 mt 4487  518 L
5314 6152 mt 5314  518 L
5314  518 mt 5314  518 L
6142 6152 mt 6142  518 L
6142  518 mt 6142  518 L
6969 6152 mt 6969  518 L
6969  518 mt 6969  518 L
7796 6152 mt 7796  518 L
7796  518 mt 7796  518 L
1178 6152 mt 8210 6152 L
8210 6152 mt 8210 6152 L
1178 5639 mt 8210 5639 L
8210 5639 mt 8210 5639 L
1178 5127 mt 8210 5127 L
8210 5127 mt 8210 5127 L
1178 4615 mt 8210 4615 L
8210 4615 mt 8210 4615 L
1178 4103 mt 8210 4103 L
8210 4103 mt 8210 4103 L
1178 3591 mt 8210 3591 L
8210 3591 mt 8210 3591 L
1178 3078 mt 8210 3078 L
8210 3078 mt 8210 3078 L
1178 2566 mt 8210 2566 L
8210 2566 mt 8210 2566 L
1178 2054 mt 8210 2054 L
8210 2054 mt 8210 2054 L
1178 1542 mt 8210 1542 L
8210 1542 mt 8210 1542 L
1178 1030 mt 8210 1030 L
8210 1030 mt 8210 1030 L
1178  518 mt 8210  518 L
8210  518 mt 8210  518 L
SO
6 w
1178 6152 mt 8210 6152 L
1178  518 mt 8210  518 L
1178 6152 mt 1178  518 L
8210 6152 mt 8210  518 L
1178 6152 mt 8210 6152 L
1178 6152 mt 1178  518 L
1178 6152 mt 1178 6081 L
1178  518 mt 1178  588 L
%%IncludeResource: font Helvetica
/Helvetica /ISOLatin1Encoding 120 FMSR

1145 6297 mt 
(0) s
2006 6152 mt 2006 6081 L
2006  518 mt 2006  588 L
1973 6297 mt 
(2) s
2833 6152 mt 2833 6081 L
2833  518 mt 2833  588 L
2800 6297 mt 
(4) s
3660 6152 mt 3660 6081 L
3660  518 mt 3660  588 L
3627 6297 mt 
(6) s
4487 6152 mt 4487 6081 L
4487  518 mt 4487  588 L
4454 6297 mt 
(8) s
5314 6152 mt 5314 6081 L
5314  518 mt 5314  588 L
5248 6297 mt 
(10) s
6142 6152 mt 6142 6081 L
6142  518 mt 6142  588 L
6076 6297 mt 
(12) s
6969 6152 mt 6969 6081 L
6969  518 mt 6969  588 L
6903 6297 mt 
(14) s
7796 6152 mt 7796 6081 L
7796  518 mt 7796  588 L
7730 6297 mt 
(16) s
1178 6152 mt 1249 6152 L
8210 6152 mt 8139 6152 L
1008 6196 mt 
(-4) s
1178 5639 mt 1249 5639 L
8210 5639 mt 8139 5639 L
1008 5683 mt 
(-3) s
1178 5127 mt 1249 5127 L
8210 5127 mt 8139 5127 L
1008 5171 mt 
(-2) s
1178 4615 mt 1249 4615 L
8210 4615 mt 8139 4615 L
1008 4659 mt 
(-1) s
1178 4103 mt 1249 4103 L
8210 4103 mt 8139 4103 L
1078 4147 mt 
(0) s
1178 3591 mt 1249 3591 L
8210 3591 mt 8139 3591 L
1078 3635 mt 
(1) s
1178 3078 mt 1249 3078 L
8210 3078 mt 8139 3078 L
1078 3122 mt 
(2) s
1178 2566 mt 1249 2566 L
8210 2566 mt 8139 2566 L
1078 2610 mt 
(3) s
1178 2054 mt 1249 2054 L
8210 2054 mt 8139 2054 L
1078 2098 mt 
(4) s
1178 1542 mt 1249 1542 L
8210 1542 mt 8139 1542 L
1078 1586 mt 
(5) s
1178 1030 mt 1249 1030 L
8210 1030 mt 8139 1030 L
1078 1074 mt 
(6) s
1178  518 mt 1249  518 L
8210  518 mt 8139  518 L
1078  562 mt 
(7) s
1178  464 mt 
(x 10) s
%%IncludeResource: font Helvetica
/Helvetica /ISOLatin1Encoding 80 FMSR

1404  390 mt 
(-3) s
1178 6152 mt 8210 6152 L
1178  518 mt 8210  518 L
1178 6152 mt 1178  518 L
8210 6152 mt 8210  518 L
gs 1179 518 7032 5635 rc
9 1 102 14 102 15 101 13 102 8 102 1 102 -7 102 -15 
101 -22 102 -24 102 -24 102 -18 101 -9 102 4 102 17 102 30 
102 38 101 40 102 36 102 24 102 7 102 -15 101 -37 102 -56 
102 -65 102 -63 102 -52 101 -30 102 1 102 38 102 76 101 102 
102 110 102 96 102 68 102 29 101 -22 102 -82 102 -144 102 -184 
102 -184 101 -140 102 -73 102 -5 102 65 102 155 101 257 102 331 
102 313 102 196 101 36 102 -85 102 -156 102 -251 102 -421 101 -587 
102 -570 102 -282 102 125 102 371 101 358 102 320 102 558 102 1009 
102 1147 101 529 102 -568 102 -1241 102 -920 101 -182 1179 4103 71 MP stroke
9 2 102 12 102 8 101 4 102 -4 102 -10 102 -17 102 -21 
101 -22 102 -20 102 -13 102 -3 101 8 102 20 102 31 102 36 
102 37 101 31 102 19 102 2 102 -18 102 -38 101 -54 102 -63 
102 -61 102 -49 102 -27 101 4 102 38 102 71 102 95 101 107 
102 101 102 76 102 34 102 -18 101 -75 102 -130 102 -170 102 -182 
102 -161 101 -113 102 -43 102 45 102 149 102 245 101 300 102 294 
102 247 102 176 101 66 102 -109 102 -319 102 -466 102 -482 101 -431 
102 -403 102 -353 102 -102 102 361 101 736 102 743 102 565 102 661 
102 991 101 821 102 -260 102 -1376 102 -1262 101 -280 1179 4103 71 MP stroke
9 0 102 4 102 3 101 1 102 -2 102 -4 102 -7 102 -7 
101 -9 102 -7 102 -4 102 -1 101 4 102 9 102 14 102 15 
102 16 101 13 102 7 102 0 102 -11 102 -19 101 -28 102 -31 
102 -29 102 -23 102 -11 101 5 102 23 102 42 102 56 101 61 
102 55 102 39 102 14 102 -15 101 -50 102 -87 102 -116 102 -123 
102 -103 101 -61 102 -9 102 43 102 103 102 172 101 236 102 256 
102 201 102 85 101 -39 102 -125 102 -196 102 -307 102 -463 101 -553 
102 -438 102 -108 102 245 102 399 101 368 102 426 102 790 102 1226 
102 1144 101 238 102 -960 102 -1438 102 -838 101 -102 1179 4103 71 MP stroke
9 1 102 8 102 6 101 3 102 -1 102 -6 102 -9 102 -13 
101 -14 102 -13 102 -10 102 -4 101 4 102 12 102 18 102 23 
102 25 101 22 102 16 102 4 102 -11 102 -24 101 -35 102 -41 
102 -43 102 -37 102 -24 101 -4 102 24 102 50 102 68 101 75 
102 71 102 57 102 36 102 1 101 -47 102 -99 102 -135 102 -140 
102 -117 101 -80 102 -40 102 8 102 82 102 178 101 263 102 280 
102 210 102 94 101 -4 102 -60 102 -126 102 -269 102 -466 101 -576 
102 -455 102 -127 102 196 102 311 101 248 102 288 102 634 102 1087 
102 1128 101 435 102 -631 102 -1231 102 -898 101 -185 1179 4103 71 MP stroke
9 0 102 11 102 10 101 8 102 5 102 -1 102 -7 102 -13 
101 -16 102 -19 102 -16 102 -12 101 -5 102 6 102 16 102 25 
102 31 101 31 102 26 102 16 102 1 102 -17 101 -35 102 -47 
102 -55 102 -52 102 -39 101 -17 102 11 102 41 102 70 101 88 
102 94 102 83 102 55 102 12 101 -41 102 -92 102 -135 102 -160 
102 -158 101 -127 102 -67 102 14 102 106 102 192 101 255 102 281 
102 258 102 182 101 62 102 -87 102 -241 102 -378 102 -469 101 -489 
102 -412 102 -231 102 18 102 275 101 486 102 654 102 811 102 917 
102 797 101 270 102 -550 102 -1118 102 -906 101 -207 1179 4103 71 MP stroke
9 0 102 4 102 4 101 1 102 0 102 -3 102 -5 102 -7 
101 -8 102 -7 102 -6 102 -2 101 2 102 6 102 11 102 14 
102 15 101 14 102 10 102 2 102 -6 102 -14 101 -23 102 -27 
102 -30 102 -26 102 -16 101 -2 102 16 102 34 102 46 101 54 
102 55 102 47 102 28 102 -1 101 -39 102 -76 102 -101 102 -106 
102 -96 101 -76 102 -44 102 5 102 80 102 163 101 223 102 228 
102 174 102 97 101 30 102 -30 102 -128 102 -292 102 -468 101 -535 
102 -397 102 -109 102 151 102 237 101 221 102 345 102 746 102 1186 
102 1167 101 413 102 -693 102 -1308 102 -955 101 -199 1179 4103 71 MP stroke
9 0 102 4 102 5 101 5 102 3 102 1 102 -1 102 -4 
101 -8 102 -9 102 -9 102 -8 101 -5 102 0 102 5 102 11 
102 16 101 18 102 17 102 13 102 6 102 -4 101 -16 102 -26 
102 -32 102 -35 102 -31 101 -19 102 -2 102 18 102 39 101 57 
102 66 102 65 102 51 102 23 101 -13 102 -54 102 -93 102 -120 
102 -129 101 -115 102 -76 102 -16 102 60 102 140 101 208 102 246 
102 242 102 190 101 93 102 -33 102 -177 102 -325 102 -448 101 -506 
102 -450 102 -271 102 -18 102 225 101 417 102 610 102 873 102 1116 
102 1047 101 402 102 -628 102 -1321 102 -1053 101 -236 1179 4103 71 MP stroke
9 1 102 10 102 7 101 3 102 -3 102 -9 102 -14 102 -18 
101 -19 102 -17 102 -11 102 -3 101 7 102 18 102 27 102 31 
102 33 101 27 102 16 102 1 102 -17 102 -34 101 -48 102 -56 
102 -54 102 -42 102 -23 101 6 102 36 102 64 102 86 101 96 
102 90 102 67 102 28 102 -22 101 -74 102 -121 102 -152 102 -162 
102 -146 101 -103 102 -34 102 54 102 150 102 230 101 274 102 272 
102 223 102 140 101 31 102 -105 102 -266 102 -426 102 -524 101 -502 
102 -344 102 -113 102 95 102 232 101 359 102 588 102 912 102 1112 
102 880 101 131 102 -766 102 -1174 102 -800 101 -153 1179 4103 71 MP stroke
9 1 102 14 102 15 101 13 102 8 102 1 102 -7 102 -15 
101 -22 102 -24 102 -24 102 -18 101 -9 102 4 102 17 102 30 
102 38 101 40 102 36 102 24 102 7 102 -15 101 -37 102 -56 
102 -65 102 -63 102 -52 101 -30 102 1 102 38 102 76 101 102 
102 110 102 96 102 68 102 29 101 -22 102 -82 102 -144 102 -184 
102 -184 101 -140 102 -73 102 -5 102 65 102 155 101 257 102 331 
102 313 102 196 101 36 102 -85 102 -156 102 -251 102 -421 101 -587 
102 -570 102 -282 102 125 102 371 101 358 102 320 102 558 102 1009 
102 1147 101 529 102 -568 102 -1241 102 -920 101 -182 1179 4103 71 MP stroke
9 2 102 12 102 8 101 4 102 -4 102 -10 102 -17 102 -21 
101 -22 102 -20 102 -13 102 -3 101 8 102 20 102 31 102 36 
102 37 101 31 102 19 102 2 102 -18 102 -38 101 -54 102 -63 
102 -61 102 -49 102 -27 101 4 102 38 102 71 102 95 101 107 
102 101 102 76 102 34 102 -18 101 -75 102 -130 102 -170 102 -182 
102 -161 101 -113 102 -43 102 45 102 149 102 245 101 300 102 294 
102 247 102 176 101 66 102 -109 102 -319 102 -466 102 -482 101 -431 
102 -403 102 -353 102 -102 102 361 101 736 102 743 102 565 102 661 
102 991 101 821 102 -260 102 -1376 102 -1262 101 -280 1179 4103 71 MP stroke
9 0 102 4 102 3 101 1 102 -2 102 -4 102 -7 102 -7 
101 -9 102 -7 102 -4 102 -1 101 4 102 9 102 14 102 15 
102 16 101 13 102 7 102 0 102 -11 102 -19 101 -28 102 -31 
102 -29 102 -23 102 -11 101 5 102 23 102 42 102 56 101 61 
102 55 102 39 102 14 102 -15 101 -50 102 -87 102 -116 102 -123 
102 -103 101 -61 102 -9 102 43 102 103 102 172 101 236 102 256 
102 201 102 85 101 -39 102 -125 102 -196 102 -307 102 -463 101 -553 
102 -438 102 -108 102 245 102 399 101 368 102 426 102 790 102 1226 
102 1144 101 238 102 -960 102 -1438 102 -838 101 -102 1179 4103 71 MP stroke
9 1 102 8 102 6 101 3 102 -1 102 -6 102 -9 102 -13 
101 -14 102 -13 102 -10 102 -4 101 4 102 12 102 18 102 23 
102 25 101 22 102 16 102 4 102 -11 102 -24 101 -35 102 -41 
102 -43 102 -37 102 -24 101 -4 102 24 102 50 102 68 101 75 
102 71 102 57 102 36 102 1 101 -47 102 -99 102 -135 102 -140 
102 -117 101 -80 102 -40 102 8 102 82 102 178 101 263 102 280 
102 210 102 94 101 -4 102 -60 102 -126 102 -269 102 -466 101 -576 
102 -455 102 -127 102 196 102 311 101 248 102 288 102 634 102 1087 
102 1128 101 435 102 -631 102 -1231 102 -898 101 -185 1179 4103 71 MP stroke
9 0 102 11 102 10 101 8 102 5 102 -1 102 -7 102 -13 
101 -16 102 -19 102 -16 102 -12 101 -5 102 6 102 16 102 25 
102 31 101 31 102 26 102 16 102 1 102 -17 101 -35 102 -47 
102 -55 102 -52 102 -39 101 -17 102 11 102 41 102 70 101 88 
102 94 102 83 102 55 102 12 101 -41 102 -92 102 -135 102 -160 
102 -158 101 -127 102 -67 102 14 102 106 102 192 101 255 102 281 
102 258 102 182 101 62 102 -87 102 -241 102 -378 102 -469 101 -489 
102 -412 102 -231 102 18 102 275 101 486 102 654 102 811 102 917 
102 797 101 270 102 -550 102 -1118 102 -906 101 -207 1179 4103 71 MP stroke
9 0 102 4 102 4 101 1 102 0 102 -3 102 -5 102 -7 
101 -8 102 -7 102 -6 102 -2 101 2 102 6 102 11 102 14 
102 15 101 14 102 10 102 2 102 -6 102 -14 101 -23 102 -27 
102 -30 102 -26 102 -16 101 -2 102 16 102 34 102 46 101 54 
102 55 102 47 102 28 102 -1 101 -39 102 -76 102 -101 102 -106 
102 -96 101 -76 102 -44 102 5 102 80 102 163 101 223 102 228 
102 174 102 97 101 30 102 -30 102 -128 102 -292 102 -468 101 -535 
102 -397 102 -109 102 151 102 237 101 221 102 345 102 746 102 1186 
102 1167 101 413 102 -693 102 -1308 102 -955 101 -199 1179 4103 71 MP stroke
9 0 102 4 102 5 101 5 102 3 102 1 102 -1 102 -4 
101 -8 102 -9 102 -9 102 -8 101 -5 102 0 102 5 102 11 
102 16 101 18 102 17 102 13 102 6 102 -4 101 -16 102 -26 
102 -32 102 -35 102 -31 101 -19 102 -2 102 18 102 39 101 57 
102 66 102 65 102 51 102 23 101 -13 102 -54 102 -93 102 -120 
102 -129 101 -115 102 -76 102 -16 102 60 102 140 101 208 102 246 
102 242 102 190 101 93 102 -33 102 -177 102 -325 102 -448 101 -506 
102 -450 102 -271 102 -18 102 225 101 417 102 610 102 873 102 1116 
102 1047 101 402 102 -628 102 -1321 102 -1053 101 -236 1179 4103 71 MP stroke
9 1 102 10 102 7 101 3 102 -3 102 -9 102 -14 102 -18 
101 -19 102 -17 102 -11 102 -3 101 7 102 18 102 27 102 31 
102 33 101 27 102 16 102 1 102 -17 102 -34 101 -48 102 -56 
102 -54 102 -42 102 -23 101 6 102 36 102 64 102 86 101 96 
102 90 102 67 102 28 102 -22 101 -74 102 -121 102 -152 102 -162 
102 -146 101 -103 102 -34 102 54 102 150 102 230 101 274 102 272 
102 223 102 140 101 31 102 -105 102 -266 102 -426 102 -524 101 -502 
102 -344 102 -113 102 95 102 232 101 359 102 588 102 912 102 1112 
102 880 101 131 102 -766 102 -1174 102 -800 101 -153 1179 4103 71 MP stroke
9 1 102 14 102 15 101 13 102 8 102 1 102 -7 102 -15 
101 -22 102 -24 102 -24 102 -18 101 -9 102 4 102 17 102 30 
102 38 101 40 102 36 102 24 102 7 102 -15 101 -37 102 -56 
102 -65 102 -63 102 -52 101 -30 102 1 102 38 102 76 101 102 
102 110 102 96 102 68 102 29 101 -22 102 -82 102 -144 102 -184 
102 -184 101 -140 102 -73 102 -5 102 65 102 155 101 257 102 331 
102 313 102 196 101 36 102 -85 102 -156 102 -251 102 -421 101 -587 
102 -570 102 -282 102 125 102 371 101 358 102 320 102 558 102 1009 
102 1147 101 529 102 -568 102 -1241 102 -920 101 -182 1179 4103 71 MP stroke
9 2 102 12 102 8 101 4 102 -4 102 -10 102 -17 102 -21 
101 -22 102 -20 102 -13 102 -3 101 8 102 20 102 31 102 36 
102 37 101 31 102 19 102 2 102 -18 102 -38 101 -54 102 -63 
102 -61 102 -49 102 -27 101 4 102 38 102 71 102 95 101 107 
102 101 102 76 102 34 102 -18 101 -75 102 -130 102 -170 102 -182 
102 -161 101 -113 102 -43 102 45 102 149 102 245 101 300 102 294 
102 247 102 176 101 66 102 -109 102 -319 102 -466 102 -482 101 -431 
102 -403 102 -353 102 -102 102 361 101 736 102 743 102 565 102 661 
102 991 101 821 102 -260 102 -1376 102 -1262 101 -280 1179 4103 71 MP stroke
9 0 102 4 102 3 101 1 102 -2 102 -4 102 -7 102 -7 
101 -9 102 -7 102 -4 102 -1 101 4 102 9 102 14 102 15 
102 16 101 13 102 7 102 0 102 -11 102 -19 101 -28 102 -31 
102 -29 102 -23 102 -11 101 5 102 23 102 42 102 56 101 61 
102 55 102 39 102 14 102 -15 101 -50 102 -87 102 -116 102 -123 
102 -103 101 -61 102 -9 102 43 102 103 102 172 101 236 102 256 
102 201 102 85 101 -39 102 -125 102 -196 102 -307 102 -463 101 -553 
102 -438 102 -108 102 245 102 399 101 368 102 426 102 790 102 1226 
102 1144 101 238 102 -960 102 -1438 102 -838 101 -102 1179 4103 71 MP stroke
9 1 102 8 102 6 101 3 102 -1 102 -6 102 -9 102 -13 
101 -14 102 -13 102 -10 102 -4 101 4 102 12 102 18 102 23 
102 25 101 22 102 16 102 4 102 -11 102 -24 101 -35 102 -41 
102 -43 102 -37 102 -24 101 -4 102 24 102 50 102 68 101 75 
102 71 102 57 102 36 102 1 101 -47 102 -99 102 -135 102 -140 
102 -117 101 -80 102 -40 102 8 102 82 102 178 101 263 102 280 
102 210 102 94 101 -4 102 -60 102 -126 102 -269 102 -466 101 -576 
102 -455 102 -127 102 196 102 311 101 248 102 288 102 634 102 1087 
102 1128 101 435 102 -631 102 -1231 102 -898 101 -185 1179 4103 71 MP stroke
9 0 102 11 102 10 101 8 102 5 102 -1 102 -7 102 -13 
101 -16 102 -19 102 -16 102 -12 101 -5 102 6 102 16 102 25 
102 31 101 31 102 26 102 16 102 1 102 -17 101 -35 102 -47 
102 -55 102 -52 102 -39 101 -17 102 11 102 41 102 70 101 88 
102 94 102 83 102 55 102 12 101 -41 102 -92 102 -135 102 -160 
102 -158 101 -127 102 -67 102 14 102 106 102 192 101 255 102 281 
102 258 102 182 101 62 102 -87 102 -241 102 -378 102 -469 101 -489 
102 -412 102 -231 102 18 102 275 101 486 102 654 102 811 102 917 
102 797 101 270 102 -550 102 -1118 102 -906 101 -207 1179 4103 71 MP stroke
9 0 102 4 102 4 101 1 102 0 102 -3 102 -5 102 -7 
101 -8 102 -7 102 -6 102 -2 101 2 102 6 102 11 102 14 
102 15 101 14 102 10 102 2 102 -6 102 -14 101 -23 102 -27 
102 -30 102 -26 102 -16 101 -2 102 16 102 34 102 46 101 54 
102 55 102 47 102 28 102 -1 101 -39 102 -76 102 -101 102 -106 
102 -96 101 -76 102 -44 102 5 102 80 102 163 101 223 102 228 
102 174 102 97 101 30 102 -30 102 -128 102 -292 102 -468 101 -535 
102 -397 102 -109 102 151 102 237 101 221 102 345 102 746 102 1186 
102 1167 101 413 102 -693 102 -1308 102 -955 101 -199 1179 4103 71 MP stroke
9 0 102 4 102 5 101 5 102 3 102 1 102 -1 102 -4 
101 -8 102 -9 102 -9 102 -8 101 -5 102 0 102 5 102 11 
102 16 101 18 102 17 102 13 102 6 102 -4 101 -16 102 -26 
102 -32 102 -35 102 -31 101 -19 102 -2 102 18 102 39 101 57 
102 66 102 65 102 51 102 23 101 -13 102 -54 102 -93 102 -120 
102 -129 101 -115 102 -76 102 -16 102 60 102 140 101 208 102 246 
102 242 102 190 101 93 102 -33 102 -177 102 -325 102 -448 101 -506 
102 -450 102 -271 102 -18 102 225 101 417 102 610 102 873 102 1116 
102 1047 101 402 102 -628 102 -1321 102 -1053 101 -236 1179 4103 71 MP stroke
9 1 102 10 102 7 101 3 102 -3 102 -9 102 -14 102 -18 
101 -19 102 -17 102 -11 102 -3 101 7 102 18 102 27 102 31 
102 33 101 27 102 16 102 1 102 -17 102 -34 101 -48 102 -56 
102 -54 102 -42 102 -23 101 6 102 36 102 64 102 86 101 96 
102 90 102 67 102 28 102 -22 101 -74 102 -121 102 -152 102 -162 
102 -146 101 -103 102 -34 102 54 102 150 102 230 101 274 102 272 
102 223 102 140 101 31 102 -105 102 -266 102 -426 102 -524 101 -502 
102 -344 102 -113 102 95 102 232 101 359 102 588 102 912 102 1112 
102 880 101 131 102 -766 102 -1174 102 -800 101 -153 1179 4103 71 MP stroke
9 1 102 14 102 15 101 13 102 8 102 1 102 -7 102 -15 
101 -22 102 -24 102 -24 102 -18 101 -9 102 4 102 17 102 30 
102 38 101 40 102 36 102 24 102 7 102 -15 101 -37 102 -56 
102 -65 102 -63 102 -52 101 -30 102 1 102 38 102 76 101 102 
102 110 102 96 102 68 102 29 101 -22 102 -82 102 -144 102 -184 
102 -184 101 -140 102 -73 102 -5 102 65 102 155 101 257 102 331 
102 313 102 196 101 36 102 -85 102 -156 102 -251 102 -421 101 -587 
102 -570 102 -282 102 125 102 371 101 358 102 320 102 558 102 1009 
102 1147 101 529 102 -568 102 -1241 102 -920 101 -182 1179 4103 71 MP stroke
9 2 102 12 102 8 101 4 102 -4 102 -10 102 -17 102 -21 
101 -22 102 -20 102 -13 102 -3 101 8 102 20 102 31 102 36 
102 37 101 31 102 19 102 2 102 -18 102 -38 101 -54 102 -63 
102 -61 102 -49 102 -27 101 4 102 38 102 71 102 95 101 107 
102 101 102 76 102 34 102 -18 101 -75 102 -130 102 -170 102 -182 
102 -161 101 -113 102 -43 102 45 102 149 102 245 101 300 102 294 
102 247 102 176 101 66 102 -109 102 -319 102 -466 102 -482 101 -431 
102 -403 102 -353 102 -102 102 361 101 736 102 743 102 565 102 661 
102 991 101 821 102 -260 102 -1376 102 -1262 101 -280 1179 4103 71 MP stroke
9 0 102 4 102 3 101 1 102 -2 102 -4 102 -7 102 -7 
101 -9 102 -7 102 -4 102 -1 101 4 102 9 102 14 102 15 
102 16 101 13 102 7 102 0 102 -11 102 -19 101 -28 102 -31 
102 -29 102 -23 102 -11 101 5 102 23 102 42 102 56 101 61 
102 55 102 39 102 14 102 -15 101 -50 102 -87 102 -116 102 -123 
102 -103 101 -61 102 -9 102 43 102 103 102 172 101 236 102 256 
102 201 102 85 101 -39 102 -125 102 -196 102 -307 102 -463 101 -553 
102 -438 102 -108 102 245 102 399 101 368 102 426 102 790 102 1226 
102 1144 101 238 102 -960 102 -1438 102 -838 101 -102 1179 4103 71 MP stroke
9 1 102 8 102 6 101 3 102 -1 102 -6 102 -9 102 -13 
101 -14 102 -13 102 -10 102 -4 101 4 102 12 102 18 102 23 
102 25 101 22 102 16 102 4 102 -11 102 -24 101 -35 102 -41 
102 -43 102 -37 102 -24 101 -4 102 24 102 50 102 68 101 75 
102 71 102 57 102 36 102 1 101 -47 102 -99 102 -135 102 -140 
102 -117 101 -80 102 -40 102 8 102 82 102 178 101 263 102 280 
102 210 102 94 101 -4 102 -60 102 -126 102 -269 102 -466 101 -576 
102 -455 102 -127 102 196 102 311 101 248 102 288 102 634 102 1087 
102 1128 101 435 102 -631 102 -1231 102 -898 101 -185 1179 4103 71 MP stroke
9 0 102 11 102 10 101 8 102 5 102 -1 102 -7 102 -13 
101 -16 102 -19 102 -16 102 -12 101 -5 102 6 102 16 102 25 
102 31 101 31 102 26 102 16 102 1 102 -17 101 -35 102 -47 
102 -55 102 -52 102 -39 101 -17 102 11 102 41 102 70 101 88 
102 94 102 83 102 55 102 12 101 -41 102 -92 102 -135 102 -160 
102 -158 101 -127 102 -67 102 14 102 106 102 192 101 255 102 281 
102 258 102 182 101 62 102 -87 102 -241 102 -378 102 -469 101 -489 
102 -412 102 -231 102 18 102 275 101 486 102 654 102 811 102 917 
102 797 101 270 102 -550 102 -1118 102 -906 101 -207 1179 4103 71 MP stroke
9 0 102 4 102 4 101 1 102 0 102 -3 102 -5 102 -7 
101 -8 102 -7 102 -6 102 -2 101 2 102 6 102 11 102 14 
102 15 101 14 102 10 102 2 102 -6 102 -14 101 -23 102 -27 
102 -30 102 -26 102 -16 101 -2 102 16 102 34 102 46 101 54 
102 55 102 47 102 28 102 -1 101 -39 102 -76 102 -101 102 -106 
102 -96 101 -76 102 -44 102 5 102 80 102 163 101 223 102 228 
102 174 102 97 101 30 102 -30 102 -128 102 -292 102 -468 101 -535 
102 -397 102 -109 102 151 102 237 101 221 102 345 102 746 102 1186 
102 1167 101 413 102 -693 102 -1308 102 -955 101 -199 1179 4103 71 MP stroke
9 0 102 4 102 5 101 5 102 3 102 1 102 -1 102 -4 
101 -8 102 -9 102 -9 102 -8 101 -5 102 0 102 5 102 11 
102 16 101 18 102 17 102 13 102 6 102 -4 101 -16 102 -26 
102 -32 102 -35 102 -31 101 -19 102 -2 102 18 102 39 101 57 
102 66 102 65 102 51 102 23 101 -13 102 -54 102 -93 102 -120 
102 -129 101 -115 102 -76 102 -16 102 60 102 140 101 208 102 246 
102 242 102 190 101 93 102 -33 102 -177 102 -325 102 -448 101 -506 
102 -450 102 -271 102 -18 102 225 101 417 102 610 102 873 102 1116 
102 1047 101 402 102 -628 102 -1321 102 -1053 101 -236 1179 4103 71 MP stroke
9 1 102 10 102 7 101 3 102 -3 102 -9 102 -14 102 -18 
101 -19 102 -17 102 -11 102 -3 101 7 102 18 102 27 102 31 
102 33 101 27 102 16 102 1 102 -17 102 -34 101 -48 102 -56 
102 -54 102 -42 102 -23 101 6 102 36 102 64 102 86 101 96 
102 90 102 67 102 28 102 -22 101 -74 102 -121 102 -152 102 -162 
102 -146 101 -103 102 -34 102 54 102 150 102 230 101 274 102 272 
102 223 102 140 101 31 102 -105 102 -266 102 -426 102 -524 101 -502 
102 -344 102 -113 102 95 102 232 101 359 102 588 102 912 102 1112 
102 880 101 131 102 -766 102 -1174 102 -800 101 -153 1179 4103 71 MP stroke
9 1 102 14 102 15 101 13 102 8 102 1 102 -7 102 -15 
101 -22 102 -24 102 -24 102 -18 101 -9 102 4 102 17 102 30 
102 38 101 40 102 36 102 24 102 7 102 -15 101 -37 102 -56 
102 -65 102 -63 102 -52 101 -30 102 1 102 38 102 76 101 102 
102 110 102 96 102 68 102 29 101 -22 102 -82 102 -144 102 -184 
102 -184 101 -140 102 -73 102 -5 102 65 102 155 101 257 102 331 
102 313 102 196 101 36 102 -85 102 -156 102 -251 102 -421 101 -587 
102 -570 102 -282 102 125 102 371 101 358 102 320 102 558 102 1009 
102 1147 101 529 102 -568 102 -1241 102 -920 101 -182 1179 4103 71 MP stroke
9 2 102 12 102 8 101 4 102 -4 102 -10 102 -17 102 -21 
101 -22 102 -20 102 -13 102 -3 101 8 102 20 102 31 102 36 
102 37 101 31 102 19 102 2 102 -18 102 -38 101 -54 102 -63 
102 -61 102 -49 102 -27 101 4 102 38 102 71 102 95 101 107 
102 101 102 76 102 34 102 -18 101 -75 102 -130 102 -170 102 -182 
102 -161 101 -113 102 -43 102 45 102 149 102 245 101 300 102 294 
102 247 102 176 101 66 102 -109 102 -319 102 -466 102 -482 101 -431 
102 -403 102 -353 102 -102 102 361 101 736 102 743 102 565 102 661 
102 991 101 821 102 -260 102 -1376 102 -1262 101 -280 1179 4103 71 MP stroke
9 0 102 4 102 3 101 1 102 -2 102 -4 102 -7 102 -7 
101 -9 102 -7 102 -4 102 -1 101 4 102 9 102 14 102 15 
102 16 101 13 102 7 102 0 102 -11 102 -19 101 -28 102 -31 
102 -29 102 -23 102 -11 101 5 102 23 102 42 102 56 101 61 
102 55 102 39 102 14 102 -15 101 -50 102 -87 102 -116 102 -123 
102 -103 101 -61 102 -9 102 43 102 103 102 172 101 236 102 256 
102 201 102 85 101 -39 102 -125 102 -196 102 -307 102 -463 101 -553 
102 -438 102 -108 102 245 102 399 101 368 102 426 102 790 102 1226 
102 1144 101 238 102 -960 102 -1438 102 -838 101 -102 1179 4103 71 MP stroke
9 1 102 8 102 6 101 3 102 -1 102 -6 102 -9 102 -13 
101 -14 102 -13 102 -10 102 -4 101 4 102 12 102 18 102 23 
102 25 101 22 102 16 102 4 102 -11 102 -24 101 -35 102 -41 
102 -43 102 -37 102 -24 101 -4 102 24 102 50 102 68 101 75 
102 71 102 57 102 36 102 1 101 -47 102 -99 102 -135 102 -140 
102 -117 101 -80 102 -40 102 8 102 82 102 178 101 263 102 280 
102 210 102 94 101 -4 102 -60 102 -126 102 -269 102 -466 101 -576 
102 -455 102 -127 102 196 102 311 101 248 102 288 102 634 102 1087 
102 1128 101 435 102 -631 102 -1231 102 -898 101 -185 1179 4103 71 MP stroke
9 0 102 11 102 10 101 8 102 5 102 -1 102 -7 102 -13 
101 -16 102 -19 102 -16 102 -12 101 -5 102 6 102 16 102 25 
102 31 101 31 102 26 102 16 102 1 102 -17 101 -35 102 -47 
102 -55 102 -52 102 -39 101 -17 102 11 102 41 102 70 101 88 
102 94 102 83 102 55 102 12 101 -41 102 -92 102 -135 102 -160 
102 -158 101 -127 102 -67 102 14 102 106 102 192 101 255 102 281 
102 258 102 182 101 62 102 -87 102 -241 102 -378 102 -469 101 -489 
102 -412 102 -231 102 18 102 275 101 486 102 654 102 811 102 917 
102 797 101 270 102 -550 102 -1118 102 -906 101 -207 1179 4103 71 MP stroke
9 0 102 4 102 4 101 1 102 0 102 -3 102 -5 102 -7 
101 -8 102 -7 102 -6 102 -2 101 2 102 6 102 11 102 14 
102 15 101 14 102 10 102 2 102 -6 102 -14 101 -23 102 -27 
102 -30 102 -26 102 -16 101 -2 102 16 102 34 102 46 101 54 
102 55 102 47 102 28 102 -1 101 -39 102 -76 102 -101 102 -106 
102 -96 101 -76 102 -44 102 5 102 80 102 163 101 223 102 228 
102 174 102 97 101 30 102 -30 102 -128 102 -292 102 -468 101 -535 
102 -397 102 -109 102 151 102 237 101 221 102 345 102 746 102 1186 
102 1167 101 413 102 -693 102 -1308 102 -955 101 -199 1179 4103 71 MP stroke
9 0 102 4 102 5 101 5 102 3 102 1 102 -1 102 -4 
101 -8 102 -9 102 -9 102 -8 101 -5 102 0 102 5 102 11 
102 16 101 18 102 17 102 13 102 6 102 -4 101 -16 102 -26 
102 -32 102 -35 102 -31 101 -19 102 -2 102 18 102 39 101 57 
102 66 102 65 102 51 102 23 101 -13 102 -54 102 -93 102 -120 
102 -129 101 -115 102 -76 102 -16 102 60 102 140 101 208 102 246 
102 242 102 190 101 93 102 -33 102 -177 102 -325 102 -448 101 -506 
102 -450 102 -271 102 -18 102 225 101 417 102 610 102 873 102 1116 
102 1047 101 402 102 -628 102 -1321 102 -1053 101 -236 1179 4103 71 MP stroke
9 1 102 10 102 7 101 3 102 -3 102 -9 102 -14 102 -18 
101 -19 102 -17 102 -11 102 -3 101 7 102 18 102 27 102 31 
102 33 101 27 102 16 102 1 102 -17 102 -34 101 -48 102 -56 
102 -54 102 -42 102 -23 101 6 102 36 102 64 102 86 101 96 
102 90 102 67 102 28 102 -22 101 -74 102 -121 102 -152 102 -162 
102 -146 101 -103 102 -34 102 54 102 150 102 230 101 274 102 272 
102 223 102 140 101 31 102 -105 102 -266 102 -426 102 -524 101 -502 
102 -344 102 -113 102 95 102 232 101 359 102 588 102 912 102 1112 
102 880 101 131 102 -766 102 -1174 102 -800 101 -153 1179 4103 71 MP stroke
9 1 102 14 102 15 101 13 102 8 102 1 102 -7 102 -15 
101 -22 102 -24 102 -24 102 -18 101 -9 102 4 102 17 102 30 
102 38 101 40 102 36 102 24 102 7 102 -15 101 -37 102 -56 
102 -65 102 -63 102 -52 101 -30 102 1 102 38 102 76 101 102 
102 110 102 96 102 68 102 29 101 -22 102 -82 102 -144 102 -184 
102 -184 101 -140 102 -73 102 -5 102 65 102 155 101 257 102 331 
102 313 102 196 101 36 102 -85 102 -156 102 -251 102 -421 101 -587 
102 -570 102 -282 102 125 102 371 101 358 102 320 102 558 102 1009 
102 1147 101 529 102 -568 102 -1241 102 -920 101 -182 1179 4103 71 MP stroke
9 2 102 12 102 8 101 4 102 -4 102 -10 102 -17 102 -21 
101 -22 102 -20 102 -13 102 -3 101 8 102 20 102 31 102 36 
102 37 101 31 102 19 102 2 102 -18 102 -38 101 -54 102 -63 
102 -61 102 -49 102 -27 101 4 102 38 102 71 102 95 101 107 
102 101 102 76 102 34 102 -18 101 -75 102 -130 102 -170 102 -182 
102 -161 101 -113 102 -43 102 45 102 149 102 245 101 300 102 294 
102 247 102 176 101 66 102 -109 102 -319 102 -466 102 -482 101 -431 
102 -403 102 -353 102 -102 102 361 101 736 102 743 102 565 102 661 
102 991 101 821 102 -260 102 -1376 102 -1262 101 -280 1179 4103 71 MP stroke
9 0 102 4 102 3 101 1 102 -2 102 -4 102 -7 102 -7 
101 -9 102 -7 102 -4 102 -1 101 4 102 9 102 14 102 15 
102 16 101 13 102 7 102 0 102 -11 102 -19 101 -28 102 -31 
102 -29 102 -23 102 -11 101 5 102 23 102 42 102 56 101 61 
102 55 102 39 102 14 102 -15 101 -50 102 -87 102 -116 102 -123 
102 -103 101 -61 102 -9 102 43 102 103 102 172 101 236 102 256 
102 201 102 85 101 -39 102 -125 102 -196 102 -307 102 -463 101 -553 
102 -438 102 -108 102 245 102 399 101 368 102 426 102 790 102 1226 
102 1144 101 238 102 -960 102 -1438 102 -838 101 -102 1179 4103 71 MP stroke
9 1 102 8 102 6 101 3 102 -1 102 -6 102 -9 102 -13 
101 -14 102 -13 102 -10 102 -4 101 4 102 12 102 18 102 23 
102 25 101 22 102 16 102 4 102 -11 102 -24 101 -35 102 -41 
102 -43 102 -37 102 -24 101 -4 102 24 102 50 102 68 101 75 
102 71 102 57 102 36 102 1 101 -47 102 -99 102 -135 102 -140 
102 -117 101 -80 102 -40 102 8 102 82 102 178 101 263 102 280 
102 210 102 94 101 -4 102 -60 102 -126 102 -269 102 -466 101 -576 
102 -455 102 -127 102 196 102 311 101 248 102 288 102 634 102 1087 
102 1128 101 435 102 -631 102 -1231 102 -898 101 -185 1179 4103 71 MP stroke
9 0 102 11 102 10 101 8 102 5 102 -1 102 -7 102 -13 
101 -16 102 -19 102 -16 102 -12 101 -5 102 6 102 16 102 25 
102 31 101 31 102 26 102 16 102 1 102 -17 101 -35 102 -47 
102 -55 102 -52 102 -39 101 -17 102 11 102 41 102 70 101 88 
102 94 102 83 102 55 102 12 101 -41 102 -92 102 -135 102 -160 
102 -158 101 -127 102 -67 102 14 102 106 102 192 101 255 102 281 
102 258 102 182 101 62 102 -87 102 -241 102 -378 102 -469 101 -489 
102 -412 102 -231 102 18 102 275 101 486 102 654 102 811 102 917 
102 797 101 270 102 -550 102 -1118 102 -906 101 -207 1179 4103 71 MP stroke
9 0 102 4 102 4 101 1 102 0 102 -3 102 -5 102 -7 
101 -8 102 -7 102 -6 102 -2 101 2 102 6 102 11 102 14 
102 15 101 14 102 10 102 2 102 -6 102 -14 101 -23 102 -27 
102 -30 102 -26 102 -16 101 -2 102 16 102 34 102 46 101 54 
102 55 102 47 102 28 102 -1 101 -39 102 -76 102 -101 102 -106 
102 -96 101 -76 102 -44 102 5 102 80 102 163 101 223 102 228 
102 174 102 97 101 30 102 -30 102 -128 102 -292 102 -468 101 -535 
102 -397 102 -109 102 151 102 237 101 221 102 345 102 746 102 1186 
102 1167 101 413 102 -693 102 -1308 102 -955 101 -199 1179 4103 71 MP stroke
9 0 102 4 102 5 101 5 102 3 102 1 102 -1 102 -4 
101 -8 102 -9 102 -9 102 -8 101 -5 102 0 102 5 102 11 
102 16 101 18 102 17 102 13 102 6 102 -4 101 -16 102 -26 
102 -32 102 -35 102 -31 101 -19 102 -2 102 18 102 39 101 57 
102 66 102 65 102 51 102 23 101 -13 102 -54 102 -93 102 -120 
102 -129 101 -115 102 -76 102 -16 102 60 102 140 101 208 102 246 
102 242 102 190 101 93 102 -33 102 -177 102 -325 102 -448 101 -506 
102 -450 102 -271 102 -18 102 225 101 417 102 610 102 873 102 1116 
102 1047 101 402 102 -628 102 -1321 102 -1053 101 -236 1179 4103 71 MP stroke
9 1 102 10 102 7 101 3 102 -3 102 -9 102 -14 102 -18 
101 -19 102 -17 102 -11 102 -3 101 7 102 18 102 27 102 31 
102 33 101 27 102 16 102 1 102 -17 102 -34 101 -48 102 -56 
102 -54 102 -42 102 -23 101 6 102 36 102 64 102 86 101 96 
102 90 102 67 102 28 102 -22 101 -74 102 -121 102 -152 102 -162 
102 -146 101 -103 102 -34 102 54 102 150 102 230 101 274 102 272 
102 223 102 140 101 31 102 -105 102 -266 102 -426 102 -524 101 -502 
102 -344 102 -113 102 95 102 232 101 359 102 588 102 912 102 1112 
102 880 101 131 102 -766 102 -1174 102 -800 101 -153 1179 4103 71 MP stroke
9 1 102 14 102 15 101 13 102 8 102 1 102 -7 102 -15 
101 -22 102 -24 102 -24 102 -18 101 -9 102 4 102 17 102 30 
102 38 101 40 102 36 102 24 102 7 102 -15 101 -37 102 -56 
102 -65 102 -63 102 -52 101 -30 102 1 102 38 102 76 101 102 
102 110 102 96 102 68 102 29 101 -22 102 -82 102 -144 102 -184 
102 -184 101 -140 102 -73 102 -5 102 65 102 155 101 257 102 331 
102 313 102 196 101 36 102 -85 102 -156 102 -251 102 -421 101 -587 
102 -570 102 -282 102 125 102 371 101 358 102 320 102 558 102 1009 
102 1147 101 529 102 -568 102 -1241 102 -920 101 -182 1179 4103 71 MP stroke
9 0 102 3 102 3 101 2 102 0 102 -2 102 -4 102 -6 
101 -7 102 -7 102 -5 102 -3 101 1 102 6 102 9 102 13 
102 14 101 13 102 9 102 3 102 -4 102 -13 101 -21 102 -26 
102 -27 102 -24 102 -15 101 -2 102 13 102 29 102 44 101 54 
102 53 102 43 102 22 102 -4 101 -33 102 -64 102 -93 102 -110 
102 -104 101 -74 102 -25 102 28 102 79 102 132 101 189 102 227 
102 210 102 125 101 0 102 -107 102 -178 102 -249 102 -365 101 -478 
102 -455 102 -215 102 140 102 377 101 393 102 376 102 608 102 1032 
102 1135 101 459 102 -699 102 -1359 102 -932 101 -149 1179 4103 71 MP stroke
9 0 102 4 102 3 101 1 102 -2 102 -4 102 -7 102 -7 
101 -9 102 -7 102 -4 102 -1 101 4 102 9 102 14 102 15 
102 16 101 13 102 7 102 0 102 -11 102 -19 101 -28 102 -31 
102 -29 102 -23 102 -11 101 5 102 23 102 42 102 56 101 61 
102 55 102 39 102 14 102 -15 101 -50 102 -87 102 -116 102 -123 
102 -103 101 -61 102 -9 102 43 102 103 102 172 101 236 102 256 
102 201 102 85 101 -39 102 -125 102 -196 102 -307 102 -463 101 -553 
102 -438 102 -108 102 245 102 399 101 368 102 426 102 790 102 1226 
102 1144 101 238 102 -960 102 -1438 102 -838 101 -102 1179 4103 71 MP stroke
9 1 102 8 102 6 101 3 102 -1 102 -6 102 -9 102 -13 
101 -14 102 -13 102 -10 102 -4 101 4 102 12 102 18 102 23 
102 25 101 22 102 16 102 4 102 -11 102 -24 101 -35 102 -41 
102 -43 102 -37 102 -24 101 -4 102 24 102 50 102 68 101 75 
102 71 102 57 102 36 102 1 101 -47 102 -99 102 -135 102 -140 
102 -117 101 -80 102 -40 102 8 102 82 102 178 101 263 102 280 
102 210 102 94 101 -4 102 -60 102 -126 102 -269 102 -466 101 -576 
102 -455 102 -127 102 196 102 311 101 248 102 288 102 634 102 1087 
102 1128 101 435 102 -631 102 -1231 102 -898 101 -185 1179 4103 71 MP stroke
9 0 102 11 102 10 101 8 102 5 102 -1 102 -7 102 -13 
101 -16 102 -19 102 -16 102 -12 101 -5 102 6 102 16 102 25 
102 31 101 31 102 26 102 16 102 1 102 -17 101 -35 102 -47 
102 -55 102 -52 102 -39 101 -17 102 11 102 41 102 70 101 88 
102 94 102 83 102 55 102 12 101 -41 102 -92 102 -135 102 -160 
102 -158 101 -127 102 -67 102 14 102 106 102 192 101 255 102 281 
102 258 102 182 101 62 102 -87 102 -241 102 -378 102 -469 101 -489 
102 -412 102 -231 102 18 102 275 101 486 102 654 102 811 102 917 
102 797 101 270 102 -550 102 -1118 102 -906 101 -207 1179 4103 71 MP stroke
9 1 102 5 102 3 101 1 102 -1 102 -6 102 -8 102 -9 
101 -11 102 -9 102 -6 102 -1 101 5 102 11 102 15 102 19 
102 19 101 16 102 10 102 0 102 -11 102 -22 101 -31 102 -36 
102 -35 102 -28 102 -14 101 4 102 25 102 44 102 60 101 66 
102 64 102 48 102 22 102 -14 101 -54 102 -92 102 -116 102 -123 
102 -110 101 -81 102 -32 102 34 102 112 102 187 101 234 102 235 
102 188 102 112 101 25 102 -72 102 -196 102 -348 102 -479 101 -503 
102 -364 102 -113 102 121 102 240 101 298 102 461 102 809 102 1134 
102 1034 101 305 102 -703 102 -1250 102 -908 101 -190 1179 4103 71 MP stroke
9 0 102 4 102 5 101 5 102 3 102 1 102 -1 102 -4 
101 -8 102 -9 102 -9 102 -8 101 -5 102 0 102 5 102 11 
102 16 101 18 102 17 102 13 102 6 102 -4 101 -16 102 -26 
102 -32 102 -35 102 -31 101 -19 102 -2 102 18 102 39 101 57 
102 66 102 65 102 51 102 23 101 -13 102 -54 102 -93 102 -120 
102 -129 101 -115 102 -76 102 -16 102 60 102 140 101 208 102 246 
102 242 102 190 101 93 102 -33 102 -177 102 -325 102 -448 101 -506 
102 -450 102 -271 102 -18 102 225 101 417 102 610 102 873 102 1116 
102 1047 101 402 102 -628 102 -1321 102 -1053 101 -236 1179 4103 71 MP stroke
9 1 102 10 102 7 101 3 102 -3 102 -9 102 -14 102 -18 
101 -19 102 -17 102 -11 102 -3 101 7 102 18 102 27 102 31 
102 33 101 27 102 16 102 1 102 -17 102 -34 101 -48 102 -56 
102 -54 102 -42 102 -23 101 6 102 36 102 64 102 86 101 96 
102 90 102 67 102 28 102 -22 101 -74 102 -121 102 -152 102 -162 
102 -146 101 -103 102 -34 102 54 102 150 102 230 101 274 102 272 
102 223 102 140 101 31 102 -105 102 -266 102 -426 102 -524 101 -502 
102 -344 102 -113 102 95 102 232 101 359 102 588 102 912 102 1112 
102 880 101 131 102 -766 102 -1174 102 -800 101 -153 1179 4103 71 MP stroke
9 0 102 9 102 9 101 8 102 6 102 1 102 -4 102 -10 
101 -13 102 -16 102 -16 102 -13 101 -7 102 2 102 11 102 20 
102 27 101 30 102 26 102 19 102 6 102 -10 101 -28 102 -41 
102 -51 102 -52 102 -43 101 -24 102 1 102 32 102 60 101 83 
102 93 102 88 102 66 102 25 101 -26 102 -80 102 -128 102 -158 
102 -164 101 -142 102 -91 102 -13 102 85 102 187 101 265 102 298 
102 275 102 203 101 98 102 -33 102 -198 102 -383 102 -542 101 -592 
102 -476 102 -224 102 45 102 230 101 360 102 579 102 953 102 1277 
102 1137 101 322 102 -792 102 -1386 102 -986 101 -191 1179 4103 71 MP stroke
9 0 102 3 102 3 101 2 102 0 102 -2 102 -4 102 -6 
101 -7 102 -7 102 -5 102 -3 101 1 102 6 102 9 102 13 
102 14 101 13 102 9 102 3 102 -4 102 -13 101 -21 102 -26 
102 -27 102 -24 102 -15 101 -2 102 13 102 29 102 44 101 54 
102 53 102 43 102 22 102 -4 101 -33 102 -64 102 -93 102 -110 
102 -104 101 -74 102 -25 102 28 102 79 102 132 101 189 102 227 
102 210 102 125 101 0 102 -107 102 -178 102 -249 102 -365 101 -478 
102 -455 102 -215 102 140 102 377 101 393 102 376 102 608 102 1032 
102 1135 101 459 102 -699 102 -1359 102 -932 101 -149 1179 4103 71 MP stroke
9 0 102 4 102 3 101 1 102 -2 102 -4 102 -7 102 -7 
101 -9 102 -7 102 -4 102 -1 101 4 102 9 102 14 102 15 
102 16 101 13 102 7 102 0 102 -11 102 -19 101 -28 102 -31 
102 -29 102 -23 102 -11 101 5 102 23 102 42 102 56 101 61 
102 55 102 39 102 14 102 -15 101 -50 102 -87 102 -116 102 -123 
102 -103 101 -61 102 -9 102 43 102 103 102 172 101 236 102 256 
102 201 102 85 101 -39 102 -125 102 -196 102 -307 102 -463 101 -553 
102 -438 102 -108 102 245 102 399 101 368 102 426 102 790 102 1226 
102 1144 101 238 102 -960 102 -1438 102 -838 101 -102 1179 4103 71 MP stroke
9 1 102 8 102 6 101 3 102 -1 102 -6 102 -9 102 -13 
101 -14 102 -13 102 -10 102 -4 101 4 102 12 102 18 102 23 
102 25 101 22 102 16 102 4 102 -11 102 -24 101 -35 102 -41 
102 -43 102 -37 102 -24 101 -4 102 24 102 50 102 68 101 75 
102 71 102 57 102 36 102 1 101 -47 102 -99 102 -135 102 -140 
102 -117 101 -80 102 -40 102 8 102 82 102 178 101 263 102 280 
102 210 102 94 101 -4 102 -60 102 -126 102 -269 102 -466 101 -576 
102 -455 102 -127 102 196 102 311 101 248 102 288 102 634 102 1087 
102 1128 101 435 102 -631 102 -1231 102 -898 101 -185 1179 4103 71 MP stroke
9 0 102 11 102 10 101 8 102 5 102 -1 102 -7 102 -13 
101 -16 102 -19 102 -16 102 -12 101 -5 102 6 102 16 102 25 
102 31 101 31 102 26 102 16 102 1 102 -17 101 -35 102 -47 
102 -55 102 -52 102 -39 101 -17 102 11 102 41 102 70 101 88 
102 94 102 83 102 55 102 12 101 -41 102 -92 102 -135 102 -160 
102 -158 101 -127 102 -67 102 14 102 106 102 192 101 255 102 281 
102 258 102 182 101 62 102 -87 102 -241 102 -378 102 -469 101 -489 
102 -412 102 -231 102 18 102 275 101 486 102 654 102 811 102 917 
102 797 101 270 102 -550 102 -1118 102 -906 101 -207 1179 4103 71 MP stroke
9 1 102 5 102 3 101 1 102 -1 102 -6 102 -8 102 -9 
101 -11 102 -9 102 -6 102 -1 101 5 102 11 102 15 102 19 
102 19 101 16 102 10 102 0 102 -11 102 -22 101 -31 102 -36 
102 -35 102 -28 102 -14 101 4 102 25 102 44 102 60 101 66 
102 64 102 48 102 22 102 -14 101 -54 102 -92 102 -116 102 -123 
102 -110 101 -81 102 -32 102 34 102 112 102 187 101 234 102 235 
102 188 102 112 101 25 102 -72 102 -196 102 -348 102 -479 101 -503 
102 -364 102 -113 102 121 102 240 101 298 102 461 102 809 102 1134 
102 1034 101 305 102 -703 102 -1250 102 -908 101 -190 1179 4103 71 MP stroke
9 0 102 4 102 5 101 5 102 3 102 1 102 -1 102 -4 
101 -8 102 -9 102 -9 102 -8 101 -5 102 0 102 5 102 11 
102 16 101 18 102 17 102 13 102 6 102 -4 101 -16 102 -26 
102 -32 102 -35 102 -31 101 -19 102 -2 102 18 102 39 101 57 
102 66 102 65 102 51 102 23 101 -13 102 -54 102 -93 102 -120 
102 -129 101 -115 102 -76 102 -16 102 60 102 140 101 208 102 246 
102 242 102 190 101 93 102 -33 102 -177 102 -325 102 -448 101 -506 
102 -450 102 -271 102 -18 102 225 101 417 102 610 102 873 102 1116 
102 1047 101 402 102 -628 102 -1321 102 -1053 101 -236 1179 4103 71 MP stroke
9 1 102 10 102 7 101 3 102 -3 102 -9 102 -14 102 -18 
101 -19 102 -17 102 -11 102 -3 101 7 102 18 102 27 102 31 
102 33 101 27 102 16 102 1 102 -17 102 -34 101 -48 102 -56 
102 -54 102 -42 102 -23 101 6 102 36 102 64 102 86 101 96 
102 90 102 67 102 28 102 -22 101 -74 102 -121 102 -152 102 -162 
102 -146 101 -103 102 -34 102 54 102 150 102 230 101 274 102 272 
102 223 102 140 101 31 102 -105 102 -266 102 -426 102 -524 101 -502 
102 -344 102 -113 102 95 102 232 101 359 102 588 102 912 102 1112 
102 880 101 131 102 -766 102 -1174 102 -800 101 -153 1179 4103 71 MP stroke
9 0 102 9 102 9 101 8 102 6 102 1 102 -4 102 -10 
101 -13 102 -16 102 -16 102 -13 101 -7 102 2 102 11 102 20 
102 27 101 30 102 26 102 19 102 6 102 -10 101 -28 102 -41 
102 -51 102 -52 102 -43 101 -24 102 1 102 32 102 60 101 83 
102 93 102 88 102 66 102 25 101 -26 102 -80 102 -128 102 -158 
102 -164 101 -142 102 -91 102 -13 102 85 102 187 101 265 102 298 
102 275 102 203 101 98 102 -33 102 -198 102 -383 102 -542 101 -592 
102 -476 102 -224 102 45 102 230 101 360 102 579 102 953 102 1277 
102 1137 101 322 102 -792 102 -1386 102 -986 101 -191 1179 4103 71 MP stroke
9 0 102 3 102 3 101 2 102 0 102 -2 102 -4 102 -6 
101 -7 102 -7 102 -5 102 -3 101 1 102 6 102 9 102 13 
102 14 101 13 102 9 102 3 102 -4 102 -13 101 -21 102 -26 
102 -27 102 -24 102 -15 101 -2 102 13 102 29 102 44 101 54 
102 53 102 43 102 22 102 -4 101 -33 102 -64 102 -93 102 -110 
102 -104 101 -74 102 -25 102 28 102 79 102 132 101 189 102 227 
102 210 102 125 101 0 102 -107 102 -178 102 -249 102 -365 101 -478 
102 -455 102 -215 102 140 102 377 101 393 102 376 102 608 102 1032 
102 1135 101 459 102 -699 102 -1359 102 -932 101 -149 1179 4103 71 MP stroke
9 0 102 4 102 3 101 1 102 -2 102 -4 102 -7 102 -7 
101 -9 102 -7 102 -4 102 -1 101 4 102 9 102 14 102 15 
102 16 101 13 102 7 102 0 102 -11 102 -19 101 -28 102 -31 
102 -29 102 -23 102 -11 101 5 102 23 102 42 102 56 101 61 
102 55 102 39 102 14 102 -15 101 -50 102 -87 102 -116 102 -123 
102 -103 101 -61 102 -9 102 43 102 103 102 172 101 236 102 256 
102 201 102 85 101 -39 102 -125 102 -196 102 -307 102 -463 101 -553 
102 -438 102 -108 102 245 102 399 101 368 102 426 102 790 102 1226 
102 1144 101 238 102 -960 102 -1438 102 -838 101 -102 1179 4103 71 MP stroke
9 1 102 8 102 7 101 5 102 1 102 -4 102 -8 102 -12 
101 -14 102 -15 102 -12 102 -6 101 1 102 9 102 16 102 23 
102 26 101 26 102 20 102 8 102 -6 102 -22 101 -33 102 -42 
102 -45 102 -44 102 -33 101 -12 102 19 102 49 102 70 101 77 
102 76 102 68 102 51 102 17 101 -40 102 -103 102 -148 102 -153 
102 -126 101 -90 102 -60 102 -18 102 65 102 189 101 299 102 323 
102 237 102 101 101 5 102 -34 102 -96 102 -276 102 -536 101 -685 
102 -540 102 -142 102 234 102 338 101 230 102 273 102 711 102 1286 
102 1350 101 532 102 -726 102 -1427 102 -1036 101 -213 1179 4103 71 MP stroke
9 0 102 11 102 10 101 8 102 5 102 -1 102 -7 102 -13 
101 -16 102 -19 102 -16 102 -12 101 -5 102 6 102 16 102 25 
102 31 101 31 102 26 102 16 102 1 102 -17 101 -35 102 -47 
102 -55 102 -52 102 -39 101 -17 102 11 102 41 102 70 101 88 
102 94 102 83 102 55 102 12 101 -41 102 -92 102 -135 102 -160 
102 -158 101 -127 102 -67 102 14 102 106 102 192 101 255 102 281 
102 258 102 182 101 62 102 -87 102 -241 102 -378 102 -469 101 -489 
102 -412 102 -231 102 18 102 275 101 486 102 654 102 811 102 917 
102 797 101 270 102 -550 102 -1118 102 -906 101 -207 1179 4103 71 MP stroke
9 1 102 5 102 3 101 1 102 -1 102 -6 102 -8 102 -9 
101 -11 102 -9 102 -6 102 -1 101 5 102 11 102 15 102 19 
102 19 101 16 102 10 102 0 102 -11 102 -22 101 -31 102 -36 
102 -35 102 -28 102 -14 101 4 102 25 102 44 102 60 101 66 
102 64 102 48 102 22 102 -14 101 -54 102 -92 102 -116 102 -123 
102 -110 101 -81 102 -32 102 34 102 112 102 187 101 234 102 235 
102 188 102 112 101 25 102 -72 102 -196 102 -348 102 -479 101 -503 
102 -364 102 -113 102 121 102 240 101 298 102 461 102 809 102 1134 
102 1034 101 305 102 -703 102 -1250 102 -908 101 -190 1179 4103 71 MP stroke
9 0 102 4 102 5 101 5 102 3 102 1 102 -1 102 -4 
101 -8 102 -9 102 -9 102 -8 101 -5 102 0 102 5 102 11 
102 16 101 18 102 17 102 13 102 6 102 -4 101 -16 102 -26 
102 -32 102 -35 102 -31 101 -19 102 -2 102 18 102 39 101 57 
102 66 102 65 102 51 102 23 101 -13 102 -54 102 -93 102 -120 
102 -129 101 -115 102 -76 102 -16 102 60 102 140 101 208 102 246 
102 242 102 190 101 93 102 -33 102 -177 102 -325 102 -448 101 -506 
102 -450 102 -271 102 -18 102 225 101 417 102 610 102 873 102 1116 
102 1047 101 402 102 -628 102 -1321 102 -1053 101 -236 1179 4103 71 MP stroke
9 1 102 10 102 7 101 3 102 -3 102 -9 102 -14 102 -18 
101 -19 102 -17 102 -11 102 -3 101 7 102 18 102 27 102 31 
102 33 101 27 102 16 102 1 102 -17 102 -34 101 -48 102 -56 
102 -54 102 -42 102 -23 101 6 102 36 102 64 102 86 101 96 
102 90 102 67 102 28 102 -22 101 -74 102 -121 102 -152 102 -162 
102 -146 101 -103 102 -34 102 54 102 150 102 230 101 274 102 272 
102 223 102 140 101 31 102 -105 102 -266 102 -426 102 -524 101 -502 
102 -344 102 -113 102 95 102 232 101 359 102 588 102 912 102 1112 
102 880 101 131 102 -766 102 -1174 102 -800 101 -153 1179 4103 71 MP stroke
9 0 102 9 102 9 101 8 102 6 102 1 102 -4 102 -10 
101 -13 102 -16 102 -16 102 -13 101 -7 102 2 102 11 102 20 
102 27 101 30 102 26 102 19 102 6 102 -10 101 -28 102 -41 
102 -51 102 -52 102 -43 101 -24 102 1 102 32 102 60 101 83 
102 93 102 88 102 66 102 25 101 -26 102 -80 102 -128 102 -158 
102 -164 101 -142 102 -91 102 -13 102 85 102 187 101 265 102 298 
102 275 102 203 101 98 102 -33 102 -198 102 -383 102 -542 101 -592 
102 -476 102 -224 102 45 102 230 101 360 102 579 102 953 102 1277 
102 1137 101 322 102 -792 102 -1386 102 -986 101 -191 1179 4103 71 MP stroke
9 0 102 3 102 3 101 2 102 0 102 -2 102 -4 102 -6 
101 -7 102 -7 102 -5 102 -3 101 1 102 6 102 9 102 13 
102 14 101 13 102 9 102 3 102 -4 102 -13 101 -21 102 -26 
102 -27 102 -24 102 -15 101 -2 102 13 102 29 102 44 101 54 
102 53 102 43 102 22 102 -4 101 -33 102 -64 102 -93 102 -110 
102 -104 101 -74 102 -25 102 28 102 79 102 132 101 189 102 227 
102 210 102 125 101 0 102 -107 102 -178 102 -249 102 -365 101 -478 
102 -455 102 -215 102 140 102 377 101 393 102 376 102 608 102 1032 
102 1135 101 459 102 -699 102 -1359 102 -932 101 -149 1179 4103 71 MP stroke
9 0 102 4 102 3 101 1 102 -2 102 -4 102 -7 102 -7 
101 -9 102 -7 102 -4 102 -1 101 4 102 9 102 14 102 15 
102 16 101 13 102 7 102 0 102 -11 102 -19 101 -28 102 -31 
102 -29 102 -23 102 -11 101 5 102 23 102 42 102 56 101 61 
102 55 102 39 102 14 102 -15 101 -50 102 -87 102 -116 102 -123 
102 -103 101 -61 102 -9 102 43 102 103 102 172 101 236 102 256 
102 201 102 85 101 -39 102 -125 102 -196 102 -307 102 -463 101 -553 
102 -438 102 -108 102 245 102 399 101 368 102 426 102 790 102 1226 
102 1144 101 238 102 -960 102 -1438 102 -838 101 -102 1179 4103 71 MP stroke
9 1 102 8 102 7 101 5 102 1 102 -4 102 -8 102 -12 
101 -14 102 -15 102 -12 102 -6 101 1 102 9 102 16 102 23 
102 26 101 26 102 20 102 8 102 -6 102 -22 101 -33 102 -42 
102 -45 102 -44 102 -33 101 -12 102 19 102 49 102 70 101 77 
102 76 102 68 102 51 102 17 101 -40 102 -103 102 -148 102 -153 
102 -126 101 -90 102 -60 102 -18 102 65 102 189 101 299 102 323 
102 237 102 101 101 5 102 -34 102 -96 102 -276 102 -536 101 -685 
102 -540 102 -142 102 234 102 338 101 230 102 273 102 711 102 1286 
102 1350 101 532 102 -726 102 -1427 102 -1036 101 -213 1179 4103 71 MP stroke
9 0 102 11 102 10 101 8 102 5 102 -1 102 -7 102 -13 
101 -16 102 -19 102 -16 102 -12 101 -5 102 6 102 16 102 25 
102 31 101 31 102 26 102 16 102 1 102 -17 101 -35 102 -47 
102 -55 102 -52 102 -39 101 -17 102 11 102 41 102 70 101 88 
102 94 102 83 102 55 102 12 101 -41 102 -92 102 -135 102 -160 
102 -158 101 -127 102 -67 102 14 102 106 102 192 101 255 102 281 
102 258 102 182 101 62 102 -87 102 -241 102 -378 102 -469 101 -489 
102 -412 102 -231 102 18 102 275 101 486 102 654 102 811 102 917 
102 797 101 270 102 -550 102 -1118 102 -906 101 -207 1179 4103 71 MP stroke
9 1 102 5 102 3 101 1 102 -1 102 -6 102 -8 102 -9 
101 -11 102 -9 102 -6 102 -1 101 5 102 11 102 15 102 19 
102 19 101 16 102 10 102 0 102 -11 102 -22 101 -31 102 -36 
102 -35 102 -28 102 -14 101 4 102 25 102 44 102 60 101 66 
102 64 102 48 102 22 102 -14 101 -54 102 -92 102 -116 102 -123 
102 -110 101 -81 102 -32 102 34 102 112 102 187 101 234 102 235 
102 188 102 112 101 25 102 -72 102 -196 102 -348 102 -479 101 -503 
102 -364 102 -113 102 121 102 240 101 298 102 461 102 809 102 1134 
102 1034 101 305 102 -703 102 -1250 102 -908 101 -190 1179 4103 71 MP stroke
9 0 102 4 102 5 101 5 102 3 102 1 102 -1 102 -4 
101 -8 102 -9 102 -9 102 -8 101 -5 102 0 102 5 102 11 
102 16 101 18 102 17 102 13 102 6 102 -4 101 -16 102 -26 
102 -32 102 -35 102 -31 101 -19 102 -2 102 18 102 39 101 57 
102 66 102 65 102 51 102 23 101 -13 102 -54 102 -93 102 -120 
102 -129 101 -115 102 -76 102 -16 102 60 102 140 101 208 102 246 
102 242 102 190 101 93 102 -33 102 -177 102 -325 102 -448 101 -506 
102 -450 102 -271 102 -18 102 225 101 417 102 610 102 873 102 1116 
102 1047 101 402 102 -628 102 -1321 102 -1053 101 -236 1179 4103 71 MP stroke
9 1 102 10 102 7 101 3 102 -3 102 -9 102 -14 102 -18 
101 -19 102 -17 102 -11 102 -3 101 7 102 18 102 27 102 31 
102 33 101 27 102 16 102 1 102 -17 102 -34 101 -48 102 -56 
102 -54 102 -42 102 -23 101 6 102 36 102 64 102 86 101 96 
102 90 102 67 102 28 102 -22 101 -74 102 -121 102 -152 102 -162 
102 -146 101 -103 102 -34 102 54 102 150 102 230 101 274 102 272 
102 223 102 140 101 31 102 -105 102 -266 102 -426 102 -524 101 -502 
102 -344 102 -113 102 95 102 232 101 359 102 588 102 912 102 1112 
102 880 101 131 102 -766 102 -1174 102 -800 101 -153 1179 4103 71 MP stroke
DA
/c8 { 0.000000 1.000000 1.000000 sr} bdef
c8
9 0 102 5 102 7 101 7 102 7 102 5 102 2 102 -3 
101 -8 102 -11 102 -14 102 -13 101 -11 102 -5 102 2 102 10 
102 18 101 24 102 25 102 23 102 14 102 2 101 -13 102 -28 
102 -40 102 -46 102 -45 101 -33 102 -14 102 12 102 41 101 66 
102 82 102 86 102 71 102 42 101 -3 102 -54 102 -104 102 -141 
102 -158 101 -146 102 -102 102 -30 102 61 102 155 101 236 102 284 
102 283 102 226 101 114 102 -42 102 -216 102 -379 102 -495 101 -533 
102 -470 102 -304 102 -45 102 268 101 583 102 838 102 970 102 934 
102 703 101 290 102 -253 102 -840 102 -1291 101 -598 1179 4103 71 MP stroke
SO
gr

c8
/c9 { 1.000000 0.000000 0.000000 sr} bdef
c9
  36   36 1371 4372 FO
  36   36 1404 3844 FO
  36   36 1437 3052 FO
  36   36 1470 2261 FO
  36   36 1503 2261 FO
  36   36 1536 1733 FO
  36   36 1569 2524 FO
  36   36 1602 1997 FO
  36   36 1636 2261 FO
  36   36 1669 2789 FO
  36   36 1702 2524 FO
  36   36 1735 3052 FO
  36   36 1768 3316 FO
  36   36 1801 3052 FO
  36   36 1834 3316 FO
  36   36 1867 3844 FO
  36   36 1900 4372 FO
  36   36 1933 3844 FO
  36   36 1966 4108 FO
  36   36 1999 4372 FO
  36   36 2033 4372 FO
  36   36 2066 4108 FO
  36   36 2099 4636 FO
  36   36 2132 4899 FO
  36   36 2165 4899 FO
  36   36 2198 4636 FO
  36   36 2231 5164 FO
  36   36 2264 5164 FO
  36   36 2297 4372 FO
  36   36 2330 4636 FO
  36   36 2363 4636 FO
  36   36 2397 5164 FO
  36   36 2430 5164 FO
  36   36 2463 4899 FO
  36   36 2496 4899 FO
  36   36 2529 4636 FO
  36   36 2562 4372 FO
  36   36 2595 5164 FO
  36   36 2628 4636 FO
  36   36 2661 4636 FO
  36   36 2694 4108 FO
  36   36 2727 4372 FO
  36   36 2760 3844 FO
  36   36 2794 3844 FO
  36   36 2827 4636 FO
  36   36 2860 4108 FO
  36   36 2893 3580 FO
  36   36 2926 3316 FO
  36   36 2959 3844 FO
  36   36 2992 3580 FO
  36   36 3025 4108 FO
  36   36 3058 3844 FO
  36   36 3091 3316 FO
  36   36 3124 3580 FO
  36   36 3158 3844 FO
  36   36 3191 3580 FO
  36   36 3224 4108 FO
  36   36 3257 3580 FO
  36   36 3290 3844 FO
  36   36 3323 3580 FO
  36   36 3356 3844 FO
  36   36 3389 4108 FO
  36   36 3422 3844 FO
  36   36 3455 4108 FO
  36   36 3488 3580 FO
  36   36 3521 4372 FO
  36   36 3555 4108 FO
  36   36 3588 4108 FO
  36   36 3621 4372 FO
  36   36 3654 3580 FO
  36   36 3687 4108 FO
  36   36 3720 4372 FO
  36   36 3753 4372 FO
  36   36 3786 4372 FO
  36   36 3819 4372 FO
  36   36 3852 4372 FO
  36   36 3885 4108 FO
  36   36 3919 4372 FO
  36   36 3952 4108 FO
  36   36 3985 4108 FO
  36   36 4018 4108 FO
  36   36 4051 4108 FO
  36   36 4084 4108 FO
  36   36 4117 4636 FO
  36   36 4150 4636 FO
  36   36 4183 4372 FO
  36   36 4216 4372 FO
  36   36 4249 4372 FO
  36   36 4282 3844 FO
  36   36 4316 4108 FO
  36   36 4349 4108 FO
  36   36 4382 4108 FO
  36   36 4415 3580 FO
  36   36 4448 4108 FO
  36   36 4481 4372 FO
  36   36 4514 3844 FO
  36   36 4547 3844 FO
  36   36 4580 3844 FO
  36   36 4613 3580 FO
  36   36 4646 3844 FO
  36   36 4680 3316 FO
  36   36 4713 3580 FO
  36   36 4746 3316 FO
  36   36 4779 3844 FO
  36   36 4812 3580 FO
  36   36 4845 4108 FO
  36   36 4878 3844 FO
  36   36 4911 4108 FO
  36   36 4944 3568 FO
  36   36 4977 4360 FO
  36   36 5010 3832 FO
  36   36 5043 3832 FO
  36   36 5077 4096 FO
  36   36 5110 4360 FO
  36   36 5143 4096 FO
  36   36 5176 4096 FO
  36   36 5209 4096 FO
  36   36 5242 4360 FO
  36   36 5275 4360 FO
  36   36 5308 4096 FO
  36   36 5341 4360 FO
  36   36 5374 4096 FO
  36   36 5407 4360 FO
  36   36 5441 4096 FO
  36   36 5474 4360 FO
  36   36 5507 4887 FO
  36   36 5540 4096 FO
  36   36 5573 4360 FO
  36   36 5606 4360 FO
  36   36 5639 4096 FO
  36   36 5672 4096 FO
  36   36 5705 4360 FO
  36   36 5738 4096 FO
  36   36 5771 4360 FO
  36   36 5804 4096 FO
  36   36 5838 4096 FO
  36   36 5871 3832 FO
  36   36 5904 4360 FO
  36   36 5937 4096 FO
  36   36 5970 3832 FO
  36   36 6003 4360 FO
  36   36 6036 4096 FO
  36   36 6069 3568 FO
  36   36 6102 4360 FO
  36   36 6135 4360 FO
  36   36 6168 4360 FO
  36   36 6202 4360 FO
  36   36 6235 4624 FO
  36   36 6268 4096 FO
  36   36 6301 4096 FO
  36   36 6334 4096 FO
  36   36 6367 3832 FO
  36   36 6400 3568 FO
  36   36 6433 3568 FO
  36   36 6466 4360 FO
  36   36 6499 3568 FO
  36   36 6532 3832 FO
  36   36 6565 3568 FO
  36   36 6599 4624 FO
  36   36 6632 4096 FO
  36   36 6665 4360 FO
  36   36 6698 4096 FO
  36   36 6731 4360 FO
  36   36 6764 4096 FO
  36   36 6797 3832 FO
  36   36 6830 4096 FO
  36   36 6863 4096 FO
  36   36 6896 4096 FO
  36   36 6929 3832 FO
  36   36 6963 4360 FO
  36   36 6996 4360 FO
  36   36 7029 4360 FO
  36   36 7062 4096 FO
  36   36 7095 4096 FO
  36   36 7128 4360 FO
  36   36 7161 4096 FO
  36   36 7194 4360 FO
  36   36 7227 3832 FO
  36   36 7260 4624 FO
  36   36 7293 3832 FO
  36   36 7326 4096 FO
  36   36 7360 4096 FO
  36   36 7393 3568 FO
  36   36 7426 3568 FO
  36   36 7459 3568 FO
  36   36 7492 4360 FO
  36   36 7525 4096 FO
  36   36 7558 4360 FO
  36   36 7591 4096 FO
  36   36 7624 4360 FO
  36   36 7657 3568 FO
  36   36 7690 3568 FO
  36   36 7724 3304 FO
  36   36 7757 4360 FO
  36   36 7790 4096 FO
  36   36 7823 4096 FO
  36   36 7856 4096 FO
  36   36 7889 4360 FO
  36   36 7922 4096 FO
  36   36 7955 4096 FO
  36   36 7988 3832 FO
  36   36 8021 4096 FO
  36   36 8054 3832 FO
  36   36 8087 4096 FO
  36   36 8121 4360 FO
  36   36 8154 3832 FO
  36   36 8187 4360 FO
gs 1179 518 7032 5635 rc
gr

0 sg
%%IncludeResource: font Helvetica
/Helvetica /ISOLatin1Encoding 120 FMSR

4306 6440 mt 
(time [seconds]) s
 926 3579 mt  -90 rotate
(Head [m]) s
90 rotate

end %%Color Dict

eplot
%%EndObject

epage
end

showpage

%%Trailer
%%EOF
