%!PS-Adobe-3.0 EPSF-3.0
%%Title: wellskin.fig
%%Creator: fig2dev Version 3.2 Patchlevel 5e
%%CreationDate: Tue May 24 17:04:05 2016
%%BoundingBox: 0 0 524 440
%Magnification: 1.0000
%%EndComments
%%BeginProlog
/$F2psDict 200 dict def
$F2psDict begin
$F2psDict /mtrx matrix put
/col-1 {0 setgray} bind def
/col0 {0.000 0.000 0.000 srgb} bind def
/col1 {0.000 0.000 1.000 srgb} bind def
/col2 {0.000 1.000 0.000 srgb} bind def
/col3 {0.000 1.000 1.000 srgb} bind def
/col4 {1.000 0.000 0.000 srgb} bind def
/col5 {1.000 0.000 1.000 srgb} bind def
/col6 {1.000 1.000 0.000 srgb} bind def
/col7 {1.000 1.000 1.000 srgb} bind def
/col8 {0.000 0.000 0.560 srgb} bind def
/col9 {0.000 0.000 0.690 srgb} bind def
/col10 {0.000 0.000 0.820 srgb} bind def
/col11 {0.530 0.810 1.000 srgb} bind def
/col12 {0.000 0.560 0.000 srgb} bind def
/col13 {0.000 0.690 0.000 srgb} bind def
/col14 {0.000 0.820 0.000 srgb} bind def
/col15 {0.000 0.560 0.560 srgb} bind def
/col16 {0.000 0.690 0.690 srgb} bind def
/col17 {0.000 0.820 0.820 srgb} bind def
/col18 {0.560 0.000 0.000 srgb} bind def
/col19 {0.690 0.000 0.000 srgb} bind def
/col20 {0.820 0.000 0.000 srgb} bind def
/col21 {0.560 0.000 0.560 srgb} bind def
/col22 {0.690 0.000 0.690 srgb} bind def
/col23 {0.820 0.000 0.820 srgb} bind def
/col24 {0.500 0.190 0.000 srgb} bind def
/col25 {0.630 0.250 0.000 srgb} bind def
/col26 {0.750 0.380 0.000 srgb} bind def
/col27 {1.000 0.500 0.500 srgb} bind def
/col28 {1.000 0.630 0.630 srgb} bind def
/col29 {1.000 0.750 0.750 srgb} bind def
/col30 {1.000 0.880 0.880 srgb} bind def
/col31 {1.000 0.840 0.000 srgb} bind def

end

/cp {closepath} bind def
/ef {eofill} bind def
/gr {grestore} bind def
/gs {gsave} bind def
/sa {save} bind def
/rs {restore} bind def
/l {lineto} bind def
/m {moveto} bind def
/rm {rmoveto} bind def
/n {newpath} bind def
/s {stroke} bind def
/sh {show} bind def
/slc {setlinecap} bind def
/slj {setlinejoin} bind def
/slw {setlinewidth} bind def
/srgb {setrgbcolor} bind def
/rot {rotate} bind def
/sc {scale} bind def
/sd {setdash} bind def
/ff {findfont} bind def
/sf {setfont} bind def
/scf {scalefont} bind def
/sw {stringwidth} bind def
/tr {translate} bind def
/tnt {dup dup currentrgbcolor
  4 -2 roll dup 1 exch sub 3 -1 roll mul add
  4 -2 roll dup 1 exch sub 3 -1 roll mul add
  4 -2 roll dup 1 exch sub 3 -1 roll mul add srgb}
  bind def
/shd {dup dup currentrgbcolor 4 -2 roll mul 4 -2 roll mul
  4 -2 roll mul srgb} bind def
 /DrawEllipse {
	/endangle exch def
	/startangle exch def
	/yrad exch def
	/xrad exch def
	/y exch def
	/x exch def
	/savematrix mtrx currentmatrix def
	x y tr xrad yrad sc 0 0 1 startangle endangle arc
	closepath
	savematrix setmatrix
	} def

/$F2psBegin {$F2psDict begin /$F2psEnteredState save def} def
/$F2psEnd {$F2psEnteredState restore end} def

/pageheader {
save
newpath 0 440 moveto 0 0 lineto 524 0 lineto 524 440 lineto closepath clip newpath
-63.8 503.1 translate
1 -1 scale
$F2psBegin
10 setmiterlimit
0 slj 0 slc
 0.06299 0.06299 sc
} bind def
/pagefooter {
$F2psEnd
restore
} bind def
%%EndProlog
pageheader
%
% Fig objects follow
%
% 
% here starts figure with depth 50
% Ellipse
7.500 slw
n 4500 4500 3479 3479 0 360 DrawEllipse gs col0 s gr

% Ellipse
n 4500 4500 90 90 0 360 DrawEllipse gs col0 s gr

% Ellipse
n 7290 2430 142 142 0 360 DrawEllipse gs col0 s gr

% Ellipse
n 4500 4500 704 704 0 360 DrawEllipse gs col0 s gr

% Polyline
0 slj
0 slc
15.000 slw
gs  clippath
4470 4985 m 4470 5190 l 4530 5190 l 4530 4985 l 4530 4985 l 4500 5135 l 4470 4985 l cp
4530 4780 m 4530 4575 l 4470 4575 l 4470 4780 l 4470 4780 l 4500 4630 l 4530 4780 l cp
eoclip
n 4500 4590 m
 4500 5175 l gs col0 s gr gr

% arrowhead
n 4530 4780 m 4500 4630 l 4470 4780 l 4500 4750 l 4530 4780 l 
 cp gs 0.00 setgray ef gr  col0 s
% arrowhead
n 4470 4985 m 4500 5135 l 4530 4985 l 4500 5015 l 4470 4985 l 
 cp gs 0.00 setgray ef gr  col0 s
% Polyline
gs  clippath
4470 7775 m 4470 7980 l 4530 7980 l 4530 7775 l 4530 7775 l 4500 7925 l 4470 7775 l cp
4530 5410 m 4530 5205 l 4470 5205 l 4470 5410 l 4470 5410 l 4500 5260 l 4530 5410 l cp
eoclip
n 4500 5220 m
 4500 7965 l gs col0 s gr gr

% arrowhead
n 4530 5410 m 4500 5260 l 4470 5410 l 4500 5380 l 4530 5410 l 
 cp gs 0.00 setgray ef gr  col0 s
% arrowhead
n 4470 7775 m 4500 7925 l 4530 7775 l 4500 7805 l 4470 7775 l 
 cp gs 0.00 setgray ef gr  col0 s
% Polyline
gs  clippath
4627 4016 m 4667 3816 l 4608 3804 l 4568 4005 l 4568 4005 l 4627 3864 l 4627 4016 l cp
eoclip
n 4500 4500 m
 4635 3825 l gs col0 s gr gr

% arrowhead
n 4627 4016 m 4627 3864 l 4568 4005 l 4603 3981 l 4627 4016 l 
 cp gs 0.00 setgray ef gr  col0 s
% Polyline
7.500 slw
n 3735 5310 m
 4500 4905 l gs col0 s gr 
% Polyline
n 3555 4275 m
 4410 4455 l gs col0 s gr 
% Polyline
15.000 slw
gs  clippath
7155 2567 m 7319 2445 l 7284 2396 l 7119 2519 l 7119 2519 l 7258 2454 l 7155 2567 l cp
eoclip
n 4500 4500 m
 7290 2430 l gs col0 s gr gr

% arrowhead
n 7155 2567 m 7258 2454 l 7119 2519 l 7161 2525 l 7155 2567 l 
 cp gs 0.00 setgray ef gr  col0 s
% Polyline
7.500 slw
n 4140 3780 m
 4545 4230 l gs col0 s gr 
/Symbol ff 285.75 scf sf
3330 5445 m
gs 1 -1 sc (d) col0 sh gr
/Helvetica ff 190.50 scf sf
3510 5490 m
gs 1 -1 sc (1) col0 sh gr
/Times-Italic ff 317.50 scf sf
3015 4770 m
gs 1 -1 sc (h) col0 sh gr
/Helvetica ff 190.50 scf sf
3195 4860 m
gs 1 -1 sc (1) col0 sh gr
/Times-Italic ff 317.50 scf sf
5220 4275 m
gs 1 -1 sc (h) col0 sh gr
/Helvetica ff 190.50 scf sf
5400 4365 m
gs 1 -1 sc (2) col0 sh gr
/Times-Italic ff 317.50 scf sf
7155 2925 m
gs 1 -1 sc (h) col0 sh gr
/Helvetica ff 190.50 scf sf
7335 3015 m
gs 1 -1 sc (3) col0 sh gr
/Times-Italic ff 317.50 scf sf
4680 4860 m
gs 1 -1 sc (K) col0 sh gr
/Helvetica ff 190.50 scf sf
4905 4905 m
gs 1 -1 sc (1) col0 sh gr
/Times-Roman ff 190.50 scf sf
4050 2520 m
gs 1 -1 sc (2) col0 sh gr
/Times-Italic ff 317.50 scf sf
3825 2430 m
gs 1 -1 sc (K) col0 sh gr
/Times-Roman ff 285.75 scf sf
7605 2160 m
gs 1 -1 sc (Observation) col0 sh gr
/Times-Italic ff 317.50 scf sf
5850 3780 m
gs 1 -1 sc (r) col0 sh gr
/Times-Italic ff 317.50 scf sf
3870 3645 m
gs 1 -1 sc (r) col0 sh gr
/Times-Roman ff 190.50 scf sf
4005 3690 m
gs 1 -1 sc (skin) col0 sh gr
/Times-Roman ff 285.75 scf sf
2790 4185 m
gs 1 -1 sc (Source) col0 sh gr
/Helvetica ff 190.50 scf sf
4815 6615 m
gs 1 -1 sc (2) col0 sh gr
/Symbol ff 285.75 scf sf
4635 6525 m
gs 1 -1 sc (d) col0 sh gr
/Times-Roman ff 285.75 scf sf
4635 6885 m
gs 1 -1 sc (\(formation\)) col0 sh gr
/Times-Roman ff 285.75 scf sf
2880 4500 m
gs 1 -1 sc (well) col0 sh gr
/Times-Roman ff 285.75 scf sf
7560 2475 m
gs 1 -1 sc (well \(no skin\)) col0 sh gr
/Times-Roman ff 190.50 scf sf
5985 3870 m
gs 1 -1 sc (obs) col0 sh gr
/Times-Roman ff 285.75 scf sf
2970 6120 m
gs 1 -1 sc (well skin) col0 sh gr
/Times-Roman ff 285.75 scf sf
3150 5805 m
gs 1 -1 sc (Source) col0 sh gr
% here ends figure;
pagefooter
showpage
%%Trailer
%EOF
