0	0.000211323
0.02	-0.001621092
0.04	0.00510208
0.06	-0.002843319
0.08	0.000211323
0.1	0.011823404
0.12	0.004490042
0.14	0.000823361
0.16	0.005712269
0.18	0.004490042
0.2	0.000823361
0.22	0.00143355
0.24	0.003879853
0.26	0.002045588
0.28	0.002045588
0.3	0.003267815
0.32	0.003267815
0.34	0.002045588
0.36	0.003267815
0.38	0.002045588
0.4	0.00143355
0.42	0.002045588
0.44	0.003267815
0.46	0.00143355
0.48	0.00143355
0.5	0.000823361
0.52	0.002045588
0.54	0.000823361
0.56	0.000823361
0.58	0.00143355
0.6	0.00143355
0.62	0.000823361
0.64	0.00143355
0.66	0.000823361
0.68	0.000211323
0.7	0.000823361
0.72	-0.000398865
0.74	0.000823361
0.76	0.000211323
0.78	0.000211323
0.8	0.000823361
0.82	0.000823361
0.84	-0.000398865
0.86	0.000823361
0.88	0.000211323
0.9	0.000211323
0.92	0.000211323
0.94	0.000211323
0.96	-0.000398865
0.98	-0.000398865
1	-0.000398865
1.02	0.000823361
1.04	-0.000398865
1.06	-0.000398865
1.08	-0.001010903
1.1	-0.001010903
1.12	-0.001010903
1.14	0.000211323
1.16	0.000211323
1.18	-0.001010903
1.2	-0.000398865
1.22	-0.001010903
1.24	-0.000398865
1.26	-0.000398865
1.28	-0.001621092
1.3	0.000211323
1.32	-0.001010903
1.34	-0.00223313
1.36	-0.001010903
1.38	-0.001010903
1.4	-0.001010903
1.42	-0.001010903
1.44	-0.001010903
1.46	-0.001010903
1.48	-0.000398865
1.5	-0.001010903
1.52	-0.001010903
1.54	-0.001010903
1.56	-0.001621092
1.58	-0.00223313
1.6	-0.001010903
1.62	-0.001621092
1.64	-0.001621092
1.66	-0.001621092
1.68	-0.001621092
1.7	-0.001010903
1.72	-0.001010903
1.74	-0.001621092
1.76	-0.001621092
1.78	-0.00223313
1.8	-0.001010903
1.82	-0.001010903
1.84	-0.001010903
1.86	-0.001010903
1.88	-0.000398865
1.9	-0.001010903
1.92	-0.000398865
1.94	0.000211323
1.96	-0.000398865
1.98	-0.000398865
2	-0.001621092
2.02	0.000211323
2.04	-0.001621092
2.06	-0.001621092
2.08	-0.001010903
2.1	-0.001621092
2.12	-0.001621092
2.14	-0.001621092
2.16	0.000211323
2.18	-0.000398865
2.2	-0.001010903
2.22	0.000211323
2.24	0.000211323
2.26	0.000211323
2.28	-0.000398865
2.3	-0.000398865
2.32	0.000211323
2.34	-0.000398865
2.36	0.000823361
2.38	-0.001010903
2.4	0.000211323
2.42	-0.000398865
2.44	-0.000398865
2.46	-0.000398865
2.48	0.002045588
2.5	0.000211323
2.52	0.000823361
2.54	-0.001010903
2.56	-0.000398865
2.58	0.000823361
2.6	0.000823361
2.62	0.000211323
2.64	0.000823361
2.66	0.000211323
2.68	0.000211323
2.7	0.000823361
2.72	0.00143355
2.74	0.000823361
2.76	0.000823361
2.78	0.00143355
2.8	0.00143355
2.82	0.000823361
2.84	0.000211323
2.86	0.00143355
2.88	0.00143355
2.9	0.000211323
2.92	0.000211323
2.94	0.000823361
2.96	0.000211323
2.98	0.000823361
3	0.00143355
3.02	0.000211323
3.04	0.000823361
3.06	0.000211323
3.08	0.00143355
3.1	0.000211323
3.12	0.000211323
3.14	0.000211323
3.16	0.000211323
3.18	-0.001010903
3.2	0.00143355
3.22	0.000823361
3.24	0.00143355
3.26	0.000823361
3.28	0.000211323
3.3	-0.000398865
3.32	0.000211323
3.34	0.000211323
3.36	-0.000398865
3.38	0.000211323
3.4	-0.000398865
3.42	0.000211323
3.44	-0.000398865
3.46	-0.000398865
3.48	-0.001010903
3.5	-0.000398865
3.52	-0.001621092
3.54	0.000823361
3.56	0.000211323
3.58	-0.000398865
3.6	0.000211323
3.62	-0.000398865
3.64	-0.000398865
3.66	0.000211323
3.68	-0.000398865
3.7	0.000211323
3.72	0.000211323
3.74	0.000211323
3.76	-0.001010903
3.78	-0.000398865
3.8	-0.000398865
3.82	0.000211323
3.84	0.000823361
3.86	-0.000398865
3.88	-0.001010903
3.9	-0.001621092
3.92	0.000211323
3.94	-0.001010903
3.96	-0.001010903
3.98	-0.001010903
4	-0.001010903
4.02	-0.001621092
4.04	-0.000398865
4.06	-0.001621092
4.08	-0.001010903
4.1	-0.001010903
4.12	-0.000398865
4.14	-0.000398865
4.16	-0.000398865
4.18	-0.000398865
4.2	-0.000398865
4.22	-0.001010903
4.24	-0.000398865
4.26	-0.000398865
4.28	-0.000398865
4.3	-0.001010903
4.32	-0.001621092
4.34	0.000211323
4.36	0.000211323
4.38	-0.000398865
4.4	-0.001010903
4.42	-0.001010903
4.44	0.000211323
4.46	-0.000398865
4.48	-0.001010903
4.5	-0.000398865
4.52	-0.000398865
4.54	-0.000398865
4.56	-0.000398865
4.58	-0.001010903
4.6	-0.001621092
4.62	0.000823361
4.64	-0.001010903
4.66	-0.000398865
4.68	0.000211323
4.7	-0.000398865
4.72	-0.001010903
4.74	0.000211323
4.76	-0.000398865
4.78	-0.000398865
4.8	-0.000398865
4.82	-0.000398865
4.84	0.000211323
4.86	0.000211323
4.88	0.000211323
4.9	0.000211323
4.92	0.000211323
4.94	0.000823361
4.96	0.000211323
4.98	0.000211323
5	-0.000398865
5.02	-0.000398865
5.04	0.000823361
5.06	-0.000398865
5.08	0.000211323
5.1	-0.000398865
5.12	0.000823361
5.14	0.000823361
5.16	-0.000398865
5.18	-0.000398865
5.2	-0.000398865
5.22	0.000823361
5.24	-0.000398865
5.26	0.000211323
5.28	0.000211323
5.3	-0.001010903
5.32	-0.000398865
5.34	-0.000398865
5.36	0.000211323
5.38	0.000823361
5.4	0.000211323
5.42	0.000211323
5.44	0.000823361
5.46	0.000211323
5.48	-0.000398865
5.5	0.000823361
5.52	-0.000398865
5.54	-0.000398865
5.56	0.000823361
5.58	0.000211323
5.6	-0.000398865
5.62	0.000211323
5.64	0.000823361
5.66	-0.001010903
5.68	0.000211323
5.7	0.000211323
5.72	0.000211323
5.74	-0.000398865
5.76	0.000823361
5.78	0.00143355
5.8	0.000823361
5.82	0.000211323
5.84	0.000823361
5.86	-0.000398865
5.88	0.000823361
5.9	0.000823361
5.92	0.000211323
5.94	-0.001010903
5.96	-0.000398865
5.98	0.000211323
6	0.000211323
6.02	0.000211323
6.04	-0.001010903
6.06	-0.001010903
6.08	-0.001010903
6.1	0.000211323
6.12	-0.001010903
6.14	0.000211323
6.16	-0.001010903
6.18	-0.001010903
6.2	0.000211323
6.22	-0.000398865
6.24	-0.000398865
6.26	0.000211323
6.28	-0.000398865
6.3	0.000211323
6.32	-0.001010903
6.34	-0.000398865
6.36	0.000211323
6.38	-0.000398865
6.4	-0.000398865
6.42	-0.000398865
6.44	0.000211323
6.46	0.000211323
6.48	0.000211323
6.5	-0.001010903
6.52	0.000211323
6.54	0.000211323
6.56	-0.000398865
6.58	-0.000398865
6.6	-0.001010903
6.62	-0.001010903
6.64	-0.001010903
6.66	0.000211323
6.68	-0.000398865
6.7	-0.000398865
6.72	-0.000398865
6.74	-0.000398865
6.76	-0.000398865
6.78	-0.000398865
6.8	0.000211323
6.82	-0.001010903
6.84	-0.001010903
6.86	-0.000398865
6.88	-0.001010903
6.9	-0.000398865
6.92	-0.000398865
6.94	0.000211323
6.96	0.000211323
6.98	-0.000398865
7	-0.000398865
7.02	-0.001010903
7.04	0.000211323
7.06	0.000211323
7.08	-0.001010903
7.1	-0.000398865
7.12	-0.000398865
7.14	0.000211323
7.16	0.000211323
7.18	-0.000398865
7.2	-0.000398865
7.22	-0.000398865
7.24	0.000823361
7.26	0.000211323
7.28	-0.001010903
7.3	0.000211323
7.32	-0.001010903
7.34	-0.000398865
7.36	0.000211323
7.38	-0.000398865
7.4	-0.000398865
7.42	-0.000398865
7.44	0.000211323
7.46	-0.000398865
7.48	-0.000398865
7.5	-0.000398865
7.52	-0.001010903
7.54	-0.000398865
7.56	-0.000398865
7.58	-0.000398865
7.6	-0.000398865
7.62	-0.000398865
7.64	-0.000398865
7.66	0.000211323
7.68	-0.000398865
7.7	0.000211323
7.72	0.000823361
7.74	0.000211323
7.76	-0.000398865
7.78	0.000211323
7.8	0.000211323
7.82	0.000211323
7.84	0.000211323
7.86	-0.000398865
7.88	-0.001010903
7.9	0.000211323
7.92	-0.000398865
7.94	0.000211323
7.96	-0.000398865
7.98	0.000211323
8	-0.000398865
8.02	0.000211323
8.04	0.000211323
8.06	0.00143355
8.08	0.000211323
8.1	-0.001010903
8.12	0.000211323
8.14	-0.000398865
8.16	-0.000398865
8.18	-0.000398865
8.2	0.000211323
8.22	0.000211323
8.24	-0.000398865
8.26	-0.000398865
8.28	-0.000398865
8.3	0.000211323
8.32	-0.001010903
8.34	-0.001010903
8.36	0.000211323
8.38	0.000211323
8.4	-0.000398865
8.42	0.000211323
8.44	-0.001010903
8.46	-0.001621092
8.48	0.000823361
8.5	0.000211323
8.52	0.000211323
8.54	0.000211323
8.56	-0.000398865
8.58	0.000823361
8.6	0.000823361
8.62	-0.000398865
8.64	0.000211323
8.66	-0.000398865
8.68	0.000211323
8.7	0.000211323
8.72	-0.001010903
8.74	0.000823361
8.76	0.000211323
8.78	-0.000398865
8.8	-0.001010903
8.82	-0.001010903
8.84	0.000211323
8.86	-0.000398865
8.88	0.000211323
8.9	0.000211323
8.92	-0.001010903
8.94	-0.001010903
8.96	-0.000398865
8.98	0.000823361
9	0.000211323
9.02	-0.000398865
9.04	-0.000398865
9.06	0.000211323
9.08	-0.001621092
9.1	-0.000398865
9.12	0.000211323
9.14	0.000211323
9.16	-0.000398865
9.18	-0.001010903
9.2	-0.001010903
9.22	0.000211323
9.24	-0.000398865
9.26	-0.000398865
9.28	0.000211323
9.3	0.000823361
9.32	-0.001010903
9.34	-0.001010903
9.36	-0.000398865
9.38	0.000211323
9.4	-0.001621092
9.42	-0.001010903
9.44	-0.001010903
9.46	0.000211323
9.48	0.000211323
9.5	0.000211323
9.52	0.000823361
9.54	0.000823361
9.56	-0.001010903
9.58	0.000211323
9.6	0.000211323
9.62	-0.000398865
9.64	-0.000398865
9.66	-0.000398865
9.68	-0.001010903
9.7	-0.001010903
9.72	-0.001010903
9.74	0.000211323
9.76	-0.000398865
9.78	0.000211323
9.8	-0.001010903
9.82	0.000211323
9.84	0.000211323
9.86	-0.000398865
9.88	-0.000398865
9.9	0.000211323
9.92	-0.001010903
9.94	-0.000398865
9.96	-0.001010903
9.98	-0.001010903
10	-0.001010903
10.02	-0.001010903
10.04	-0.001010903
10.06	-0.000398865
10.08	-0.000398865
10.1	-0.000398865
10.12	-0.000398865
10.14	-0.001010903
10.16	0.000211323
10.18	-0.000398865
10.2	-0.000398865
10.22	-0.000398865
10.24	-0.000398865
10.26	0.000211323
10.28	-0.000398865
10.3	0.000211323
10.32	-0.001010903
10.34	-0.000398865
10.36	0.000211323
10.38	-0.000398865
10.4	-0.001010903
10.42	0.000823361
10.44	0.000823361
10.46	-0.000398865
10.48	-0.000398865
10.5	-0.000398865
10.52	-0.001010903
10.54	-0.000398865
10.56	0.000211323
10.58	0.000823361
10.6	-0.000398865
10.62	-0.000398865
10.64	0.000211323
10.66	-0.000398865
10.68	-0.000398865
10.7	0.000211323
10.72	-0.001010903
10.74	-0.001010903
10.76	-0.000398865
10.78	-0.001010903
10.8	-0.000398865
10.82	-0.000398865
10.84	-0.001010903
10.86	-0.001010903
10.88	0.000823361
10.9	-0.000398865
10.92	-0.000398865
10.94	0.000211323
10.96	0.000211323
10.98	-0.000398865
11	-0.000398865
11.02	-0.000398865
11.04	0.000211323
11.06	-0.000398865
11.08	0.000211323
11.1	0.000211323
11.12	0.000211323
11.14	0.000211323
11.16	0.000211323
11.18	-0.000398865
11.2	-0.001010903
11.22	0.000211323
11.24	-0.000398865
11.26	-0.000398865
11.28	-0.001621092
11.3	0.000211323
11.32	-0.000398865
11.34	0.000211323
11.36	-0.001010903
11.38	-0.000398865
11.4	0.000211323
11.42	0.00143355
11.44	0.000823361
11.46	0.000211323
11.48	0.000211323
11.5	0.000211323
11.52	-0.001621092
11.54	-0.000398865
11.56	-0.000398865
11.58	-0.000398865
11.6	0.000211323
11.62	0.000211323
11.64	-0.000398865
11.66	0.000211323
11.68	0.000211323
11.7	-0.000398865
11.72	-0.000398865
11.74	0.000211323
11.76	0.000823361
11.78	-0.001010903
11.8	-0.001010903
11.82	-0.001010903
11.84	0.000211323
11.86	0.000211323
11.88	-0.000398865
11.9	-0.001010903
11.92	-0.000398865
11.94	-0.001010903
11.96	-0.000398865
11.98	0.000211323
12	0.000211323
12.02	0.000211323
12.04	-0.001621092
12.06	-0.000398865
12.08	-0.000398865
12.1	-0.000398865
12.12	-0.000398865
12.14	-0.000398865
12.16	0.000211323
12.18	0.000211323
12.2	-0.000398865
12.22	-0.00223313
12.24	-0.000398865
12.26	-0.001010903
12.28	0.000211323
12.3	-0.001010903
12.32	-0.001621092
12.34	0.000211323
12.36	-0.001010903
12.38	-0.001010903
12.4	0.000211323
12.42	-0.001010903
12.44	-0.001010903
12.46	0.000211323
12.48	-0.001010903
12.5	-0.001010903
12.52	-0.001010903
12.54	0.000211323
12.56	-0.001005356
12.58	0.000216871
12.6	-0.001005356
12.62	-0.000393318
12.64	-0.000393318
12.66	0.000216871
12.68	-0.000393318
12.7	-0.000393318
12.72	0.000216871
12.74	-0.000393318
12.76	-0.000393318
12.78	0.000216871
12.8	-0.000393318
12.82	0.000216871
12.84	-0.000393318
12.86	-0.000393318
12.88	-0.000393318
12.9	-0.000393318
12.92	0.000216871
12.94	0.000216871
12.96	-0.001005356
12.98	0.000216871
13	-0.000393318
13.02	-0.001005356
13.04	0.000216871
13.06	0.000828909
13.08	-0.000393318
13.1	0.000828909
13.12	-0.000393318
13.14	0.000828909
13.16	-0.000393318
13.18	-0.001005356
13.2	-0.001005356
13.22	-0.001005356
13.24	0.000216871
13.26	-0.001005356
13.28	0.001439098
13.3	0.000216871
13.32	-0.000393318
13.34	-0.000393318
13.36	-0.000393318
13.38	-0.000393318
13.4	0.000216871
13.42	-0.000393318
13.44	-0.001005356
13.46	-0.001005356
13.48	-0.000393318
13.5	0.000216871
13.52	0.000828909
13.54	-0.001005356
13.56	0.000828909
13.58	0.000216871
13.6	-0.000393318
13.62	0.000216871
13.64	-0.000393318
13.66	0.000216871
13.68	-0.000393318
13.7	0.000216871
13.72	0.000828909
13.74	-0.000393318
13.76	0.000216871
13.78	0.001439098
13.8	-0.000393318
13.82	-0.001005356
13.84	0.000828909
13.86	-0.000393318
13.88	-0.000393318
13.9	-0.001005356
13.92	-0.001005356
13.94	-0.000393318
13.96	-0.000393318
13.98	-0.001005356
14	-0.000393318
14.02	-0.000393318
14.04	0.000216871
14.06	0.000216871
14.08	0.000216871
14.1	0.000828909
14.12	0.000828909
14.14	-0.000393318
14.16	0.000216871
14.18	0.000216871
14.2	0.000216871
14.22	-0.001005356
14.24	0.000828909
14.26	0.000828909
14.28	-0.000393318
14.3	-0.000393318
14.32	0.000216871
14.34	0.000828909
14.36	0.000216871
14.38	0.000828909
14.4	-0.000393318
14.42	0.000216871
14.44	0.000216871
14.46	0.000216871
14.48	-0.000393318
14.5	-0.001005356
14.52	-0.000393318
14.54	0.000216871
14.56	0.000216871
14.58	-0.001005356
14.6	0.000216871
14.62	0.000216871
14.64	-0.000393318
14.66	0.000216871
14.68	0.000216871
14.7	-0.001005356
14.72	-0.000393318
14.74	0.000828909
14.76	-0.001005356
14.78	-0.001005356
14.8	-0.000393318
14.82	0.000216871
14.84	-0.001005356
14.86	-0.001005356
14.88	0.000828909
14.9	-0.000393318
14.92	-0.000393318
14.94	-0.000393318
14.96	-0.001005356
14.98	-0.000393318
15	0.000216871
15.02	0.000216871
15.04	0.000216871
15.06	-0.001615545
15.08	0.000828909
15.1	0.000216871
15.12	0.000828909
15.14	0.000216871
15.16	-0.000393318
15.18	0.000216871
15.2	-0.000393318
15.22	0.000216871
15.24	0.000216871
15.26	-0.000393318
15.28	0.000828909
15.3	-0.000393318
15.32	0.000216871
15.34	-0.000393318
15.36	-0.001005356
15.38	0.000216871
15.4	-0.000393318
15.42	-0.000393318
15.44	-0.000393318
15.46	-0.000393318
15.48	-0.000393318
15.5	-0.000393318
15.52	-0.000393318
15.54	0.000216871
15.56	-0.001005356
15.58	-0.000393318
15.6	0.000216871
15.62	-0.000393318
15.64	0.000216871
15.66	0.000216871
15.68	-0.000393318
15.7	-0.000393318
15.72	0.000216871
15.74	0.000216871
15.76	-0.001005356
15.78	0.000216871
15.8	-0.001005356
15.82	-0.000393318
15.84	0.000216871
15.86	0.000216871
15.88	0.000216871
15.9	-0.000393318
