0.02	0.017324
0.12	-0.00031472
0.22	-0.0045405
0.32	-0.0030435
0.42	-0.0013441
0.52	-0.0010862
0.62	-0.0017182
0.72	-0.0013824
0.82	-0.002018
0.92	0.0006825
1.02	-0.00040982
1.12	-0.0040541
1.22	0.00048256
1.32	0.0065182
1.42	-0.0016194
1.52	-0.00768
1.62	0.011798
1.72	0.0024702
1.82	0.006584
1.92	-0.0010091
2.02	-0.0050265
2.12	-0.01158
2.22	0.026007
2.32	-0.042285
2.42	0.015141
2.52	-0.0057148
2.62	0.0023077
2.72	-0.060483
2.82	0.11113
2.92	0.022671
3.02	-0.017872
3.12	0.0060805
3.22	0.010277
3.32	0.00039915
3.42	0.011431
3.52	0.0086154
3.62	-0.0090157
3.72	-0.022498
3.82	0.020586
3.92	-0.0029735
4.02	-0.0036754
4.12	-0.0023958
4.22	0.0085565
4.32	-0.065607
4.42	0.03596
4.52	-0.05111
4.62	0.018607
4.72	-0.014786
4.82	0.0055899
4.92	0.0014103
5.02	0.0070412
5.12	0.0054861
5.22	0.025563
5.32	-0.058342
5.42	0.0049759
5.52	0.0305
5.62	0.0082268
5.72	-0.041451
5.82	0.13879
5.92	-0.059585
6.02	-0.00078139
6.12	0.030996
6.22	-0.096421
6.32	-0.08158
6.42	0.075213
6.52	-0.1164
6.62	0.11718
6.72	-0.092237
6.82	0.053661
6.92	-0.024821
7.02	0.084291
7.12	-0.066457
7.22	0.066436
7.32	0.095748
7.42	0.088698
7.52	-0.018546
7.62	0.016939
7.72	-0.022134
7.82	0.05328
7.92	0.011506
8.02	-0.0060094
8.12	0.12188
8.22	-0.17604
8.32	0.052004
8.42	0.10718
8.52	0.23014
8.62	-0.11952
8.72	0.15267
8.82	-0.19912
8.92	0.020358
9.02	-0.0035253
9.12	0.00070901
9.22	-0.030024
9.32	0.014573
9.42	-0.033101
9.52	0.019328
9.62	0.023835
9.72	0.042497
9.82	-0.22423
9.92	0.085525
10.02	-0.041444
10.12	0.021545
10.22	0.04095
10.32	-0.0067547
10.42	-0.032746
10.52	0.0053023
10.62	0.017655
10.72	-0.015867
10.82	0.24502
10.92	-0.14992
11.02	0.083701
11.12	0.090015
11.22	-0.053487
11.32	0.069938
11.42	-0.094325
11.52	-0.0022925
11.62	0.11043
11.72	-0.034296
11.82	-0.083451
11.92	-0.13989
12.02	0.13388
12.12	-0.1224
12.22	0.037624
12.32	-0.016393
12.42	-0.012063
12.52	0.0085958
12.62	-0.025548
12.72	-0.0035434
12.82	0.056367
12.92	0.042607
13.02	-0.10061
13.12	-0.015791
13.22	0.043195
13.32	-0.02993
13.42	-0.035665
13.52	0.24965
13.62	-0.093667
13.72	-0.10409
13.82	0.042451
13.92	0.027045
14.02	-0.032266
14.12	-0.048679
14.22	0.16478
14.32	-0.15013
14.42	0.045713
14.52	0.018773
14.62	-0.0059542
14.72	0.026137
14.82	0.056023
14.92	-0.019442
15.02	-0.031225
15.12	-0.080995
15.22	0.079556
15.32	0.047502
15.42	-0.056222
15.52	0.084177
15.62	0.06975
15.72	-0.11838
15.82	0.093855
