0.02
0.12
0.22
0.32
0.42
0.52
0.62
0.72
0.82
0.92
1.02
1.12
1.22
1.32
1.42
1.52
1.62
1.72
1.82
1.92
2.02
2.12
2.22
2.32
2.42
2.52
2.62
2.72
2.82
2.92
3.02
3.12
3.22
3.32
3.42
3.52
3.62
3.72
3.82
3.92
4.02
4.12
4.22
4.32
4.42
4.52
4.62
4.72
4.82
4.92
5.02
5.12
5.22
5.32
5.42
5.52
5.62
5.72
5.82
5.92
6.02
6.12
6.22
6.32
6.42
6.52
6.62
6.72
6.82
6.92
7.02
7.12
7.22
7.32
7.42
7.52
7.62
7.72
7.82
7.92
8.02
8.12
8.22
8.32
8.42
8.52
8.62
8.72
8.82
8.92
9.02
9.12
9.22
9.32
9.42
9.52
9.62
9.72
9.82
9.92
10.02
10.12
10.22
10.32
10.42
10.52
10.62
10.72
10.82
10.92
11.02
11.12
11.22
11.32
11.42
11.52
11.62
11.72
11.82
11.92
12.02
12.12
12.22
12.32
12.42
12.52
12.62
12.72
12.82
12.92
13.02
13.12
13.22
13.32
13.42
13.52
13.62
13.72
13.82
13.92
14.02
14.12
14.22
14.32
14.42
14.52
14.62
14.72
14.82
14.92
15.02
15.12
15.22
15.32
15.42
15.52
15.62
15.72
15.82
