%!PS-Adobe-3.0 EPSF-3.0
%%Creator: MATLAB, The Mathworks, Inc. Version 7.9.0.529 (R2009b). Operating System: Linux 3.16.0-50-generic #67~14.04.1-Ubuntu SMP Fri Oct 2 22:07:51 UTC 2015 x86_64.
%%Title: /home/klkuhlm/repos/slug-osc/swiss-data/DREAM/parallel-finite2/finite-P13-MC1-1-fixed-shift/P13MC11-finite-fixed-shift2-horsetail_manual.eps
%%CreationDate: 10/16/2015  15:59:17
%%DocumentNeededFonts: Helvetica
%%DocumentProcessColors: Cyan Magenta Yellow Black
%%LanguageLevel: 2
%%Pages: 1
%%BoundingBox:   -72   -70   288   213
%%EndComments

%%BeginProlog
% MathWorks dictionary
/MathWorks 160 dict begin
% definition operators
/bdef {bind def} bind def
/ldef {load def} bind def
/xdef {exch def} bdef
/xstore {exch store} bdef
% operator abbreviations
/c  /clip ldef
/cc /concat ldef
/cp /closepath ldef
/gr /grestore ldef
/gs /gsave ldef
/mt /moveto ldef
/np /newpath ldef
/cm /currentmatrix ldef
/sm /setmatrix ldef
/rm /rmoveto ldef
/rl /rlineto ldef
/s {show newpath} bdef
/sc {setcmykcolor} bdef
/sr /setrgbcolor ldef
/sg /setgray ldef
/w /setlinewidth ldef
/j /setlinejoin ldef
/cap /setlinecap ldef
/rc {rectclip} bdef
/rf {rectfill} bdef
% page state control
/pgsv () def
/bpage {/pgsv save def} bdef
/epage {pgsv restore} bdef
/bplot /gsave ldef
/eplot {stroke grestore} bdef
% orientation switch
/portraitMode 0 def /landscapeMode 1 def /rotateMode 2 def
% coordinate system mappings
/dpi2point 0 def
% font control
/FontSize 0 def
/FMS {/FontSize xstore findfont [FontSize 0 0 FontSize neg 0 0]
  makefont setfont} bdef
/reencode {exch dup where {pop load} {pop StandardEncoding} ifelse
  exch dup 3 1 roll findfont dup length dict begin
  { 1 index /FID ne {def}{pop pop} ifelse } forall
  /Encoding exch def currentdict end definefont pop} bdef
/isroman {findfont /CharStrings get /Agrave known} bdef
/FMSR {3 1 roll 1 index dup isroman {reencode} {pop pop} ifelse
  exch FMS} bdef
/csm {1 dpi2point div -1 dpi2point div scale neg translate
 dup landscapeMode eq {pop -90 rotate}
  {rotateMode eq {90 rotate} if} ifelse} bdef
% line types: solid, dotted, dashed, dotdash
/SO { [] 0 setdash } bdef
/DO { [.5 dpi2point mul 4 dpi2point mul] 0 setdash } bdef
/DA { [6 dpi2point mul] 0 setdash } bdef
/DD { [.5 dpi2point mul 4 dpi2point mul 6 dpi2point mul 4
  dpi2point mul] 0 setdash } bdef
% macros for lines and objects
/L {lineto stroke} bdef
/MP {3 1 roll moveto 1 sub {rlineto} repeat} bdef
/AP {{rlineto} repeat} bdef
/PDlw -1 def
/W {/PDlw currentlinewidth def setlinewidth} def
/PP {closepath eofill} bdef
/DP {closepath stroke} bdef
/MR {4 -2 roll moveto dup  0 exch rlineto exch 0 rlineto
  neg 0 exch rlineto closepath} bdef
/FR {MR stroke} bdef
/PR {MR fill} bdef
/L1i {{currentfile picstr readhexstring pop} image} bdef
/tMatrix matrix def
/MakeOval {newpath tMatrix currentmatrix pop translate scale
0 0 1 0 360 arc tMatrix setmatrix} bdef
/FO {MakeOval stroke} bdef
/PO {MakeOval fill} bdef
/PD {currentlinewidth 2 div 0 360 arc fill
   PDlw -1 eq not {PDlw w /PDlw -1 def} if} def
/FA {newpath tMatrix currentmatrix pop translate scale
  0 0 1 5 -2 roll arc tMatrix setmatrix stroke} bdef
/PA {newpath tMatrix currentmatrix pop	translate 0 0 moveto scale
  0 0 1 5 -2 roll arc closepath tMatrix setmatrix fill} bdef
/FAn {newpath tMatrix currentmatrix pop translate scale
  0 0 1 5 -2 roll arcn tMatrix setmatrix stroke} bdef
/PAn {newpath tMatrix currentmatrix pop translate 0 0 moveto scale
  0 0 1 5 -2 roll arcn closepath tMatrix setmatrix fill} bdef
/vradius 0 def /hradius 0 def /lry 0 def
/lrx 0 def /uly 0 def /ulx 0 def /rad 0 def
/MRR {/vradius xdef /hradius xdef /lry xdef /lrx xdef /uly xdef
  /ulx xdef newpath tMatrix currentmatrix pop ulx hradius add uly
  vradius add translate hradius vradius scale 0 0 1 180 270 arc 
  tMatrix setmatrix lrx hradius sub uly vradius add translate
  hradius vradius scale 0 0 1 270 360 arc tMatrix setmatrix
  lrx hradius sub lry vradius sub translate hradius vradius scale
  0 0 1 0 90 arc tMatrix setmatrix ulx hradius add lry vradius sub
  translate hradius vradius scale 0 0 1 90 180 arc tMatrix setmatrix
  closepath} bdef
/FRR {MRR stroke } bdef
/PRR {MRR fill } bdef
/MlrRR {/lry xdef /lrx xdef /uly xdef /ulx xdef /rad lry uly sub 2 div def
  newpath tMatrix currentmatrix pop ulx rad add uly rad add translate
  rad rad scale 0 0 1 90 270 arc tMatrix setmatrix lrx rad sub lry rad
  sub translate rad rad scale 0 0 1 270 90 arc tMatrix setmatrix
  closepath} bdef
/FlrRR {MlrRR stroke } bdef
/PlrRR {MlrRR fill } bdef
/MtbRR {/lry xdef /lrx xdef /uly xdef /ulx xdef /rad lrx ulx sub 2 div def
  newpath tMatrix currentmatrix pop ulx rad add uly rad add translate
  rad rad scale 0 0 1 180 360 arc tMatrix setmatrix lrx rad sub lry rad
  sub translate rad rad scale 0 0 1 0 180 arc tMatrix setmatrix
  closepath} bdef
/FtbRR {MtbRR stroke } bdef
/PtbRR {MtbRR fill } bdef
/stri 6 array def /dtri 6 array def
/smat 6 array def /dmat 6 array def
/tmat1 6 array def /tmat2 6 array def /dif 3 array def
/asub {/ind2 exch def /ind1 exch def dup dup
  ind1 get exch ind2 get sub exch } bdef
/tri_to_matrix {
  2 0 asub 3 1 asub 4 0 asub 5 1 asub
  dup 0 get exch 1 get 7 -1 roll astore } bdef
/compute_transform {
  dmat dtri tri_to_matrix tmat1 invertmatrix 
  smat stri tri_to_matrix tmat2 concatmatrix } bdef
/ds {stri astore pop} bdef
/dt {dtri astore pop} bdef
/db {2 copy /cols xdef /rows xdef mul dup 3 mul string
  currentfile 
  3 index 0 eq {/ASCIIHexDecode filter}
  {/ASCII85Decode filter 3 index 2 eq {/RunLengthDecode filter} if }
  ifelse exch readstring pop
  dup 0 3 index getinterval /rbmap xdef
  dup 2 index dup getinterval /gbmap xdef
  1 index dup 2 mul exch getinterval /bbmap xdef pop pop}bdef
/it {gs np dtri aload pop moveto lineto lineto cp c
  cols rows 8 compute_transform 
  rbmap gbmap bbmap true 3 colorimage gr}bdef
/il {newpath moveto lineto stroke}bdef
currentdict end def
%%EndProlog

%%BeginSetup
MathWorks begin

0 cap

end
%%EndSetup

%%Page: 1 1
%%BeginPageSetup
%%PageBoundingBox:   -72   -70   288   213
MathWorks begin
bpage
%%EndPageSetup

%%BeginObject: obj1
bplot

/dpi2point 12 def
portraitMode -0864 2556 csm

    0     0  4329  3407 rc
85 dict begin %Colortable dictionary
/c0 { 0.000000 0.000000 0.000000 sr} bdef
/c1 { 1.000000 1.000000 1.000000 sr} bdef
/c2 { 0.900000 0.000000 0.000000 sr} bdef
/c3 { 0.000000 0.820000 0.000000 sr} bdef
/c4 { 0.000000 0.000000 0.800000 sr} bdef
/c5 { 0.910000 0.820000 0.320000 sr} bdef
/c6 { 1.000000 0.260000 0.820000 sr} bdef
/c7 { 0.000000 0.820000 0.820000 sr} bdef
c0
1 j
1 sg
   0    0 4330 3408 rf
6 w
0 2776 3355 0 0 -2776 563 3032 4 MP
PP
-3355 0 0 2776 3355 0 0 -2776 563 3032 5 MP stroke
4 w
DO
0 sg
 563 3032 mt  563  256 L
 563  256 mt  563  256 L
 957 3032 mt  957  256 L
 957  256 mt  957  256 L
1352 3032 mt 1352  256 L
1352  256 mt 1352  256 L
1747 3032 mt 1747  256 L
1747  256 mt 1747  256 L
2141 3032 mt 2141  256 L
2141  256 mt 2141  256 L
2536 3032 mt 2536  256 L
2536  256 mt 2536  256 L
2931 3032 mt 2931  256 L
2931  256 mt 2931  256 L
3325 3032 mt 3325  256 L
3325  256 mt 3325  256 L
3720 3032 mt 3720  256 L
3720  256 mt 3720  256 L
 563 3032 mt 3918 3032 L
3918 3032 mt 3918 3032 L
 563 2685 mt 3918 2685 L
3918 2685 mt 3918 2685 L
 563 2338 mt 3918 2338 L
3918 2338 mt 3918 2338 L
 563 1991 mt 3918 1991 L
3918 1991 mt 3918 1991 L
 563 1644 mt 3918 1644 L
3918 1644 mt 3918 1644 L
 563 1297 mt 3918 1297 L
3918 1297 mt 3918 1297 L
 563  950 mt 3918  950 L
3918  950 mt 3918  950 L
 563  603 mt 3918  603 L
3918  603 mt 3918  603 L
 563  256 mt 3918  256 L
3918  256 mt 3918  256 L
SO
6 w
 563 3032 mt 3918 3032 L
 563  256 mt 3918  256 L
 563 3032 mt  563  256 L
3918 3032 mt 3918  256 L
 563 3032 mt 3918 3032 L
 563 3032 mt  563  256 L
 563 3032 mt  563 2998 L
 563  256 mt  563  289 L
%%IncludeResource: font Helvetica
/Helvetica /ISOLatin1Encoding 120 FMSR

 530 3177 mt 
(0) s
 957 3032 mt  957 2998 L
 957  256 mt  957  289 L
 924 3177 mt 
(2) s
1352 3032 mt 1352 2998 L
1352  256 mt 1352  289 L
1319 3177 mt 
(4) s
1747 3032 mt 1747 2998 L
1747  256 mt 1747  289 L
1714 3177 mt 
(6) s
2141 3032 mt 2141 2998 L
2141  256 mt 2141  289 L
2108 3177 mt 
(8) s
2536 3032 mt 2536 2998 L
2536  256 mt 2536  289 L
2470 3177 mt 
(10) s
2931 3032 mt 2931 2998 L
2931  256 mt 2931  289 L
2865 3177 mt 
(12) s
3325 3032 mt 3325 2998 L
3325  256 mt 3325  289 L
3259 3177 mt 
(14) s
3720 3032 mt 3720 2998 L
3720  256 mt 3720  289 L
3654 3177 mt 
(16) s
 563 3032 mt  596 3032 L
3918 3032 mt 3884 3032 L
 392 3076 mt 
(-3) s
 563 2685 mt  596 2685 L
3918 2685 mt 3884 2685 L
 392 2729 mt 
(-2) s
 563 2338 mt  596 2338 L
3918 2338 mt 3884 2338 L
 392 2382 mt 
(-1) s
 563 1991 mt  596 1991 L
3918 1991 mt 3884 1991 L
 462 2035 mt 
(0) s
 563 1644 mt  596 1644 L
3918 1644 mt 3884 1644 L
 462 1688 mt 
(1) s
 563 1297 mt  596 1297 L
3918 1297 mt 3884 1297 L
 462 1341 mt 
(2) s
 563  950 mt  596  950 L
3918  950 mt 3884  950 L
 462  994 mt 
(3) s
 563  603 mt  596  603 L
3918  603 mt 3884  603 L
 462  647 mt 
(4) s
 563  256 mt  596  256 L
3918  256 mt 3884  256 L
 462  300 mt 
(5) s
 563  202 mt 
(x 10) s
%%IncludeResource: font Helvetica
/Helvetica /ISOLatin1Encoding 80 FMSR

 789  128 mt 
(-3) s
 563 3032 mt 3918 3032 L
 563  256 mt 3918  256 L
 563 3032 mt  563  256 L
3918 3032 mt 3918  256 L
gs 563 256 3356 2777 rc
41 9 50 10 49 9 50 6 49 2 50 -2 49 -7 50 -12 
49 -16 50 -18 49 -18 50 -18 49 -14 50 -9 49 -1 49 7 
50 15 49 23 50 29 49 33 50 33 49 29 50 22 49 11 
50 -2 49 -17 50 -32 49 -45 50 -54 49 -58 50 -57 49 -48 
50 -33 49 -12 50 12 49 40 50 64 49 85 50 100 49 103 
49 97 50 77 49 47 50 7 49 -38 50 -85 49 -126 50 -161 
49 -180 50 -181 49 -163 50 -121 49 -59 50 18 49 98 50 174 
49 236 50 283 49 315 50 331 49 311 50 224 49 52 50 -181 
49 -383 50 -432 49 -278 49 -57 563 1990 69 MP stroke
41 14 50 14 49 9 50 2 49 -5 50 -12 49 -20 50 -25 
49 -28 50 -29 49 -27 50 -21 49 -13 50 -2 49 9 49 21 
50 33 49 40 50 46 49 46 50 42 49 33 50 19 49 1 
50 -17 49 -37 50 -53 49 -67 50 -73 49 -74 50 -66 49 -49 
50 -27 49 2 50 32 49 62 50 88 49 108 50 118 49 117 
49 103 50 77 49 37 50 -10 49 -60 50 -106 49 -143 50 -170 
49 -187 50 -188 49 -169 50 -125 49 -51 50 40 49 126 50 188 
49 220 50 236 49 264 50 306 49 332 50 275 49 93 50 -175 
49 -401 50 -440 49 -268 49 -52 563 1991 69 MP stroke
41 17 50 15 49 8 50 -1 49 -10 50 -19 49 -27 50 -33 
49 -36 50 -35 49 -30 50 -22 49 -11 50 3 49 18 49 31 
50 43 49 52 50 55 49 53 50 45 49 32 50 13 49 -7 
50 -30 49 -51 50 -68 49 -81 50 -84 49 -81 50 -67 49 -45 
50 -17 49 16 50 50 49 82 50 109 49 125 50 130 49 122 
49 99 50 65 49 19 50 -31 49 -85 50 -132 49 -171 50 -194 
49 -200 50 -184 49 -147 50 -91 49 -19 50 60 49 141 50 212 
49 267 50 296 49 303 50 283 49 235 50 147 49 8 50 -171 
49 -333 50 -381 49 -256 49 -55 563 1990 69 MP stroke
41 16 50 14 49 7 50 -2 49 -10 50 -19 49 -27 50 -32 
49 -35 50 -34 49 -29 50 -21 49 -11 50 3 49 17 49 31 
50 41 49 50 50 54 49 52 50 45 49 32 50 15 49 -5 
50 -27 49 -49 50 -66 49 -78 50 -83 49 -79 50 -68 49 -48 
50 -22 49 9 50 43 49 76 50 104 49 124 50 130 49 123 
49 101 50 68 49 27 50 -16 49 -63 50 -111 49 -157 50 -195 
49 -215 50 -206 49 -163 50 -92 49 -11 50 62 49 114 50 148 
49 187 50 246 49 323 50 383 49 367 50 236 49 1 50 -257 
49 -416 50 -395 49 -219 49 -40 563 1991 69 MP stroke
41 18 50 19 49 15 50 8 49 -1 50 -9 49 -19 50 -26 
49 -32 50 -34 49 -33 50 -29 49 -20 50 -9 49 5 49 18 
50 33 49 43 50 51 49 54 50 50 49 41 50 27 49 9 
50 -13 49 -35 50 -56 49 -71 50 -82 49 -83 50 -75 49 -59 
50 -35 49 -4 50 30 49 63 50 93 49 117 50 130 49 129 
49 113 50 82 49 39 50 -10 49 -62 50 -109 49 -151 50 -186 
49 -205 50 -205 49 -176 50 -115 49 -30 50 60 49 135 50 183 
49 216 50 253 49 306 50 355 49 344 50 224 49 -9 50 -274 
49 -432 50 -390 49 -187 49 -23 563 1991 69 MP stroke
41 16 50 14 49 7 50 -2 49 -11 50 -19 49 -28 50 -33 
49 -35 50 -35 49 -30 50 -22 49 -10 50 4 49 17 49 30 
50 42 49 51 50 54 49 54 50 46 49 33 50 15 49 -7 
50 -28 49 -47 50 -64 49 -76 50 -83 49 -82 50 -73 49 -52 
50 -21 49 14 50 46 49 75 50 95 49 112 50 124 49 129 
49 118 50 84 49 31 50 -30 49 -85 50 -120 49 -139 50 -154 
49 -177 50 -201 49 -204 50 -155 49 -52 50 77 49 177 50 213 
49 192 50 172 49 211 50 309 49 390 50 344 49 121 50 -199 
49 -442 50 -456 49 -255 49 -43 563 1991 69 MP stroke
41 20 50 19 49 13 50 3 49 -6 50 -16 49 -24 50 -31 
49 -35 50 -37 49 -35 50 -29 49 -19 50 -6 49 10 49 26 
50 42 49 52 50 57 49 56 50 48 49 37 50 22 49 5 
50 -14 49 -35 50 -56 49 -77 50 -91 49 -95 50 -84 49 -61 
50 -26 49 12 50 46 49 73 50 89 49 99 50 108 49 115 
49 118 50 110 49 79 50 21 49 -56 50 -138 49 -201 50 -228 
49 -208 50 -155 49 -93 50 -45 49 -24 50 -20 49 -7 50 49 
49 160 50 307 49 433 50 475 49 387 50 175 49 -94 50 -317 
49 -410 50 -341 49 -173 49 -30 563 1990 69 MP stroke
41 17 50 16 49 10 50 2 49 -8 50 -16 49 -24 50 -30 
49 -34 50 -34 49 -31 50 -23 49 -13 50 -1 49 13 49 26 
50 39 49 47 50 53 49 52 50 46 49 34 50 19 49 -1 
50 -22 49 -44 50 -62 49 -74 50 -80 49 -78 50 -68 49 -50 
50 -26 49 4 50 37 49 71 50 99 49 120 50 126 49 118 
49 98 50 66 49 30 50 -10 49 -54 50 -102 49 -150 50 -191 
49 -212 50 -201 49 -153 50 -82 49 -2 50 62 49 102 50 132 
49 169 50 236 49 320 50 380 49 357 50 214 49 -26 50 -272 
49 -409 50 -368 49 -191 49 -30 563 1991 69 MP stroke
41 9 50 10 49 9 50 6 49 2 50 -2 49 -7 50 -12 
49 -16 50 -18 49 -18 50 -18 49 -14 50 -9 49 -1 49 7 
50 15 49 23 50 29 49 33 50 33 49 29 50 22 49 11 
50 -2 49 -17 50 -32 49 -45 50 -54 49 -58 50 -57 49 -48 
50 -33 49 -12 50 12 49 40 50 64 49 85 50 100 49 103 
49 97 50 77 49 47 50 7 49 -38 50 -85 49 -126 50 -161 
49 -180 50 -181 49 -163 50 -121 49 -59 50 18 49 98 50 174 
49 236 50 283 49 315 50 331 49 311 50 224 49 52 50 -181 
49 -383 50 -432 49 -278 49 -57 563 1990 69 MP stroke
41 14 50 14 49 9 50 2 49 -5 50 -12 49 -20 50 -25 
49 -28 50 -29 49 -27 50 -21 49 -13 50 -2 49 9 49 21 
50 33 49 40 50 46 49 46 50 42 49 33 50 19 49 1 
50 -17 49 -37 50 -53 49 -67 50 -73 49 -74 50 -66 49 -49 
50 -27 49 2 50 32 49 62 50 88 49 108 50 118 49 117 
49 103 50 77 49 37 50 -10 49 -60 50 -106 49 -143 50 -170 
49 -187 50 -188 49 -169 50 -125 49 -51 50 40 49 126 50 188 
49 220 50 236 49 264 50 306 49 332 50 275 49 93 50 -175 
49 -401 50 -440 49 -268 49 -52 563 1991 69 MP stroke
41 17 50 16 49 8 50 0 49 -10 50 -20 49 -29 50 -34 
49 -37 50 -37 49 -31 50 -24 49 -11 50 2 49 18 49 32 
50 45 49 54 50 58 49 55 50 48 49 34 50 15 49 -6 
50 -31 49 -52 50 -71 49 -84 50 -89 49 -84 50 -72 49 -49 
50 -20 49 15 50 50 49 85 50 112 49 131 50 137 49 129 
49 107 50 71 49 24 50 -29 49 -84 50 -136 49 -177 50 -204 
49 -211 50 -196 49 -160 50 -103 49 -27 50 58 49 144 50 217 
49 272 50 305 49 318 50 311 49 273 50 181 49 19 50 -193 
49 -373 50 -412 49 -265 49 -54 563 1990 69 MP stroke
41 16 50 14 49 7 50 -2 49 -10 50 -19 49 -27 50 -32 
49 -35 50 -34 49 -29 50 -21 49 -11 50 3 49 17 49 31 
50 41 49 50 50 54 49 52 50 45 49 32 50 15 49 -5 
50 -27 49 -49 50 -66 49 -78 50 -83 49 -79 50 -68 49 -48 
50 -22 49 9 50 43 49 76 50 104 49 124 50 130 49 123 
49 101 50 68 49 27 50 -16 49 -63 50 -111 49 -157 50 -195 
49 -215 50 -206 49 -163 50 -92 49 -11 50 62 49 114 50 148 
49 187 50 246 49 323 50 383 49 367 50 236 49 1 50 -257 
49 -416 50 -395 49 -219 49 -40 563 1991 69 MP stroke
41 18 50 19 49 15 50 8 49 -1 50 -9 49 -19 50 -26 
49 -32 50 -34 49 -33 50 -29 49 -20 50 -9 49 5 49 18 
50 33 49 43 50 51 49 54 50 50 49 41 50 27 49 9 
50 -13 49 -35 50 -56 49 -71 50 -82 49 -83 50 -75 49 -59 
50 -35 49 -4 50 30 49 63 50 93 49 117 50 130 49 129 
49 113 50 82 49 39 50 -10 49 -62 50 -109 49 -151 50 -186 
49 -205 50 -205 49 -176 50 -115 49 -30 50 60 49 135 50 183 
49 216 50 253 49 306 50 355 49 344 50 224 49 -9 50 -274 
49 -432 50 -390 49 -187 49 -23 563 1991 69 MP stroke
41 16 50 14 49 7 50 -2 49 -11 50 -19 49 -28 50 -33 
49 -35 50 -35 49 -30 50 -22 49 -10 50 4 49 17 49 30 
50 42 49 51 50 54 49 54 50 46 49 33 50 15 49 -7 
50 -28 49 -47 50 -64 49 -76 50 -83 49 -82 50 -73 49 -52 
50 -21 49 14 50 46 49 75 50 95 49 112 50 124 49 129 
49 118 50 84 49 31 50 -30 49 -85 50 -120 49 -139 50 -154 
49 -177 50 -201 49 -204 50 -155 49 -52 50 77 49 177 50 213 
49 192 50 172 49 211 50 309 49 390 50 344 49 121 50 -199 
49 -442 50 -456 49 -255 49 -43 563 1991 69 MP stroke
41 20 50 19 49 13 50 3 49 -6 50 -16 49 -24 50 -31 
49 -35 50 -37 49 -35 50 -29 49 -19 50 -6 49 10 49 26 
50 42 49 52 50 57 49 56 50 48 49 37 50 22 49 5 
50 -14 49 -35 50 -56 49 -77 50 -91 49 -95 50 -84 49 -61 
50 -26 49 12 50 46 49 73 50 89 49 99 50 108 49 115 
49 118 50 110 49 79 50 21 49 -56 50 -138 49 -201 50 -228 
49 -208 50 -155 49 -93 50 -45 49 -24 50 -20 49 -7 50 49 
49 160 50 307 49 433 50 475 49 387 50 175 49 -94 50 -317 
49 -410 50 -341 49 -173 49 -30 563 1990 69 MP stroke
41 17 50 16 49 10 50 2 49 -8 50 -16 49 -24 50 -30 
49 -34 50 -34 49 -31 50 -23 49 -13 50 -1 49 13 49 26 
50 39 49 47 50 53 49 52 50 46 49 34 50 19 49 -1 
50 -22 49 -44 50 -62 49 -74 50 -80 49 -78 50 -68 49 -50 
50 -26 49 4 50 37 49 71 50 99 49 120 50 126 49 118 
49 98 50 66 49 30 50 -10 49 -54 50 -102 49 -150 50 -191 
49 -212 50 -201 49 -153 50 -82 49 -2 50 62 49 102 50 132 
49 169 50 236 49 320 50 380 49 357 50 214 49 -26 50 -272 
49 -409 50 -368 49 -191 49 -30 563 1991 69 MP stroke
41 9 50 10 49 9 50 6 49 2 50 -2 49 -7 50 -12 
49 -16 50 -18 49 -18 50 -18 49 -14 50 -9 49 -1 49 7 
50 15 49 23 50 29 49 33 50 33 49 29 50 22 49 11 
50 -2 49 -17 50 -32 49 -45 50 -54 49 -58 50 -57 49 -48 
50 -33 49 -12 50 12 49 40 50 64 49 85 50 100 49 103 
49 97 50 77 49 47 50 7 49 -38 50 -85 49 -126 50 -161 
49 -180 50 -181 49 -163 50 -121 49 -59 50 18 49 98 50 174 
49 236 50 283 49 315 50 331 49 311 50 224 49 52 50 -181 
49 -383 50 -432 49 -278 49 -57 563 1990 69 MP stroke
41 14 50 14 49 9 50 2 49 -5 50 -12 49 -20 50 -25 
49 -28 50 -29 49 -27 50 -21 49 -13 50 -2 49 9 49 21 
50 33 49 40 50 46 49 46 50 42 49 33 50 19 49 1 
50 -17 49 -37 50 -53 49 -67 50 -73 49 -74 50 -66 49 -49 
50 -27 49 2 50 32 49 62 50 88 49 108 50 118 49 117 
49 103 50 77 49 37 50 -10 49 -60 50 -106 49 -143 50 -170 
49 -187 50 -188 49 -169 50 -125 49 -51 50 40 49 126 50 188 
49 220 50 236 49 264 50 306 49 332 50 275 49 93 50 -175 
49 -401 50 -440 49 -268 49 -52 563 1991 69 MP stroke
41 17 50 16 49 8 50 0 49 -10 50 -20 49 -29 50 -34 
49 -37 50 -37 49 -31 50 -24 49 -11 50 2 49 18 49 32 
50 45 49 54 50 58 49 55 50 48 49 34 50 15 49 -6 
50 -31 49 -52 50 -71 49 -84 50 -89 49 -84 50 -72 49 -49 
50 -20 49 15 50 50 49 85 50 112 49 131 50 137 49 129 
49 107 50 71 49 24 50 -29 49 -84 50 -136 49 -177 50 -204 
49 -211 50 -196 49 -160 50 -103 49 -27 50 58 49 144 50 217 
49 272 50 305 49 318 50 311 49 273 50 181 49 19 50 -193 
49 -373 50 -412 49 -265 49 -54 563 1990 69 MP stroke
41 12 50 9 49 2 50 -6 49 -14 50 -21 49 -27 50 -30 
49 -31 50 -29 49 -23 50 -15 49 -3 50 8 49 21 49 33 
50 43 49 48 50 50 49 46 50 37 49 23 50 7 49 -12 
50 -33 49 -52 50 -67 49 -77 50 -79 49 -74 50 -59 49 -38 
50 -11 49 19 50 49 49 79 50 105 49 123 50 129 49 121 
49 96 50 58 49 13 50 -32 49 -76 50 -115 49 -153 50 -188 
49 -213 50 -212 49 -175 50 -99 49 -2 50 87 49 146 50 172 
49 189 50 228 49 304 50 383 49 395 50 277 49 26 50 -266 
49 -455 50 -434 49 -235 49 -38 563 1991 69 MP stroke
41 18 50 19 49 15 50 8 49 -1 50 -9 49 -19 50 -26 
49 -32 50 -34 49 -33 50 -29 49 -20 50 -9 49 5 49 18 
50 33 49 43 50 51 49 54 50 50 49 41 50 27 49 9 
50 -13 49 -35 50 -56 49 -71 50 -82 49 -83 50 -75 49 -59 
50 -35 49 -4 50 30 49 63 50 93 49 117 50 130 49 129 
49 113 50 82 49 39 50 -10 49 -62 50 -109 49 -151 50 -186 
49 -205 50 -205 49 -176 50 -115 49 -30 50 60 49 135 50 183 
49 216 50 253 49 306 50 355 49 344 50 224 49 -9 50 -274 
49 -432 50 -390 49 -187 49 -23 563 1991 69 MP stroke
41 16 50 14 49 7 50 -2 49 -11 50 -19 49 -28 50 -33 
49 -35 50 -35 49 -30 50 -22 49 -10 50 4 49 17 49 30 
50 42 49 51 50 54 49 54 50 46 49 33 50 15 49 -7 
50 -28 49 -47 50 -64 49 -76 50 -83 49 -82 50 -73 49 -52 
50 -21 49 14 50 46 49 75 50 95 49 112 50 124 49 129 
49 118 50 84 49 31 50 -30 49 -85 50 -120 49 -139 50 -154 
49 -177 50 -201 49 -204 50 -155 49 -52 50 77 49 177 50 213 
49 192 50 172 49 211 50 309 49 390 50 344 49 121 50 -199 
49 -442 50 -456 49 -255 49 -43 563 1991 69 MP stroke
41 20 50 19 49 13 50 3 49 -6 50 -16 49 -24 50 -31 
49 -35 50 -37 49 -35 50 -29 49 -19 50 -6 49 10 49 26 
50 42 49 52 50 57 49 56 50 48 49 37 50 22 49 5 
50 -14 49 -35 50 -56 49 -77 50 -91 49 -95 50 -84 49 -61 
50 -26 49 12 50 46 49 73 50 89 49 99 50 108 49 115 
49 118 50 110 49 79 50 21 49 -56 50 -138 49 -201 50 -228 
49 -208 50 -155 49 -93 50 -45 49 -24 50 -20 49 -7 50 49 
49 160 50 307 49 433 50 475 49 387 50 175 49 -94 50 -317 
49 -410 50 -341 49 -173 49 -30 563 1990 69 MP stroke
41 17 50 16 49 10 50 2 49 -8 50 -16 49 -24 50 -30 
49 -34 50 -34 49 -31 50 -23 49 -13 50 -1 49 13 49 26 
50 39 49 47 50 53 49 52 50 46 49 34 50 19 49 -1 
50 -22 49 -44 50 -62 49 -74 50 -80 49 -78 50 -68 49 -50 
50 -26 49 4 50 37 49 71 50 99 49 120 50 126 49 118 
49 98 50 66 49 30 50 -10 49 -54 50 -102 49 -150 50 -191 
49 -212 50 -201 49 -153 50 -82 49 -2 50 62 49 102 50 132 
49 169 50 236 49 320 50 380 49 357 50 214 49 -26 50 -272 
49 -409 50 -368 49 -191 49 -30 563 1991 69 MP stroke
41 9 50 10 49 9 50 6 49 2 50 -2 49 -7 50 -12 
49 -16 50 -18 49 -18 50 -18 49 -14 50 -9 49 -1 49 7 
50 15 49 23 50 29 49 33 50 33 49 29 50 22 49 11 
50 -2 49 -17 50 -32 49 -45 50 -54 49 -58 50 -57 49 -48 
50 -33 49 -12 50 12 49 40 50 64 49 85 50 100 49 103 
49 97 50 77 49 47 50 7 49 -38 50 -85 49 -126 50 -161 
49 -180 50 -181 49 -163 50 -121 49 -59 50 18 49 98 50 174 
49 236 50 283 49 315 50 331 49 311 50 224 49 52 50 -181 
49 -383 50 -432 49 -278 49 -57 563 1990 69 MP stroke
41 14 50 14 49 9 50 2 49 -5 50 -12 49 -20 50 -25 
49 -28 50 -29 49 -27 50 -21 49 -13 50 -2 49 9 49 21 
50 33 49 40 50 46 49 46 50 42 49 33 50 19 49 1 
50 -17 49 -37 50 -53 49 -67 50 -73 49 -74 50 -66 49 -49 
50 -27 49 2 50 32 49 62 50 88 49 108 50 118 49 117 
49 103 50 77 49 37 50 -10 49 -60 50 -106 49 -143 50 -170 
49 -187 50 -188 49 -169 50 -125 49 -51 50 40 49 126 50 188 
49 220 50 236 49 264 50 306 49 332 50 275 49 93 50 -175 
49 -401 50 -440 49 -268 49 -52 563 1991 69 MP stroke
41 17 50 16 49 8 50 0 49 -10 50 -20 49 -29 50 -34 
49 -37 50 -37 49 -31 50 -24 49 -11 50 2 49 18 49 32 
50 45 49 54 50 58 49 55 50 48 49 34 50 15 49 -6 
50 -31 49 -52 50 -71 49 -84 50 -89 49 -84 50 -72 49 -49 
50 -20 49 15 50 50 49 85 50 112 49 131 50 137 49 129 
49 107 50 71 49 24 50 -29 49 -84 50 -136 49 -177 50 -204 
49 -211 50 -196 49 -160 50 -103 49 -27 50 58 49 144 50 217 
49 272 50 305 49 318 50 311 49 273 50 181 49 19 50 -193 
49 -373 50 -412 49 -265 49 -54 563 1990 69 MP stroke
41 12 50 9 49 2 50 -6 49 -14 50 -21 49 -27 50 -30 
49 -31 50 -29 49 -23 50 -15 49 -3 50 8 49 21 49 33 
50 43 49 48 50 50 49 46 50 37 49 23 50 7 49 -12 
50 -33 49 -52 50 -67 49 -77 50 -79 49 -74 50 -59 49 -38 
50 -11 49 19 50 49 49 79 50 105 49 123 50 129 49 121 
49 96 50 58 49 13 50 -32 49 -76 50 -115 49 -153 50 -188 
49 -213 50 -212 49 -175 50 -99 49 -2 50 87 49 146 50 172 
49 189 50 228 49 304 50 383 49 395 50 277 49 26 50 -266 
49 -455 50 -434 49 -235 49 -38 563 1991 69 MP stroke
41 18 50 19 49 15 50 8 49 -1 50 -9 49 -19 50 -26 
49 -32 50 -34 49 -33 50 -29 49 -20 50 -9 49 5 49 18 
50 33 49 43 50 51 49 54 50 50 49 41 50 27 49 9 
50 -13 49 -35 50 -56 49 -71 50 -82 49 -83 50 -75 49 -59 
50 -35 49 -4 50 30 49 63 50 93 49 117 50 130 49 129 
49 113 50 82 49 39 50 -10 49 -62 50 -109 49 -151 50 -186 
49 -205 50 -205 49 -176 50 -115 49 -30 50 60 49 135 50 183 
49 216 50 253 49 306 50 355 49 344 50 224 49 -9 50 -274 
49 -432 50 -390 49 -187 49 -23 563 1991 69 MP stroke
41 16 50 14 49 7 50 -2 49 -11 50 -19 49 -28 50 -33 
49 -35 50 -35 49 -30 50 -22 49 -10 50 4 49 17 49 30 
50 42 49 51 50 54 49 54 50 46 49 33 50 15 49 -7 
50 -28 49 -47 50 -64 49 -76 50 -83 49 -82 50 -73 49 -52 
50 -21 49 14 50 46 49 75 50 95 49 112 50 124 49 129 
49 118 50 84 49 31 50 -30 49 -85 50 -120 49 -139 50 -154 
49 -177 50 -201 49 -204 50 -155 49 -52 50 77 49 177 50 213 
49 192 50 172 49 211 50 309 49 390 50 344 49 121 50 -199 
49 -442 50 -456 49 -255 49 -43 563 1991 69 MP stroke
41 20 50 19 49 13 50 3 49 -6 50 -16 49 -24 50 -31 
49 -35 50 -37 49 -35 50 -29 49 -19 50 -6 49 10 49 26 
50 42 49 52 50 57 49 56 50 48 49 37 50 22 49 5 
50 -14 49 -35 50 -56 49 -77 50 -91 49 -95 50 -84 49 -61 
50 -26 49 12 50 46 49 73 50 89 49 99 50 108 49 115 
49 118 50 110 49 79 50 21 49 -56 50 -138 49 -201 50 -228 
49 -208 50 -155 49 -93 50 -45 49 -24 50 -20 49 -7 50 49 
49 160 50 307 49 433 50 475 49 387 50 175 49 -94 50 -317 
49 -410 50 -341 49 -173 49 -30 563 1990 69 MP stroke
41 17 50 16 49 10 50 2 49 -8 50 -16 49 -24 50 -30 
49 -34 50 -34 49 -31 50 -23 49 -13 50 -1 49 13 49 26 
50 39 49 47 50 53 49 52 50 46 49 34 50 19 49 -1 
50 -22 49 -44 50 -62 49 -74 50 -80 49 -78 50 -68 49 -50 
50 -26 49 4 50 37 49 71 50 99 49 120 50 126 49 118 
49 98 50 66 49 30 50 -10 49 -54 50 -102 49 -150 50 -191 
49 -212 50 -201 49 -153 50 -82 49 -2 50 62 49 102 50 132 
49 169 50 236 49 320 50 380 49 357 50 214 49 -26 50 -272 
49 -409 50 -368 49 -191 49 -30 563 1991 69 MP stroke
41 9 50 10 49 9 50 6 49 2 50 -2 49 -7 50 -12 
49 -16 50 -18 49 -18 50 -18 49 -14 50 -9 49 -1 49 7 
50 15 49 23 50 29 49 33 50 33 49 29 50 22 49 11 
50 -2 49 -17 50 -32 49 -45 50 -54 49 -58 50 -57 49 -48 
50 -33 49 -12 50 12 49 40 50 64 49 85 50 100 49 103 
49 97 50 77 49 47 50 7 49 -38 50 -85 49 -126 50 -161 
49 -180 50 -181 49 -163 50 -121 49 -59 50 18 49 98 50 174 
49 236 50 283 49 315 50 331 49 311 50 224 49 52 50 -181 
49 -383 50 -432 49 -278 49 -57 563 1990 69 MP stroke
41 14 50 14 49 9 50 2 49 -5 50 -12 49 -20 50 -25 
49 -28 50 -29 49 -27 50 -21 49 -13 50 -2 49 9 49 21 
50 33 49 40 50 46 49 46 50 42 49 33 50 19 49 1 
50 -17 49 -37 50 -53 49 -67 50 -73 49 -74 50 -66 49 -49 
50 -27 49 2 50 32 49 62 50 88 49 108 50 118 49 117 
49 103 50 77 49 37 50 -10 49 -60 50 -106 49 -143 50 -170 
49 -187 50 -188 49 -169 50 -125 49 -51 50 40 49 126 50 188 
49 220 50 236 49 264 50 306 49 332 50 275 49 93 50 -175 
49 -401 50 -440 49 -268 49 -52 563 1991 69 MP stroke
41 17 50 16 49 8 50 0 49 -10 50 -20 49 -29 50 -34 
49 -37 50 -37 49 -31 50 -24 49 -11 50 2 49 18 49 32 
50 45 49 54 50 58 49 55 50 48 49 34 50 15 49 -6 
50 -31 49 -52 50 -71 49 -84 50 -89 49 -84 50 -72 49 -49 
50 -20 49 15 50 50 49 85 50 112 49 131 50 137 49 129 
49 107 50 71 49 24 50 -29 49 -84 50 -136 49 -177 50 -204 
49 -211 50 -196 49 -160 50 -103 49 -27 50 58 49 144 50 217 
49 272 50 305 49 318 50 311 49 273 50 181 49 19 50 -193 
49 -373 50 -412 49 -265 49 -54 563 1990 69 MP stroke
41 12 50 9 49 2 50 -6 49 -14 50 -21 49 -27 50 -30 
49 -31 50 -29 49 -23 50 -15 49 -3 50 8 49 21 49 33 
50 43 49 48 50 50 49 46 50 37 49 23 50 7 49 -12 
50 -33 49 -52 50 -67 49 -77 50 -79 49 -74 50 -59 49 -38 
50 -11 49 19 50 49 49 79 50 105 49 123 50 129 49 121 
49 96 50 58 49 13 50 -32 49 -76 50 -115 49 -153 50 -188 
49 -213 50 -212 49 -175 50 -99 49 -2 50 87 49 146 50 172 
49 189 50 228 49 304 50 383 49 395 50 277 49 26 50 -266 
49 -455 50 -434 49 -235 49 -38 563 1991 69 MP stroke
41 18 50 19 49 15 50 8 49 -1 50 -9 49 -19 50 -26 
49 -32 50 -34 49 -33 50 -29 49 -20 50 -9 49 5 49 18 
50 33 49 43 50 51 49 54 50 50 49 41 50 27 49 9 
50 -13 49 -35 50 -56 49 -71 50 -82 49 -83 50 -75 49 -59 
50 -35 49 -4 50 30 49 63 50 93 49 117 50 130 49 129 
49 113 50 82 49 39 50 -10 49 -62 50 -109 49 -151 50 -186 
49 -205 50 -205 49 -176 50 -115 49 -30 50 60 49 135 50 183 
49 216 50 253 49 306 50 355 49 344 50 224 49 -9 50 -274 
49 -432 50 -390 49 -187 49 -23 563 1991 69 MP stroke
41 16 50 14 49 7 50 -2 49 -11 50 -19 49 -28 50 -33 
49 -35 50 -35 49 -30 50 -22 49 -10 50 4 49 17 49 30 
50 42 49 51 50 54 49 54 50 46 49 33 50 15 49 -7 
50 -28 49 -47 50 -64 49 -76 50 -83 49 -82 50 -73 49 -52 
50 -21 49 14 50 46 49 75 50 95 49 112 50 124 49 129 
49 118 50 84 49 31 50 -30 49 -85 50 -120 49 -139 50 -154 
49 -177 50 -201 49 -204 50 -155 49 -52 50 77 49 177 50 213 
49 192 50 172 49 211 50 309 49 390 50 344 49 121 50 -199 
49 -442 50 -456 49 -255 49 -43 563 1991 69 MP stroke
41 20 50 19 49 13 50 3 49 -6 50 -16 49 -24 50 -31 
49 -35 50 -37 49 -35 50 -29 49 -19 50 -6 49 10 49 26 
50 42 49 52 50 57 49 56 50 48 49 37 50 22 49 5 
50 -14 49 -35 50 -56 49 -77 50 -91 49 -95 50 -84 49 -61 
50 -26 49 12 50 46 49 73 50 89 49 99 50 108 49 115 
49 118 50 110 49 79 50 21 49 -56 50 -138 49 -201 50 -228 
49 -208 50 -155 49 -93 50 -45 49 -24 50 -20 49 -7 50 49 
49 160 50 307 49 433 50 475 49 387 50 175 49 -94 50 -317 
49 -410 50 -341 49 -173 49 -30 563 1990 69 MP stroke
41 17 50 16 49 10 50 2 49 -8 50 -16 49 -24 50 -30 
49 -34 50 -34 49 -31 50 -23 49 -13 50 -1 49 13 49 26 
50 39 49 47 50 53 49 52 50 46 49 34 50 19 49 -1 
50 -22 49 -44 50 -62 49 -74 50 -80 49 -78 50 -68 49 -50 
50 -26 49 4 50 37 49 71 50 99 49 120 50 126 49 118 
49 98 50 66 49 30 50 -10 49 -54 50 -102 49 -150 50 -191 
49 -212 50 -201 49 -153 50 -82 49 -2 50 62 49 102 50 132 
49 169 50 236 49 320 50 380 49 357 50 214 49 -26 50 -272 
49 -409 50 -368 49 -191 49 -30 563 1991 69 MP stroke
41 9 50 10 49 9 50 6 49 2 50 -2 49 -7 50 -12 
49 -16 50 -18 49 -18 50 -18 49 -14 50 -9 49 -1 49 7 
50 15 49 23 50 29 49 33 50 33 49 29 50 22 49 11 
50 -2 49 -17 50 -32 49 -45 50 -54 49 -58 50 -57 49 -48 
50 -33 49 -12 50 12 49 40 50 64 49 85 50 100 49 103 
49 97 50 77 49 47 50 7 49 -38 50 -85 49 -126 50 -161 
49 -180 50 -181 49 -163 50 -121 49 -59 50 18 49 98 50 174 
49 236 50 283 49 315 50 331 49 311 50 224 49 52 50 -181 
49 -383 50 -432 49 -278 49 -57 563 1990 69 MP stroke
41 22 50 20 49 10 50 -1 49 -13 50 -24 49 -34 50 -41 
49 -44 50 -44 49 -38 50 -27 49 -14 50 2 49 20 49 36 
50 51 49 60 50 64 49 63 50 54 49 40 50 19 49 -5 
50 -30 49 -55 50 -75 49 -89 50 -95 49 -90 50 -76 49 -54 
50 -26 49 8 50 44 49 80 50 112 49 134 50 142 49 132 
49 107 50 70 49 28 50 -18 49 -62 50 -107 49 -154 50 -196 
49 -220 50 -214 49 -170 50 -94 49 -5 50 70 49 118 50 142 
49 167 50 219 49 297 50 364 49 360 50 239 49 11 50 -240 
49 -396 50 -375 49 -207 49 -38 563 1991 69 MP stroke
41 17 50 16 49 8 50 0 49 -10 50 -20 49 -29 50 -34 
49 -37 50 -37 49 -31 50 -24 49 -11 50 2 49 18 49 32 
50 45 49 54 50 58 49 55 50 48 49 34 50 15 49 -6 
50 -31 49 -52 50 -71 49 -84 50 -89 49 -84 50 -72 49 -49 
50 -20 49 15 50 50 49 85 50 112 49 131 50 137 49 129 
49 107 50 71 49 24 50 -29 49 -84 50 -136 49 -177 50 -204 
49 -211 50 -196 49 -160 50 -103 49 -27 50 58 49 144 50 217 
49 272 50 305 49 318 50 311 49 273 50 181 49 19 50 -193 
49 -373 50 -412 49 -265 49 -54 563 1990 69 MP stroke
41 12 50 9 49 2 50 -6 49 -14 50 -21 49 -27 50 -30 
49 -31 50 -29 49 -23 50 -15 49 -3 50 8 49 21 49 33 
50 43 49 48 50 50 49 46 50 37 49 23 50 7 49 -12 
50 -33 49 -52 50 -67 49 -77 50 -79 49 -74 50 -59 49 -38 
50 -11 49 19 50 49 49 79 50 105 49 123 50 129 49 121 
49 96 50 58 49 13 50 -32 49 -76 50 -115 49 -153 50 -188 
49 -213 50 -212 49 -175 50 -99 49 -2 50 87 49 146 50 172 
49 189 50 228 49 304 50 383 49 395 50 277 49 26 50 -266 
49 -455 50 -434 49 -235 49 -38 563 1991 69 MP stroke
41 18 50 19 49 15 50 8 49 -1 50 -9 49 -19 50 -26 
49 -32 50 -34 49 -33 50 -29 49 -20 50 -9 49 5 49 18 
50 33 49 43 50 51 49 54 50 50 49 41 50 27 49 9 
50 -13 49 -35 50 -56 49 -71 50 -82 49 -83 50 -75 49 -59 
50 -35 49 -4 50 30 49 63 50 93 49 117 50 130 49 129 
49 113 50 82 49 39 50 -10 49 -62 50 -109 49 -151 50 -186 
49 -205 50 -205 49 -176 50 -115 49 -30 50 60 49 135 50 183 
49 216 50 253 49 306 50 355 49 344 50 224 49 -9 50 -274 
49 -432 50 -390 49 -187 49 -23 563 1991 69 MP stroke
41 16 50 14 49 7 50 -2 49 -11 50 -19 49 -28 50 -33 
49 -35 50 -35 49 -30 50 -22 49 -10 50 4 49 17 49 30 
50 42 49 51 50 54 49 54 50 46 49 33 50 15 49 -7 
50 -28 49 -47 50 -64 49 -76 50 -83 49 -82 50 -73 49 -52 
50 -21 49 14 50 46 49 75 50 95 49 112 50 124 49 129 
49 118 50 84 49 31 50 -30 49 -85 50 -120 49 -139 50 -154 
49 -177 50 -201 49 -204 50 -155 49 -52 50 77 49 177 50 213 
49 192 50 172 49 211 50 309 49 390 50 344 49 121 50 -199 
49 -442 50 -456 49 -255 49 -43 563 1991 69 MP stroke
41 20 50 19 49 13 50 3 49 -6 50 -16 49 -24 50 -31 
49 -35 50 -37 49 -35 50 -29 49 -19 50 -6 49 10 49 26 
50 42 49 52 50 57 49 56 50 48 49 37 50 22 49 5 
50 -14 49 -35 50 -56 49 -77 50 -91 49 -95 50 -84 49 -61 
50 -26 49 12 50 46 49 73 50 89 49 99 50 108 49 115 
49 118 50 110 49 79 50 21 49 -56 50 -138 49 -201 50 -228 
49 -208 50 -155 49 -93 50 -45 49 -24 50 -20 49 -7 50 49 
49 160 50 307 49 433 50 475 49 387 50 175 49 -94 50 -317 
49 -410 50 -341 49 -173 49 -30 563 1990 69 MP stroke
41 17 50 16 49 10 50 2 49 -8 50 -16 49 -24 50 -30 
49 -34 50 -34 49 -31 50 -23 49 -13 50 -1 49 13 49 26 
50 39 49 47 50 53 49 52 50 46 49 34 50 19 49 -1 
50 -22 49 -44 50 -62 49 -74 50 -80 49 -78 50 -68 49 -50 
50 -26 49 4 50 37 49 71 50 99 49 120 50 126 49 118 
49 98 50 66 49 30 50 -10 49 -54 50 -102 49 -150 50 -191 
49 -212 50 -201 49 -153 50 -82 49 -2 50 62 49 102 50 132 
49 169 50 236 49 320 50 380 49 357 50 214 49 -26 50 -272 
49 -409 50 -368 49 -191 49 -30 563 1991 69 MP stroke
41 9 50 10 49 9 50 6 49 2 50 -2 49 -7 50 -12 
49 -16 50 -18 49 -18 50 -18 49 -14 50 -9 49 -1 49 7 
50 15 49 23 50 29 49 33 50 33 49 29 50 22 49 11 
50 -2 49 -17 50 -32 49 -45 50 -54 49 -58 50 -57 49 -48 
50 -33 49 -12 50 12 49 40 50 64 49 85 50 100 49 103 
49 97 50 77 49 47 50 7 49 -38 50 -85 49 -126 50 -161 
49 -180 50 -181 49 -163 50 -121 49 -59 50 18 49 98 50 174 
49 236 50 283 49 315 50 331 49 311 50 224 49 52 50 -181 
49 -383 50 -432 49 -278 49 -57 563 1990 69 MP stroke
41 22 50 20 49 10 50 -1 49 -13 50 -24 49 -34 50 -41 
49 -44 50 -44 49 -38 50 -27 49 -14 50 2 49 20 49 36 
50 51 49 60 50 64 49 63 50 54 49 40 50 19 49 -5 
50 -30 49 -55 50 -75 49 -89 50 -95 49 -90 50 -76 49 -54 
50 -26 49 8 50 44 49 80 50 112 49 134 50 142 49 132 
49 107 50 70 49 28 50 -18 49 -62 50 -107 49 -154 50 -196 
49 -220 50 -214 49 -170 50 -94 49 -5 50 70 49 118 50 142 
49 167 50 219 49 297 50 364 49 360 50 239 49 11 50 -240 
49 -396 50 -375 49 -207 49 -38 563 1991 69 MP stroke
41 17 50 16 49 8 50 0 49 -10 50 -20 49 -29 50 -34 
49 -37 50 -37 49 -31 50 -24 49 -11 50 2 49 18 49 32 
50 45 49 54 50 58 49 55 50 48 49 34 50 15 49 -6 
50 -31 49 -52 50 -71 49 -84 50 -89 49 -84 50 -72 49 -49 
50 -20 49 15 50 50 49 85 50 112 49 131 50 137 49 129 
49 107 50 71 49 24 50 -29 49 -84 50 -136 49 -177 50 -204 
49 -211 50 -196 49 -160 50 -103 49 -27 50 58 49 144 50 217 
49 272 50 305 49 318 50 311 49 273 50 181 49 19 50 -193 
49 -373 50 -412 49 -265 49 -54 563 1990 69 MP stroke
41 12 50 9 49 2 50 -6 49 -14 50 -21 49 -27 50 -30 
49 -31 50 -29 49 -23 50 -15 49 -3 50 8 49 21 49 33 
50 43 49 48 50 50 49 46 50 37 49 23 50 7 49 -12 
50 -33 49 -52 50 -67 49 -77 50 -79 49 -74 50 -59 49 -38 
50 -11 49 19 50 49 49 79 50 105 49 123 50 129 49 121 
49 96 50 58 49 13 50 -32 49 -76 50 -115 49 -153 50 -188 
49 -213 50 -212 49 -175 50 -99 49 -2 50 87 49 146 50 172 
49 189 50 228 49 304 50 383 49 395 50 277 49 26 50 -266 
49 -455 50 -434 49 -235 49 -38 563 1991 69 MP stroke
41 18 50 19 49 15 50 8 49 -1 50 -9 49 -19 50 -26 
49 -32 50 -34 49 -33 50 -29 49 -20 50 -9 49 5 49 18 
50 33 49 43 50 51 49 54 50 50 49 41 50 27 49 9 
50 -13 49 -35 50 -56 49 -71 50 -82 49 -83 50 -75 49 -59 
50 -35 49 -4 50 30 49 63 50 93 49 117 50 130 49 129 
49 113 50 82 49 39 50 -10 49 -62 50 -109 49 -151 50 -186 
49 -205 50 -205 49 -176 50 -115 49 -30 50 60 49 135 50 183 
49 216 50 253 49 306 50 355 49 344 50 224 49 -9 50 -274 
49 -432 50 -390 49 -187 49 -23 563 1991 69 MP stroke
41 16 50 14 49 7 50 -2 49 -11 50 -19 49 -28 50 -33 
49 -35 50 -35 49 -30 50 -21 49 -10 50 3 49 18 49 30 
50 42 49 51 50 54 49 53 50 47 49 32 50 15 49 -7 
50 -28 49 -47 50 -64 49 -76 50 -83 49 -83 50 -72 49 -51 
50 -21 49 14 50 47 49 74 50 96 49 112 50 124 49 129 
49 117 50 84 49 30 50 -31 49 -85 50 -120 49 -139 50 -155 
49 -176 50 -201 49 -203 50 -154 49 -51 50 77 49 178 50 213 
49 193 50 172 49 211 50 308 49 389 50 343 49 120 50 -201 
49 -443 50 -457 49 -255 49 -43 563 1991 69 MP stroke
41 20 50 19 49 13 50 3 49 -6 50 -16 49 -24 50 -31 
49 -35 50 -37 49 -35 50 -29 49 -19 50 -6 49 10 49 26 
50 42 49 52 50 57 49 56 50 48 49 37 50 22 49 5 
50 -14 49 -35 50 -56 49 -77 50 -91 49 -95 50 -84 49 -61 
50 -26 49 12 50 46 49 73 50 89 49 99 50 108 49 115 
49 118 50 110 49 79 50 21 49 -56 50 -138 49 -201 50 -228 
49 -208 50 -155 49 -93 50 -45 49 -24 50 -20 49 -7 50 49 
49 160 50 307 49 433 50 475 49 387 50 175 49 -94 50 -317 
49 -410 50 -341 49 -173 49 -30 563 1990 69 MP stroke
41 17 50 16 49 10 50 2 49 -8 50 -16 49 -24 50 -30 
49 -34 50 -34 49 -31 50 -23 49 -13 50 -1 49 13 49 26 
50 39 49 47 50 53 49 52 50 46 49 34 50 19 49 -1 
50 -22 49 -44 50 -62 49 -74 50 -80 49 -78 50 -68 49 -50 
50 -26 49 4 50 37 49 71 50 99 49 120 50 126 49 118 
49 98 50 66 49 30 50 -10 49 -54 50 -102 49 -150 50 -191 
49 -212 50 -201 49 -153 50 -82 49 -2 50 62 49 102 50 132 
49 169 50 236 49 320 50 380 49 357 50 214 49 -26 50 -272 
49 -409 50 -368 49 -191 49 -30 563 1991 69 MP stroke
41 9 50 10 49 9 50 6 49 2 50 -2 49 -7 50 -12 
49 -16 50 -18 49 -18 50 -18 49 -14 50 -9 49 -1 49 7 
50 15 49 23 50 29 49 33 50 33 49 29 50 22 49 11 
50 -2 49 -17 50 -32 49 -45 50 -54 49 -58 50 -57 49 -48 
50 -33 49 -12 50 12 49 40 50 64 49 85 50 100 49 103 
49 97 50 77 49 47 50 7 49 -38 50 -85 49 -126 50 -161 
49 -180 50 -181 49 -163 50 -121 49 -59 50 18 49 98 50 174 
49 236 50 283 49 315 50 331 49 311 50 224 49 52 50 -181 
49 -383 50 -432 49 -278 49 -57 563 1990 69 MP stroke
41 22 50 20 49 10 50 -1 49 -13 50 -24 49 -34 50 -41 
49 -44 50 -44 49 -38 50 -27 49 -14 50 2 49 20 49 36 
50 51 49 60 50 64 49 63 50 54 49 40 50 19 49 -5 
50 -30 49 -55 50 -75 49 -89 50 -95 49 -90 50 -76 49 -54 
50 -26 49 8 50 44 49 80 50 112 49 134 50 142 49 132 
49 107 50 70 49 28 50 -18 49 -62 50 -107 49 -154 50 -196 
49 -220 50 -214 49 -170 50 -94 49 -5 50 70 49 118 50 142 
49 167 50 219 49 297 50 364 49 360 50 239 49 11 50 -240 
49 -396 50 -375 49 -207 49 -38 563 1991 69 MP stroke
41 17 50 16 49 8 50 0 49 -10 50 -20 49 -29 50 -34 
49 -37 50 -37 49 -31 50 -24 49 -11 50 2 49 18 49 32 
50 45 49 54 50 58 49 55 50 48 49 34 50 15 49 -6 
50 -31 49 -52 50 -71 49 -84 50 -89 49 -84 50 -72 49 -49 
50 -20 49 15 50 50 49 85 50 112 49 131 50 137 49 129 
49 107 50 71 49 24 50 -29 49 -84 50 -136 49 -177 50 -204 
49 -211 50 -196 49 -160 50 -103 49 -27 50 58 49 144 50 217 
49 272 50 305 49 318 50 311 49 273 50 181 49 19 50 -193 
49 -373 50 -412 49 -265 49 -54 563 1990 69 MP stroke
41 12 50 9 49 2 50 -6 49 -14 50 -21 49 -27 50 -30 
49 -31 50 -29 49 -23 50 -15 49 -3 50 8 49 21 49 33 
50 43 49 48 50 50 49 46 50 37 49 23 50 7 49 -12 
50 -33 49 -52 50 -67 49 -77 50 -79 49 -74 50 -59 49 -38 
50 -11 49 19 50 49 49 79 50 105 49 123 50 129 49 121 
49 96 50 58 49 13 50 -32 49 -76 50 -115 49 -153 50 -188 
49 -213 50 -212 49 -175 50 -99 49 -2 50 87 49 146 50 172 
49 189 50 228 49 304 50 383 49 395 50 277 49 26 50 -266 
49 -455 50 -434 49 -235 49 -38 563 1991 69 MP stroke
41 18 50 19 49 15 50 8 49 -1 50 -9 49 -19 50 -26 
49 -32 50 -34 49 -33 50 -29 49 -20 50 -9 49 5 49 18 
50 33 49 43 50 51 49 54 50 50 49 41 50 27 49 9 
50 -13 49 -35 50 -56 49 -71 50 -82 49 -83 50 -75 49 -59 
50 -35 49 -4 50 30 49 63 50 93 49 117 50 130 49 129 
49 113 50 82 49 39 50 -10 49 -62 50 -109 49 -151 50 -186 
49 -205 50 -205 49 -176 50 -115 49 -30 50 60 49 135 50 183 
49 216 50 253 49 306 50 355 49 344 50 224 49 -9 50 -274 
49 -432 50 -390 49 -187 49 -23 563 1991 69 MP stroke
41 16 50 14 49 7 50 -2 49 -11 50 -19 49 -28 50 -33 
49 -35 50 -35 49 -30 50 -21 49 -10 50 3 49 18 49 30 
50 42 49 51 50 54 49 53 50 47 49 32 50 15 49 -7 
50 -28 49 -47 50 -64 49 -76 50 -83 49 -83 50 -72 49 -51 
50 -21 49 14 50 47 49 74 50 96 49 112 50 124 49 129 
49 117 50 84 49 30 50 -31 49 -85 50 -120 49 -139 50 -155 
49 -176 50 -201 49 -203 50 -154 49 -51 50 77 49 178 50 213 
49 193 50 172 49 211 50 308 49 389 50 343 49 120 50 -201 
49 -443 50 -457 49 -255 49 -43 563 1991 69 MP stroke
41 20 50 19 49 13 50 3 49 -6 50 -16 49 -24 50 -31 
49 -35 50 -37 49 -35 50 -29 49 -19 50 -6 49 10 49 26 
50 42 49 52 50 57 49 56 50 48 49 37 50 22 49 5 
50 -14 49 -35 50 -56 49 -77 50 -91 49 -95 50 -84 49 -61 
50 -26 49 12 50 46 49 73 50 89 49 99 50 108 49 115 
49 118 50 110 49 79 50 21 49 -56 50 -138 49 -201 50 -228 
49 -208 50 -155 49 -93 50 -45 49 -24 50 -20 49 -7 50 49 
49 160 50 307 49 433 50 475 49 387 50 175 49 -94 50 -317 
49 -410 50 -341 49 -173 49 -30 563 1990 69 MP stroke
41 17 50 16 49 10 50 2 49 -8 50 -16 49 -24 50 -30 
49 -34 50 -34 49 -31 50 -23 49 -13 50 -1 49 13 49 26 
50 39 49 47 50 53 49 52 50 46 49 34 50 19 49 -1 
50 -22 49 -44 50 -62 49 -74 50 -80 49 -78 50 -68 49 -50 
50 -26 49 4 50 37 49 71 50 99 49 120 50 126 49 118 
49 98 50 66 49 30 50 -10 49 -54 50 -102 49 -150 50 -191 
49 -212 50 -201 49 -153 50 -82 49 -2 50 62 49 102 50 132 
49 169 50 236 49 320 50 380 49 357 50 214 49 -26 50 -272 
49 -409 50 -368 49 -191 49 -30 563 1991 69 MP stroke
41 9 50 10 49 9 50 6 49 2 50 -2 49 -7 50 -12 
49 -16 50 -18 49 -18 50 -18 49 -14 50 -9 49 -1 49 7 
50 15 49 23 50 29 49 33 50 33 49 29 50 22 49 11 
50 -2 49 -17 50 -32 49 -45 50 -54 49 -58 50 -57 49 -48 
50 -33 49 -12 50 12 49 40 50 64 49 85 50 100 49 103 
49 97 50 77 49 47 50 7 49 -38 50 -85 49 -126 50 -161 
49 -180 50 -181 49 -163 50 -121 49 -59 50 18 49 98 50 174 
49 236 50 283 49 315 50 331 49 311 50 224 49 52 50 -181 
49 -383 50 -432 49 -278 49 -57 563 1990 69 MP stroke
41 22 50 20 49 10 50 -1 49 -13 50 -24 49 -34 50 -41 
49 -44 50 -44 49 -38 50 -27 49 -14 50 2 49 20 49 36 
50 51 49 60 50 64 49 63 50 54 49 40 50 19 49 -5 
50 -30 49 -55 50 -75 49 -89 50 -95 49 -90 50 -76 49 -54 
50 -26 49 8 50 44 49 80 50 112 49 134 50 142 49 132 
49 107 50 70 49 28 50 -18 49 -62 50 -107 49 -154 50 -196 
49 -220 50 -214 49 -170 50 -94 49 -5 50 70 49 118 50 142 
49 167 50 219 49 297 50 364 49 360 50 239 49 11 50 -240 
49 -396 50 -375 49 -207 49 -38 563 1991 69 MP stroke
41 17 50 16 49 8 50 0 49 -10 50 -20 49 -29 50 -34 
49 -37 50 -37 49 -31 50 -24 49 -11 50 2 49 18 49 32 
50 45 49 54 50 58 49 55 50 48 49 34 50 15 49 -6 
50 -31 49 -52 50 -71 49 -84 50 -89 49 -84 50 -72 49 -49 
50 -20 49 15 50 50 49 85 50 112 49 131 50 137 49 129 
49 107 50 71 49 24 50 -29 49 -84 50 -136 49 -177 50 -204 
49 -211 50 -196 49 -160 50 -103 49 -27 50 58 49 144 50 217 
49 272 50 305 49 318 50 311 49 273 50 181 49 19 50 -193 
49 -373 50 -412 49 -265 49 -54 563 1990 69 MP stroke
41 12 50 9 49 2 50 -6 49 -14 50 -21 49 -27 50 -30 
49 -31 50 -29 49 -23 50 -15 49 -3 50 8 49 21 49 33 
50 43 49 48 50 50 49 46 50 37 49 23 50 7 49 -12 
50 -33 49 -52 50 -67 49 -77 50 -79 49 -74 50 -59 49 -38 
50 -11 49 19 50 49 49 79 50 105 49 123 50 129 49 121 
49 96 50 58 49 13 50 -32 49 -76 50 -115 49 -153 50 -188 
49 -213 50 -212 49 -175 50 -99 49 -2 50 87 49 146 50 172 
49 189 50 228 49 304 50 383 49 395 50 277 49 26 50 -266 
49 -455 50 -434 49 -235 49 -38 563 1991 69 MP stroke
41 18 50 19 49 15 50 8 49 -1 50 -9 49 -19 50 -26 
49 -32 50 -34 49 -33 50 -29 49 -20 50 -9 49 5 49 18 
50 33 49 43 50 51 49 54 50 50 49 41 50 27 49 9 
50 -13 49 -35 50 -56 49 -71 50 -82 49 -83 50 -75 49 -59 
50 -35 49 -4 50 30 49 63 50 93 49 117 50 130 49 129 
49 113 50 82 49 39 50 -10 49 -62 50 -109 49 -151 50 -186 
49 -205 50 -205 49 -176 50 -115 49 -30 50 60 49 135 50 183 
49 216 50 253 49 306 50 355 49 344 50 224 49 -9 50 -274 
49 -432 50 -390 49 -187 49 -23 563 1991 69 MP stroke
41 16 50 14 49 7 50 -2 49 -11 50 -19 49 -28 50 -33 
49 -35 50 -35 49 -30 50 -21 49 -10 50 3 49 18 49 30 
50 42 49 51 50 54 49 53 50 47 49 32 50 15 49 -7 
50 -28 49 -47 50 -64 49 -76 50 -83 49 -83 50 -72 49 -51 
50 -21 49 14 50 47 49 74 50 96 49 112 50 124 49 129 
49 117 50 84 49 30 50 -31 49 -85 50 -120 49 -139 50 -155 
49 -176 50 -201 49 -203 50 -154 49 -51 50 77 49 178 50 213 
49 193 50 172 49 211 50 308 49 389 50 343 49 120 50 -201 
49 -443 50 -457 49 -255 49 -43 563 1991 69 MP stroke
41 20 50 19 49 13 50 3 49 -6 50 -16 49 -24 50 -31 
49 -35 50 -37 49 -35 50 -29 49 -19 50 -6 49 10 49 26 
50 42 49 52 50 57 49 56 50 48 49 37 50 22 49 5 
50 -14 49 -35 50 -56 49 -77 50 -91 49 -95 50 -84 49 -61 
50 -26 49 12 50 46 49 73 50 89 49 99 50 108 49 115 
49 118 50 110 49 79 50 21 49 -56 50 -138 49 -201 50 -228 
49 -208 50 -155 49 -93 50 -45 49 -24 50 -20 49 -7 50 49 
49 160 50 307 49 433 50 475 49 387 50 175 49 -94 50 -317 
49 -410 50 -341 49 -173 49 -30 563 1990 69 MP stroke
41 17 50 16 49 10 50 2 49 -8 50 -16 49 -24 50 -30 
49 -34 50 -34 49 -31 50 -23 49 -13 50 -1 49 13 49 26 
50 39 49 47 50 53 49 52 50 46 49 34 50 19 49 -1 
50 -22 49 -44 50 -62 49 -74 50 -80 49 -78 50 -68 49 -50 
50 -26 49 4 50 37 49 71 50 99 49 120 50 126 49 118 
49 98 50 66 49 30 50 -10 49 -54 50 -102 49 -150 50 -191 
49 -212 50 -201 49 -153 50 -82 49 -2 50 62 49 102 50 132 
49 169 50 236 49 320 50 380 49 357 50 214 49 -26 50 -272 
49 -409 50 -368 49 -191 49 -30 563 1991 69 MP stroke
41 9 50 10 49 9 50 6 49 2 50 -2 49 -7 50 -12 
49 -16 50 -18 49 -18 50 -18 49 -14 50 -9 49 -1 49 7 
50 15 49 23 50 29 49 33 50 33 49 29 50 22 49 11 
50 -2 49 -17 50 -32 49 -45 50 -54 49 -58 50 -57 49 -48 
50 -33 49 -12 50 12 49 40 50 64 49 85 50 100 49 103 
49 97 50 77 49 47 50 7 49 -38 50 -85 49 -126 50 -161 
49 -180 50 -181 49 -163 50 -121 49 -59 50 18 49 98 50 174 
49 236 50 283 49 315 50 331 49 311 50 224 49 52 50 -181 
49 -383 50 -432 49 -278 49 -57 563 1990 69 MP stroke
41 22 50 20 49 10 50 -1 49 -13 50 -24 49 -34 50 -41 
49 -44 50 -44 49 -38 50 -27 49 -14 50 2 49 20 49 36 
50 51 49 60 50 64 49 63 50 54 49 40 50 19 49 -5 
50 -30 49 -55 50 -75 49 -89 50 -95 49 -90 50 -76 49 -54 
50 -26 49 8 50 44 49 80 50 112 49 134 50 142 49 132 
49 107 50 70 49 28 50 -18 49 -62 50 -107 49 -154 50 -196 
49 -220 50 -214 49 -170 50 -94 49 -5 50 70 49 118 50 142 
49 167 50 219 49 297 50 364 49 360 50 239 49 11 50 -240 
49 -396 50 -375 49 -207 49 -38 563 1991 69 MP stroke
41 17 50 16 49 8 50 0 49 -10 50 -20 49 -29 50 -34 
49 -37 50 -37 49 -31 50 -24 49 -11 50 2 49 18 49 32 
50 45 49 54 50 58 49 55 50 48 49 34 50 15 49 -6 
50 -31 49 -52 50 -71 49 -84 50 -89 49 -84 50 -72 49 -49 
50 -20 49 15 50 50 49 85 50 112 49 131 50 137 49 129 
49 107 50 71 49 24 50 -29 49 -84 50 -136 49 -177 50 -204 
49 -211 50 -196 49 -160 50 -103 49 -27 50 58 49 144 50 217 
49 272 50 305 49 318 50 311 49 273 50 181 49 19 50 -193 
49 -373 50 -412 49 -265 49 -54 563 1990 69 MP stroke
41 12 50 9 49 2 50 -6 49 -14 50 -21 49 -27 50 -30 
49 -31 50 -29 49 -23 50 -15 49 -3 50 8 49 21 49 33 
50 43 49 48 50 50 49 46 50 37 49 23 50 7 49 -12 
50 -33 49 -52 50 -67 49 -77 50 -79 49 -74 50 -59 49 -38 
50 -11 49 19 50 49 49 79 50 105 49 123 50 129 49 121 
49 96 50 58 49 13 50 -32 49 -76 50 -115 49 -153 50 -188 
49 -213 50 -212 49 -175 50 -99 49 -2 50 87 49 146 50 172 
49 189 50 228 49 304 50 383 49 395 50 277 49 26 50 -266 
49 -455 50 -434 49 -235 49 -38 563 1991 69 MP stroke
41 18 50 19 49 15 50 8 49 -1 50 -9 49 -19 50 -26 
49 -32 50 -34 49 -33 50 -29 49 -20 50 -9 49 5 49 18 
50 33 49 43 50 51 49 54 50 50 49 41 50 27 49 9 
50 -13 49 -35 50 -56 49 -71 50 -82 49 -83 50 -75 49 -59 
50 -35 49 -4 50 30 49 63 50 93 49 117 50 130 49 129 
49 113 50 82 49 39 50 -10 49 -62 50 -109 49 -151 50 -186 
49 -205 50 -205 49 -176 50 -115 49 -30 50 60 49 135 50 183 
49 216 50 253 49 306 50 355 49 344 50 224 49 -9 50 -274 
49 -432 50 -390 49 -187 49 -23 563 1991 69 MP stroke
41 16 50 14 49 7 50 -2 49 -11 50 -19 49 -28 50 -33 
49 -35 50 -35 49 -30 50 -21 49 -10 50 3 49 18 49 30 
50 42 49 51 50 54 49 53 50 47 49 32 50 15 49 -7 
50 -28 49 -47 50 -64 49 -76 50 -83 49 -83 50 -72 49 -51 
50 -21 49 14 50 47 49 74 50 96 49 112 50 124 49 129 
49 117 50 84 49 30 50 -31 49 -85 50 -120 49 -139 50 -155 
49 -176 50 -201 49 -203 50 -154 49 -51 50 77 49 178 50 213 
49 193 50 172 49 211 50 308 49 389 50 343 49 120 50 -201 
49 -443 50 -457 49 -255 49 -43 563 1991 69 MP stroke
41 20 50 19 49 13 50 3 49 -6 50 -16 49 -24 50 -31 
49 -35 50 -37 49 -35 50 -29 49 -19 50 -6 49 10 49 26 
50 42 49 52 50 57 49 56 50 48 49 37 50 22 49 5 
50 -14 49 -35 50 -56 49 -77 50 -91 49 -95 50 -84 49 -61 
50 -26 49 12 50 46 49 73 50 89 49 99 50 108 49 115 
49 118 50 110 49 79 50 21 49 -56 50 -138 49 -201 50 -228 
49 -208 50 -155 49 -93 50 -45 49 -24 50 -20 49 -7 50 49 
49 160 50 307 49 433 50 475 49 387 50 175 49 -94 50 -317 
49 -410 50 -341 49 -173 49 -30 563 1990 69 MP stroke
41 17 50 16 49 10 50 2 49 -8 50 -16 49 -24 50 -30 
49 -34 50 -34 49 -31 50 -23 49 -13 50 -1 49 13 49 26 
50 39 49 47 50 53 49 52 50 46 49 34 50 19 49 -1 
50 -22 49 -44 50 -62 49 -74 50 -80 49 -78 50 -68 49 -50 
50 -26 49 4 50 37 49 71 50 99 49 120 50 126 49 118 
49 98 50 66 49 30 50 -10 49 -54 50 -102 49 -150 50 -191 
49 -212 50 -201 49 -153 50 -82 49 -2 50 62 49 102 50 132 
49 169 50 236 49 320 50 380 49 357 50 214 49 -26 50 -272 
49 -409 50 -368 49 -191 49 -30 563 1991 69 MP stroke
36 w
/c8 { 1.000000 0.000000 0.000000 sr} bdef
c8
41 25 50 28 49 23 50 14 49 4 50 -9 49 -20 50 -32 
49 -39 50 -45 49 -44 50 -39 49 -29 50 -16 49 2 49 19 
50 37 49 52 50 62 49 66 50 63 49 53 50 36 49 14 
50 -12 49 -39 50 -63 49 -83 50 -95 49 -98 50 -89 49 -70 
50 -41 49 -6 50 33 49 72 50 106 49 131 50 143 49 141 
49 123 50 89 49 42 50 -13 49 -71 50 -127 49 -172 50 -203 
49 -213 50 -201 49 -165 50 -107 49 -32 50 52 49 137 50 215 
49 276 50 309 49 313 50 280 49 214 50 118 49 2 50 -125 
49 -248 50 -345 49 -344 49 -88 563 1991 69 MP stroke
6 w
/c9 { 0.000000 0.000000 1.000000 sr} bdef
c9
11 150 16 -218 16 218 16 0 16 -218 15 218 16 217 16 -653 
16 653 15 -435 16 218 16 -218 16 218 16 0 15 -218 16 218 
16 -218 16 218 16 -218 15 0 16 0 16 0 16 218 15 0 
16 0 16 -218 16 218 16 -436 15 436 16 -436 16 218 16 218 
16 217 15 -653 16 436 16 -436 16 0 16 218 15 0 16 0 
16 -218 16 218 15 -218 16 -217 16 0 16 435 16 -435 15 217 
16 218 16 0 16 -218 16 -217 15 653 16 -218 16 218 16 -218 
16 0 15 435 16 -217 16 0 16 0 15 0 16 -436 16 218 
16 218 16 -218 15 435 16 -217 16 -218 16 0 16 -218 15 653 
16 -435 16 -218 16 653 15 -217 16 0 16 -218 16 0 16 435 
15 0 16 -435 16 218 16 -218 16 0 15 218 16 -218 16 435 
16 -435 16 -218 15 218 16 -218 16 218 16 0 15 -218 16 0 
16 -217 16 0 16 0 15 217 16 -435 16 435 16 218 16 -218 
15 218 16 -218 16 -435 16 435 15 218 16 0 16 -218 16 218 
16 -218 15 218 16 0 16 -653 16 653 16 -653 15 871 16 217 
16 -435 16 -218 16 871 15 -218 16 -435 16 0 16 0 15 0 
16 435 16 -217 16 0 16 217 15 0 16 218 16 0 16 -218 
16 0 15 218 16 -218 16 -217 16 217 16 -217 15 0 16 -218 
16 435 16 -435 15 -218 16 218 16 -218 16 0 16 218 15 -218 
16 0 16 -435 16 -218 16 0 15 436 16 0 16 -436 16 218 
15 -218 16 -217 16 435 16 -218 16 0 15 218 16 -218 16 0 
16 0 16 218 15 -218 16 218 16 218 16 0 16 0 15 -218 
16 653 16 -653 16 0 15 653 16 -218 16 0 16 218 16 435 
15 0 16 0 16 -217 16 435 16 0 15 218 16 -218 16 653 
16 0 15 -217 16 435 16 -435 16 217 16 218 15 -218 16 -435 
16 218 16 -218 16 0 15 -653 16 -218 687 1920 206 MP stroke
gr

c9
0 sg
%%IncludeResource: font Helvetica
/Helvetica /ISOLatin1Encoding 120 FMSR

2019 3320 mt 
(Time \(s\)) s
 256 2443 mt  -90 rotate
(Observation well response, s) s
90 rotate
%%IncludeResource: font Helvetica
/Helvetica /ISOLatin1Encoding 96 FMSR

 316  905 mt  -90 rotate
(D) s
90 rotate

end %%Color Dict

eplot
%%EndObject

epage
end

showpage

%%Trailer
%%EOF
