%!PS-Adobe-3.0 EPSF-3.0
%%Creator: MATLAB, The Mathworks, Inc. Version 7.9.0.529 (R2009b). Operating System: Linux 3.16.0-50-generic #67~14.04.1-Ubuntu SMP Fri Oct 2 22:07:51 UTC 2015 x86_64.
%%Title: /home/klkuhlm/repos/slug-osc/swiss-data/DREAM/parallel-finite2/finite-P13-MC1-3-fixed-shift/P13MC13-finite-fixed-shift2-horsetail_manual.eps
%%CreationDate: 10/16/2015  16:13:29
%%DocumentNeededFonts: Helvetica
%%DocumentProcessColors: Cyan Magenta Yellow Black
%%LanguageLevel: 2
%%Pages: 1
%%BoundingBox:   -80   -75   295   220
%%EndComments

%%BeginProlog
% MathWorks dictionary
/MathWorks 160 dict begin
% definition operators
/bdef {bind def} bind def
/ldef {load def} bind def
/xdef {exch def} bdef
/xstore {exch store} bdef
% operator abbreviations
/c  /clip ldef
/cc /concat ldef
/cp /closepath ldef
/gr /grestore ldef
/gs /gsave ldef
/mt /moveto ldef
/np /newpath ldef
/cm /currentmatrix ldef
/sm /setmatrix ldef
/rm /rmoveto ldef
/rl /rlineto ldef
/s {show newpath} bdef
/sc {setcmykcolor} bdef
/sr /setrgbcolor ldef
/sg /setgray ldef
/w /setlinewidth ldef
/j /setlinejoin ldef
/cap /setlinecap ldef
/rc {rectclip} bdef
/rf {rectfill} bdef
% page state control
/pgsv () def
/bpage {/pgsv save def} bdef
/epage {pgsv restore} bdef
/bplot /gsave ldef
/eplot {stroke grestore} bdef
% orientation switch
/portraitMode 0 def /landscapeMode 1 def /rotateMode 2 def
% coordinate system mappings
/dpi2point 0 def
% font control
/FontSize 0 def
/FMS {/FontSize xstore findfont [FontSize 0 0 FontSize neg 0 0]
  makefont setfont} bdef
/reencode {exch dup where {pop load} {pop StandardEncoding} ifelse
  exch dup 3 1 roll findfont dup length dict begin
  { 1 index /FID ne {def}{pop pop} ifelse } forall
  /Encoding exch def currentdict end definefont pop} bdef
/isroman {findfont /CharStrings get /Agrave known} bdef
/FMSR {3 1 roll 1 index dup isroman {reencode} {pop pop} ifelse
  exch FMS} bdef
/csm {1 dpi2point div -1 dpi2point div scale neg translate
 dup landscapeMode eq {pop -90 rotate}
  {rotateMode eq {90 rotate} if} ifelse} bdef
% line types: solid, dotted, dashed, dotdash
/SO { [] 0 setdash } bdef
/DO { [.5 dpi2point mul 4 dpi2point mul] 0 setdash } bdef
/DA { [6 dpi2point mul] 0 setdash } bdef
/DD { [.5 dpi2point mul 4 dpi2point mul 6 dpi2point mul 4
  dpi2point mul] 0 setdash } bdef
% macros for lines and objects
/L {lineto stroke} bdef
/MP {3 1 roll moveto 1 sub {rlineto} repeat} bdef
/AP {{rlineto} repeat} bdef
/PDlw -1 def
/W {/PDlw currentlinewidth def setlinewidth} def
/PP {closepath eofill} bdef
/DP {closepath stroke} bdef
/MR {4 -2 roll moveto dup  0 exch rlineto exch 0 rlineto
  neg 0 exch rlineto closepath} bdef
/FR {MR stroke} bdef
/PR {MR fill} bdef
/L1i {{currentfile picstr readhexstring pop} image} bdef
/tMatrix matrix def
/MakeOval {newpath tMatrix currentmatrix pop translate scale
0 0 1 0 360 arc tMatrix setmatrix} bdef
/FO {MakeOval stroke} bdef
/PO {MakeOval fill} bdef
/PD {currentlinewidth 2 div 0 360 arc fill
   PDlw -1 eq not {PDlw w /PDlw -1 def} if} def
/FA {newpath tMatrix currentmatrix pop translate scale
  0 0 1 5 -2 roll arc tMatrix setmatrix stroke} bdef
/PA {newpath tMatrix currentmatrix pop	translate 0 0 moveto scale
  0 0 1 5 -2 roll arc closepath tMatrix setmatrix fill} bdef
/FAn {newpath tMatrix currentmatrix pop translate scale
  0 0 1 5 -2 roll arcn tMatrix setmatrix stroke} bdef
/PAn {newpath tMatrix currentmatrix pop translate 0 0 moveto scale
  0 0 1 5 -2 roll arcn closepath tMatrix setmatrix fill} bdef
/vradius 0 def /hradius 0 def /lry 0 def
/lrx 0 def /uly 0 def /ulx 0 def /rad 0 def
/MRR {/vradius xdef /hradius xdef /lry xdef /lrx xdef /uly xdef
  /ulx xdef newpath tMatrix currentmatrix pop ulx hradius add uly
  vradius add translate hradius vradius scale 0 0 1 180 270 arc 
  tMatrix setmatrix lrx hradius sub uly vradius add translate
  hradius vradius scale 0 0 1 270 360 arc tMatrix setmatrix
  lrx hradius sub lry vradius sub translate hradius vradius scale
  0 0 1 0 90 arc tMatrix setmatrix ulx hradius add lry vradius sub
  translate hradius vradius scale 0 0 1 90 180 arc tMatrix setmatrix
  closepath} bdef
/FRR {MRR stroke } bdef
/PRR {MRR fill } bdef
/MlrRR {/lry xdef /lrx xdef /uly xdef /ulx xdef /rad lry uly sub 2 div def
  newpath tMatrix currentmatrix pop ulx rad add uly rad add translate
  rad rad scale 0 0 1 90 270 arc tMatrix setmatrix lrx rad sub lry rad
  sub translate rad rad scale 0 0 1 270 90 arc tMatrix setmatrix
  closepath} bdef
/FlrRR {MlrRR stroke } bdef
/PlrRR {MlrRR fill } bdef
/MtbRR {/lry xdef /lrx xdef /uly xdef /ulx xdef /rad lrx ulx sub 2 div def
  newpath tMatrix currentmatrix pop ulx rad add uly rad add translate
  rad rad scale 0 0 1 180 360 arc tMatrix setmatrix lrx rad sub lry rad
  sub translate rad rad scale 0 0 1 0 180 arc tMatrix setmatrix
  closepath} bdef
/FtbRR {MtbRR stroke } bdef
/PtbRR {MtbRR fill } bdef
/stri 6 array def /dtri 6 array def
/smat 6 array def /dmat 6 array def
/tmat1 6 array def /tmat2 6 array def /dif 3 array def
/asub {/ind2 exch def /ind1 exch def dup dup
  ind1 get exch ind2 get sub exch } bdef
/tri_to_matrix {
  2 0 asub 3 1 asub 4 0 asub 5 1 asub
  dup 0 get exch 1 get 7 -1 roll astore } bdef
/compute_transform {
  dmat dtri tri_to_matrix tmat1 invertmatrix 
  smat stri tri_to_matrix tmat2 concatmatrix } bdef
/ds {stri astore pop} bdef
/dt {dtri astore pop} bdef
/db {2 copy /cols xdef /rows xdef mul dup 3 mul string
  currentfile 
  3 index 0 eq {/ASCIIHexDecode filter}
  {/ASCII85Decode filter 3 index 2 eq {/RunLengthDecode filter} if }
  ifelse exch readstring pop
  dup 0 3 index getinterval /rbmap xdef
  dup 2 index dup getinterval /gbmap xdef
  1 index dup 2 mul exch getinterval /bbmap xdef pop pop}bdef
/it {gs np dtri aload pop moveto lineto lineto cp c
  cols rows 8 compute_transform 
  rbmap gbmap bbmap true 3 colorimage gr}bdef
/il {newpath moveto lineto stroke}bdef
currentdict end def
%%EndProlog

%%BeginSetup
MathWorks begin

0 cap

end
%%EndSetup

%%Page: 1 1
%%BeginPageSetup
%%PageBoundingBox:   -80   -75   295   220
MathWorks begin
bpage
%%EndPageSetup

%%BeginObject: obj1
bplot

/dpi2point 12 def
portraitMode -0960 2640 csm

    0     0  4511  3551 rc
85 dict begin %Colortable dictionary
/c0 { 0.000000 0.000000 0.000000 sr} bdef
/c1 { 1.000000 1.000000 1.000000 sr} bdef
/c2 { 0.900000 0.000000 0.000000 sr} bdef
/c3 { 0.000000 0.820000 0.000000 sr} bdef
/c4 { 0.000000 0.000000 0.800000 sr} bdef
/c5 { 0.910000 0.820000 0.320000 sr} bdef
/c6 { 1.000000 0.260000 0.820000 sr} bdef
/c7 { 0.000000 0.820000 0.820000 sr} bdef
c0
1 j
1 sg
   0    0 4512 3552 rf
6 w
0 2894 3497 0 0 -2894 585 3160 4 MP
PP
-3497 0 0 2894 3497 0 0 -2894 585 3160 5 MP stroke
4 w
DO
0 sg
 585 3160 mt  585  266 L
 585  266 mt  585  266 L
 997 3160 mt  997  266 L
 997  266 mt  997  266 L
1408 3160 mt 1408  266 L
1408  266 mt 1408  266 L
1819 3160 mt 1819  266 L
1819  266 mt 1819  266 L
2231 3160 mt 2231  266 L
2231  266 mt 2231  266 L
2642 3160 mt 2642  266 L
2642  266 mt 2642  266 L
3053 3160 mt 3053  266 L
3053  266 mt 3053  266 L
3465 3160 mt 3465  266 L
3465  266 mt 3465  266 L
3876 3160 mt 3876  266 L
3876  266 mt 3876  266 L
 585 3160 mt 4082 3160 L
4082 3160 mt 4082 3160 L
 585 2896 mt 4082 2896 L
4082 2896 mt 4082 2896 L
 585 2633 mt 4082 2633 L
4082 2633 mt 4082 2633 L
 585 2370 mt 4082 2370 L
4082 2370 mt 4082 2370 L
 585 2107 mt 4082 2107 L
4082 2107 mt 4082 2107 L
 585 1844 mt 4082 1844 L
4082 1844 mt 4082 1844 L
 585 1581 mt 4082 1581 L
4082 1581 mt 4082 1581 L
 585 1318 mt 4082 1318 L
4082 1318 mt 4082 1318 L
 585 1055 mt 4082 1055 L
4082 1055 mt 4082 1055 L
 585  792 mt 4082  792 L
4082  792 mt 4082  792 L
 585  529 mt 4082  529 L
4082  529 mt 4082  529 L
 585  266 mt 4082  266 L
4082  266 mt 4082  266 L
SO
6 w
 585 3160 mt 4082 3160 L
 585  266 mt 4082  266 L
 585 3160 mt  585  266 L
4082 3160 mt 4082  266 L
 585 3160 mt 4082 3160 L
 585 3160 mt  585  266 L
 585 3160 mt  585 3125 L
 585  266 mt  585  300 L
%%IncludeResource: font Helvetica
/Helvetica /ISOLatin1Encoding 120 FMSR

 552 3305 mt 
(0) s
 997 3160 mt  997 3125 L
 997  266 mt  997  300 L
 964 3305 mt 
(2) s
1408 3160 mt 1408 3125 L
1408  266 mt 1408  300 L
1375 3305 mt 
(4) s
1819 3160 mt 1819 3125 L
1819  266 mt 1819  300 L
1786 3305 mt 
(6) s
2231 3160 mt 2231 3125 L
2231  266 mt 2231  300 L
2198 3305 mt 
(8) s
2642 3160 mt 2642 3125 L
2642  266 mt 2642  300 L
2576 3305 mt 
(10) s
3053 3160 mt 3053 3125 L
3053  266 mt 3053  300 L
2987 3305 mt 
(12) s
3465 3160 mt 3465 3125 L
3465  266 mt 3465  300 L
3399 3305 mt 
(14) s
3876 3160 mt 3876 3125 L
3876  266 mt 3876  300 L
3810 3305 mt 
(16) s
 585 3160 mt  620 3160 L
4082 3160 mt 4047 3160 L
 415 3204 mt 
(-4) s
 585 2896 mt  620 2896 L
4082 2896 mt 4047 2896 L
 415 2940 mt 
(-3) s
 585 2633 mt  620 2633 L
4082 2633 mt 4047 2633 L
 415 2677 mt 
(-2) s
 585 2370 mt  620 2370 L
4082 2370 mt 4047 2370 L
 415 2414 mt 
(-1) s
 585 2107 mt  620 2107 L
4082 2107 mt 4047 2107 L
 485 2151 mt 
(0) s
 585 1844 mt  620 1844 L
4082 1844 mt 4047 1844 L
 485 1888 mt 
(1) s
 585 1581 mt  620 1581 L
4082 1581 mt 4047 1581 L
 485 1625 mt 
(2) s
 585 1318 mt  620 1318 L
4082 1318 mt 4047 1318 L
 485 1362 mt 
(3) s
 585 1055 mt  620 1055 L
4082 1055 mt 4047 1055 L
 485 1099 mt 
(4) s
 585  792 mt  620  792 L
4082  792 mt 4047  792 L
 485  836 mt 
(5) s
 585  529 mt  620  529 L
4082  529 mt 4047  529 L
 485  573 mt 
(6) s
 585  266 mt  620  266 L
4082  266 mt 4047  266 L
 485  310 mt 
(7) s
 585  212 mt 
(x 10) s
%%IncludeResource: font Helvetica
/Helvetica /ISOLatin1Encoding 80 FMSR

 811  138 mt 
(-3) s
 585 3160 mt 4082 3160 L
 585  266 mt 4082  266 L
 585 3160 mt  585  266 L
4082 3160 mt 4082  266 L
gs 586 266 3497 2895 rc
44 -25 53 -30 52 -26 52 -18 53 -7 52 8 52 21 53 33 
52 42 52 45 53 41 52 31 52 14 53 -4 52 -26 52 -46 
53 -59 52 -65 52 -63 52 -51 53 -30 52 -2 52 30 53 60 
52 84 52 95 53 96 52 81 52 54 53 16 52 -30 52 -77 
53 -117 52 -142 52 -144 53 -125 52 -88 52 -40 53 21 52 87 
52 156 53 208 52 228 52 203 52 141 53 61 52 -17 52 -92 
53 -172 52 -267 52 -348 53 -367 52 -282 52 -111 53 70 52 181 
52 212 53 240 52 356 52 545 53 643 52 466 52 4 53 -495 
52 -683 52 -447 52 -88 586 2107 68 MP stroke
44 -28 53 -30 52 -23 52 -10 53 4 52 18 52 32 53 44 
52 48 52 47 53 37 52 21 52 3 53 -19 52 -38 52 -56 
53 -69 52 -71 52 -61 52 -40 53 -13 52 16 52 44 53 70 
52 92 52 103 53 99 52 73 52 33 53 -12 52 -50 52 -83 
53 -115 52 -143 52 -154 53 -131 52 -74 52 0 53 63 52 105 
52 136 53 176 52 219 52 227 52 164 53 41 52 -86 52 -158 
53 -173 52 -191 52 -259 53 -344 52 -342 52 -180 53 81 52 281 
52 306 53 217 52 210 52 382 53 590 52 543 52 119 53 -435 
52 -689 52 -465 52 -91 586 2107 68 MP stroke
44 -29 53 -34 52 -29 52 -19 53 -5 52 11 52 26 53 39 
52 48 52 50 53 45 52 32 52 15 53 -9 52 -32 52 -52 
53 -66 52 -71 52 -68 52 -53 53 -31 52 1 52 36 53 69 
52 92 52 102 53 99 52 82 52 55 53 15 52 -32 52 -84 
53 -128 52 -152 52 -149 53 -123 52 -83 52 -36 53 19 52 86 
52 158 53 220 52 241 52 207 52 131 53 42 52 -28 52 -84 
53 -154 52 -253 52 -354 53 -384 52 -291 52 -96 53 100 52 200 
52 198 53 197 52 313 52 524 53 647 52 477 52 7 53 -490 
52 -667 52 -426 52 -80 586 2107 68 MP stroke
44 -25 53 -30 52 -28 52 -21 53 -9 52 5 52 19 53 32 
52 42 52 45 53 42 52 34 52 17 53 -1 52 -24 52 -42 
53 -59 52 -66 52 -64 52 -54 53 -32 52 -5 52 27 53 56 
52 81 52 96 53 97 52 84 52 57 53 17 52 -28 52 -73 
53 -111 52 -136 52 -145 53 -132 52 -96 52 -40 53 27 52 93 
52 149 53 190 52 212 52 206 52 164 53 82 52 -23 52 -125 
53 -201 52 -252 52 -291 53 -315 52 -292 52 -180 53 12 52 204 
52 307 53 315 52 321 52 418 53 540 52 477 52 97 53 -429 
52 -693 52 -473 52 -87 586 2107 68 MP stroke
44 -19 53 -24 52 -21 52 -14 53 -4 52 6 52 16 53 27 
52 33 52 36 53 34 52 25 52 12 53 -5 52 -22 52 -36 
53 -47 52 -53 52 -53 52 -44 53 -26 52 -2 52 27 53 52 
52 70 52 78 53 77 52 69 52 51 53 19 52 -23 52 -70 
53 -107 52 -124 52 -120 53 -100 52 -74 52 -42 53 3 52 66 
52 141 53 201 52 216 52 177 52 106 53 38 52 -8 52 -49 
53 -123 52 -239 52 -349 53 -376 52 -270 52 -72 53 107 52 175 
52 151 53 157 52 302 52 543 53 672 52 487 52 1 53 -499 
52 -669 52 -424 52 -80 586 2107 68 MP stroke
44 -30 53 -34 52 -27 52 -17 53 -2 52 14 52 30 53 42 
52 49 52 50 53 43 52 29 52 10 53 -13 52 -35 52 -55 
53 -68 52 -73 52 -65 52 -50 53 -23 52 7 52 42 53 71 
52 93 52 102 53 98 52 80 52 47 53 4 52 -43 52 -90 
53 -127 52 -146 52 -144 53 -121 52 -81 52 -28 53 36 52 104 
52 167 53 210 52 219 52 189 52 127 53 50 52 -27 52 -105 
53 -187 52 -273 52 -334 53 -331 52 -241 52 -84 53 73 52 168 
52 204 53 245 52 357 52 511 53 566 52 379 52 -40 53 -464 
52 -605 52 -383 52 -71 586 2107 68 MP stroke
44 -27 53 -33 52 -29 52 -21 53 -7 52 8 52 24 53 36 
52 46 52 49 53 45 52 33 52 16 53 -6 52 -28 52 -50 
53 -64 52 -71 52 -68 52 -54 53 -31 52 0 52 34 53 64 
52 90 52 103 53 102 52 85 52 55 53 12 52 -36 52 -83 
53 -123 52 -148 52 -152 53 -133 52 -92 52 -35 53 33 52 104 
52 166 53 211 52 226 52 206 52 151 53 69 52 -26 52 -121 
53 -211 52 -287 52 -336 53 -334 52 -262 52 -124 53 39 52 176 
52 261 53 322 52 407 52 519 53 556 52 385 52 -20 53 -467 
52 -650 52 -433 52 -85 586 2107 68 MP stroke
44 -23 53 -26 52 -21 52 -12 53 -1 52 13 52 24 53 35 
52 40 52 40 53 35 52 23 52 6 53 -12 52 -30 52 -47 
53 -57 52 -61 52 -56 52 -40 53 -19 52 8 52 36 53 61 
52 81 52 91 53 87 52 70 52 39 53 1 52 -40 52 -78 
53 -109 52 -130 52 -137 53 -118 52 -77 52 -18 53 45 52 97 
52 142 53 178 52 203 52 199 52 150 53 56 52 -51 52 -136 
53 -184 52 -220 52 -270 53 -317 52 -300 52 -167 53 49 52 234 
52 293 53 258 52 266 52 402 53 563 52 502 52 100 53 -432 
52 -683 52 -464 52 -88 586 2107 68 MP stroke
44 -25 53 -30 52 -26 52 -18 53 -7 52 8 52 21 53 33 
52 42 52 45 53 41 52 31 52 14 53 -4 52 -26 52 -46 
53 -59 52 -65 52 -63 52 -51 53 -30 52 -2 52 30 53 60 
52 84 52 95 53 96 52 81 52 54 53 16 52 -30 52 -77 
53 -117 52 -142 52 -144 53 -125 52 -88 52 -40 53 21 52 87 
52 156 53 208 52 228 52 203 52 141 53 61 52 -17 52 -92 
53 -172 52 -267 52 -348 53 -367 52 -282 52 -111 53 70 52 181 
52 212 53 240 52 356 52 545 53 643 52 466 52 4 53 -495 
52 -683 52 -447 52 -88 586 2107 68 MP stroke
44 -28 53 -30 52 -23 52 -10 53 4 52 18 52 32 53 44 
52 48 52 47 53 37 52 21 52 3 53 -19 52 -38 52 -56 
53 -69 52 -71 52 -61 52 -40 53 -13 52 16 52 44 53 70 
52 92 52 103 53 99 52 73 52 33 53 -12 52 -50 52 -83 
53 -115 52 -143 52 -154 53 -131 52 -74 52 0 53 63 52 105 
52 136 53 176 52 219 52 227 52 164 53 41 52 -86 52 -158 
53 -173 52 -191 52 -259 53 -344 52 -342 52 -180 53 81 52 281 
52 306 53 217 52 210 52 382 53 590 52 543 52 119 53 -435 
52 -689 52 -465 52 -91 586 2107 68 MP stroke
44 -29 53 -34 52 -29 52 -19 53 -5 52 11 52 26 53 39 
52 48 52 50 53 45 52 32 52 15 53 -9 52 -32 52 -52 
53 -66 52 -71 52 -68 52 -53 53 -31 52 1 52 36 53 69 
52 92 52 102 53 99 52 82 52 55 53 15 52 -32 52 -84 
53 -128 52 -152 52 -149 53 -123 52 -83 52 -36 53 19 52 86 
52 158 53 220 52 241 52 207 52 131 53 42 52 -28 52 -84 
53 -154 52 -253 52 -354 53 -384 52 -291 52 -96 53 100 52 200 
52 198 53 197 52 313 52 524 53 647 52 477 52 7 53 -490 
52 -667 52 -426 52 -80 586 2107 68 MP stroke
44 -25 53 -30 52 -28 52 -21 53 -9 52 5 52 19 53 32 
52 42 52 45 53 42 52 34 52 17 53 -1 52 -24 52 -42 
53 -59 52 -66 52 -64 52 -54 53 -32 52 -5 52 27 53 56 
52 81 52 96 53 97 52 84 52 57 53 17 52 -28 52 -73 
53 -111 52 -136 52 -145 53 -132 52 -96 52 -40 53 27 52 93 
52 149 53 190 52 212 52 206 52 164 53 82 52 -23 52 -125 
53 -201 52 -252 52 -291 53 -315 52 -292 52 -180 53 12 52 204 
52 307 53 315 52 321 52 418 53 540 52 477 52 97 53 -429 
52 -693 52 -473 52 -87 586 2107 68 MP stroke
44 -19 53 -24 52 -21 52 -14 53 -4 52 6 52 16 53 27 
52 33 52 36 53 34 52 25 52 12 53 -5 52 -22 52 -36 
53 -47 52 -53 52 -53 52 -44 53 -26 52 -2 52 27 53 52 
52 70 52 78 53 77 52 69 52 51 53 19 52 -23 52 -70 
53 -107 52 -124 52 -120 53 -100 52 -74 52 -42 53 3 52 66 
52 141 53 201 52 216 52 177 52 106 53 38 52 -8 52 -49 
53 -123 52 -239 52 -349 53 -376 52 -270 52 -72 53 107 52 175 
52 151 53 157 52 302 52 543 53 672 52 487 52 1 53 -499 
52 -669 52 -424 52 -80 586 2107 68 MP stroke
44 -30 53 -34 52 -27 52 -17 53 -2 52 14 52 30 53 42 
52 49 52 50 53 43 52 29 52 10 53 -13 52 -35 52 -55 
53 -68 52 -73 52 -65 52 -50 53 -23 52 7 52 42 53 71 
52 93 52 102 53 98 52 80 52 47 53 4 52 -43 52 -90 
53 -127 52 -146 52 -144 53 -121 52 -81 52 -28 53 36 52 104 
52 167 53 210 52 219 52 189 52 127 53 50 52 -27 52 -105 
53 -187 52 -273 52 -334 53 -331 52 -241 52 -84 53 73 52 168 
52 204 53 245 52 357 52 511 53 566 52 379 52 -40 53 -464 
52 -605 52 -383 52 -71 586 2107 68 MP stroke
44 -27 53 -33 52 -29 52 -21 53 -7 52 8 52 24 53 36 
52 46 52 49 53 45 52 33 52 16 53 -6 52 -28 52 -50 
53 -64 52 -71 52 -68 52 -54 53 -31 52 0 52 34 53 64 
52 90 52 103 53 102 52 85 52 55 53 12 52 -36 52 -83 
53 -123 52 -148 52 -152 53 -133 52 -92 52 -35 53 33 52 104 
52 166 53 211 52 226 52 206 52 151 53 69 52 -26 52 -121 
53 -211 52 -287 52 -336 53 -334 52 -262 52 -124 53 39 52 176 
52 261 53 322 52 407 52 519 53 556 52 385 52 -20 53 -467 
52 -650 52 -433 52 -85 586 2107 68 MP stroke
44 -23 53 -26 52 -21 52 -12 53 -1 52 13 52 24 53 35 
52 40 52 40 53 35 52 23 52 6 53 -12 52 -30 52 -47 
53 -57 52 -61 52 -56 52 -40 53 -19 52 8 52 36 53 61 
52 81 52 91 53 87 52 70 52 39 53 1 52 -40 52 -78 
53 -109 52 -130 52 -137 53 -118 52 -77 52 -18 53 45 52 97 
52 142 53 178 52 203 52 199 52 150 53 56 52 -51 52 -136 
53 -184 52 -220 52 -270 53 -317 52 -300 52 -167 53 49 52 234 
52 293 53 258 52 266 52 402 53 563 52 502 52 100 53 -432 
52 -683 52 -464 52 -88 586 2107 68 MP stroke
44 -25 53 -30 52 -26 52 -18 53 -7 52 8 52 21 53 33 
52 42 52 45 53 41 52 31 52 14 53 -4 52 -26 52 -46 
53 -59 52 -65 52 -63 52 -51 53 -30 52 -2 52 30 53 60 
52 84 52 95 53 96 52 81 52 54 53 16 52 -30 52 -77 
53 -117 52 -142 52 -144 53 -125 52 -88 52 -40 53 21 52 87 
52 156 53 208 52 228 52 203 52 141 53 61 52 -17 52 -92 
53 -172 52 -267 52 -348 53 -367 52 -282 52 -111 53 70 52 181 
52 212 53 240 52 356 52 545 53 643 52 466 52 4 53 -495 
52 -683 52 -447 52 -88 586 2107 68 MP stroke
44 -28 53 -30 52 -23 52 -10 53 4 52 18 52 32 53 44 
52 48 52 47 53 37 52 21 52 3 53 -19 52 -38 52 -56 
53 -69 52 -71 52 -61 52 -40 53 -13 52 16 52 44 53 70 
52 92 52 103 53 99 52 73 52 33 53 -12 52 -50 52 -83 
53 -115 52 -143 52 -154 53 -131 52 -74 52 0 53 63 52 105 
52 136 53 176 52 219 52 227 52 164 53 41 52 -86 52 -158 
53 -173 52 -191 52 -259 53 -344 52 -342 52 -180 53 81 52 281 
52 306 53 217 52 210 52 382 53 590 52 543 52 119 53 -435 
52 -689 52 -465 52 -91 586 2107 68 MP stroke
44 -29 53 -34 52 -29 52 -19 53 -5 52 11 52 26 53 39 
52 48 52 50 53 45 52 32 52 15 53 -9 52 -32 52 -52 
53 -66 52 -71 52 -68 52 -53 53 -31 52 1 52 36 53 69 
52 92 52 102 53 99 52 82 52 55 53 15 52 -32 52 -84 
53 -128 52 -152 52 -149 53 -123 52 -83 52 -36 53 19 52 86 
52 158 53 220 52 241 52 207 52 131 53 42 52 -28 52 -84 
53 -154 52 -253 52 -354 53 -384 52 -291 52 -96 53 100 52 200 
52 198 53 197 52 313 52 524 53 647 52 477 52 7 53 -490 
52 -667 52 -426 52 -80 586 2107 68 MP stroke
44 -25 53 -30 52 -28 52 -21 53 -9 52 5 52 19 53 32 
52 42 52 45 53 42 52 34 52 17 53 -1 52 -24 52 -42 
53 -59 52 -66 52 -64 52 -54 53 -32 52 -5 52 27 53 56 
52 81 52 96 53 97 52 84 52 57 53 17 52 -28 52 -73 
53 -111 52 -136 52 -145 53 -132 52 -96 52 -40 53 27 52 93 
52 149 53 190 52 212 52 206 52 164 53 82 52 -23 52 -125 
53 -201 52 -252 52 -291 53 -315 52 -292 52 -180 53 12 52 204 
52 307 53 315 52 321 52 418 53 540 52 477 52 97 53 -429 
52 -693 52 -473 52 -87 586 2107 68 MP stroke
44 -19 53 -24 52 -21 52 -14 53 -4 52 6 52 16 53 27 
52 33 52 36 53 34 52 25 52 12 53 -5 52 -22 52 -36 
53 -47 52 -53 52 -53 52 -44 53 -26 52 -2 52 27 53 52 
52 70 52 78 53 77 52 69 52 51 53 19 52 -23 52 -70 
53 -107 52 -124 52 -120 53 -100 52 -74 52 -42 53 3 52 66 
52 141 53 201 52 216 52 177 52 106 53 38 52 -8 52 -49 
53 -123 52 -239 52 -349 53 -376 52 -270 52 -72 53 107 52 175 
52 151 53 157 52 302 52 543 53 672 52 487 52 1 53 -499 
52 -669 52 -424 52 -80 586 2107 68 MP stroke
44 -30 53 -34 52 -27 52 -17 53 -2 52 14 52 30 53 42 
52 49 52 50 53 43 52 29 52 10 53 -13 52 -35 52 -55 
53 -68 52 -73 52 -65 52 -50 53 -23 52 7 52 42 53 71 
52 93 52 102 53 98 52 80 52 47 53 4 52 -43 52 -90 
53 -127 52 -146 52 -144 53 -121 52 -81 52 -28 53 36 52 104 
52 167 53 210 52 219 52 189 52 127 53 50 52 -27 52 -105 
53 -187 52 -273 52 -334 53 -331 52 -241 52 -84 53 73 52 168 
52 204 53 245 52 357 52 511 53 566 52 379 52 -40 53 -464 
52 -605 52 -383 52 -71 586 2107 68 MP stroke
44 -27 53 -33 52 -29 52 -21 53 -7 52 8 52 24 53 36 
52 46 52 49 53 45 52 33 52 16 53 -6 52 -28 52 -50 
53 -64 52 -71 52 -68 52 -54 53 -31 52 0 52 34 53 64 
52 90 52 103 53 102 52 85 52 55 53 12 52 -36 52 -83 
53 -123 52 -148 52 -152 53 -133 52 -92 52 -35 53 33 52 104 
52 166 53 211 52 226 52 206 52 151 53 69 52 -26 52 -121 
53 -211 52 -287 52 -336 53 -334 52 -262 52 -124 53 39 52 176 
52 261 53 322 52 407 52 519 53 556 52 385 52 -20 53 -467 
52 -650 52 -433 52 -85 586 2107 68 MP stroke
44 -23 53 -26 52 -21 52 -12 53 -1 52 13 52 24 53 35 
52 40 52 40 53 35 52 23 52 6 53 -12 52 -30 52 -47 
53 -57 52 -61 52 -56 52 -40 53 -19 52 8 52 36 53 61 
52 81 52 91 53 87 52 70 52 39 53 1 52 -40 52 -78 
53 -109 52 -130 52 -137 53 -118 52 -77 52 -18 53 45 52 97 
52 142 53 178 52 203 52 199 52 150 53 56 52 -51 52 -136 
53 -184 52 -220 52 -270 53 -317 52 -300 52 -167 53 49 52 234 
52 293 53 258 52 266 52 402 53 563 52 502 52 100 53 -432 
52 -683 52 -464 52 -88 586 2107 68 MP stroke
44 -25 53 -30 52 -26 52 -18 53 -7 52 8 52 21 53 33 
52 42 52 45 53 41 52 31 52 14 53 -4 52 -26 52 -46 
53 -59 52 -65 52 -63 52 -51 53 -30 52 -2 52 30 53 60 
52 84 52 95 53 96 52 81 52 54 53 16 52 -30 52 -77 
53 -117 52 -142 52 -144 53 -125 52 -88 52 -40 53 21 52 87 
52 156 53 208 52 228 52 203 52 141 53 61 52 -17 52 -92 
53 -172 52 -267 52 -348 53 -367 52 -282 52 -111 53 70 52 181 
52 212 53 240 52 356 52 545 53 643 52 466 52 4 53 -495 
52 -683 52 -447 52 -88 586 2107 68 MP stroke
44 -28 53 -30 52 -23 52 -10 53 4 52 18 52 32 53 44 
52 48 52 47 53 37 52 21 52 3 53 -19 52 -38 52 -56 
53 -69 52 -71 52 -61 52 -40 53 -13 52 16 52 44 53 70 
52 92 52 103 53 99 52 73 52 33 53 -12 52 -50 52 -83 
53 -115 52 -143 52 -154 53 -131 52 -74 52 0 53 63 52 105 
52 136 53 176 52 219 52 227 52 164 53 41 52 -86 52 -158 
53 -173 52 -191 52 -259 53 -344 52 -342 52 -180 53 81 52 281 
52 306 53 217 52 210 52 382 53 590 52 543 52 119 53 -435 
52 -689 52 -465 52 -91 586 2107 68 MP stroke
44 -29 53 -34 52 -29 52 -19 53 -5 52 11 52 26 53 39 
52 48 52 50 53 45 52 32 52 15 53 -9 52 -32 52 -52 
53 -66 52 -71 52 -68 52 -53 53 -31 52 1 52 36 53 69 
52 92 52 102 53 99 52 82 52 55 53 15 52 -32 52 -84 
53 -128 52 -152 52 -149 53 -123 52 -83 52 -36 53 19 52 86 
52 158 53 220 52 241 52 207 52 131 53 42 52 -28 52 -84 
53 -154 52 -253 52 -354 53 -384 52 -291 52 -96 53 100 52 200 
52 198 53 197 52 313 52 524 53 647 52 477 52 7 53 -490 
52 -667 52 -426 52 -80 586 2107 68 MP stroke
44 -25 53 -30 52 -28 52 -21 53 -9 52 5 52 19 53 32 
52 42 52 45 53 42 52 34 52 17 53 -1 52 -24 52 -42 
53 -59 52 -66 52 -64 52 -54 53 -32 52 -5 52 27 53 56 
52 81 52 96 53 97 52 84 52 57 53 17 52 -28 52 -73 
53 -111 52 -136 52 -145 53 -132 52 -96 52 -40 53 27 52 93 
52 149 53 190 52 212 52 206 52 164 53 82 52 -23 52 -125 
53 -201 52 -252 52 -291 53 -315 52 -292 52 -180 53 12 52 204 
52 307 53 315 52 321 52 418 53 540 52 477 52 97 53 -429 
52 -693 52 -473 52 -87 586 2107 68 MP stroke
44 -19 53 -24 52 -21 52 -14 53 -4 52 6 52 16 53 27 
52 33 52 36 53 34 52 25 52 12 53 -5 52 -22 52 -36 
53 -47 52 -53 52 -53 52 -44 53 -26 52 -2 52 27 53 52 
52 70 52 78 53 77 52 69 52 51 53 19 52 -23 52 -70 
53 -107 52 -124 52 -120 53 -100 52 -74 52 -42 53 3 52 66 
52 141 53 201 52 216 52 177 52 106 53 38 52 -8 52 -49 
53 -123 52 -239 52 -349 53 -376 52 -270 52 -72 53 107 52 175 
52 151 53 157 52 302 52 543 53 672 52 487 52 1 53 -499 
52 -669 52 -424 52 -80 586 2107 68 MP stroke
44 -30 53 -34 52 -27 52 -17 53 -2 52 14 52 30 53 42 
52 49 52 50 53 43 52 29 52 10 53 -13 52 -35 52 -55 
53 -68 52 -73 52 -65 52 -50 53 -23 52 7 52 42 53 71 
52 93 52 102 53 98 52 80 52 47 53 4 52 -43 52 -90 
53 -127 52 -146 52 -144 53 -121 52 -81 52 -28 53 36 52 104 
52 167 53 210 52 219 52 189 52 127 53 50 52 -27 52 -105 
53 -187 52 -273 52 -334 53 -331 52 -241 52 -84 53 73 52 168 
52 204 53 245 52 357 52 511 53 566 52 379 52 -40 53 -464 
52 -605 52 -383 52 -71 586 2107 68 MP stroke
44 -27 53 -33 52 -29 52 -21 53 -7 52 8 52 24 53 36 
52 46 52 49 53 45 52 33 52 16 53 -6 52 -28 52 -50 
53 -64 52 -71 52 -68 52 -54 53 -31 52 0 52 34 53 64 
52 90 52 103 53 102 52 85 52 55 53 12 52 -36 52 -83 
53 -123 52 -148 52 -152 53 -133 52 -92 52 -35 53 33 52 104 
52 166 53 211 52 226 52 206 52 151 53 69 52 -26 52 -121 
53 -211 52 -287 52 -336 53 -334 52 -262 52 -124 53 39 52 176 
52 261 53 322 52 407 52 519 53 556 52 385 52 -20 53 -467 
52 -650 52 -433 52 -85 586 2107 68 MP stroke
44 -23 53 -26 52 -21 52 -12 53 -1 52 13 52 24 53 35 
52 40 52 40 53 35 52 23 52 6 53 -12 52 -30 52 -47 
53 -57 52 -61 52 -56 52 -40 53 -19 52 8 52 36 53 61 
52 81 52 91 53 87 52 70 52 39 53 1 52 -40 52 -78 
53 -109 52 -130 52 -137 53 -118 52 -77 52 -18 53 45 52 97 
52 142 53 178 52 203 52 199 52 150 53 56 52 -51 52 -136 
53 -184 52 -220 52 -270 53 -317 52 -300 52 -167 53 49 52 234 
52 293 53 258 52 266 52 402 53 563 52 502 52 100 53 -432 
52 -683 52 -464 52 -88 586 2107 68 MP stroke
44 -25 53 -30 52 -26 52 -18 53 -7 52 8 52 21 53 33 
52 42 52 45 53 41 52 31 52 14 53 -4 52 -26 52 -46 
53 -59 52 -65 52 -63 52 -51 53 -30 52 -2 52 30 53 60 
52 84 52 95 53 96 52 81 52 54 53 16 52 -30 52 -77 
53 -117 52 -142 52 -144 53 -125 52 -88 52 -40 53 21 52 87 
52 156 53 208 52 228 52 203 52 141 53 61 52 -17 52 -92 
53 -172 52 -267 52 -348 53 -367 52 -282 52 -111 53 70 52 181 
52 212 53 240 52 356 52 545 53 643 52 466 52 4 53 -495 
52 -683 52 -447 52 -88 586 2107 68 MP stroke
44 -28 53 -30 52 -23 52 -10 53 4 52 18 52 32 53 44 
52 48 52 47 53 37 52 21 52 3 53 -19 52 -38 52 -56 
53 -69 52 -71 52 -61 52 -40 53 -13 52 16 52 44 53 70 
52 92 52 103 53 99 52 73 52 33 53 -12 52 -50 52 -83 
53 -115 52 -143 52 -154 53 -131 52 -74 52 0 53 63 52 105 
52 136 53 176 52 219 52 227 52 164 53 41 52 -86 52 -158 
53 -173 52 -191 52 -259 53 -344 52 -342 52 -180 53 81 52 281 
52 306 53 217 52 210 52 382 53 590 52 543 52 119 53 -435 
52 -689 52 -465 52 -91 586 2107 68 MP stroke
44 -29 53 -34 52 -29 52 -19 53 -5 52 11 52 26 53 39 
52 48 52 50 53 45 52 32 52 15 53 -9 52 -32 52 -52 
53 -66 52 -71 52 -68 52 -53 53 -31 52 1 52 36 53 69 
52 92 52 102 53 99 52 82 52 55 53 15 52 -32 52 -84 
53 -128 52 -152 52 -149 53 -123 52 -83 52 -36 53 19 52 86 
52 158 53 220 52 241 52 207 52 131 53 42 52 -28 52 -84 
53 -154 52 -253 52 -354 53 -384 52 -291 52 -96 53 100 52 200 
52 198 53 197 52 313 52 524 53 647 52 477 52 7 53 -490 
52 -667 52 -426 52 -80 586 2107 68 MP stroke
44 -25 53 -30 52 -28 52 -21 53 -9 52 5 52 19 53 32 
52 42 52 45 53 42 52 34 52 17 53 -1 52 -24 52 -42 
53 -59 52 -66 52 -64 52 -54 53 -32 52 -5 52 27 53 56 
52 81 52 96 53 97 52 84 52 57 53 17 52 -28 52 -73 
53 -111 52 -136 52 -145 53 -132 52 -96 52 -40 53 27 52 93 
52 149 53 190 52 212 52 206 52 164 53 82 52 -23 52 -125 
53 -201 52 -252 52 -291 53 -315 52 -292 52 -180 53 12 52 204 
52 307 53 315 52 321 52 418 53 540 52 477 52 97 53 -429 
52 -693 52 -473 52 -87 586 2107 68 MP stroke
44 -19 53 -24 52 -21 52 -14 53 -4 52 6 52 16 53 27 
52 33 52 36 53 34 52 25 52 12 53 -5 52 -22 52 -36 
53 -47 52 -53 52 -53 52 -44 53 -26 52 -2 52 27 53 52 
52 70 52 78 53 77 52 69 52 51 53 19 52 -23 52 -70 
53 -107 52 -124 52 -120 53 -100 52 -74 52 -42 53 3 52 66 
52 141 53 201 52 216 52 177 52 106 53 38 52 -8 52 -49 
53 -123 52 -239 52 -349 53 -376 52 -270 52 -72 53 107 52 175 
52 151 53 157 52 302 52 543 53 672 52 487 52 1 53 -499 
52 -669 52 -424 52 -80 586 2107 68 MP stroke
44 -30 53 -34 52 -27 52 -17 53 -2 52 14 52 30 53 42 
52 49 52 50 53 43 52 29 52 10 53 -13 52 -35 52 -55 
53 -68 52 -73 52 -65 52 -50 53 -23 52 7 52 42 53 71 
52 93 52 102 53 98 52 80 52 47 53 4 52 -43 52 -90 
53 -127 52 -146 52 -144 53 -121 52 -81 52 -28 53 36 52 104 
52 167 53 210 52 219 52 189 52 127 53 50 52 -27 52 -105 
53 -187 52 -273 52 -334 53 -331 52 -241 52 -84 53 73 52 168 
52 204 53 245 52 357 52 511 53 566 52 379 52 -40 53 -464 
52 -605 52 -383 52 -71 586 2107 68 MP stroke
44 -27 53 -33 52 -29 52 -21 53 -7 52 8 52 24 53 36 
52 46 52 49 53 45 52 33 52 16 53 -6 52 -28 52 -50 
53 -64 52 -71 52 -68 52 -54 53 -31 52 0 52 34 53 64 
52 90 52 103 53 102 52 85 52 55 53 12 52 -36 52 -83 
53 -123 52 -148 52 -152 53 -133 52 -92 52 -35 53 33 52 104 
52 166 53 211 52 226 52 206 52 151 53 69 52 -26 52 -121 
53 -211 52 -287 52 -336 53 -334 52 -262 52 -124 53 39 52 176 
52 261 53 322 52 407 52 519 53 556 52 385 52 -20 53 -467 
52 -650 52 -433 52 -85 586 2107 68 MP stroke
44 -23 53 -26 52 -21 52 -12 53 -1 52 13 52 24 53 35 
52 40 52 40 53 35 52 23 52 6 53 -12 52 -30 52 -47 
53 -57 52 -61 52 -56 52 -40 53 -19 52 8 52 36 53 61 
52 81 52 91 53 87 52 70 52 39 53 1 52 -40 52 -78 
53 -109 52 -130 52 -137 53 -118 52 -77 52 -18 53 45 52 97 
52 142 53 178 52 203 52 199 52 150 53 56 52 -51 52 -136 
53 -184 52 -220 52 -270 53 -317 52 -300 52 -167 53 49 52 234 
52 293 53 258 52 266 52 402 53 563 52 502 52 100 53 -432 
52 -683 52 -464 52 -88 586 2107 68 MP stroke
44 -24 53 -29 52 -26 52 -18 53 -7 52 6 52 20 53 32 
52 41 52 43 53 41 52 30 52 16 53 -4 52 -24 52 -44 
53 -57 52 -65 52 -62 52 -50 53 -30 52 -3 52 28 53 58 
52 80 52 95 53 96 52 81 52 53 53 15 52 -30 52 -73 
53 -111 52 -138 52 -145 53 -129 52 -92 52 -37 53 28 52 91 
52 148 53 194 52 217 52 209 52 160 53 74 52 -26 52 -118 
53 -192 52 -252 52 -306 53 -336 52 -298 52 -166 53 29 52 201 
52 284 53 295 52 333 52 460 53 579 52 487 52 83 53 -442 
52 -699 52 -487 52 -99 586 2107 68 MP stroke
44 -28 53 -30 52 -23 52 -10 53 4 52 18 52 32 53 44 
52 48 52 47 53 37 52 21 52 3 53 -19 52 -38 52 -56 
53 -69 52 -71 52 -61 52 -40 53 -13 52 16 52 44 53 70 
52 92 52 103 53 99 52 73 52 33 53 -12 52 -50 52 -83 
53 -115 52 -143 52 -154 53 -131 52 -74 52 0 53 63 52 105 
52 136 53 176 52 219 52 227 52 164 53 41 52 -86 52 -158 
53 -173 52 -191 52 -259 53 -344 52 -342 52 -180 53 81 52 281 
52 306 53 217 52 210 52 382 53 590 52 543 52 119 53 -435 
52 -689 52 -465 52 -91 586 2107 68 MP stroke
44 -29 53 -34 52 -29 52 -19 53 -5 52 11 52 26 53 39 
52 48 52 50 53 45 52 32 52 15 53 -9 52 -32 52 -52 
53 -66 52 -71 52 -68 52 -53 53 -31 52 1 52 36 53 69 
52 92 52 102 53 99 52 82 52 55 53 15 52 -32 52 -84 
53 -128 52 -152 52 -149 53 -123 52 -83 52 -36 53 19 52 86 
52 158 53 220 52 241 52 207 52 131 53 42 52 -28 52 -84 
53 -154 52 -253 52 -354 53 -384 52 -291 52 -96 53 100 52 200 
52 198 53 197 52 313 52 524 53 647 52 477 52 7 53 -490 
52 -667 52 -426 52 -80 586 2107 68 MP stroke
44 -25 53 -30 52 -28 52 -21 53 -9 52 5 52 19 53 32 
52 42 52 45 53 42 52 34 52 17 53 -1 52 -24 52 -42 
53 -59 52 -66 52 -64 52 -54 53 -32 52 -5 52 27 53 56 
52 81 52 96 53 97 52 84 52 57 53 17 52 -28 52 -73 
53 -111 52 -136 52 -145 53 -132 52 -96 52 -40 53 27 52 93 
52 149 53 190 52 212 52 206 52 164 53 82 52 -23 52 -125 
53 -201 52 -252 52 -291 53 -315 52 -292 52 -180 53 12 52 204 
52 307 53 315 52 321 52 418 53 540 52 477 52 97 53 -429 
52 -693 52 -473 52 -87 586 2107 68 MP stroke
44 -19 53 -24 52 -21 52 -14 53 -4 52 6 52 16 53 27 
52 33 52 36 53 34 52 25 52 12 53 -5 52 -22 52 -36 
53 -47 52 -53 52 -53 52 -44 53 -26 52 -2 52 27 53 52 
52 70 52 78 53 77 52 69 52 51 53 19 52 -23 52 -70 
53 -107 52 -124 52 -120 53 -100 52 -74 52 -42 53 3 52 66 
52 141 53 201 52 216 52 177 52 106 53 38 52 -8 52 -49 
53 -123 52 -239 52 -349 53 -376 52 -270 52 -72 53 107 52 175 
52 151 53 157 52 302 52 543 53 672 52 487 52 1 53 -499 
52 -669 52 -424 52 -80 586 2107 68 MP stroke
44 -27 53 -32 52 -28 52 -18 53 -5 52 10 52 25 53 38 
52 46 52 47 53 42 52 31 52 13 53 -8 52 -30 52 -49 
53 -63 52 -69 52 -64 52 -50 53 -27 52 2 52 34 53 63 
52 86 52 99 53 96 52 79 52 48 53 10 52 -34 52 -77 
53 -115 52 -140 52 -145 53 -124 52 -82 52 -27 53 32 52 90 
52 143 53 190 52 215 52 202 52 145 53 54 52 -38 52 -113 
53 -170 52 -228 52 -292 53 -327 52 -282 52 -137 53 57 52 204 
52 246 53 237 52 283 52 428 53 549 52 446 52 53 53 -422 
52 -627 52 -419 52 -81 586 2107 68 MP stroke
44 -27 53 -33 52 -29 52 -21 53 -7 52 8 52 24 53 36 
52 46 52 49 53 45 52 33 52 16 53 -6 52 -28 52 -50 
53 -64 52 -71 52 -68 52 -54 53 -31 52 0 52 34 53 64 
52 90 52 103 53 102 52 85 52 55 53 12 52 -36 52 -83 
53 -123 52 -148 52 -152 53 -133 52 -92 52 -35 53 33 52 104 
52 166 53 211 52 226 52 206 52 151 53 69 52 -26 52 -121 
53 -211 52 -287 52 -336 53 -334 52 -262 52 -124 53 39 52 176 
52 261 53 322 52 407 52 519 53 556 52 385 52 -20 53 -467 
52 -650 52 -433 52 -85 586 2107 68 MP stroke
44 -23 53 -26 52 -21 52 -12 53 -1 52 13 52 24 53 35 
52 40 52 40 53 35 52 23 52 6 53 -12 52 -30 52 -47 
53 -57 52 -61 52 -56 52 -40 53 -19 52 8 52 36 53 61 
52 81 52 91 53 87 52 70 52 39 53 1 52 -40 52 -78 
53 -109 52 -130 52 -137 53 -118 52 -77 52 -18 53 45 52 97 
52 142 53 178 52 203 52 199 52 150 53 56 52 -51 52 -136 
53 -184 52 -220 52 -270 53 -317 52 -300 52 -167 53 49 52 234 
52 293 53 258 52 266 52 402 53 563 52 502 52 100 53 -432 
52 -683 52 -464 52 -88 586 2107 68 MP stroke
44 -24 53 -29 52 -26 52 -18 53 -7 52 6 52 20 53 32 
52 41 52 43 53 41 52 30 52 16 53 -4 52 -24 52 -44 
53 -57 52 -65 52 -62 52 -50 53 -30 52 -3 52 28 53 58 
52 80 52 95 53 96 52 81 52 53 53 15 52 -30 52 -73 
53 -111 52 -138 52 -145 53 -129 52 -92 52 -37 53 28 52 91 
52 148 53 194 52 217 52 209 52 160 53 74 52 -26 52 -118 
53 -192 52 -252 52 -306 53 -336 52 -298 52 -166 53 29 52 201 
52 284 53 295 52 333 52 460 53 579 52 487 52 83 53 -442 
52 -699 52 -487 52 -99 586 2107 68 MP stroke
44 -30 53 -33 52 -25 52 -14 53 1 52 18 52 32 53 45 
52 50 52 49 53 42 52 26 52 6 53 -17 52 -40 52 -58 
53 -70 52 -72 52 -64 52 -46 53 -19 52 12 52 46 53 74 
52 96 52 104 53 97 52 76 52 42 53 -2 52 -49 52 -92 
53 -127 52 -147 52 -147 53 -122 52 -77 52 -17 53 47 52 109 
52 161 53 201 52 218 52 198 52 139 53 48 52 -48 52 -130 
53 -194 52 -249 52 -300 53 -320 52 -269 52 -128 53 57 52 206 
52 265 53 267 52 308 52 431 53 531 52 426 52 46 53 -419 
52 -629 52 -427 52 -86 586 2107 68 MP stroke
44 -29 53 -34 52 -29 52 -19 53 -5 52 11 52 26 53 39 
52 48 52 50 53 45 52 32 52 15 53 -9 52 -32 52 -52 
53 -66 52 -71 52 -68 52 -53 53 -31 52 1 52 36 53 69 
52 92 52 102 53 99 52 82 52 55 53 15 52 -32 52 -84 
53 -128 52 -152 52 -149 53 -123 52 -83 52 -36 53 19 52 86 
52 158 53 220 52 241 52 207 52 131 53 42 52 -28 52 -84 
53 -154 52 -253 52 -354 53 -384 52 -291 52 -96 53 100 52 200 
52 198 53 197 52 313 52 524 53 647 52 477 52 7 53 -490 
52 -667 52 -426 52 -80 586 2107 68 MP stroke
44 -25 53 -30 52 -28 52 -21 53 -9 52 5 52 19 53 32 
52 42 52 45 53 42 52 34 52 17 53 -1 52 -24 52 -42 
53 -59 52 -66 52 -64 52 -54 53 -32 52 -5 52 27 53 56 
52 81 52 96 53 97 52 84 52 57 53 17 52 -28 52 -73 
53 -111 52 -136 52 -145 53 -132 52 -96 52 -40 53 27 52 93 
52 149 53 190 52 212 52 206 52 164 53 82 52 -23 52 -125 
53 -201 52 -252 52 -291 53 -315 52 -292 52 -180 53 12 52 204 
52 307 53 315 52 321 52 418 53 540 52 477 52 97 53 -429 
52 -693 52 -473 52 -87 586 2107 68 MP stroke
44 -19 53 -24 52 -21 52 -14 53 -4 52 6 52 16 53 27 
52 33 52 36 53 34 52 25 52 12 53 -5 52 -22 52 -36 
53 -47 52 -53 52 -53 52 -44 53 -26 52 -2 52 27 53 52 
52 70 52 78 53 77 52 69 52 51 53 19 52 -23 52 -70 
53 -107 52 -124 52 -120 53 -100 52 -74 52 -42 53 3 52 66 
52 141 53 201 52 216 52 177 52 106 53 38 52 -8 52 -49 
53 -123 52 -239 52 -349 53 -376 52 -270 52 -72 53 107 52 175 
52 151 53 157 52 302 52 543 53 672 52 487 52 1 53 -499 
52 -669 52 -424 52 -80 586 2107 68 MP stroke
44 -27 53 -32 52 -28 52 -18 53 -5 52 10 52 25 53 38 
52 46 52 47 53 42 52 31 52 13 53 -8 52 -30 52 -49 
53 -63 52 -69 52 -64 52 -50 53 -27 52 2 52 34 53 63 
52 86 52 99 53 96 52 79 52 48 53 10 52 -34 52 -77 
53 -115 52 -140 52 -145 53 -124 52 -82 52 -27 53 32 52 90 
52 143 53 190 52 215 52 202 52 145 53 54 52 -38 52 -113 
53 -170 52 -228 52 -292 53 -327 52 -282 52 -137 53 57 52 204 
52 246 53 237 52 283 52 428 53 549 52 446 52 53 53 -422 
52 -627 52 -419 52 -81 586 2107 68 MP stroke
44 -27 53 -33 52 -29 52 -21 53 -7 52 8 52 24 53 36 
52 46 52 49 53 45 52 33 52 16 53 -6 52 -28 52 -50 
53 -64 52 -71 52 -68 52 -54 53 -31 52 0 52 34 53 64 
52 90 52 103 53 102 52 85 52 55 53 12 52 -36 52 -83 
53 -123 52 -148 52 -152 53 -133 52 -92 52 -35 53 33 52 104 
52 166 53 211 52 226 52 206 52 151 53 69 52 -26 52 -121 
53 -211 52 -287 52 -336 53 -334 52 -262 52 -124 53 39 52 176 
52 261 53 322 52 407 52 519 53 556 52 385 52 -20 53 -467 
52 -650 52 -433 52 -85 586 2107 68 MP stroke
44 -23 53 -26 52 -21 52 -12 53 -1 52 13 52 24 53 35 
52 40 52 40 53 35 52 23 52 6 53 -12 52 -30 52 -47 
53 -57 52 -61 52 -56 52 -40 53 -19 52 8 52 36 53 61 
52 81 52 91 53 87 52 70 52 39 53 1 52 -40 52 -78 
53 -109 52 -130 52 -137 53 -118 52 -77 52 -18 53 45 52 97 
52 142 53 178 52 203 52 199 52 150 53 56 52 -51 52 -136 
53 -184 52 -220 52 -270 53 -317 52 -300 52 -167 53 49 52 234 
52 293 53 258 52 266 52 402 53 563 52 502 52 100 53 -432 
52 -683 52 -464 52 -88 586 2107 68 MP stroke
44 -24 53 -29 52 -26 52 -18 53 -7 52 6 52 20 53 32 
52 41 52 43 53 41 52 30 52 16 53 -4 52 -24 52 -44 
53 -57 52 -65 52 -62 52 -50 53 -30 52 -3 52 28 53 58 
52 80 52 95 53 96 52 81 52 53 53 15 52 -30 52 -73 
53 -111 52 -138 52 -145 53 -129 52 -92 52 -37 53 28 52 91 
52 148 53 194 52 217 52 209 52 160 53 74 52 -26 52 -118 
53 -192 52 -252 52 -306 53 -336 52 -298 52 -166 53 29 52 201 
52 284 53 295 52 333 52 460 53 579 52 487 52 83 53 -442 
52 -699 52 -487 52 -99 586 2107 68 MP stroke
44 -30 53 -33 52 -25 52 -14 53 1 52 18 52 32 53 45 
52 50 52 49 53 42 52 26 52 6 53 -17 52 -40 52 -58 
53 -70 52 -72 52 -64 52 -46 53 -19 52 12 52 46 53 74 
52 96 52 104 53 97 52 76 52 42 53 -2 52 -49 52 -92 
53 -127 52 -147 52 -147 53 -122 52 -77 52 -17 53 47 52 109 
52 161 53 201 52 218 52 198 52 139 53 48 52 -48 52 -130 
53 -194 52 -249 52 -300 53 -320 52 -269 52 -128 53 57 52 206 
52 265 53 267 52 308 52 431 53 531 52 426 52 46 53 -419 
52 -629 52 -427 52 -86 586 2107 68 MP stroke
44 -29 53 -34 52 -29 52 -19 53 -5 52 11 52 26 53 39 
52 48 52 50 53 45 52 32 52 15 53 -9 52 -32 52 -52 
53 -66 52 -71 52 -68 52 -53 53 -31 52 1 52 36 53 69 
52 92 52 102 53 99 52 82 52 55 53 15 52 -32 52 -84 
53 -128 52 -152 52 -149 53 -123 52 -83 52 -36 53 19 52 86 
52 158 53 220 52 241 52 207 52 131 53 42 52 -28 52 -84 
53 -154 52 -253 52 -354 53 -384 52 -291 52 -96 53 100 52 200 
52 198 53 197 52 313 52 524 53 647 52 477 52 7 53 -490 
52 -667 52 -426 52 -80 586 2107 68 MP stroke
44 -25 53 -30 52 -28 52 -21 53 -9 52 5 52 19 53 32 
52 42 52 45 53 42 52 34 52 17 53 -1 52 -24 52 -42 
53 -59 52 -66 52 -64 52 -54 53 -32 52 -5 52 27 53 56 
52 81 52 96 53 97 52 84 52 57 53 17 52 -28 52 -73 
53 -111 52 -136 52 -145 53 -132 52 -96 52 -40 53 27 52 93 
52 149 53 190 52 212 52 206 52 164 53 82 52 -23 52 -125 
53 -201 52 -252 52 -291 53 -315 52 -292 52 -180 53 12 52 204 
52 307 53 315 52 321 52 418 53 540 52 477 52 97 53 -429 
52 -693 52 -473 52 -87 586 2107 68 MP stroke
44 -19 53 -24 52 -21 52 -14 53 -4 52 6 52 16 53 27 
52 33 52 36 53 34 52 25 52 12 53 -5 52 -22 52 -36 
53 -47 52 -53 52 -53 52 -44 53 -26 52 -2 52 27 53 52 
52 70 52 78 53 77 52 69 52 51 53 19 52 -23 52 -70 
53 -107 52 -124 52 -120 53 -100 52 -74 52 -42 53 3 52 66 
52 141 53 201 52 216 52 177 52 106 53 38 52 -8 52 -49 
53 -123 52 -239 52 -349 53 -376 52 -270 52 -72 53 107 52 175 
52 151 53 157 52 302 52 543 53 672 52 487 52 1 53 -499 
52 -669 52 -424 52 -80 586 2107 68 MP stroke
44 -27 53 -32 52 -28 52 -18 53 -5 52 10 52 25 53 38 
52 46 52 47 53 42 52 31 52 13 53 -8 52 -30 52 -49 
53 -63 52 -69 52 -64 52 -50 53 -27 52 2 52 34 53 63 
52 86 52 99 53 96 52 79 52 48 53 10 52 -34 52 -77 
53 -115 52 -140 52 -145 53 -124 52 -82 52 -27 53 32 52 90 
52 143 53 190 52 215 52 202 52 145 53 54 52 -38 52 -113 
53 -170 52 -228 52 -292 53 -327 52 -282 52 -137 53 57 52 204 
52 246 53 237 52 283 52 428 53 549 52 446 52 53 53 -422 
52 -627 52 -419 52 -81 586 2107 68 MP stroke
44 -27 53 -33 52 -29 52 -21 53 -7 52 8 52 24 53 36 
52 46 52 49 53 45 52 33 52 16 53 -6 52 -28 52 -50 
53 -64 52 -71 52 -68 52 -54 53 -31 52 0 52 34 53 64 
52 90 52 103 53 102 52 85 52 55 53 12 52 -36 52 -83 
53 -123 52 -148 52 -152 53 -133 52 -92 52 -35 53 33 52 104 
52 166 53 211 52 226 52 206 52 151 53 69 52 -26 52 -121 
53 -211 52 -287 52 -336 53 -334 52 -262 52 -124 53 39 52 176 
52 261 53 322 52 407 52 519 53 556 52 385 52 -20 53 -467 
52 -650 52 -433 52 -85 586 2107 68 MP stroke
44 -23 53 -26 52 -21 52 -12 53 -1 52 13 52 24 53 35 
52 40 52 40 53 35 52 23 52 6 53 -12 52 -30 52 -47 
53 -57 52 -61 52 -56 52 -40 53 -19 52 8 52 36 53 61 
52 81 52 91 53 87 52 70 52 39 53 1 52 -40 52 -78 
53 -109 52 -130 52 -137 53 -118 52 -77 52 -18 53 45 52 97 
52 142 53 178 52 203 52 199 52 150 53 56 52 -51 52 -136 
53 -184 52 -220 52 -270 53 -317 52 -300 52 -167 53 49 52 234 
52 293 53 258 52 266 52 402 53 563 52 502 52 100 53 -432 
52 -683 52 -464 52 -88 586 2107 68 MP stroke
44 -23 53 -30 52 -26 52 -20 53 -9 52 4 52 18 53 31 
52 39 52 43 53 41 52 32 52 18 53 -1 52 -22 52 -41 
53 -56 52 -63 52 -63 52 -51 53 -32 52 -6 52 25 53 54 
52 79 52 93 53 94 52 82 52 55 53 18 52 -25 52 -70 
53 -109 52 -135 52 -142 53 -128 52 -92 52 -40 53 22 52 86 
52 146 53 194 52 215 52 201 52 151 53 74 52 -17 52 -104 
53 -185 52 -259 52 -315 53 -332 52 -273 52 -139 53 32 52 173 
52 248 53 287 52 361 52 489 53 566 52 429 52 29 53 -445 
52 -655 52 -447 52 -91 586 2107 68 MP stroke
44 -30 53 -33 52 -25 52 -14 53 1 52 18 52 32 53 45 
52 50 52 49 53 42 52 26 52 6 53 -17 52 -40 52 -58 
53 -70 52 -72 52 -64 52 -46 53 -19 52 12 52 46 53 74 
52 96 52 104 53 97 52 76 52 42 53 -2 52 -49 52 -92 
53 -127 52 -147 52 -147 53 -122 52 -77 52 -17 53 47 52 109 
52 161 53 201 52 218 52 198 52 139 53 48 52 -48 52 -130 
53 -194 52 -249 52 -300 53 -320 52 -269 52 -128 53 57 52 206 
52 265 53 267 52 308 52 431 53 531 52 426 52 46 53 -419 
52 -629 52 -427 52 -86 586 2107 68 MP stroke
44 -29 53 -34 52 -29 52 -19 53 -5 52 11 52 26 53 39 
52 48 52 50 53 45 52 32 52 15 53 -9 52 -32 52 -52 
53 -66 52 -71 52 -68 52 -53 53 -31 52 1 52 36 53 69 
52 92 52 102 53 99 52 82 52 55 53 15 52 -32 52 -84 
53 -128 52 -152 52 -149 53 -123 52 -83 52 -36 53 19 52 86 
52 158 53 220 52 241 52 207 52 131 53 42 52 -28 52 -84 
53 -154 52 -253 52 -354 53 -384 52 -291 52 -96 53 100 52 200 
52 198 53 197 52 313 52 524 53 647 52 477 52 7 53 -490 
52 -667 52 -426 52 -80 586 2107 68 MP stroke
44 -25 53 -30 52 -28 52 -21 53 -9 52 5 52 19 53 32 
52 42 52 45 53 42 52 34 52 17 53 -1 52 -24 52 -42 
53 -59 52 -66 52 -64 52 -54 53 -32 52 -5 52 27 53 56 
52 81 52 96 53 97 52 84 52 57 53 17 52 -28 52 -73 
53 -111 52 -136 52 -145 53 -132 52 -96 52 -40 53 27 52 93 
52 149 53 190 52 212 52 206 52 164 53 82 52 -23 52 -125 
53 -201 52 -252 52 -291 53 -315 52 -292 52 -180 53 12 52 204 
52 307 53 315 52 321 52 418 53 540 52 477 52 97 53 -429 
52 -693 52 -473 52 -87 586 2107 68 MP stroke
44 -19 53 -24 52 -21 52 -14 53 -4 52 6 52 16 53 27 
52 33 52 36 53 34 52 25 52 12 53 -5 52 -22 52 -36 
53 -47 52 -53 52 -53 52 -44 53 -26 52 -2 52 27 53 52 
52 70 52 78 53 77 52 69 52 51 53 19 52 -23 52 -70 
53 -107 52 -124 52 -120 53 -100 52 -74 52 -42 53 3 52 66 
52 141 53 201 52 216 52 177 52 106 53 38 52 -8 52 -49 
53 -123 52 -239 52 -349 53 -376 52 -270 52 -72 53 107 52 175 
52 151 53 157 52 302 52 543 53 672 52 487 52 1 53 -499 
52 -669 52 -424 52 -80 586 2107 68 MP stroke
44 -27 53 -32 52 -28 52 -18 53 -5 52 10 52 25 53 38 
52 46 52 47 53 42 52 31 52 13 53 -8 52 -30 52 -49 
53 -63 52 -69 52 -64 52 -50 53 -27 52 2 52 34 53 63 
52 86 52 99 53 96 52 79 52 48 53 10 52 -34 52 -77 
53 -115 52 -140 52 -145 53 -124 52 -82 52 -27 53 32 52 90 
52 143 53 190 52 215 52 202 52 145 53 54 52 -38 52 -113 
53 -170 52 -228 52 -292 53 -327 52 -282 52 -137 53 57 52 204 
52 246 53 237 52 283 52 428 53 549 52 446 52 53 53 -422 
52 -627 52 -419 52 -81 586 2107 68 MP stroke
44 -27 53 -33 52 -29 52 -21 53 -7 52 8 52 24 53 36 
52 46 52 49 53 45 52 33 52 16 53 -6 52 -28 52 -50 
53 -64 52 -71 52 -68 52 -54 53 -31 52 0 52 34 53 64 
52 90 52 103 53 102 52 85 52 55 53 12 52 -36 52 -83 
53 -123 52 -148 52 -152 53 -133 52 -92 52 -35 53 33 52 104 
52 166 53 211 52 226 52 206 52 151 53 69 52 -26 52 -121 
53 -211 52 -287 52 -336 53 -334 52 -262 52 -124 53 39 52 176 
52 261 53 322 52 407 52 519 53 556 52 385 52 -20 53 -467 
52 -650 52 -433 52 -85 586 2107 68 MP stroke
44 -23 53 -26 52 -21 52 -12 53 -1 52 13 52 24 53 35 
52 40 52 40 53 35 52 23 52 6 53 -12 52 -30 52 -47 
53 -57 52 -61 52 -56 52 -40 53 -19 52 8 52 36 53 61 
52 81 52 91 53 87 52 70 52 39 53 1 52 -40 52 -78 
53 -109 52 -130 52 -137 53 -118 52 -77 52 -18 53 45 52 97 
52 142 53 178 52 203 52 199 52 150 53 56 52 -51 52 -136 
53 -184 52 -220 52 -270 53 -317 52 -300 52 -167 53 49 52 234 
52 293 53 258 52 266 52 402 53 563 52 502 52 100 53 -432 
52 -683 52 -464 52 -88 586 2107 68 MP stroke
44 -23 53 -30 52 -26 52 -20 53 -9 52 4 52 18 53 31 
52 39 52 43 53 41 52 32 52 18 53 -1 52 -22 52 -41 
53 -56 52 -63 52 -63 52 -51 53 -32 52 -6 52 25 53 54 
52 79 52 93 53 94 52 82 52 55 53 18 52 -25 52 -70 
53 -109 52 -135 52 -142 53 -128 52 -92 52 -40 53 22 52 86 
52 146 53 194 52 215 52 201 52 151 53 74 52 -17 52 -104 
53 -185 52 -259 52 -315 53 -332 52 -273 52 -139 53 32 52 173 
52 248 53 287 52 361 52 489 53 566 52 429 52 29 53 -445 
52 -655 52 -447 52 -91 586 2107 68 MP stroke
44 -30 53 -33 52 -25 52 -14 53 1 52 18 52 32 53 45 
52 50 52 49 53 42 52 26 52 6 53 -17 52 -40 52 -58 
53 -70 52 -72 52 -64 52 -46 53 -19 52 12 52 46 53 74 
52 96 52 104 53 97 52 76 52 42 53 -2 52 -49 52 -92 
53 -127 52 -147 52 -147 53 -122 52 -77 52 -17 53 47 52 109 
52 161 53 201 52 218 52 198 52 139 53 48 52 -48 52 -130 
53 -194 52 -249 52 -300 53 -320 52 -269 52 -128 53 57 52 206 
52 265 53 267 52 308 52 431 53 531 52 426 52 46 53 -419 
52 -629 52 -427 52 -86 586 2107 68 MP stroke
44 -29 53 -34 52 -29 52 -19 53 -5 52 11 52 26 53 39 
52 48 52 50 53 45 52 32 52 15 53 -9 52 -32 52 -52 
53 -66 52 -71 52 -68 52 -53 53 -31 52 1 52 36 53 69 
52 92 52 102 53 99 52 82 52 55 53 15 52 -32 52 -84 
53 -128 52 -152 52 -149 53 -123 52 -83 52 -36 53 19 52 86 
52 158 53 220 52 241 52 207 52 131 53 42 52 -28 52 -84 
53 -154 52 -253 52 -354 53 -384 52 -291 52 -96 53 100 52 200 
52 198 53 197 52 313 52 524 53 647 52 477 52 7 53 -490 
52 -667 52 -426 52 -80 586 2107 68 MP stroke
44 -25 53 -30 52 -28 52 -21 53 -9 52 5 52 19 53 32 
52 42 52 45 53 42 52 34 52 17 53 -1 52 -24 52 -42 
53 -59 52 -66 52 -64 52 -54 53 -32 52 -5 52 27 53 56 
52 81 52 96 53 97 52 84 52 57 53 17 52 -28 52 -73 
53 -111 52 -136 52 -145 53 -132 52 -96 52 -40 53 27 52 93 
52 149 53 190 52 212 52 206 52 164 53 82 52 -23 52 -125 
53 -201 52 -252 52 -291 53 -315 52 -292 52 -180 53 12 52 204 
52 307 53 315 52 321 52 418 53 540 52 477 52 97 53 -429 
52 -693 52 -473 52 -87 586 2107 68 MP stroke
44 -19 53 -24 52 -21 52 -14 53 -4 52 6 52 16 53 27 
52 33 52 36 53 34 52 25 52 12 53 -5 52 -22 52 -36 
53 -47 52 -53 52 -53 52 -44 53 -26 52 -2 52 27 53 52 
52 70 52 78 53 77 52 69 52 51 53 19 52 -23 52 -70 
53 -107 52 -124 52 -120 53 -100 52 -74 52 -42 53 3 52 66 
52 141 53 201 52 216 52 177 52 106 53 38 52 -8 52 -49 
53 -123 52 -239 52 -349 53 -376 52 -270 52 -72 53 107 52 175 
52 151 53 157 52 302 52 543 53 672 52 487 52 1 53 -499 
52 -669 52 -424 52 -80 586 2107 68 MP stroke
44 -27 53 -32 52 -28 52 -18 53 -5 52 10 52 25 53 38 
52 46 52 47 53 42 52 31 52 13 53 -8 52 -30 52 -49 
53 -63 52 -69 52 -64 52 -50 53 -27 52 2 52 34 53 63 
52 86 52 99 53 96 52 79 52 48 53 10 52 -34 52 -77 
53 -115 52 -140 52 -145 53 -124 52 -82 52 -27 53 32 52 90 
52 143 53 190 52 215 52 202 52 145 53 54 52 -38 52 -113 
53 -170 52 -228 52 -292 53 -327 52 -282 52 -137 53 57 52 204 
52 246 53 237 52 283 52 428 53 549 52 446 52 53 53 -422 
52 -627 52 -419 52 -81 586 2107 68 MP stroke
44 -27 53 -33 52 -29 52 -21 53 -7 52 8 52 24 53 36 
52 46 52 49 53 45 52 33 52 16 53 -6 52 -28 52 -50 
53 -64 52 -71 52 -68 52 -54 53 -31 52 0 52 34 53 64 
52 90 52 103 53 102 52 85 52 55 53 12 52 -36 52 -83 
53 -123 52 -148 52 -152 53 -133 52 -92 52 -35 53 33 52 104 
52 166 53 211 52 226 52 206 52 151 53 69 52 -26 52 -121 
53 -211 52 -287 52 -336 53 -334 52 -262 52 -124 53 39 52 176 
52 261 53 322 52 407 52 519 53 556 52 385 52 -20 53 -467 
52 -650 52 -433 52 -85 586 2107 68 MP stroke
44 -23 53 -26 52 -21 52 -12 53 -1 52 13 52 24 53 35 
52 40 52 40 53 35 52 23 52 6 53 -12 52 -30 52 -47 
53 -57 52 -61 52 -56 52 -40 53 -19 52 8 52 36 53 61 
52 81 52 91 53 87 52 70 52 39 53 1 52 -40 52 -78 
53 -109 52 -130 52 -137 53 -118 52 -77 52 -18 53 45 52 97 
52 142 53 178 52 203 52 199 52 150 53 56 52 -51 52 -136 
53 -184 52 -220 52 -270 53 -317 52 -300 52 -167 53 49 52 234 
52 293 53 258 52 266 52 402 53 563 52 502 52 100 53 -432 
52 -683 52 -464 52 -88 586 2107 68 MP stroke
36 w
/c8 { 1.000000 0.000000 0.000000 sr} bdef
c8
44 -23 53 -30 52 -26 52 -19 53 -7 52 6 52 19 53 32 
52 41 52 44 53 40 52 31 52 16 53 -4 52 -25 52 -43 
53 -57 52 -64 52 -62 52 -50 53 -29 52 -2 52 29 53 57 
52 81 52 93 53 93 52 79 52 52 53 13 52 -31 52 -75 
53 -112 52 -134 52 -140 53 -123 52 -88 52 -34 53 30 52 95 
52 152 53 193 52 206 52 191 52 145 53 71 52 -20 52 -117 
53 -206 52 -272 52 -304 53 -291 52 -234 52 -134 53 -5 52 138 
52 274 53 381 52 442 52 440 53 372 52 239 52 57 53 -152 
52 -358 52 -532 52 -362 586 2107 68 MP stroke
6 w
/c9 { 0.000000 0.000000 1.000000 sr} bdef
c9
16 0 20 0 21 137 21 -275 20 0 21 0 20 138 21 -138 
20 412 21 -274 21 0 20 -138 21 138 20 137 21 0 20 -137 
21 137 20 0 21 137 21 -274 20 0 21 274 20 0 21 -137 
20 137 21 -274 21 274 20 -274 21 412 20 -275 21 -137 20 0 
21 549 21 0 20 -412 21 137 20 0 21 138 20 -412 21 0 
20 0 21 137 21 0 20 -275 21 0 20 138 21 -138 20 138 
21 0 21 -275 20 275 21 -275 20 137 21 138 20 137 21 0 
21 -412 20 412 21 -412 20 275 21 0 20 0 21 0 20 137 
21 0 21 0 20 137 21 -137 20 412 21 -412 20 0 21 137 
21 275 20 -275 21 0 20 138 21 -138 20 0 21 -137 21 0 
20 275 21 0 20 -138 21 -274 20 0 21 -138 20 138 21 -138 
21 138 20 0 21 -275 20 0 21 0 20 137 21 138 21 -275 
20 0 21 137 20 -137 21 0 20 137 21 0 20 138 21 -138 
21 275 20 -275 21 275 20 0 21 275 20 0 21 -138 21 138 
20 137 21 0 20 0 21 412 20 -549 21 137 21 0 20 0 
21 -137 20 137 21 -275 20 0 21 -412 20 138 21 -138 21 -275 
20 138 21 -138 20 0 21 138 20 -138 21 -412 21 0 20 275 
21 -137 20 0 21 137 20 -275 21 275 21 275 20 0 21 -138 
20 138 21 140 20 0 21 137 20 138 21 137 21 138 20 137 
21 275 20 137 21 137 20 138 21 137 21 137 20 275 21 -549 
20 0 21 -275 20 -549 21 -275 715 2046 165 MP stroke
gr

c9
0 sg
%%IncludeResource: font Helvetica
/Helvetica /ISOLatin1Encoding 120 FMSR

2113 3448 mt 
(Time \(s\)) s
 279 2512 mt  -90 rotate
(Observation well response, s) s
90 rotate
%%IncludeResource: font Helvetica
/Helvetica /ISOLatin1Encoding 96 FMSR

 339  974 mt  -90 rotate
(D) s
90 rotate

end %%Color Dict

eplot
%%EndObject

epage
end

showpage

%%Trailer
%%EOF
