%!PS-Adobe-3.0 EPSF-3.0
%%Creator: MATLAB, The Mathworks, Inc. Version 7.9.0.529 (R2009b). Operating System: Linux 3.16.0-50-generic #67~14.04.1-Ubuntu SMP Fri Oct 2 22:07:51 UTC 2015 x86_64.
%%Title: /home/klkuhlm/repos/slug-osc/swiss-data/DREAM/parallel-finite2/finite-P13-MC1-3-fixed-shift/P13MC13-finite-fixed-shift2-posterior-histograms_manual.eps
%%CreationDate: 10/16/2015  16:14:19
%%DocumentNeededFonts: Helvetica
%%DocumentProcessColors: Cyan Magenta Yellow Black
%%LanguageLevel: 2
%%Pages: 1
%%BoundingBox:  -195  -138   413   281
%%EndComments

%%BeginProlog
% MathWorks dictionary
/MathWorks 160 dict begin
% definition operators
/bdef {bind def} bind def
/ldef {load def} bind def
/xdef {exch def} bdef
/xstore {exch store} bdef
% operator abbreviations
/c  /clip ldef
/cc /concat ldef
/cp /closepath ldef
/gr /grestore ldef
/gs /gsave ldef
/mt /moveto ldef
/np /newpath ldef
/cm /currentmatrix ldef
/sm /setmatrix ldef
/rm /rmoveto ldef
/rl /rlineto ldef
/s {show newpath} bdef
/sc {setcmykcolor} bdef
/sr /setrgbcolor ldef
/sg /setgray ldef
/w /setlinewidth ldef
/j /setlinejoin ldef
/cap /setlinecap ldef
/rc {rectclip} bdef
/rf {rectfill} bdef
% page state control
/pgsv () def
/bpage {/pgsv save def} bdef
/epage {pgsv restore} bdef
/bplot /gsave ldef
/eplot {stroke grestore} bdef
% orientation switch
/portraitMode 0 def /landscapeMode 1 def /rotateMode 2 def
% coordinate system mappings
/dpi2point 0 def
% font control
/FontSize 0 def
/FMS {/FontSize xstore findfont [FontSize 0 0 FontSize neg 0 0]
  makefont setfont} bdef
/reencode {exch dup where {pop load} {pop StandardEncoding} ifelse
  exch dup 3 1 roll findfont dup length dict begin
  { 1 index /FID ne {def}{pop pop} ifelse } forall
  /Encoding exch def currentdict end definefont pop} bdef
/isroman {findfont /CharStrings get /Agrave known} bdef
/FMSR {3 1 roll 1 index dup isroman {reencode} {pop pop} ifelse
  exch FMS} bdef
/csm {1 dpi2point div -1 dpi2point div scale neg translate
 dup landscapeMode eq {pop -90 rotate}
  {rotateMode eq {90 rotate} if} ifelse} bdef
% line types: solid, dotted, dashed, dotdash
/SO { [] 0 setdash } bdef
/DO { [.5 dpi2point mul 4 dpi2point mul] 0 setdash } bdef
/DA { [6 dpi2point mul] 0 setdash } bdef
/DD { [.5 dpi2point mul 4 dpi2point mul 6 dpi2point mul 4
  dpi2point mul] 0 setdash } bdef
% macros for lines and objects
/L {lineto stroke} bdef
/MP {3 1 roll moveto 1 sub {rlineto} repeat} bdef
/AP {{rlineto} repeat} bdef
/PDlw -1 def
/W {/PDlw currentlinewidth def setlinewidth} def
/PP {closepath eofill} bdef
/DP {closepath stroke} bdef
/MR {4 -2 roll moveto dup  0 exch rlineto exch 0 rlineto
  neg 0 exch rlineto closepath} bdef
/FR {MR stroke} bdef
/PR {MR fill} bdef
/L1i {{currentfile picstr readhexstring pop} image} bdef
/tMatrix matrix def
/MakeOval {newpath tMatrix currentmatrix pop translate scale
0 0 1 0 360 arc tMatrix setmatrix} bdef
/FO {MakeOval stroke} bdef
/PO {MakeOval fill} bdef
/PD {currentlinewidth 2 div 0 360 arc fill
   PDlw -1 eq not {PDlw w /PDlw -1 def} if} def
/FA {newpath tMatrix currentmatrix pop translate scale
  0 0 1 5 -2 roll arc tMatrix setmatrix stroke} bdef
/PA {newpath tMatrix currentmatrix pop	translate 0 0 moveto scale
  0 0 1 5 -2 roll arc closepath tMatrix setmatrix fill} bdef
/FAn {newpath tMatrix currentmatrix pop translate scale
  0 0 1 5 -2 roll arcn tMatrix setmatrix stroke} bdef
/PAn {newpath tMatrix currentmatrix pop translate 0 0 moveto scale
  0 0 1 5 -2 roll arcn closepath tMatrix setmatrix fill} bdef
/vradius 0 def /hradius 0 def /lry 0 def
/lrx 0 def /uly 0 def /ulx 0 def /rad 0 def
/MRR {/vradius xdef /hradius xdef /lry xdef /lrx xdef /uly xdef
  /ulx xdef newpath tMatrix currentmatrix pop ulx hradius add uly
  vradius add translate hradius vradius scale 0 0 1 180 270 arc 
  tMatrix setmatrix lrx hradius sub uly vradius add translate
  hradius vradius scale 0 0 1 270 360 arc tMatrix setmatrix
  lrx hradius sub lry vradius sub translate hradius vradius scale
  0 0 1 0 90 arc tMatrix setmatrix ulx hradius add lry vradius sub
  translate hradius vradius scale 0 0 1 90 180 arc tMatrix setmatrix
  closepath} bdef
/FRR {MRR stroke } bdef
/PRR {MRR fill } bdef
/MlrRR {/lry xdef /lrx xdef /uly xdef /ulx xdef /rad lry uly sub 2 div def
  newpath tMatrix currentmatrix pop ulx rad add uly rad add translate
  rad rad scale 0 0 1 90 270 arc tMatrix setmatrix lrx rad sub lry rad
  sub translate rad rad scale 0 0 1 270 90 arc tMatrix setmatrix
  closepath} bdef
/FlrRR {MlrRR stroke } bdef
/PlrRR {MlrRR fill } bdef
/MtbRR {/lry xdef /lrx xdef /uly xdef /ulx xdef /rad lrx ulx sub 2 div def
  newpath tMatrix currentmatrix pop ulx rad add uly rad add translate
  rad rad scale 0 0 1 180 360 arc tMatrix setmatrix lrx rad sub lry rad
  sub translate rad rad scale 0 0 1 0 180 arc tMatrix setmatrix
  closepath} bdef
/FtbRR {MtbRR stroke } bdef
/PtbRR {MtbRR fill } bdef
/stri 6 array def /dtri 6 array def
/smat 6 array def /dmat 6 array def
/tmat1 6 array def /tmat2 6 array def /dif 3 array def
/asub {/ind2 exch def /ind1 exch def dup dup
  ind1 get exch ind2 get sub exch } bdef
/tri_to_matrix {
  2 0 asub 3 1 asub 4 0 asub 5 1 asub
  dup 0 get exch 1 get 7 -1 roll astore } bdef
/compute_transform {
  dmat dtri tri_to_matrix tmat1 invertmatrix 
  smat stri tri_to_matrix tmat2 concatmatrix } bdef
/ds {stri astore pop} bdef
/dt {dtri astore pop} bdef
/db {2 copy /cols xdef /rows xdef mul dup 3 mul string
  currentfile 
  3 index 0 eq {/ASCIIHexDecode filter}
  {/ASCII85Decode filter 3 index 2 eq {/RunLengthDecode filter} if }
  ifelse exch readstring pop
  dup 0 3 index getinterval /rbmap xdef
  dup 2 index dup getinterval /gbmap xdef
  1 index dup 2 mul exch getinterval /bbmap xdef pop pop}bdef
/it {gs np dtri aload pop moveto lineto lineto cp c
  cols rows 8 compute_transform 
  rbmap gbmap bbmap true 3 colorimage gr}bdef
/il {newpath moveto lineto stroke}bdef
currentdict end def
%%EndProlog

%%BeginSetup
MathWorks begin

0 cap

end
%%EndSetup

%%Page: 1 1
%%BeginPageSetup
%%PageBoundingBox:  -195  -138   413   281
MathWorks begin
bpage
%%EndPageSetup

%%BeginObject: obj1
bplot

/dpi2point 12 def
portraitMode -2340 3372 csm

    0     0  7304  5030 rc
85 dict begin %Colortable dictionary
/c0 { 0.000000 0.000000 0.000000 sr} bdef
/c1 { 1.000000 1.000000 1.000000 sr} bdef
/c2 { 0.900000 0.000000 0.000000 sr} bdef
/c3 { 0.000000 0.820000 0.000000 sr} bdef
/c4 { 0.000000 0.000000 0.800000 sr} bdef
/c5 { 0.910000 0.820000 0.320000 sr} bdef
/c6 { 1.000000 0.260000 0.820000 sr} bdef
/c7 { 0.000000 0.820000 0.820000 sr} bdef
c0
1 j
1 sg
   0    0 7305 5031 rf
6 w
0 622 2444 0 0 -622 950 999 4 MP
PP
-2444 0 0 622 2444 0 0 -622 950 999 5 MP stroke
4 w
DO
SO
6 w
0 sg
 950  999 mt 3394  999 L
 950  377 mt 3394  377 L
 950  999 mt  950  377 L
3394  999 mt 3394  377 L
 950  999 mt 3394  999 L
 950  999 mt  950  377 L
 950  999 mt  950  974 L
 950  377 mt  950  401 L
%%IncludeResource: font Helvetica
/Helvetica /ISOLatin1Encoding 120 FMSR

 917 1144 mt 
(0) s
1357  999 mt 1357  974 L
1357  377 mt 1357  401 L
1324 1144 mt 
(1) s
1764  999 mt 1764  974 L
1764  377 mt 1764  401 L
1731 1144 mt 
(2) s
2172  999 mt 2172  974 L
2172  377 mt 2172  401 L
2139 1144 mt 
(3) s
2579  999 mt 2579  974 L
2579  377 mt 2579  401 L
2546 1144 mt 
(4) s
2986  999 mt 2986  974 L
2986  377 mt 2986  401 L
2953 1144 mt 
(5) s
3394  999 mt 3394  974 L
3394  377 mt 3394  401 L
3361 1144 mt 
(6) s
 950  999 mt  974  999 L
3394  999 mt 3369  999 L
 849 1043 mt 
(0) s
 950  688 mt  974  688 L
3394  688 mt 3369  688 L
 749  732 mt 
(0.5) s
 950  377 mt  974  377 L
3394  377 mt 3369  377 L
 849  421 mt 
(1) s
 950  999 mt 3394  999 L
 950  377 mt 3394  377 L
 950  999 mt  950  377 L
3394  999 mt 3394  377 L
gs 950 377 2445 623 rc
/c8 { 0.000000 0.000000 0.562500 sr} bdef
c8
0 155 76 0 0 -155 950 999 4 MP
PP
0 sg
-76 0 0 155 76 0 0 -155 950 999 5 MP stroke
c8
0 75 76 0 0 -75 1026 999 4 MP
PP
0 sg
-76 0 0 75 76 0 0 -75 1026 999 5 MP stroke
c8
0 52 76 0 0 -52 1102 999 4 MP
PP
0 sg
-76 0 0 52 76 0 0 -52 1102 999 5 MP stroke
c8
0 69 76 0 0 -69 1178 999 4 MP
PP
0 sg
-76 0 0 69 76 0 0 -69 1178 999 5 MP stroke
c8
0 42 76 0 0 -42 1254 999 4 MP
PP
0 sg
-76 0 0 42 76 0 0 -42 1254 999 5 MP stroke
c8
0 72 76 0 0 -72 1330 999 4 MP
PP
0 sg
-76 0 0 72 76 0 0 -72 1330 999 5 MP stroke
c8
0 37 76 0 0 -37 1406 999 4 MP
PP
0 sg
-76 0 0 37 76 0 0 -37 1406 999 5 MP stroke
c8
0 19 76 0 0 -19 1482 999 4 MP
PP
0 sg
-76 0 0 19 76 0 0 -19 1482 999 5 MP stroke
c8
0 58 76 0 0 -58 1558 999 4 MP
PP
0 sg
-76 0 0 58 76 0 0 -58 1558 999 5 MP stroke
c8
0 77 76 0 0 -77 1634 999 4 MP
PP
0 sg
-76 0 0 77 76 0 0 -77 1634 999 5 MP stroke
c8
0 79 76 0 0 -79 1710 999 4 MP
PP
0 sg
-76 0 0 79 76 0 0 -79 1710 999 5 MP stroke
c8
0 86 76 0 0 -86 1786 999 4 MP
PP
0 sg
-76 0 0 86 76 0 0 -86 1786 999 5 MP stroke
c8
0 117 76 0 0 -117 1862 999 4 MP
PP
0 sg
-76 0 0 117 76 0 0 -117 1862 999 5 MP stroke
c8
0 233 76 0 0 -233 1938 999 4 MP
PP
0 sg
-76 0 0 233 76 0 0 -233 1938 999 5 MP stroke
c8
0 312 76 0 0 -312 2014 999 4 MP
PP
0 sg
-76 0 0 312 76 0 0 -312 2014 999 5 MP stroke
c8
0 410 76 0 0 -410 2090 999 4 MP
PP
0 sg
-76 0 0 410 76 0 0 -410 2090 999 5 MP stroke
c8
0 444 76 0 0 -444 2166 999 4 MP
PP
0 sg
-76 0 0 444 76 0 0 -444 2166 999 5 MP stroke
c8
0 387 76 0 0 -387 2242 999 4 MP
PP
0 sg
-76 0 0 387 76 0 0 -387 2242 999 5 MP stroke
c8
0 333 76 0 0 -333 2318 999 4 MP
PP
0 sg
-76 0 0 333 76 0 0 -333 2318 999 5 MP stroke
c8
0 140 76 0 0 -140 2394 999 4 MP
PP
0 sg
-76 0 0 140 76 0 0 -140 2394 999 5 MP stroke
c8
0 92 76 0 0 -92 2470 999 4 MP
PP
0 sg
-76 0 0 92 76 0 0 -92 2470 999 5 MP stroke
c8
0 39 76 0 0 -39 2546 999 4 MP
PP
0 sg
-76 0 0 39 76 0 0 -39 2546 999 5 MP stroke
c8
0 12 76 0 0 -12 2622 999 4 MP
PP
0 sg
-76 0 0 12 76 0 0 -12 2622 999 5 MP stroke
c8
0 5 76 0 0 -5 2698 999 4 MP
PP
0 sg
-76 0 0 5 76 0 0 -5 2698 999 5 MP stroke
c8
0 1 76 0 0 -1 2774 999 4 MP
PP
0 sg
-76 0 0 1 76 0 0 -1 2774 999 5 MP stroke
2444 0 950 999 2 MP stroke
gr

%%IncludeResource: font Helvetica
/Helvetica /ISOLatin1Encoding 144 FMSR

2131 1305 mt 
(L) s
%%IncludeResource: font Helvetica
/Helvetica /ISOLatin1Encoding 108 FMSR

 670 1089 mt  -90 rotate
(Posterior density) s
90 rotate
gs 950 377 2445 623 rc
/c9 { 1.000000 0.000000 0.000000 sr} bdef
c9
0 -622 1596 999 2 MP stroke
gr

c9
1 sg
0 622 2444 0 0 -622 4166 999 4 MP
PP
-2444 0 0 622 2444 0 0 -622 4166 999 5 MP stroke
4 w
DO
SO
6 w
0 sg
4166  999 mt 6610  999 L
4166  377 mt 6610  377 L
4166  999 mt 4166  377 L
6610  999 mt 6610  377 L
4166  999 mt 6610  999 L
4166  999 mt 4166  377 L
4166  999 mt 4166  974 L
4166  377 mt 4166  401 L
%%IncludeResource: font Helvetica
/Helvetica /ISOLatin1Encoding 120 FMSR

4133 1144 mt 
(0) s
4573  999 mt 4573  974 L
4573  377 mt 4573  401 L
4540 1144 mt 
(1) s
4980  999 mt 4980  974 L
4980  377 mt 4980  401 L
4947 1144 mt 
(2) s
5388  999 mt 5388  974 L
5388  377 mt 5388  401 L
5355 1144 mt 
(3) s
5795  999 mt 5795  974 L
5795  377 mt 5795  401 L
5762 1144 mt 
(4) s
6202  999 mt 6202  974 L
6202  377 mt 6202  401 L
6169 1144 mt 
(5) s
6610  999 mt 6610  974 L
6610  377 mt 6610  401 L
6577 1144 mt 
(6) s
4166  999 mt 4190  999 L
6610  999 mt 6585  999 L
4065 1043 mt 
(0) s
4166  377 mt 4190  377 L
6610  377 mt 6585  377 L
4065  421 mt 
(5) s
4166  999 mt 6610  999 L
4166  377 mt 6610  377 L
4166  999 mt 4166  377 L
6610  999 mt 6610  377 L
gs 4166 377 2445 623 rc
c8
0 49 67 0 0 -49 4345 999 4 MP
PP
0 sg
-67 0 0 49 67 0 0 -49 4345 999 5 MP stroke
c8
0 17 68 0 0 -17 4412 999 4 MP
PP
0 sg
-68 0 0 17 68 0 0 -17 4412 999 5 MP stroke
c8
0 0 67 0 0 0 4480 999 4 MP
PP
0 sg
-67 0 0 0 67 0 0 0 4480 999 5 MP stroke
c8
0 0 68 0 0 0 4547 999 4 MP
PP
0 sg
-68 0 0 0 68 0 0 0 4547 999 5 MP stroke
c8
0 0 68 0 0 0 4615 999 4 MP
PP
0 sg
-68 0 0 0 68 0 0 0 4615 999 5 MP stroke
c8
0 0 67 0 0 0 4683 999 4 MP
PP
0 sg
-67 0 0 0 67 0 0 0 4683 999 5 MP stroke
c8
0 0 68 0 0 0 4750 999 4 MP
PP
0 sg
-68 0 0 0 68 0 0 0 4750 999 5 MP stroke
c8
0 0 67 0 0 0 4818 999 4 MP
PP
0 sg
-67 0 0 0 67 0 0 0 4818 999 5 MP stroke
c8
0 0 68 0 0 0 4885 999 4 MP
PP
0 sg
-68 0 0 0 68 0 0 0 4885 999 5 MP stroke
c8
0 0 67 0 0 0 4953 999 4 MP
PP
0 sg
-67 0 0 0 67 0 0 0 4953 999 5 MP stroke
c8
0 0 68 0 0 0 5020 999 4 MP
PP
0 sg
-68 0 0 0 68 0 0 0 5020 999 5 MP stroke
c8
0 0 68 0 0 0 5088 999 4 MP
PP
0 sg
-68 0 0 0 68 0 0 0 5088 999 5 MP stroke
c8
0 0 67 0 0 0 5156 999 4 MP
PP
0 sg
-67 0 0 0 67 0 0 0 5156 999 5 MP stroke
c8
0 0 68 0 0 0 5223 999 4 MP
PP
0 sg
-68 0 0 0 68 0 0 0 5223 999 5 MP stroke
c8
0 0 67 0 0 0 5291 999 4 MP
PP
0 sg
-67 0 0 0 67 0 0 0 5291 999 5 MP stroke
c8
0 0 68 0 0 0 5358 999 4 MP
PP
0 sg
-68 0 0 0 68 0 0 0 5358 999 5 MP stroke
c8
0 0 68 0 0 0 5426 999 4 MP
PP
0 sg
-68 0 0 0 68 0 0 0 5426 999 5 MP stroke
c8
0 0 67 0 0 0 5494 999 4 MP
PP
0 sg
-67 0 0 0 67 0 0 0 5494 999 5 MP stroke
c8
0 0 68 0 0 0 5561 999 4 MP
PP
0 sg
-68 0 0 0 68 0 0 0 5561 999 5 MP stroke
c8
0 0 67 0 0 0 5629 999 4 MP
PP
0 sg
-67 0 0 0 67 0 0 0 5629 999 5 MP stroke
c8
0 0 68 0 0 0 5696 999 4 MP
PP
0 sg
-68 0 0 0 68 0 0 0 5696 999 5 MP stroke
c8
0 0 68 0 0 0 5764 999 4 MP
PP
0 sg
-68 0 0 0 68 0 0 0 5764 999 5 MP stroke
c8
0 20 67 0 0 -20 5832 999 4 MP
PP
0 sg
-67 0 0 20 67 0 0 -20 5832 999 5 MP stroke
c8
0 557 68 0 0 -557 5899 999 4 MP
PP
0 sg
-68 0 0 557 68 0 0 -557 5899 999 5 MP stroke
c8
0 110 67 0 0 -110 5967 999 4 MP
PP
0 sg
-67 0 0 110 67 0 0 -110 5967 999 5 MP stroke
2444 0 4166 999 2 MP stroke
gr

%%IncludeResource: font Helvetica
/Helvetica /ISOLatin1Encoding 144 FMSR

5317 1271 mt 
(L) s
%%IncludeResource: font Helvetica
/Helvetica /ISOLatin1Encoding 108 FMSR

5397 1343 mt 
(e) s
3986 1089 mt  -90 rotate
(Posterior density) s
90 rotate
gs 4166 377 2445 623 rc
c9
0 -622 5921 999 2 MP stroke
gr

c9
1 sg
0 622 2444 0 0 -622 950 2101 4 MP
PP
-2444 0 0 622 2444 0 0 -622 950 2101 5 MP stroke
4 w
DO
SO
6 w
0 sg
 950 2101 mt 3394 2101 L
 950 1479 mt 3394 1479 L
 950 2101 mt  950 1479 L
3394 2101 mt 3394 1479 L
 950 2101 mt 3394 2101 L
 950 2101 mt  950 1479 L
 950 2101 mt  950 2076 L
 950 1479 mt  950 1503 L
%%IncludeResource: font Helvetica
/Helvetica /ISOLatin1Encoding 120 FMSR

 847 2246 mt 
(-8) s
1561 2101 mt 1561 2076 L
1561 1479 mt 1561 1503 L
1458 2246 mt 
(-7) s
2172 2101 mt 2172 2076 L
2172 1479 mt 2172 1503 L
2069 2246 mt 
(-6) s
2783 2101 mt 2783 2076 L
2783 1479 mt 2783 1503 L
2680 2246 mt 
(-5) s
3394 2101 mt 3394 2076 L
3394 1479 mt 3394 1503 L
3291 2246 mt 
(-4) s
 950 2101 mt  974 2101 L
3394 2101 mt 3369 2101 L
 849 2145 mt 
(0) s
 950 1479 mt  974 1479 L
3394 1479 mt 3369 1479 L
 749 1523 mt 
(0.5) s
 950 2101 mt 3394 2101 L
 950 1479 mt 3394 1479 L
 950 2101 mt  950 1479 L
3394 2101 mt 3394 1479 L
gs 950 1479 2445 623 rc
c8
0 293 78 0 0 -293 950 2101 4 MP
PP
0 sg
-78 0 0 293 78 0 0 -293 950 2101 5 MP stroke
c8
0 445 78 0 0 -445 1028 2101 4 MP
PP
0 sg
-78 0 0 445 78 0 0 -445 1028 2101 5 MP stroke
c8
0 320 79 0 0 -320 1106 2101 4 MP
PP
0 sg
-79 0 0 320 79 0 0 -320 1106 2101 5 MP stroke
c8
0 356 78 0 0 -356 1185 2101 4 MP
PP
0 sg
-78 0 0 356 78 0 0 -356 1185 2101 5 MP stroke
c8
0 381 78 0 0 -381 1263 2101 4 MP
PP
0 sg
-78 0 0 381 78 0 0 -381 1263 2101 5 MP stroke
c8
0 547 79 0 0 -547 1341 2101 4 MP
PP
0 sg
-79 0 0 547 79 0 0 -547 1341 2101 5 MP stroke
c8
0 451 78 0 0 -451 1420 2101 4 MP
PP
0 sg
-78 0 0 451 78 0 0 -451 1420 2101 5 MP stroke
c8
0 490 79 0 0 -490 1498 2101 4 MP
PP
0 sg
-79 0 0 490 79 0 0 -490 1498 2101 5 MP stroke
c8
0 505 78 0 0 -505 1577 2101 4 MP
PP
0 sg
-78 0 0 505 78 0 0 -505 1577 2101 5 MP stroke
c8
0 405 78 0 0 -405 1655 2101 4 MP
PP
0 sg
-78 0 0 405 78 0 0 -405 1655 2101 5 MP stroke
c8
0 417 79 0 0 -417 1733 2101 4 MP
PP
0 sg
-79 0 0 417 79 0 0 -417 1733 2101 5 MP stroke
c8
0 488 78 0 0 -488 1812 2101 4 MP
PP
0 sg
-78 0 0 488 78 0 0 -488 1812 2101 5 MP stroke
c8
0 433 78 0 0 -433 1890 2101 4 MP
PP
0 sg
-78 0 0 433 78 0 0 -433 1890 2101 5 MP stroke
c8
0 465 79 0 0 -465 1968 2101 4 MP
PP
0 sg
-79 0 0 465 79 0 0 -465 1968 2101 5 MP stroke
c8
0 395 78 0 0 -395 2047 2101 4 MP
PP
0 sg
-78 0 0 395 78 0 0 -395 2047 2101 5 MP stroke
c8
0 578 78 0 0 -578 2125 2101 4 MP
PP
0 sg
-78 0 0 578 78 0 0 -578 2125 2101 5 MP stroke
c8
0 414 79 0 0 -414 2203 2101 4 MP
PP
0 sg
-79 0 0 414 79 0 0 -414 2203 2101 5 MP stroke
c8
0 405 78 0 0 -405 2282 2101 4 MP
PP
0 sg
-78 0 0 405 78 0 0 -405 2282 2101 5 MP stroke
c8
0 430 78 0 0 -430 2360 2101 4 MP
PP
0 sg
-78 0 0 430 78 0 0 -430 2360 2101 5 MP stroke
c8
0 495 79 0 0 -495 2438 2101 4 MP
PP
0 sg
-79 0 0 495 79 0 0 -495 2438 2101 5 MP stroke
c8
0 336 78 0 0 -336 2517 2101 4 MP
PP
0 sg
-78 0 0 336 78 0 0 -336 2517 2101 5 MP stroke
c8
0 282 78 0 0 -282 2595 2101 4 MP
PP
0 sg
-78 0 0 282 78 0 0 -282 2595 2101 5 MP stroke
c8
0 230 79 0 0 -230 2673 2101 4 MP
PP
0 sg
-79 0 0 230 79 0 0 -230 2673 2101 5 MP stroke
c8
0 125 78 0 0 -125 2752 2101 4 MP
PP
0 sg
-78 0 0 125 78 0 0 -125 2752 2101 5 MP stroke
c8
0 27 78 0 0 -27 2830 2101 4 MP
PP
0 sg
-78 0 0 27 78 0 0 -27 2830 2101 5 MP stroke
2444 0 950 2101 2 MP stroke
gr

%%IncludeResource: font Helvetica
/Helvetica /ISOLatin1Encoding 144 FMSR

1893 2373 mt 
(log) s
%%IncludeResource: font Helvetica
/Helvetica /ISOLatin1Encoding 108 FMSR

2085 2445 mt 
(10) s
%%IncludeResource: font Helvetica
/Helvetica /ISOLatin1Encoding 144 FMSR

2205 2373 mt 
(\(S) s
%%IncludeResource: font Helvetica
/Helvetica /ISOLatin1Encoding 108 FMSR

2349 2445 mt 
(s) s
%%IncludeResource: font Helvetica
/Helvetica /ISOLatin1Encoding 144 FMSR

2403 2373 mt 
(\)) s
%%IncludeResource: font Helvetica
/Helvetica /ISOLatin1Encoding 108 FMSR

 670 2191 mt  -90 rotate
(Posterior density) s
90 rotate
gs 950 1479 2445 623 rc
c9
0 -622 2657 2101 2 MP stroke
gr

c9
1 sg
0 622 2444 0 0 -622 4166 2101 4 MP
PP
-2444 0 0 622 2444 0 0 -622 4166 2101 5 MP stroke
4 w
DO
SO
6 w
0 sg
4166 2101 mt 6610 2101 L
4166 1479 mt 6610 1479 L
4166 2101 mt 4166 1479 L
6610 2101 mt 6610 1479 L
4166 2101 mt 6610 2101 L
4166 2101 mt 4166 1479 L
4166 2101 mt 4166 2076 L
4166 1479 mt 4166 1503 L
%%IncludeResource: font Helvetica
/Helvetica /ISOLatin1Encoding 120 FMSR

4063 2246 mt 
(-3) s
4573 2101 mt 4573 2076 L
4573 1479 mt 4573 1503 L
4420 2246 mt 
(-2.5) s
4980 2101 mt 4980 2076 L
4980 1479 mt 4980 1503 L
4877 2246 mt 
(-2) s
5388 2101 mt 5388 2076 L
5388 1479 mt 5388 1503 L
5235 2246 mt 
(-1.5) s
5795 2101 mt 5795 2076 L
5795 1479 mt 5795 1503 L
5692 2246 mt 
(-1) s
6202 2101 mt 6202 2076 L
6202 1479 mt 6202 1503 L
6049 2246 mt 
(-0.5) s
6610 2101 mt 6610 2076 L
6610 1479 mt 6610 1503 L
6577 2246 mt 
(0) s
4166 2101 mt 4190 2101 L
6610 2101 mt 6585 2101 L
4065 2145 mt 
(0) s
4166 1790 mt 4190 1790 L
6610 1790 mt 6585 1790 L
3965 1834 mt 
(0.5) s
4166 1479 mt 4190 1479 L
6610 1479 mt 6585 1479 L
4065 1523 mt 
(1) s
4166 2101 mt 6610 2101 L
4166 1479 mt 6610 1479 L
4166 2101 mt 4166 1479 L
6610 2101 mt 6610 1479 L
gs 4166 1479 2445 623 rc
c8
0 253 65 0 0 -253 4292 2101 4 MP
PP
0 sg
-65 0 0 253 65 0 0 -253 4292 2101 5 MP stroke
c8
0 262 65 0 0 -262 4357 2101 4 MP
PP
0 sg
-65 0 0 262 65 0 0 -262 4357 2101 5 MP stroke
c8
0 243 65 0 0 -243 4422 2101 4 MP
PP
0 sg
-65 0 0 243 65 0 0 -243 4422 2101 5 MP stroke
c8
0 282 65 0 0 -282 4487 2101 4 MP
PP
0 sg
-65 0 0 282 65 0 0 -282 4487 2101 5 MP stroke
c8
0 294 64 0 0 -294 4552 2101 4 MP
PP
0 sg
-64 0 0 294 64 0 0 -294 4552 2101 5 MP stroke
c8
0 300 65 0 0 -300 4616 2101 4 MP
PP
0 sg
-65 0 0 300 65 0 0 -300 4616 2101 5 MP stroke
c8
0 314 65 0 0 -314 4681 2101 4 MP
PP
0 sg
-65 0 0 314 65 0 0 -314 4681 2101 5 MP stroke
c8
0 307 65 0 0 -307 4746 2101 4 MP
PP
0 sg
-65 0 0 307 65 0 0 -307 4746 2101 5 MP stroke
c8
0 336 65 0 0 -336 4811 2101 4 MP
PP
0 sg
-65 0 0 336 65 0 0 -336 4811 2101 5 MP stroke
c8
0 315 64 0 0 -315 4876 2101 4 MP
PP
0 sg
-64 0 0 315 64 0 0 -315 4876 2101 5 MP stroke
c8
0 315 65 0 0 -315 4940 2101 4 MP
PP
0 sg
-65 0 0 315 65 0 0 -315 4940 2101 5 MP stroke
c8
0 320 65 0 0 -320 5005 2101 4 MP
PP
0 sg
-65 0 0 320 65 0 0 -320 5005 2101 5 MP stroke
c8
0 375 65 0 0 -375 5070 2101 4 MP
PP
0 sg
-65 0 0 375 65 0 0 -375 5070 2101 5 MP stroke
c8
0 270 65 0 0 -270 5135 2101 4 MP
PP
0 sg
-65 0 0 270 65 0 0 -270 5135 2101 5 MP stroke
c8
0 318 64 0 0 -318 5200 2101 4 MP
PP
0 sg
-64 0 0 318 64 0 0 -318 5200 2101 5 MP stroke
c8
0 342 65 0 0 -342 5264 2101 4 MP
PP
0 sg
-65 0 0 342 65 0 0 -342 5264 2101 5 MP stroke
c8
0 366 65 0 0 -366 5329 2101 4 MP
PP
0 sg
-65 0 0 366 65 0 0 -366 5329 2101 5 MP stroke
c8
0 346 65 0 0 -346 5394 2101 4 MP
PP
0 sg
-65 0 0 346 65 0 0 -346 5394 2101 5 MP stroke
c8
0 362 65 0 0 -362 5459 2101 4 MP
PP
0 sg
-65 0 0 362 65 0 0 -362 5459 2101 5 MP stroke
c8
0 355 64 0 0 -355 5524 2101 4 MP
PP
0 sg
-64 0 0 355 64 0 0 -355 5524 2101 5 MP stroke
c8
0 344 65 0 0 -344 5588 2101 4 MP
PP
0 sg
-65 0 0 344 65 0 0 -344 5588 2101 5 MP stroke
c8
0 295 65 0 0 -295 5653 2101 4 MP
PP
0 sg
-65 0 0 295 65 0 0 -295 5653 2101 5 MP stroke
c8
0 329 65 0 0 -329 5718 2101 4 MP
PP
0 sg
-65 0 0 329 65 0 0 -329 5718 2101 5 MP stroke
c8
0 282 64 0 0 -282 5783 2101 4 MP
PP
0 sg
-64 0 0 282 64 0 0 -282 5783 2101 5 MP stroke
c8
0 309 65 0 0 -309 5847 2101 4 MP
PP
0 sg
-65 0 0 309 65 0 0 -309 5847 2101 5 MP stroke
2444 0 4166 2101 2 MP stroke
gr

%%IncludeResource: font Helvetica
/Helvetica /ISOLatin1Encoding 144 FMSR

5041 2373 mt 
(log) s
%%IncludeResource: font Helvetica
/Helvetica /ISOLatin1Encoding 108 FMSR

5233 2445 mt 
(10) s
%%IncludeResource: font Helvetica
/Helvetica /ISOLatin1Encoding 144 FMSR

5353 2373 mt 
(\(K) s
%%IncludeResource: font Helvetica
/Helvetica /ISOLatin1Encoding 108 FMSR

5497 2445 mt 
(skin) s
%%IncludeResource: font Helvetica
/Helvetica /ISOLatin1Encoding 144 FMSR

5689 2373 mt 
(\)) s
%%IncludeResource: font Helvetica
/Helvetica /ISOLatin1Encoding 108 FMSR

3886 2191 mt  -90 rotate
(Posterior density) s
90 rotate
gs 4166 1479 2445 623 rc
c9
0 -622 5609 2101 2 MP stroke
gr

c9
1 sg
0 622 2444 0 0 -622 950 3203 4 MP
PP
-2444 0 0 622 2444 0 0 -622 950 3203 5 MP stroke
4 w
DO
SO
6 w
0 sg
 950 3203 mt 3394 3203 L
 950 2581 mt 3394 2581 L
 950 3203 mt  950 2581 L
3394 3203 mt 3394 2581 L
 950 3203 mt 3394 3203 L
 950 3203 mt  950 2581 L
 950 3203 mt  950 3178 L
 950 2581 mt  950 2605 L
%%IncludeResource: font Helvetica
/Helvetica /ISOLatin1Encoding 120 FMSR

 797 3348 mt 
(-3.4) s
1561 3203 mt 1561 3178 L
1561 2581 mt 1561 2605 L
1408 3348 mt 
(-3.2) s
2172 3203 mt 2172 3178 L
2172 2581 mt 2172 2605 L
2069 3348 mt 
(-3) s
2782 3203 mt 2782 3178 L
2782 2581 mt 2782 2605 L
2629 3348 mt 
(-2.8) s
3394 3203 mt 3394 3178 L
3394 2581 mt 3394 2605 L
3241 3348 mt 
(-2.6) s
 950 3203 mt  974 3203 L
3394 3203 mt 3369 3203 L
 849 3247 mt 
(0) s
 950 2892 mt  974 2892 L
3394 2892 mt 3369 2892 L
 849 2936 mt 
(5) s
 950 2581 mt  974 2581 L
3394 2581 mt 3369 2581 L
 782 2625 mt 
(10) s
 950 3203 mt 3394 3203 L
 950 2581 mt 3394 2581 L
 950 3203 mt  950 2581 L
3394 3203 mt 3394 2581 L
gs 950 2581 2445 623 rc
c8
0 3 62 0 0 -3 1382 3203 4 MP
PP
0 sg
-62 0 0 3 62 0 0 -3 1382 3203 5 MP stroke
c8
0 4 61 0 0 -4 1444 3203 4 MP
PP
0 sg
-61 0 0 4 61 0 0 -4 1444 3203 5 MP stroke
c8
0 1 62 0 0 -1 1505 3203 4 MP
PP
0 sg
-62 0 0 1 62 0 0 -1 1505 3203 5 MP stroke
c8
0 0 62 0 0 0 1567 3203 4 MP
PP
0 sg
-62 0 0 0 62 0 0 0 1567 3203 5 MP stroke
c8
0 17 61 0 0 -17 1629 3203 4 MP
PP
0 sg
-61 0 0 17 61 0 0 -17 1629 3203 5 MP stroke
c8
0 55 62 0 0 -55 1690 3203 4 MP
PP
0 sg
-62 0 0 55 62 0 0 -55 1690 3203 5 MP stroke
c8
0 24 61 0 0 -24 1752 3203 4 MP
PP
0 sg
-61 0 0 24 61 0 0 -24 1752 3203 5 MP stroke
c8
0 36 62 0 0 -36 1813 3203 4 MP
PP
0 sg
-62 0 0 36 62 0 0 -36 1813 3203 5 MP stroke
c8
0 37 61 0 0 -37 1875 3203 4 MP
PP
0 sg
-61 0 0 37 61 0 0 -37 1875 3203 5 MP stroke
c8
0 29 62 0 0 -29 1936 3203 4 MP
PP
0 sg
-62 0 0 29 62 0 0 -29 1936 3203 5 MP stroke
c8
0 33 61 0 0 -33 1998 3203 4 MP
PP
0 sg
-61 0 0 33 61 0 0 -33 1998 3203 5 MP stroke
c8
0 56 62 0 0 -56 2059 3203 4 MP
PP
0 sg
-62 0 0 56 62 0 0 -56 2059 3203 5 MP stroke
c8
0 49 61 0 0 -49 2121 3203 4 MP
PP
0 sg
-61 0 0 49 61 0 0 -49 2121 3203 5 MP stroke
c8
0 48 62 0 0 -48 2182 3203 4 MP
PP
0 sg
-62 0 0 48 62 0 0 -48 2182 3203 5 MP stroke
c8
0 105 61 0 0 -105 2244 3203 4 MP
PP
0 sg
-61 0 0 105 61 0 0 -105 2244 3203 5 MP stroke
c8
0 105 62 0 0 -105 2305 3203 4 MP
PP
0 sg
-62 0 0 105 62 0 0 -105 2305 3203 5 MP stroke
c8
0 145 61 0 0 -145 2367 3203 4 MP
PP
0 sg
-61 0 0 145 61 0 0 -145 2367 3203 5 MP stroke
c8
0 143 62 0 0 -143 2428 3203 4 MP
PP
0 sg
-62 0 0 143 62 0 0 -143 2428 3203 5 MP stroke
c8
0 223 61 0 0 -223 2490 3203 4 MP
PP
0 sg
-61 0 0 223 61 0 0 -223 2490 3203 5 MP stroke
c8
0 411 62 0 0 -411 2551 3203 4 MP
PP
0 sg
-62 0 0 411 62 0 0 -411 2551 3203 5 MP stroke
c8
0 602 61 0 0 -602 2613 3203 4 MP
PP
0 sg
-61 0 0 602 61 0 0 -602 2613 3203 5 MP stroke
c8
0 574 62 0 0 -574 2674 3203 4 MP
PP
0 sg
-62 0 0 574 62 0 0 -574 2674 3203 5 MP stroke
c8
0 313 61 0 0 -313 2736 3203 4 MP
PP
0 sg
-61 0 0 313 61 0 0 -313 2736 3203 5 MP stroke
c8
0 83 62 0 0 -83 2797 3203 4 MP
PP
0 sg
-62 0 0 83 62 0 0 -83 2797 3203 5 MP stroke
c8
0 7 61 0 0 -7 2859 3203 4 MP
PP
0 sg
-61 0 0 7 61 0 0 -7 2859 3203 5 MP stroke
2444 0 950 3203 2 MP stroke
gr

%%IncludeResource: font Helvetica
/Helvetica /ISOLatin1Encoding 144 FMSR

1920 3475 mt 
(log) s
%%IncludeResource: font Helvetica
/Helvetica /ISOLatin1Encoding 108 FMSR

2112 3547 mt 
(10) s
%%IncludeResource: font Helvetica
/Helvetica /ISOLatin1Encoding 144 FMSR

2232 3475 mt 
(\(K\)) s
%%IncludeResource: font Helvetica
/Helvetica /ISOLatin1Encoding 108 FMSR

 703 3293 mt  -90 rotate
(Posterior density) s
90 rotate
gs 950 2581 2445 623 rc
c9
0 -622 2131 3203 2 MP stroke
gr

c9
1 sg
0 622 2444 0 0 -622 4166 3203 4 MP
PP
-2444 0 0 622 2444 0 0 -622 4166 3203 5 MP stroke
4 w
DO
SO
6 w
0 sg
4166 3203 mt 6610 3203 L
4166 2581 mt 6610 2581 L
4166 3203 mt 4166 2581 L
6610 3203 mt 6610 2581 L
4166 3203 mt 6610 3203 L
4166 3203 mt 4166 2581 L
4166 3203 mt 4166 3178 L
4166 2581 mt 4166 2605 L
%%IncludeResource: font Helvetica
/Helvetica /ISOLatin1Encoding 120 FMSR

4133 3348 mt 
(0) s
4777 3203 mt 4777 3178 L
4777 2581 mt 4777 2605 L
4694 3348 mt 
(0.1) s
5388 3203 mt 5388 3178 L
5388 2581 mt 5388 2605 L
5305 3348 mt 
(0.2) s
5999 3203 mt 5999 3178 L
5999 2581 mt 5999 2605 L
5916 3348 mt 
(0.3) s
6610 3203 mt 6610 3178 L
6610 2581 mt 6610 2605 L
6527 3348 mt 
(0.4) s
4166 3203 mt 4190 3203 L
6610 3203 mt 6585 3203 L
4065 3247 mt 
(0) s
4166 2892 mt 4190 2892 L
6610 2892 mt 6585 2892 L
4065 2936 mt 
(2) s
4166 2581 mt 4190 2581 L
6610 2581 mt 6585 2581 L
4065 2625 mt 
(4) s
4166 3203 mt 6610 3203 L
4166 2581 mt 6610 2581 L
4166 3203 mt 4166 2581 L
6610 3203 mt 6610 2581 L
gs 4166 2581 2445 623 rc
c8
0 55 96 0 0 -55 4194 3203 4 MP
PP
0 sg
-96 0 0 55 96 0 0 -55 4194 3203 5 MP stroke
c8
0 207 97 0 0 -207 4290 3203 4 MP
PP
0 sg
-97 0 0 207 97 0 0 -207 4290 3203 5 MP stroke
c8
0 316 96 0 0 -316 4387 3203 4 MP
PP
0 sg
-96 0 0 316 96 0 0 -316 4387 3203 5 MP stroke
c8
0 276 97 0 0 -276 4483 3203 4 MP
PP
0 sg
-97 0 0 276 97 0 0 -276 4483 3203 5 MP stroke
c8
0 371 97 0 0 -371 4580 3203 4 MP
PP
0 sg
-97 0 0 371 97 0 0 -371 4580 3203 5 MP stroke
c8
0 424 96 0 0 -424 4677 3203 4 MP
PP
0 sg
-96 0 0 424 96 0 0 -424 4677 3203 5 MP stroke
c8
0 371 97 0 0 -371 4773 3203 4 MP
PP
0 sg
-97 0 0 371 97 0 0 -371 4773 3203 5 MP stroke
c8
0 511 96 0 0 -511 4870 3203 4 MP
PP
0 sg
-96 0 0 511 96 0 0 -511 4870 3203 5 MP stroke
c8
0 403 97 0 0 -403 4966 3203 4 MP
PP
0 sg
-97 0 0 403 97 0 0 -403 4966 3203 5 MP stroke
c8
0 416 96 0 0 -416 5063 3203 4 MP
PP
0 sg
-96 0 0 416 96 0 0 -416 5063 3203 5 MP stroke
c8
0 518 97 0 0 -518 5159 3203 4 MP
PP
0 sg
-97 0 0 518 97 0 0 -518 5159 3203 5 MP stroke
c8
0 502 97 0 0 -502 5256 3203 4 MP
PP
0 sg
-97 0 0 502 97 0 0 -502 5256 3203 5 MP stroke
c8
0 506 96 0 0 -506 5353 3203 4 MP
PP
0 sg
-96 0 0 506 96 0 0 -506 5353 3203 5 MP stroke
c8
0 435 97 0 0 -435 5449 3203 4 MP
PP
0 sg
-97 0 0 435 97 0 0 -435 5449 3203 5 MP stroke
c8
0 391 96 0 0 -391 5546 3203 4 MP
PP
0 sg
-96 0 0 391 96 0 0 -391 5546 3203 5 MP stroke
c8
0 420 97 0 0 -420 5642 3203 4 MP
PP
0 sg
-97 0 0 420 97 0 0 -420 5642 3203 5 MP stroke
c8
0 414 96 0 0 -414 5739 3203 4 MP
PP
0 sg
-96 0 0 414 96 0 0 -414 5739 3203 5 MP stroke
c8
0 376 97 0 0 -376 5835 3203 4 MP
PP
0 sg
-97 0 0 376 97 0 0 -376 5835 3203 5 MP stroke
c8
0 405 97 0 0 -405 5932 3203 4 MP
PP
0 sg
-97 0 0 405 97 0 0 -405 5932 3203 5 MP stroke
c8
0 441 96 0 0 -441 6029 3203 4 MP
PP
0 sg
-96 0 0 441 96 0 0 -441 6029 3203 5 MP stroke
c8
0 351 97 0 0 -351 6125 3203 4 MP
PP
0 sg
-97 0 0 351 97 0 0 -351 6125 3203 5 MP stroke
c8
0 473 96 0 0 -473 6222 3203 4 MP
PP
0 sg
-96 0 0 473 96 0 0 -473 6222 3203 5 MP stroke
c8
0 458 97 0 0 -458 6318 3203 4 MP
PP
0 sg
-97 0 0 458 97 0 0 -458 6318 3203 5 MP stroke
c8
0 388 97 0 0 -388 6415 3203 4 MP
PP
0 sg
-97 0 0 388 97 0 0 -388 6415 3203 5 MP stroke
c8
0 419 96 0 0 -419 6512 3203 4 MP
PP
0 sg
-96 0 0 419 96 0 0 -419 6512 3203 5 MP stroke
2444 0 4166 3203 2 MP stroke
gr

%%IncludeResource: font Helvetica
/Helvetica /ISOLatin1Encoding 144 FMSR

5312 3475 mt 
(S) s
%%IncludeResource: font Helvetica
/Helvetica /ISOLatin1Encoding 108 FMSR

5408 3547 mt 
(y) s
3986 3293 mt  -90 rotate
(Posterior density) s
90 rotate
gs 4166 2581 2445 623 rc
c9
0 -622 6610 3203 2 MP stroke
gr

c9
1 sg
0 622 2444 0 0 -622 950 4305 4 MP
PP
-2444 0 0 622 2444 0 0 -622 950 4305 5 MP stroke
4 w
DO
SO
6 w
0 sg
 950 4305 mt 3394 4305 L
 950 3683 mt 3394 3683 L
 950 4305 mt  950 3683 L
3394 4305 mt 3394 3683 L
 950 4305 mt 3394 4305 L
 950 4305 mt  950 3683 L
 950 4305 mt  950 4280 L
 950 3683 mt  950 3707 L
%%IncludeResource: font Helvetica
/Helvetica /ISOLatin1Encoding 120 FMSR

 917 4450 mt 
(0) s
1357 4305 mt 1357 4280 L
1357 3683 mt 1357 3707 L
1324 4450 mt 
(1) s
1764 4305 mt 1764 4280 L
1764 3683 mt 1764 3707 L
1731 4450 mt 
(2) s
2172 4305 mt 2172 4280 L
2172 3683 mt 2172 3707 L
2139 4450 mt 
(3) s
2579 4305 mt 2579 4280 L
2579 3683 mt 2579 3707 L
2546 4450 mt 
(4) s
2986 4305 mt 2986 4280 L
2986 3683 mt 2986 3707 L
2953 4450 mt 
(5) s
3394 4305 mt 3394 4280 L
3394 3683 mt 3394 3707 L
3361 4450 mt 
(6) s
 950 4305 mt  974 4305 L
3394 4305 mt 3369 4305 L
 849 4349 mt 
(0) s
 950 3994 mt  974 3994 L
3394 3994 mt 3369 3994 L
 849 4038 mt 
(2) s
 950 3683 mt  974 3683 L
3394 3683 mt 3369 3683 L
 849 3727 mt 
(4) s
 950 4305 mt 3394 4305 L
 950 3683 mt 3394 3683 L
 950 4305 mt  950 3683 L
3394 4305 mt 3394 3683 L
gs 950 3683 2445 623 rc
c8
0 312 67 0 0 -312 1103 4305 4 MP
PP
0 sg
-67 0 0 312 67 0 0 -312 1103 4305 5 MP stroke
c8
0 557 66 0 0 -557 1170 4305 4 MP
PP
0 sg
-66 0 0 557 66 0 0 -557 1170 4305 5 MP stroke
c8
0 2 67 0 0 -2 1236 4305 4 MP
PP
0 sg
-67 0 0 2 67 0 0 -2 1236 4305 5 MP stroke
c8
0 0 66 0 0 0 1303 4305 4 MP
PP
0 sg
-66 0 0 0 66 0 0 0 1303 4305 5 MP stroke
c8
0 0 67 0 0 0 1369 4305 4 MP
PP
0 sg
-67 0 0 0 67 0 0 0 1369 4305 5 MP stroke
c8
0 0 67 0 0 0 1436 4305 4 MP
PP
0 sg
-67 0 0 0 67 0 0 0 1436 4305 5 MP stroke
c8
0 0 66 0 0 0 1503 4305 4 MP
PP
0 sg
-66 0 0 0 66 0 0 0 1503 4305 5 MP stroke
c8
0 0 67 0 0 0 1569 4305 4 MP
PP
0 sg
-67 0 0 0 67 0 0 0 1569 4305 5 MP stroke
c8
0 0 66 0 0 0 1636 4305 4 MP
PP
0 sg
-66 0 0 0 66 0 0 0 1636 4305 5 MP stroke
c8
0 0 67 0 0 0 1702 4305 4 MP
PP
0 sg
-67 0 0 0 67 0 0 0 1702 4305 5 MP stroke
c8
0 0 67 0 0 0 1769 4305 4 MP
PP
0 sg
-67 0 0 0 67 0 0 0 1769 4305 5 MP stroke
c8
0 0 66 0 0 0 1836 4305 4 MP
PP
0 sg
-66 0 0 0 66 0 0 0 1836 4305 5 MP stroke
c8
0 0 67 0 0 0 1902 4305 4 MP
PP
0 sg
-67 0 0 0 67 0 0 0 1902 4305 5 MP stroke
c8
0 0 66 0 0 0 1969 4305 4 MP
PP
0 sg
-66 0 0 0 66 0 0 0 1969 4305 5 MP stroke
c8
0 0 67 0 0 0 2035 4305 4 MP
PP
0 sg
-67 0 0 0 67 0 0 0 2035 4305 5 MP stroke
c8
0 0 67 0 0 0 2102 4305 4 MP
PP
0 sg
-67 0 0 0 67 0 0 0 2102 4305 5 MP stroke
c8
0 0 66 0 0 0 2169 4305 4 MP
PP
0 sg
-66 0 0 0 66 0 0 0 2169 4305 5 MP stroke
c8
0 0 67 0 0 0 2235 4305 4 MP
PP
0 sg
-67 0 0 0 67 0 0 0 2235 4305 5 MP stroke
c8
0 0 66 0 0 0 2302 4305 4 MP
PP
0 sg
-66 0 0 0 66 0 0 0 2302 4305 5 MP stroke
c8
0 0 67 0 0 0 2368 4305 4 MP
PP
0 sg
-67 0 0 0 67 0 0 0 2368 4305 5 MP stroke
c8
0 0 67 0 0 0 2435 4305 4 MP
PP
0 sg
-67 0 0 0 67 0 0 0 2435 4305 5 MP stroke
c8
0 0 66 0 0 0 2502 4305 4 MP
PP
0 sg
-66 0 0 0 66 0 0 0 2502 4305 5 MP stroke
c8
0 0 67 0 0 0 2568 4305 4 MP
PP
0 sg
-67 0 0 0 67 0 0 0 2568 4305 5 MP stroke
c8
0 24 66 0 0 -24 2635 4305 4 MP
PP
0 sg
-66 0 0 24 66 0 0 -24 2635 4305 5 MP stroke
c8
0 59 67 0 0 -59 2701 4305 4 MP
PP
0 sg
-67 0 0 59 67 0 0 -59 2701 4305 5 MP stroke
2444 0 950 4305 2 MP stroke
gr

%%IncludeResource: font Helvetica
/Helvetica /ISOLatin1Encoding 144 FMSR

1999 4577 mt 
(L) s
%%IncludeResource: font Helvetica
/Helvetica /ISOLatin1Encoding 108 FMSR

2079 4649 mt 
(e,obs) s
 770 4395 mt  -90 rotate
(Posterior density) s
90 rotate
gs 950 3683 2445 623 rc
c9
0 -622 957 4305 2 MP stroke
gr

c9
1 sg
0 622 2444 0 0 -622 4166 4305 4 MP
PP
-2444 0 0 622 2444 0 0 -622 4166 4305 5 MP stroke
4 w
DO
SO
6 w
0 sg
4166 4305 mt 6610 4305 L
4166 3683 mt 6610 3683 L
4166 4305 mt 4166 3683 L
6610 4305 mt 6610 3683 L
4166 4305 mt 6610 4305 L
4166 4305 mt 4166 3683 L
4166 4305 mt 4166 4280 L
4166 3683 mt 4166 3707 L
%%IncludeResource: font Helvetica
/Helvetica /ISOLatin1Encoding 120 FMSR

4133 4450 mt 
(0) s
4654 4305 mt 4654 4280 L
4654 3683 mt 4654 3707 L
4621 4450 mt 
(2) s
5143 4305 mt 5143 4280 L
5143 3683 mt 5143 3707 L
5110 4450 mt 
(4) s
5632 4305 mt 5632 4280 L
5632 3683 mt 5632 3707 L
5599 4450 mt 
(6) s
6121 4305 mt 6121 4280 L
6121 3683 mt 6121 3707 L
6088 4450 mt 
(8) s
6610 4305 mt 6610 4280 L
6610 3683 mt 6610 3707 L
6544 4450 mt 
(10) s
4166 4305 mt 4190 4305 L
6610 4305 mt 6585 4305 L
4065 4349 mt 
(0) s
4166 3994 mt 4190 3994 L
6610 3994 mt 6585 3994 L
3965 4038 mt 
(0.5) s
4166 3683 mt 4190 3683 L
6610 3683 mt 6585 3683 L
4065 3727 mt 
(1) s
4166 4305 mt 6610 4305 L
4166 3683 mt 6610 3683 L
4166 4305 mt 4166 3683 L
6610 4305 mt 6610 3683 L
gs 4166 3683 2445 623 rc
c8
0 4 68 0 0 -4 4529 4305 4 MP
PP
0 sg
-68 0 0 4 68 0 0 -4 4529 4305 5 MP stroke
c8
0 35 67 0 0 -35 4597 4305 4 MP
PP
0 sg
-67 0 0 35 67 0 0 -35 4597 4305 5 MP stroke
c8
0 119 68 0 0 -119 4664 4305 4 MP
PP
0 sg
-68 0 0 119 68 0 0 -119 4664 4305 5 MP stroke
c8
0 261 68 0 0 -261 4732 4305 4 MP
PP
0 sg
-68 0 0 261 68 0 0 -261 4732 4305 5 MP stroke
c8
0 344 68 0 0 -344 4800 4305 4 MP
PP
0 sg
-68 0 0 344 68 0 0 -344 4800 4305 5 MP stroke
c8
0 433 68 0 0 -433 4868 4305 4 MP
PP
0 sg
-68 0 0 433 68 0 0 -433 4868 4305 5 MP stroke
c8
0 312 67 0 0 -312 4936 4305 4 MP
PP
0 sg
-67 0 0 312 67 0 0 -312 4936 4305 5 MP stroke
c8
0 256 68 0 0 -256 5003 4305 4 MP
PP
0 sg
-68 0 0 256 68 0 0 -256 5003 4305 5 MP stroke
c8
0 148 68 0 0 -148 5071 4305 4 MP
PP
0 sg
-68 0 0 148 68 0 0 -148 5071 4305 5 MP stroke
c8
0 81 68 0 0 -81 5139 4305 4 MP
PP
0 sg
-68 0 0 81 68 0 0 -81 5139 4305 5 MP stroke
c8
0 40 68 0 0 -40 5207 4305 4 MP
PP
0 sg
-68 0 0 40 68 0 0 -40 5207 4305 5 MP stroke
c8
0 16 67 0 0 -16 5275 4305 4 MP
PP
0 sg
-67 0 0 16 67 0 0 -16 5275 4305 5 MP stroke
c8
0 4 68 0 0 -4 5342 4305 4 MP
PP
0 sg
-68 0 0 4 68 0 0 -4 5342 4305 5 MP stroke
c8
0 2 68 0 0 -2 5410 4305 4 MP
PP
0 sg
-68 0 0 2 68 0 0 -2 5410 4305 5 MP stroke
c8
0 1 68 0 0 -1 5478 4305 4 MP
PP
0 sg
-68 0 0 1 68 0 0 -1 5478 4305 5 MP stroke
c8
0 2 68 0 0 -2 5546 4305 4 MP
PP
0 sg
-68 0 0 2 68 0 0 -2 5546 4305 5 MP stroke
c8
0 9 68 0 0 -9 5614 4305 4 MP
PP
0 sg
-68 0 0 9 68 0 0 -9 5614 4305 5 MP stroke
c8
0 31 67 0 0 -31 5682 4305 4 MP
PP
0 sg
-67 0 0 31 67 0 0 -31 5682 4305 5 MP stroke
c8
0 45 68 0 0 -45 5749 4305 4 MP
PP
0 sg
-68 0 0 45 68 0 0 -45 5749 4305 5 MP stroke
c8
0 41 68 0 0 -41 5817 4305 4 MP
PP
0 sg
-68 0 0 41 68 0 0 -41 5817 4305 5 MP stroke
c8
0 33 68 0 0 -33 5885 4305 4 MP
PP
0 sg
-68 0 0 33 68 0 0 -33 5885 4305 5 MP stroke
c8
0 18 68 0 0 -18 5953 4305 4 MP
PP
0 sg
-68 0 0 18 68 0 0 -18 5953 4305 5 MP stroke
c8
0 18 67 0 0 -18 6021 4305 4 MP
PP
0 sg
-67 0 0 18 67 0 0 -18 6021 4305 5 MP stroke
c8
0 2 68 0 0 -2 6088 4305 4 MP
PP
0 sg
-68 0 0 2 68 0 0 -2 6088 4305 5 MP stroke
c8
0 1 68 0 0 -1 6156 4305 4 MP
PP
0 sg
-68 0 0 1 68 0 0 -1 6156 4305 5 MP stroke
2444 0 4166 4305 2 MP stroke
gr

%%IncludeResource: font Helvetica
/Helvetica /ISOLatin1Encoding 144 FMSR

5260 4577 mt 
(L) s
%%IncludeResource: font Helvetica
/Helvetica /ISOLatin1Encoding 108 FMSR

5340 4649 mt 
(obs) s
3886 4395 mt  -90 rotate
(Posterior density) s
90 rotate
gs 4166 3683 2445 623 rc
c9
0 -622 4749 4305 2 MP stroke
gr

c9

end %%Color Dict

eplot
%%EndObject

epage
end

showpage

%%Trailer
%%EOF
